DIMENSION : 280
NUMBER OF ITEMS : 2790

TOUR_SECTION
1
2
242
243
244
241
240
239
238
237
236
235
234
233
232
231
246
245
247
250
251
230
229
228
227
226
225
224
223
222
221
220
219
218
217
216
215
214
213
212
211
210
209
252
255
254
253
208
207
206
205
204
203
202
200
144
143
142
141
140
139
149
148
147
146
145
199
198
201
196
195
194
197
193
192
191
190
189
188
187
186
185
184
183
182
181
176
180
179
150
178
177
151
152
156
153
155
154
129
130
131
20
21
128
127
126
30
125
124
123
122
121
120
119
157
158
159
160
175
161
162
163
164
165
166
167
168
169
170
172
171
173
174
107
106
105
104
103
102
101
100
99
98
97
96
95
94
93
92
91
90
89
109
108
110
111
114
115
117
116
86
85
84
87
113
112
88
83
82
81
80
79
78
77
76
75
74
73
72
71
70
69
68
67
66
65
64
58
57
56
55
54
53
52
51
50
49
48
47
46
45
44
59
63
62
118
61
60
43
42
41
40
39
38
37
36
35
34
33
32
31
29
28
27
26
22
25
23
24
14
15
13
12
11
10
9
8
7
6
5
4
277
276
275
274
273
272
271
16
17
18
19
132
133
134
270
269
135
136
268
267
137
138
266
265
264
263
262
261
260
259
258
257
256
249
248
278
279
3
280

PP_SECTION
2
3
4
5
0
0
0
0
0
0
0
0
0
0
0
0
0
19
20
21
22
0
0
0
0
0
0
0
0
0
0
0
0
0
0
0
0
0
0
0
0
0
44
0
0
0
0
0
50
51
52
0
0
0
0
57
0
0
0
0
62
0
0
0
66
67
68
69
0
0
0
0
0
0
0
0
0
0
0
0
0
0
0
85
86
87
88
0
0
0
0
0
0
0
0
0
0
0
0
0
0
0
0
0
0
107
108
109
0
0
0
0
0
0
0
0
0
0
0
0
0
0
0
0
0
0
0
0
0
0
0
0
0
0
0
0
0
0
0
0
0
0
0
0
0
0
0
0
0
0
0
0
0
0
0
0
0
0
0
0
0
0
0
0
0
167
168
0
0
0
0
0
0
0
0
0
0
0
0
0
182
183
0
0
0
0
0
0
0
0
0
0
0
0
0
0
0
0
0
0
0
0
0
0
0
0
0
0
0
0
0
0
214
215
216
217
0
0
0
221
222
0
0
0
0
0
0
0
0
0
0
0
0
0
0
0
0
0
0
0
0
0
0
0
0
0
248
249
0
0
0
0
0
0
256
257
258
259
260
0
262
263
0
0
0
0
0
0
0
0
0
0
0
0
0
0
278
279
280
0
3
0
0
0
0
0
0
10
11
12
13
0
0
0
17
18
0
0
21
22
23
24
25
26
27
28
0
0
0
0
0
0
0
0
0
0
39
40
41
42
43
44
45
0
0
0
0
0
51
52
53
54
0
0
0
0
0
0
0
62
63
64
0
0
0
0
0
0
0
0
0
0
0
0
0
0
0
0
0
0
0
0
0
0
0
0
89
90
91
0
0
0
0
0
0
0
0
0
0
0
0
0
0
0
0
0
0
0
0
0
0
0
0
0
0
0
0
0
0
0
0
0
0
0
0
128
129
0
0
0
133
134
135
136
137
138
0
0
0
0
0
0
0
0
0
0
0
0
0
0
0
0
0
156
157
158
159
0
0
0
0
0
0
0
0
0
0
0
0
0
0
0
0
0
0
0
0
0
0
182
183
184
185
186
187
188
0
0
0
0
0
0
195
196
197
0
0
0
0
0
0
0
0
0
0
0
0
0
0
0
0
0
0
216
217
218
219
0
0
0
0
224
0
0
0
228
229
230
231
0
0
0
0
0
0
0
0
0
0
0
0
0
0
0
0
248
249
250
0
0
0
0
0
256
257
258
259
260
261
262
0
0
0
0
0
0
0
0
0
0
0
0
0
0
0
278
279
280
0
3
4
5
6
0
0
0
0
0
12
13
14
0
0
0
0
0
0
0
22
23
24
0
0
0
0
0
0
0
0
0
0
0
0
0
0
0
0
0
0
43
44
45
46
0
0
49
50
51
52
53
0
0
0
0
0
0
0
0
0
0
0
0
0
0
0
0
0
0
0
0
0
0
0
77
78
79
80
0
0
0
0
0
0
0
0
0
0
0
0
0
0
95
96
97
0
0
0
0
0
0
104
105
0
0
0
0
0
0
0
0
0
0
0
0
118
0
0
0
0
0
0
0
0
0
0
0
0
0
0
0
0
0
0
0
0
0
0
0
0
0
0
0
0
0
0
0
0
0
0
153
154
0
0
0
0
0
0
0
0
0
0
0
166
167
168
0
0
0
0
0
0
0
0
0
0
179
0
0
0
0
0
0
0
0
0
0
0
0
0
0
0
195
196
197
198
199
0
0
0
0
0
0
0
0
0
0
0
0
0
0
0
0
0
0
0
0
0
0
0
0
0
0
0
0
0
0
230
231
232
233
0
0
236
237
238
0
0
0
0
0
0
0
0
0
248
249
0
0
0
0
0
0
256
257
258
259
260
261
262
263
264
265
266
267
268
0
0
271
0
0
0
0
0
0
278
279
280
0
3
0
0
0
0
0
0
0
0
12
0
0
0
0
17
18
19
0
0
0
0
0
0
0
0
0
0
30
0
0
0
0
0
0
0
0
0
0
0
0
0
0
0
0
0
0
0
0
0
0
0
0
0
0
0
0
0
0
61
62
0
0
65
66
67
68
0
0
0
0
0
0
0
0
0
0
0
0
0
0
0
0
0
0
0
0
0
90
91
92
93
94
95
96
97
98
99
0
0
0
0
0
0
0
0
0
0
0
0
0
0
0
0
0
0
0
0
0
0
0
0
0
0
0
0
0
0
130
131
0
0
0
135
136
137
138
0
0
0
0
0
0
0
0
0
148
149
0
0
0
0
0
0
0
0
0
0
0
0
0
0
0
165
166
167
168
0
0
0
0
0
0
0
176
177
178
179
0
0
0
0
0
0
0
0
0
189
0
0
0
0
0
0
0
0
0
0
0
0
0
0
0
0
0
0
0
0
0
0
0
213
214
215
216
217
218
219
220
0
0
0
0
0
0
0
0
0
0
0
0
0
0
0
0
0
0
0
0
0
0
0
0
0
0
0
248
249
0
0
0
0
0
0
256
257
258
259
260
261
262
263
264
265
266
0
0
0
270
271
272
273
274
0
0
0
278
279
280
0
3
0
0
0
0
0
0
0
0
0
0
0
0
0
0
0
0
0
0
0
0
24
25
26
27
28
29
30
31
32
33
34
0
0
0
38
39
40
41
42
43
0
0
0
47
48
0
0
0
0
0
0
0
0
0
0
0
60
61
62
63
64
65
66
67
68
69
70
71
72
73
74
0
0
0
0
0
0
0
0
0
0
0
0
0
0
0
0
0
0
0
0
0
0
0
0
0
0
0
0
0
0
0
0
0
0
0
0
0
0
0
0
0
0
0
118
0
0
0
0
0
0
0
0
0
0
0
0
0
0
0
0
0
0
137
138
0
0
0
0
0
0
0
0
0
148
149
150
0
0
0
0
0
0
0
0
0
0
161
162
163
164
0
0
0
0
169
170
171
172
0
0
0
0
0
0
0
0
0
0
0
0
0
186
187
188
0
0
0
0
0
0
0
0
0
0
0
0
0
0
0
0
0
0
0
0
0
0
0
0
0
0
0
0
0
0
0
0
0
0
0
0
0
226
227
228
229
230
231
232
0
0
0
0
0
0
0
0
0
0
0
0
0
0
0
248
249
0
0
0
0
0
0
256
257
258
259
260
261
262
263
264
265
266
0
0
0
0
271
272
273
274
275
276
0
278
279
280
0
3
0
0
0
0
0
0
0
0
0
0
0
0
0
17
0
0
0
0
0
0
0
25
26
27
0
0
0
0
32
33
34
35
36
0
0
0
0
0
0
0
0
0
0
0
0
0
0
0
52
53
54
0
0
0
0
0
0
0
62
63
0
65
66
67
0
0
0
0
0
0
0
0
0
0
0
0
0
0
0
0
0
0
0
0
0
0
0
0
0
0
0
0
0
97
0
0
0
0
102
103
0
105
106
0
0
0
0
0
0
0
0
0
0
0
0
0
0
121
122
0
0
0
126
127
0
0
0
0
132
133
134
135
0
0
0
0
0
0
0
0
0
0
0
0
0
0
0
0
0
0
0
0
0
0
0
0
0
0
0
0
0
0
0
0
0
169
170
0
0
0
0
0
0
0
0
0
0
0
0
0
0
0
0
0
0
0
0
0
0
0
194
195
196
197
0
0
0
0
0
0
0
0
0
0
0
0
0
0
0
0
0
0
0
0
218
0
0
0
0
0
0
0
0
0
0
0
0
231
232
233
234
0
0
0
0
0
0
241
0
0
0
0
0
0
248
249
0
0
0
0
0
0
256
257
258
259
260
261
262
0
0
265
266
267
268
269
270
271
272
273
274
275
0
0
278
279
280
0
3
0
0
0
0
0
9
10
0
0
0
0
0
0
0
0
19
0
0
0
23
24
25
26
0
0
29
30
31
32
33
34
35
36
37
38
39
0
0
0
0
0
45
46
47
0
0
0
0
0
0
0
0
0
0
0
0
60
61
62
0
0
0
0
0
0
0
0
0
0
0
0
0
0
0
0
0
0
0
0
0
0
0
0
0
0
0
0
0
0
0
0
0
0
0
0
0
0
0
0
0
0
0
106
107
108
109
110
111
112
113
0
0
0
0
0
0
0
0
0
123
124
125
126
0
0
0
0
0
0
0
0
0
136
137
138
0
0
0
0
0
0
0
0
0
148
149
150
151
0
0
0
0
0
0
0
0
0
0
0
0
0
165
166
167
168
0
0
0
0
0
0
0
0
0
0
0
0
0
0
0
0
0
0
0
0
0
0
0
0
0
0
0
0
0
0
0
0
0
0
203
204
205
206
207
0
0
0
0
0
0
0
0
0
0
0
0
0
0
0
0
0
0
0
0
0
0
0
0
0
0
0
0
0
0
0
0
0
0
0
0
0
0
0
0
248
249
0
0
0
0
0
0
256
257
258
259
260
261
262
263
264
265
266
267
268
269
270
271
0
0
274
0
0
0
278
279
280
0
3
4
5
6
0
0
0
0
0
0
0
0
0
0
0
0
0
0
0
0
0
0
25
26
27
0
0
0
0
0
0
0
0
0
0
0
0
0
0
0
0
0
0
0
0
0
0
0
0
0
0
0
0
0
0
0
0
0
0
0
0
0
0
0
0
0
0
0
0
0
0
0
0
0
77
78
79
80
81
82
83
84
85
86
87
0
0
0
0
0
0
0
0
0
0
0
0
0
0
0
103
0
0
0
0
0
0
0
0
0
0
114
115
116
117
118
119
120
0
0
0
0
0
126
127
128
0
0
0
132
133
134
135
136
0
0
0
0
0
0
0
144
145
0
0
0
0
0
0
0
0
0
0
0
0
0
0
0
0
0
0
0
0
0
0
0
0
0
0
0
0
0
0
0
0
0
179
180
181
182
183
0
0
0
0
0
189
190
191
0
0
0
0
196
197
198
0
0
0
0
0
0
0
0
0
0
0
0
0
0
0
0
0
0
0
218
219
220
221
0
0
0
0
0
0
0
0
0
0
0
233
0
0
0
0
0
0
0
0
0
0
0
0
0
0
248
249
0
0
0
0
0
0
256
257
258
259
260
261
262
0
0
265
266
267
0
0
0
0
0
0
0
0
0
0
278
279
280
0
3
0
0
0
0
0
0
0
0
0
0
0
0
16
17
18
19
20
21
0
0
0
0
0
0
0
0
0
0
0
0
0
0
0
0
38
39
40
41
42
43
44
0
0
0
48
49
50
0
0
0
0
0
0
0
0
0
0
0
0
0
0
0
0
0
0
0
0
0
0
0
0
0
0
0
0
0
0
0
0
0
0
0
0
0
0
0
0
0
0
0
0
0
0
0
98
99
100
0
0
0
0
0
0
107
108
109
0
0
0
0
0
0
0
0
0
0
0
0
0
0
0
0
0
0
0
0
0
0
0
0
0
135
136
0
0
0
0
0
0
0
0
0
0
0
0
0
0
0
0
0
0
0
0
0
0
0
0
0
0
0
0
0
0
0
0
0
170
171
172
173
174
175
176
177
178
0
0
0
0
0
0
0
0
0
0
0
0
0
0
0
0
0
0
0
0
0
200
201
202
203
0
0
0
0
0
0
0
0
0
0
0
0
0
0
0
0
0
0
0
0
0
0
0
0
0
0
0
0
0
0
0
0
0
237
238
239
0
0
0
0
0
0
0
0
248
249
0
0
0
0
0
0
256
257
258
259
260
261
0
263
264
265
266
267
0
269
270
271
0
0
0
0
0
0
278
279
280
0
3
0
0
0
0
0
0
0
0
0
0
0
0
16
0
0
0
0
21
22
23
24
25
26
27
28
0
0
0
0
0
0
0
0
0
0
0
0
41
0
0
0
0
0
0
48
49
50
0
0
0
0
0
0
0
0
0
0
61
62
63
64
0
0
0
0
0
0
0
0
0
0
0
0
0
0
0
80
81
0
0
0
0
0
0
0
0
0
0
0
0
0
0
0
0
0
0
0
0
0
0
0
0
0
0
0
0
0
0
0
0
0
0
116
117
118
0
0
0
0
0
0
0
0
0
0
0
0
0
0
0
0
0
136
137
0
0
0
0
0
0
0
0
0
0
0
0
0
0
0
0
0
0
0
0
0
0
0
0
0
0
0
0
0
0
0
0
0
0
0
0
0
0
0
0
0
179
180
181
0
0
0
0
0
0
0
0
0
0
0
0
0
0
0
0
0
0
0
0
0
0
0
0
0
0
0
0
0
0
0
0
0
0
0
0
0
0
0
0
0
0
0
0
0
0
0
0
0
0
0
0
0
0
0
0
0
0
0
0
0
0
0
0
0
0
248
249
0
251
252
253
254
0
256
257
258
259
260
261
262
263
264
265
266
267
0
0
0
0
0
0
274
275
276
277
278
279
280
EOF
