DIMENSION : 280
NUMBER OF ITEMS : 2790

TOUR_SECTION
1
280
3
279
278
248
249
256
255
254
257
258
259
260
261
262
263
264
265
266
140
141
142
147
148
149
139
138
137
267
268
136
135
269
270
134
133
132
19
18
17
16
271
272
273
274
275
276
277
4
5
6
7
9
8
10
11
12
15
13
14
24
23
25
22
26
27
28
29
30
31
32
33
34
35
36
37
38
39
40
41
42
43
60
61
118
62
63
59
44
45
46
47
48
49
50
51
52
53
54
55
56
57
58
64
65
66
67
68
69
70
71
72
73
74
76
75
77
78
79
80
81
82
83
84
85
86
116
117
115
114
113
87
88
112
111
110
108
109
89
90
91
92
93
94
95
96
97
98
99
100
101
102
103
104
105
106
107
174
173
171
172
170
169
168
167
166
165
164
163
162
161
175
160
159
158
157
119
120
121
122
123
124
125
126
127
128
21
20
131
130
129
154
155
153
156
152
151
177
178
150
179
180
176
181
182
183
184
185
186
187
188
189
190
191
192
193
194
195
196
197
198
199
145
146
143
144
200
201
202
203
204
205
206
207
208
253
252
209
210
211
212
213
214
215
216
217
218
219
220
221
222
223
224
225
226
227
228
229
230
251
250
247
245
246
231
232
233
234
235
236
237
238
239
240
241
244
243
242
2

PP_SECTION
2
3
4
5
0
0
0
9
10
11
0
0
0
0
0
0
0
19
20
21
22
23
24
25
0
0
28
29
30
31
32
33
34
35
36
37
0
0
0
0
0
0
44
45
46
47
48
49
50
51
52
53
54
55
56
57
58
59
60
61
62
63
64
65
66
67
68
69
70
71
72
73
74
75
76
77
78
79
80
81
82
83
84
85
86
87
88
89
90
91
92
93
94
95
96
97
98
99
100
101
102
103
104
105
106
107
108
109
110
111
112
113
114
115
116
117
118
119
120
121
122
123
124
125
126
127
128
129
130
131
0
0
0
0
0
0
0
0
140
141
142
143
144
145
146
0
0
0
150
151
152
153
154
155
156
157
158
159
160
161
162
163
164
165
166
167
168
169
170
171
172
173
174
175
176
177
178
179
180
181
182
183
184
185
186
187
188
189
190
191
192
193
194
195
196
197
198
199
200
201
202
203
204
205
206
207
208
209
210
211
212
213
214
215
216
217
218
219
220
221
222
223
224
225
226
227
228
229
230
231
232
233
234
235
236
237
238
239
240
241
242
243
244
245
246
247
0
249
250
251
252
253
0
0
256
257
258
0
0
0
0
0
0
0
0
0
0
0
0
0
0
0
0
0
0
0
0
0
280
2
3
0
0
0
0
0
0
10
11
12
13
14
0
0
17
18
19
20
21
22
23
24
25
26
27
28
0
0
0
0
33
34
35
36
37
38
39
40
41
42
43
44
45
0
0
48
49
50
51
52
53
54
55
56
57
58
59
60
61
62
63
64
65
66
67
68
69
70
71
72
73
74
75
76
77
78
79
80
81
82
83
84
85
86
87
88
89
90
91
92
93
94
95
96
97
98
99
100
101
102
103
104
105
106
107
108
109
110
111
112
113
114
115
116
117
118
119
120
121
122
123
124
125
126
127
128
129
130
131
0
133
134
135
136
137
138
139
140
0
0
143
144
145
146
0
148
149
150
151
152
153
154
155
156
157
158
159
160
161
162
163
164
165
166
167
168
169
170
171
172
173
174
175
176
177
178
179
180
181
182
183
184
185
186
187
188
189
190
191
192
193
194
195
196
197
198
199
200
201
202
203
204
205
206
207
208
209
210
211
212
213
214
215
216
217
218
219
220
221
222
223
224
225
226
227
228
229
230
231
232
233
234
235
236
237
238
239
240
241
242
243
244
245
246
247
248
249
250
251
252
253
0
0
0
0
0
259
260
261
262
0
0
0
0
0
0
0
0
0
0
0
0
0
0
0
0
0
0
2
0
4
5
6
0
0
0
0
0
12
13
14
0
0
0
0
0
20
21
22
23
24
0
0
0
28
29
30
31
0
0
0
0
0
0
38
39
40
41
42
43
44
45
46
0
0
49
50
51
52
53
54
55
56
57
58
0
0
0
62
63
64
65
66
67
68
69
70
71
72
73
74
75
76
77
78
79
80
81
82
83
84
85
86
87
88
89
90
91
92
93
94
95
96
97
98
99
100
101
102
103
104
105
106
107
108
109
110
111
112
113
114
115
116
117
118
119
120
121
122
123
124
125
126
127
128
129
130
131
0
0
0
0
0
0
0
0
0
141
142
143
144
145
146
0
0
0
150
151
152
153
154
155
156
157
158
159
160
161
162
163
164
165
166
167
168
169
170
171
172
173
174
175
176
177
178
179
180
181
182
183
184
185
186
187
188
189
190
191
192
193
194
195
196
197
198
199
200
201
202
203
204
205
206
207
208
209
210
211
212
213
214
215
216
217
218
219
220
221
222
223
224
225
226
227
228
229
230
231
232
233
234
235
236
237
238
239
240
241
242
243
244
245
246
247
0
0
250
251
252
253
0
0
0
0
258
259
260
0
0
0
0
0
0
267
268
0
0
271
0
0
0
0
0
0
0
0
0
2
0
0
0
0
0
8
9
10
11
12
13
0
0
0
17
18
19
20
21
22
23
24
25
26
27
28
29
30
31
32
33
34
35
36
37
38
39
40
41
42
43
44
45
0
0
0
49
50
51
52
0
0
0
0
57
58
0
60
61
62
0
64
65
66
67
68
69
70
71
72
73
74
75
76
77
78
79
80
81
82
83
84
85
86
87
88
89
90
91
92
93
94
95
96
97
98
99
100
101
102
103
104
105
106
107
108
109
110
111
112
113
114
115
116
117
118
119
120
121
122
123
124
125
126
127
128
129
130
131
0
0
0
0
0
0
0
0
0
0
0
143
144
145
146
0
148
149
150
151
152
153
154
155
156
157
158
159
160
161
162
163
164
165
166
167
168
169
170
171
172
173
174
175
176
177
178
179
180
181
182
183
184
185
186
187
188
189
190
191
192
193
194
195
196
197
198
199
200
201
202
203
204
205
206
207
208
209
210
211
212
213
214
215
216
217
218
219
220
221
222
223
224
225
226
227
228
229
230
231
232
233
234
235
236
237
238
239
240
241
242
243
244
245
246
247
0
0
250
251
252
253
0
255
256
257
258
0
0
0
0
263
264
265
266
0
0
0
270
271
272
273
274
0
0
0
0
0
0
2
0
4
5
0
0
0
0
0
0
0
0
0
0
0
0
0
0
20
21
0
0
24
25
26
27
28
29
30
31
32
33
34
35
36
37
38
39
40
41
42
43
0
0
0
47
48
49
50
51
52
53
54
55
56
57
58
59
60
61
62
63
64
65
66
67
68
69
70
71
72
73
74
75
76
77
78
79
80
81
82
83
84
85
86
87
88
89
90
91
92
93
94
95
96
97
98
99
100
101
102
103
104
105
106
107
108
109
110
111
112
113
114
115
116
117
118
119
120
121
122
123
124
125
126
127
128
129
130
131
0
0
0
0
0
0
0
0
0
0
0
143
144
145
146
147
148
149
150
151
152
153
154
155
156
157
158
159
160
161
162
163
164
165
166
167
168
169
170
171
172
173
174
175
176
177
178
179
180
181
182
183
184
185
186
187
188
189
190
191
192
193
194
195
196
197
198
199
200
201
202
203
204
205
206
207
208
209
210
211
212
213
214
215
216
217
218
219
220
221
222
223
224
225
226
227
228
229
230
231
232
233
234
235
236
237
238
239
240
241
242
243
244
245
246
247
248
249
250
251
252
253
0
0
0
257
258
259
0
0
0
263
264
265
266
0
0
0
0
271
272
273
274
275
276
0
0
0
0
2
0
0
0
0
0
0
0
0
0
0
0
0
0
0
17
0
0
20
21
22
23
24
25
26
27
0
0
0
0
32
33
34
35
36
0
0
0
0
41
42
43
44
45
46
47
48
0
0
0
52
53
54
55
56
57
58
59
60
61
62
63
64
65
66
67
68
69
70
71
72
73
74
75
76
77
78
79
80
81
82
83
84
85
86
87
88
89
90
91
92
93
94
95
96
97
98
99
100
101
102
103
104
105
106
107
108
109
110
111
112
113
114
115
116
117
118
119
120
121
122
123
124
125
126
127
128
129
130
131
132
133
134
135
0
0
0
0
0
0
0
143
144
145
146
0
0
0
150
151
152
153
154
155
156
157
158
159
160
161
162
163
164
165
166
167
168
169
170
171
172
173
174
175
176
177
178
179
180
181
182
183
184
185
186
187
188
189
190
191
192
193
194
195
196
197
198
199
200
201
202
203
204
205
206
207
208
209
210
211
212
213
214
215
216
217
218
219
220
221
222
223
224
225
226
227
228
229
230
231
232
233
234
235
236
237
238
239
240
241
242
243
244
245
246
247
0
0
250
251
252
253
254
255
0
0
0
0
260
261
0
0
0
265
266
267
268
269
270
271
272
273
274
275
276
277
278
0
0
2
0
0
0
6
7
8
9
10
0
0
0
0
0
0
0
0
19
20
21
22
23
24
25
26
27
28
29
30
31
32
33
34
35
36
37
38
39
40
41
42
43
44
45
46
47
48
49
50
51
52
53
54
55
56
57
58
59
60
61
62
0
64
65
66
67
68
69
70
71
72
73
74
75
76
77
78
79
80
81
82
83
84
85
86
87
88
89
90
91
92
93
94
95
96
97
98
99
100
101
102
103
104
105
106
107
108
109
110
111
112
113
114
115
116
117
118
119
120
121
122
123
124
125
126
127
128
129
130
131
0
0
0
0
136
137
138
139
0
0
0
143
144
145
146
0
148
149
150
151
152
153
154
155
156
157
158
159
160
161
162
163
164
165
166
167
168
169
170
171
172
173
174
175
176
177
178
179
180
181
182
183
184
185
186
187
188
189
190
191
192
193
194
195
196
197
198
199
200
201
202
203
204
205
206
207
208
209
210
211
212
213
214
215
216
217
218
219
220
221
222
223
224
225
226
227
228
229
230
231
232
233
234
235
236
237
238
239
240
241
242
243
244
245
246
247
0
0
250
251
252
253
0
0
0
257
0
0
260
261
262
263
264
265
266
267
268
269
270
271
0
0
274
275
0
0
278
279
280
2
3
4
5
6
7
8
9
0
0
0
0
0
0
0
0
0
0
20
21
0
0
0
25
26
27
28
29
30
0
0
0
0
0
0
0
0
0
0
0
42
43
44
45
46
47
48
49
50
51
52
53
54
55
56
57
0
0
0
0
62
63
64
65
66
67
68
69
70
71
72
73
74
75
76
77
78
79
80
81
82
83
84
85
86
87
88
89
90
91
92
93
94
95
96
97
98
99
100
101
102
103
104
105
106
107
108
109
110
111
112
113
114
115
116
117
118
119
120
121
122
123
124
125
126
127
128
129
130
131
132
133
134
135
136
0
0
0
0
0
0
143
144
145
146
0
0
0
150
151
152
153
154
155
156
157
158
159
160
161
162
163
164
165
166
167
168
169
170
171
172
173
174
175
176
177
178
179
180
181
182
183
184
185
186
187
188
189
190
191
192
193
194
195
196
197
198
199
200
201
202
203
204
205
206
207
208
209
210
211
212
213
214
215
216
217
218
219
220
221
222
223
224
225
226
227
228
229
230
231
232
233
234
235
236
237
238
239
240
241
242
243
244
245
246
247
0
0
250
251
252
253
254
255
256
257
258
259
0
0
0
0
0
265
266
267
0
0
0
0
0
0
0
0
0
0
0
0
0
2
0
4
0
0
0
0
9
10
11
12
13
14
15
16
17
18
19
20
21
22
23
24
25
0
0
0
0
0
0
32
33
34
0
0
0
38
39
40
41
42
43
44
0
0
0
48
49
50
51
52
53
54
55
0
0
0
59
60
61
0
0
64
65
66
67
68
69
70
71
72
73
74
75
76
77
78
79
80
81
82
83
84
85
86
87
88
89
90
91
92
93
94
95
96
97
98
99
100
101
102
103
104
105
106
107
108
109
110
111
112
113
114
115
116
117
0
119
120
121
122
123
124
125
126
127
128
129
130
131
0
0
0
135
136
0
0
0
0
0
0
143
144
145
146
0
0
0
150
151
152
153
154
155
156
157
158
159
160
161
162
163
164
165
166
167
168
169
170
171
172
173
174
175
176
177
178
179
180
181
182
183
184
185
186
187
188
189
190
191
192
193
194
195
196
197
198
199
200
201
202
203
204
205
206
207
208
209
210
211
212
213
214
215
216
217
218
219
220
221
222
223
224
225
226
227
228
229
230
231
232
233
234
235
236
237
238
239
240
241
242
243
244
245
246
247
248
249
250
251
252
253
0
0
0
0
0
0
0
0
0
263
264
265
266
267
0
269
270
271
0
0
0
0
276
0
0
0
0
2
0
0
5
6
0
0
0
0
0
0
0
14
15
16
0
0
0
20
21
22
23
24
25
26
27
28
29
30
31
32
33
34
0
0
0
38
39
40
41
42
43
44
45
0
0
48
49
50
0
0
0
0
55
56
57
58
0
0
61
62
63
64
65
66
67
68
69
70
71
72
73
74
75
76
77
78
79
80
81
82
83
84
85
86
87
88
89
90
91
92
93
94
95
96
97
98
99
100
101
102
103
104
105
106
107
108
109
110
111
112
113
114
115
116
117
118
119
120
121
122
123
124
125
126
127
128
129
130
131
0
0
0
0
136
137
0
0
0
0
0
143
144
145
146
0
0
0
150
151
152
153
154
155
156
157
158
159
160
161
162
163
164
165
166
167
168
169
170
171
172
173
174
175
176
177
178
179
180
181
182
183
184
185
186
187
188
189
190
191
192
193
194
195
196
197
198
199
200
201
202
203
204
205
206
207
208
209
210
211
212
213
214
215
216
217
218
219
220
221
222
223
224
225
226
227
228
229
230
231
232
233
234
235
236
237
238
239
240
241
242
243
244
245
246
247
0
0
250
251
252
253
254
0
0
0
258
259
260
261
262
263
264
265
266
267
0
0
0
0
0
0
274
275
276
277
278
279
280
EOF
