DIMENSION : 280
NUMBER OF ITEMS : 279

TOUR_SECTION
1
2
242
243
244
241
240
239
238
237
236
235
234
233
232
231
246
245
247
250
251
230
229
228
227
226
225
224
223
222
221
220
219
218
217
216
215
214
213
212
211
210
209
252
253
208
207
206
205
204
203
202
201
200
144
143
146
145
199
198
197
196
195
194
193
192
191
190
189
188
187
186
185
184
183
182
181
176
180
179
150
178
177
151
152
156
153
155
154
129
130
131
132
19
20
21
128
127
126
125
124
123
122
121
120
119
157
158
159
160
175
161
162
163
164
165
166
167
168
169
170
172
171
173
174
107
106
105
104
103
102
101
100
99
98
97
96
95
94
93
92
91
90
89
109
108
110
111
112
88
87
113
114
115
117
116
86
85
84
83
82
81
80
79
78
77
75
76
74
73
72
71
70
69
68
67
66
65
64
58
57
56
55
54
53
52
51
50
49
48
47
46
45
44
59
63
62
118
61
60
43
42
41
40
39
38
37
36
35
34
33
32
31
30
29
28
27
26
22
25
23
24
14
15
13
12
11
10
8
9
7
6
5
4
277
276
275
274
273
272
271
16
17
18
133
134
270
269
135
136
268
267
137
138
139
149
148
147
142
141
140
266
265
264
263
262
261
260
259
258
257
254
255
256
249
248
278
279
3
280

PP_SECTION
0
3
4
5
6
7
0
9
10
11
12
13
14
15
0
17
18
0
20
0
22
0
0
25
26
27
28
29
0
31
32
33
0
0
36
0
38
39
40
41
42
0
44
0
46
47
48
49
50
51
0
53
0
0
56
57
0
59
60
61
62
63
0
65
66
67
68
69
70
71
72
73
74
0
0
77
0
0
80
81
82
83
84
85
86
87
0
0
90
91
92
93
94
95
96
97
0
99
100
0
102
0
104
0
0
0
108
0
0
0
0
113
114
0
116
117
0
119
120
121
122
123
124
0
0
0
128
129
130
131
132
133
134
135
136
137
138
139
140
141
142
143
0
0
0
147
148
149
150
0
0
0
0
155
156
157
158
159
160
0
0
163
164
0
166
0
168
0
170
171
0
173
0
175
0
0
178
0
180
181
0
0
184
185
0
0
188
189
190
191
192
0
194
195
0
197
198
0
0
201
202
203
204
205
0
0
208
0
0
0
212
213
214
0
0
217
218
0
0
0
222
223
0
0
226
227
0
0
230
231
232
0
234
0
236
0
0
239
240
0
0
243
244
0
246
0
248
249
0
0
252
0
254
255
256
257
258
259
260
261
0
0
264
265
266
267
268
269
270
271
0
273
0
275
276
0
278
279
280
EOF
