DIMENSION : 280
NUMBER OF ITEMS : 2790

TOUR_SECTION
1
2
242
243
241
240
239
238
237
236
235
234
233
232
231
246
245
244
247
250
251
230
229
228
227
226
225
224
223
222
221
220
219
218
217
216
215
214
213
212
211
210
209
252
255
254
253
208
207
206
205
204
203
202
200
144
143
146
145
199
198
201
196
195
194
197
193
192
191
190
189
188
187
186
185
184
183
182
181
176
180
179
150
178
177
151
152
156
153
155
154
129
130
21
128
127
126
125
124
123
122
121
120
119
157
158
159
160
175
161
162
163
164
165
166
167
168
169
170
171
172
173
174
107
106
105
104
103
102
101
100
99
98
97
96
95
94
93
92
91
90
89
109
108
110
111
112
88
87
113
114
115
117
116
86
85
84
83
82
81
80
79
78
77
76
75
74
73
72
71
70
69
68
67
66
65
64
58
57
56
55
54
53
52
51
50
49
48
47
46
45
44
59
63
62
118
61
60
43
42
41
40
39
38
37
36
35
34
33
32
31
30
29
28
27
26
22
25
23
24
14
13
15
12
11
10
9
8
7
6
5
4
277
276
275
274
273
272
271
16
17
18
19
20
131
132
133
134
270
269
135
136
268
267
137
138
139
149
148
147
142
141
140
266
265
264
263
262
261
260
259
258
257
256
249
248
278
279
3
280

PP_SECTION
2
3
4
5
6
7
8
9
10
11
12
13
14
15
16
17
18
19
20
21
22
23
24
25
26
27
28
29
30
31
32
33
34
35
36
37
38
0
0
41
42
43
44
45
46
47
48
49
50
51
52
53
54
0
0
57
58
59
60
61
62
63
64
65
66
67
68
69
0
0
0
0
0
0
0
0
78
79
80
0
0
0
0
85
86
87
88
89
90
91
92
0
0
0
0
0
0
0
100
101
102
103
104
105
0
107
108
109
0
0
0
0
0
0
0
117
118
0
0
0
0
0
0
0
126
127
128
129
0
131
132
133
134
135
136
137
138
139
140
141
142
0
0
0
0
147
148
149
150
151
152
153
0
0
0
0
158
159
160
161
162
0
0
0
0
167
168
0
0
0
0
0
0
0
0
0
0
0
0
0
182
183
0
0
0
0
0
0
0
0
0
0
0
0
0
0
0
0
0
0
0
0
0
0
0
0
0
0
0
211
212
213
214
215
216
217
0
0
0
221
222
223
224
225
226
0
0
0
0
0
0
0
0
0
0
0
0
0
0
0
0
0
0
0
0
0
248
249
0
0
0
0
0
0
256
257
258
259
260
261
262
263
264
265
266
267
268
269
270
271
272
273
274
275
276
277
278
279
280
0
3
4
5
6
7
8
9
10
11
12
13
14
15
16
17
18
19
20
21
22
23
24
25
26
27
28
29
30
31
32
33
34
35
36
37
38
39
40
41
42
43
44
45
0
0
48
49
50
51
52
53
54
55
56
57
58
59
60
61
62
63
64
0
0
0
0
0
0
0
0
0
0
0
0
0
0
0
0
0
0
0
0
0
86
87
88
89
90
91
0
0
0
0
0
0
0
0
0
0
0
0
0
0
106
107
108
0
0
0
0
0
0
0
0
117
118
119
120
121
122
123
124
125
0
0
128
129
0
131
132
133
134
135
136
137
138
139
140
141
142
0
0
0
0
147
148
149
0
0
0
0
154
0
156
157
158
159
160
161
162
0
0
0
0
0
0
0
0
0
0
0
0
0
0
0
0
0
0
0
182
183
184
185
186
187
188
0
0
0
0
0
0
195
196
197
0
0
0
201
0
0
0
0
0
0
0
0
0
0
0
0
0
0
216
217
218
219
0
0
0
0
224
225
226
0
228
229
230
231
232
233
234
235
0
0
0
0
0
0
0
0
0
0
0
0
248
249
250
0
0
0
0
0
256
257
258
259
260
261
262
263
264
265
266
267
268
269
270
271
272
273
274
275
276
277
278
279
280
0
3
4
5
6
7
8
9
10
11
12
13
14
15
16
17
18
19
20
21
22
23
24
25
26
27
28
29
30
31
32
33
34
35
36
37
38
39
40
41
42
43
44
45
46
0
0
49
50
51
52
53
54
55
0
0
0
0
0
0
62
63
64
0
66
67
68
69
70
0
0
0
0
0
0
77
78
79
80
81
82
83
84
85
86
87
88
0
0
0
0
0
94
95
96
97
0
0
0
0
0
0
104
105
0
0
108
109
0
0
0
0
0
0
0
0
118
119
120
0
0
0
0
0
0
0
0
0
0
131
132
133
134
135
136
137
138
139
140
141
142
0
0
0
0
147
148
149
0
0
0
153
154
0
0
0
0
0
0
0
0
0
0
0
166
167
168
0
170
171
172
0
0
0
176
177
178
179
180
181
182
0
184
185
186
187
0
0
0
0
0
0
0
195
196
197
198
199
0
0
0
0
0
0
0
0
0
0
0
0
0
0
0
0
0
0
0
0
0
0
222
223
224
225
0
0
0
0
230
231
232
233
0
0
236
237
238
0
0
0
0
0
0
0
0
0
248
249
0
0
0
0
0
0
256
257
258
259
260
261
262
263
264
265
266
267
268
269
270
271
272
273
274
275
276
277
278
279
280
0
3
4
5
6
7
8
9
10
11
12
13
14
15
16
17
18
19
20
0
22
23
24
25
26
27
28
29
30
31
32
33
34
35
36
37
38
39
40
41
42
43
44
45
0
0
0
49
50
51
52
0
0
0
0
0
0
59
60
61
62
0
0
65
66
67
68
69
70
71
72
0
0
0
0
0
0
0
80
81
82
83
0
0
0
0
0
0
90
91
92
93
94
95
96
97
98
99
0
0
0
0
0
0
106
107
108
109
0
0
0
0
0
115
116
117
118
119
120
121
122
0
0
0
0
0
0
0
130
131
132
133
134
135
136
137
138
139
140
141
142
0
0
0
0
147
148
149
0
0
0
0
0
0
0
0
0
0
0
0
0
0
0
165
166
167
168
0
0
0
0
0
0
0
176
177
178
179
0
0
0
0
0
0
0
0
0
189
0
0
0
0
0
0
0
0
0
0
0
0
202
203
204
0
0
0
0
0
0
0
0
213
214
215
216
217
218
219
220
0
0
0
224
225
226
227
228
229
0
0
0
0
0
235
0
0
0
0
0
0
0
0
0
0
0
0
248
249
0
0
0
0
0
0
256
257
258
259
260
261
262
263
264
265
266
267
268
269
270
271
272
273
274
275
276
277
278
279
280
0
3
4
5
6
7
8
9
10
11
12
13
14
15
16
17
18
19
20
0
22
23
24
25
26
27
28
29
30
31
32
33
34
35
36
37
38
39
40
41
42
43
0
0
0
47
48
49
50
51
52
53
0
0
56
57
58
59
60
61
62
63
64
65
66
67
68
69
70
71
72
73
74
0
0
0
78
79
80
81
82
83
0
0
0
0
0
0
0
91
92
0
0
0
0
0
0
0
0
0
0
103
104
105
106
107
108
109
0
0
0
0
0
0
0
0
118
119
120
0
0
0
0
0
0
0
0
129
130
131
132
133
134
135
136
137
138
139
140
141
142
0
0
0
0
147
148
149
150
0
0
0
0
0
0
0
0
0
0
161
162
163
164
0
0
0
0
169
170
171
172
0
0
0
0
0
0
0
0
0
0
0
0
0
186
187
188
189
0
0
0
193
194
0
0
0
0
0
0
0
0
0
0
0
0
0
208
209
0
0
0
0
214
215
216
217
0
0
0
0
0
0
0
0
226
227
228
229
230
231
232
0
0
0
0
0
0
0
0
0
0
0
0
0
0
0
248
249
0
0
0
0
0
0
256
257
258
259
260
261
262
263
264
265
266
267
268
269
270
271
272
273
274
275
276
277
278
279
280
0
3
4
5
6
7
8
9
10
11
12
13
14
15
16
17
18
19
20
0
22
23
24
25
26
27
28
29
30
31
32
33
34
35
36
37
38
39
40
41
42
43
44
45
46
47
48
0
0
0
52
53
54
55
0
0
58
59
60
61
62
63
64
65
66
67
68
69
70
71
72
73
74
75
76
77
78
0
0
0
0
0
0
0
0
0
88
89
90
91
92
93
94
0
0
97
0
0
0
0
102
103
0
105
106
107
108
109
110
111
0
0
114
115
116
0
118
0
0
121
122
123
124
125
126
127
0
0
0
131
132
133
134
135
136
137
138
139
140
141
142
0
0
0
0
147
148
149
0
0
0
0
0
0
0
0
0
0
0
0
0
0
0
0
0
0
0
169
170
0
0
0
0
0
0
0
0
179
180
181
182
0
0
0
186
187
188
0
0
0
0
0
194
195
196
197
0
0
0
0
0
0
0
0
0
0
0
0
0
0
0
0
0
215
216
0
218
0
0
0
0
0
0
0
0
0
0
0
230
231
232
233
234
0
0
0
0
0
0
241
0
0
0
0
0
0
248
249
0
0
0
0
0
255
256
257
258
259
260
261
262
263
264
265
266
267
268
269
270
271
272
273
274
275
276
277
278
279
280
0
3
4
5
6
7
8
9
10
11
12
13
14
15
16
17
18
19
20
21
22
23
24
25
26
27
28
29
30
31
32
33
34
35
36
37
38
39
40
41
42
43
44
45
46
47
48
49
50
51
52
53
54
55
56
57
58
59
60
61
62
0
0
0
0
0
68
0
0
0
72
73
74
75
0
77
78
79
80
0
0
0
0
0
86
87
88
89
0
0
0
0
0
0
0
0
0
0
0
101
102
103
104
105
106
107
108
109
110
111
112
113
114
115
116
117
118
0
0
0
0
123
124
125
126
0
0
0
0
131
132
133
134
135
136
137
138
139
140
141
142
0
0
0
0
147
148
149
150
151
0
0
0
0
0
0
0
0
0
0
0
0
0
165
166
167
168
0
0
0
0
0
0
0
0
0
0
0
0
0
0
0
0
0
0
187
188
189
0
0
0
0
0
0
0
197
198
199
0
0
0
203
204
205
206
207
0
0
0
0
0
0
0
0
0
0
218
219
220
0
0
0
0
0
0
0
0
0
230
231
232
0
0
0
0
0
0
0
0
0
0
0
0
0
0
0
248
249
0
0
0
0
0
0
256
257
258
259
260
261
262
263
264
265
266
267
268
269
270
271
272
273
274
275
276
277
278
279
280
0
3
4
5
6
7
8
9
10
11
12
13
14
15
16
17
18
19
20
0
22
23
24
25
26
27
28
29
30
31
32
33
34
35
36
37
38
39
40
41
42
43
44
45
46
47
48
49
50
51
52
53
54
0
0
0
0
0
0
0
62
63
64
65
66
67
0
0
0
0
0
0
0
75
76
77
78
79
80
81
82
83
84
85
86
87
88
0
0
0
0
0
0
95
96
97
0
0
100
101
102
103
104
105
106
107
0
0
0
0
0
0
114
115
116
117
118
119
120
0
0
0
124
125
126
127
128
129
130
131
132
133
134
135
136
137
138
139
140
141
142
0
144
145
0
147
148
149
0
0
0
0
0
0
0
157
158
159
0
0
0
0
0
0
0
0
0
0
0
0
0
0
0
0
0
0
0
179
180
181
182
183
0
0
0
0
0
189
190
191
0
0
0
0
196
197
198
0
0
0
0
0
0
0
0
0
0
0
0
0
0
0
0
0
0
0
218
219
220
221
0
0
0
0
0
0
0
0
0
0
0
233
0
0
0
0
0
0
0
0
0
0
0
0
0
0
248
249
0
0
0
0
254
255
256
257
258
259
260
261
262
263
264
265
266
267
268
269
270
271
272
273
274
275
276
277
278
279
280
0
3
4
5
6
7
8
9
10
11
12
13
14
15
16
17
18
19
20
21
22
23
24
25
26
27
28
29
30
31
32
33
34
35
36
37
38
39
40
41
42
43
44
0
0
0
48
49
50
51
52
53
54
55
0
0
0
59
60
61
62
63
0
0
66
67
0
0
0
0
0
0
74
75
76
0
0
0
0
0
0
0
0
0
0
87
88
89
90
0
0
0
0
0
0
0
98
99
100
101
102
103
0
0
0
107
108
109
0
0
0
0
0
0
0
0
118
0
0
0
0
0
0
0
0
0
0
0
0
131
132
133
134
135
136
137
138
139
140
141
142
0
0
0
0
147
148
149
0
0
0
0
0
0
0
0
0
0
0
0
0
0
0
0
0
0
0
0
170
171
172
173
174
175
176
177
178
0
0
0
182
183
184
185
186
187
0
0
0
0
0
0
0
0
0
0
198
199
200
201
202
203
0
205
206
207
0
0
210
211
0
0
214
215
216
0
0
0
0
0
0
0
0
0
0
227
228
229
230
231
232
233
0
0
0
237
238
239
0
0
0
0
0
245
246
247
248
249
250
0
0
0
0
0
256
257
258
259
260
261
262
263
264
265
266
267
268
269
270
271
272
273
274
275
276
277
278
279
280
0
3
4
5
6
7
8
9
10
11
12
13
14
15
16
17
18
19
20
21
22
23
24
25
26
27
28
29
30
31
32
33
34
35
36
37
38
39
40
41
42
43
44
45
0
0
48
49
50
0
0
0
0
55
56
57
0
0
60
61
62
63
64
65
0
67
68
69
70
0
0
0
74
75
76
0
0
0
80
81
0
0
0
0
0
0
0
89
0
0
0
0
0
0
0
0
98
99
100
101
102
103
104
0
0
0
0
0
0
0
0
0
0
0
116
117
118
0
0
0
0
0
0
0
0
0
0
0
0
131
132
133
134
135
136
137
138
139
140
141
142
0
0
0
0
147
148
149
0
0
0
0
0
0
0
0
0
0
160
161
162
163
0
0
0
167
168
169
170
171
172
173
174
0
0
0
0
179
180
181
0
0
0
0
0
0
0
0
0
0
0
0
0
0
0
0
0
0
0
0
0
203
204
205
206
0
0
0
0
0
0
0
0
0
0
0
0
0
0
0
0
0
0
0
0
0
0
0
0
0
0
0
0
0
0
0
0
0
0
0
0
0
0
0
0
0
248
249
0
251
252
253
254
0
256
257
258
259
260
261
262
263
264
265
266
267
268
269
270
271
272
273
274
275
276
277
278
279
280
EOF
