DIMENSION : 280
NUMBER OF ITEMS : 2790

TOUR_SECTION
1
280
3
279
278
248
249
256
257
258
259
260
261
262
263
264
265
266
140
141
142
147
148
149
139
138
137
267
268
136
135
269
270
134
133
132
131
130
21
20
19
18
17
16
271
272
273
274
275
276
277
4
5
6
7
9
8
10
11
12
15
13
14
24
23
25
22
26
27
28
29
30
31
32
33
34
35
36
37
38
39
40
41
42
43
60
61
118
62
63
59
44
45
46
47
48
49
50
51
52
53
54
55
56
57
58
64
65
66
67
68
69
70
71
72
73
74
75
76
77
78
79
80
81
82
83
88
112
113
87
84
85
86
116
117
115
114
111
110
108
109
89
90
91
92
93
94
95
96
97
98
99
100
101
102
103
104
105
106
107
174
173
171
172
170
169
168
167
166
165
164
163
162
161
175
160
159
158
157
119
120
121
122
123
124
125
126
127
128
129
154
155
153
156
152
151
177
178
150
179
180
176
181
182
183
184
185
187
186
188
189
190
191
192
193
197
194
195
196
201
198
199
145
146
143
144
200
202
203
204
205
206
207
208
253
254
255
252
209
210
211
212
213
214
215
216
217
218
219
220
221
222
223
224
225
226
227
228
229
230
251
250
247
245
246
231
232
233
234
235
236
237
238
239
240
241
244
243
242
2

PP_SECTION
2
3
4
5
0
0
0
0
0
0
0
0
0
0
0
0
0
19
20
21
22
0
0
0
0
0
0
0
0
0
0
0
0
0
0
0
0
0
0
0
0
0
44
0
0
0
0
0
50
51
52
0
0
0
0
57
0
0
0
0
0
0
0
0
66
67
68
69
0
0
0
0
0
0
0
0
0
0
0
0
0
0
0
85
86
87
88
0
0
0
0
0
0
0
0
0
0
0
0
0
0
0
0
0
0
107
108
109
0
0
0
0
0
0
0
0
0
0
0
0
0
0
0
0
126
127
128
129
0
0
0
0
0
0
0
0
0
0
0
0
0
0
0
0
0
0
0
0
150
151
152
0
0
0
0
0
0
0
0
0
0
0
0
0
0
167
168
0
0
0
0
0
0
0
0
0
0
0
0
0
182
183
0
0
0
0
0
0
0
0
0
0
0
0
0
0
0
0
0
0
0
0
0
0
0
0
0
0
0
211
212
213
214
215
216
217
0
0
0
221
222
223
224
225
226
0
0
0
0
0
0
0
234
235
236
237
238
239
240
241
242
243
244
0
0
0
0
0
250
251
0
0
0
0
0
0
258
0
0
0
0
0
0
0
0
0
0
0
0
0
0
0
0
0
0
0
0
0
0
2
0
0
0
0
0
0
0
0
0
0
0
0
0
0
17
18
0
0
21
22
0
0
0
0
0
0
0
0
0
0
0
0
0
0
0
0
0
0
0
0
0
0
0
0
0
0
0
0
51
52
53
54
0
0
0
0
0
0
0
62
63
64
0
0
0
0
0
0
0
0
0
0
0
0
0
0
0
0
0
0
0
0
0
0
0
0
89
90
91
0
0
0
0
0
0
0
0
0
0
0
0
0
0
0
0
0
0
0
0
0
0
0
0
0
0
0
0
0
0
122
123
124
125
0
0
128
129
0
0
0
0
0
0
0
0
0
0
0
0
0
0
0
0
0
0
0
0
0
0
0
0
0
0
156
157
158
159
0
0
0
0
0
0
0
0
0
0
0
0
0
0
0
0
0
0
0
0
0
0
182
183
184
185
186
187
188
0
0
0
0
0
0
195
196
197
0
0
0
201
0
0
0
0
0
0
0
0
0
0
0
0
0
0
216
217
218
219
0
0
0
0
224
225
226
0
228
229
230
231
232
233
234
235
236
237
238
239
240
241
242
243
244
245
246
247
248
249
250
251
252
0
0
0
0
0
0
259
260
0
0
0
0
0
0
0
0
0
0
0
0
0
0
0
0
0
0
0
0
2
0
4
5
6
0
0
0
0
0
12
13
14
0
0
0
0
0
0
0
22
23
24
0
0
0
0
0
0
0
0
0
0
0
0
0
0
0
0
0
0
43
44
45
46
0
0
0
0
0
52
53
0
0
0
0
0
0
0
0
0
0
0
0
0
0
0
0
0
0
0
0
0
0
0
77
78
79
80
0
0
0
0
0
0
0
0
0
0
0
0
0
0
95
96
97
0
0
0
0
0
0
104
105
0
0
0
0
0
0
0
0
0
0
0
0
0
0
0
0
0
0
0
0
0
0
0
0
0
0
0
0
0
0
0
0
0
0
0
0
0
0
0
0
0
0
0
0
0
0
0
153
154
0
0
0
0
0
0
0
0
0
0
0
166
167
168
0
170
171
172
0
0
0
176
177
178
179
180
181
182
0
0
0
0
0
0
0
0
0
0
0
0
195
196
197
198
199
0
0
0
0
0
0
0
0
0
0
0
0
0
0
0
0
0
0
0
0
0
0
222
223
224
225
0
0
0
0
230
231
232
233
234
235
236
237
238
239
240
241
242
243
244
245
246
247
0
0
0
251
0
0
0
0
0
0
0
0
0
0
0
0
0
0
0
0
0
0
0
271
0
0
0
0
0
0
0
0
0
2
0
0
0
0
0
0
0
0
0
0
0
0
0
0
0
0
0
0
0
0
0
0
0
0
0
0
0
30
0
0
0
0
0
0
0
0
0
0
0
0
0
0
0
0
0
0
0
0
0
0
0
0
0
0
0
0
0
0
0
0
0
0
65
66
67
68
0
0
0
0
0
0
0
0
0
0
0
0
0
0
0
0
0
0
0
0
0
90
91
92
93
94
95
96
97
98
99
0
0
0
0
0
0
0
0
0
0
0
0
0
0
0
0
0
0
0
0
0
0
0
0
0
0
0
0
0
0
130
131
0
0
0
0
0
0
0
0
0
0
0
0
0
0
0
0
148
149
0
0
0
0
0
0
0
0
0
0
0
0
0
0
0
165
166
167
168
0
0
0
0
0
0
0
176
177
178
179
0
0
0
0
0
0
0
0
0
189
0
0
0
0
0
0
0
0
0
0
0
0
202
203
204
0
0
0
0
0
0
0
0
213
214
215
216
217
218
219
220
0
0
0
224
225
226
227
228
229
0
0
0
233
234
235
236
237
238
239
240
241
242
243
244
0
246
0
0
0
0
0
0
0
0
255
0
0
0
0
0
0
0
0
0
0
0
0
0
0
0
0
0
0
0
0
0
0
0
0
0
2
0
0
0
0
0
0
0
0
0
0
0
0
0
0
0
0
0
0
0
0
0
24
25
26
27
28
29
30
31
0
0
0
0
0
0
0
0
0
0
42
43
0
0
0
47
48
0
0
0
0
0
0
0
0
0
0
0
0
0
0
63
64
65
66
67
68
69
70
71
72
73
74
0
0
0
0
0
0
0
0
0
0
0
0
0
0
0
0
0
0
0
0
0
0
0
0
0
0
0
0
0
0
0
0
0
0
0
0
0
0
0
0
0
0
0
0
119
120
0
0
0
0
0
0
0
0
0
0
0
0
0
0
0
0
0
0
0
0
0
0
0
0
0
0
0
148
149
150
0
0
0
0
0
0
0
0
0
0
161
162
163
164
0
0
0
0
169
170
171
172
0
0
0
0
0
0
0
0
0
0
0
0
0
186
187
188
189
0
0
0
0
0
0
0
0
0
0
0
0
0
0
0
0
0
0
208
209
0
0
0
0
214
215
216
217
0
0
0
221
222
223
224
225
226
227
228
229
230
231
232
0
0
0
236
237
238
239
240
241
242
243
244
245
246
247
0
0
250
0
0
0
0
0
0
257
258
259
0
0
0
0
0
0
0
0
0
0
0
0
0
0
274
0
0
0
0
0
0
2
0
0
0
0
0
0
0
0
0
0
0
0
0
0
0
0
0
0
0
0
0
0
25
26
27
0
0
0
0
0
33
34
35
36
0
0
0
0
0
0
0
0
0
0
0
0
0
0
0
52
53
54
0
0
0
0
0
0
0
0
0
0
65
66
67
0
0
0
0
0
0
0
0
0
0
0
0
0
0
0
0
0
0
0
0
0
0
0
0
0
0
0
0
0
97
0
0
0
0
102
103
0
105
106
0
0
0
0
0
0
0
0
0
0
0
0
0
0
121
122
0
0
0
126
127
0
0
0
0
0
0
0
0
0
0
0
0
0
0
0
0
0
0
0
0
0
0
0
0
0
0
0
0
0
0
0
0
0
0
0
0
0
0
0
0
0
169
170
0
0
0
0
0
0
0
0
0
0
0
0
0
0
0
0
0
0
0
0
0
0
0
194
195
196
197
0
0
0
0
0
0
0
0
0
0
0
209
0
0
0
0
0
215
216
0
218
0
0
0
0
223
224
225
0
0
0
0
230
231
232
233
234
0
236
237
238
239
240
241
242
243
244
245
246
247
0
0
0
251
0
0
0
255
0
0
0
0
0
0
0
0
0
265
266
267
268
269
270
271
0
0
0
0
0
0
0
0
0
2
0
0
0
0
0
0
0
0
0
0
0
0
0
0
0
0
0
0
0
0
23
24
25
26
0
0
29
30
31
32
0
0
0
36
37
38
39
0
0
0
0
0
45
46
47
0
0
0
0
0
0
0
0
0
0
0
0
0
0
0
0
0
0
0
0
0
0
0
0
0
0
0
0
0
0
0
0
0
0
0
0
0
0
0
0
0
0
0
0
0
0
0
0
0
0
0
0
0
0
0
0
0
0
106
107
108
109
110
111
112
113
0
0
0
0
0
0
0
0
0
123
124
125
126
0
0
0
0
0
0
0
0
0
0
0
0
0
0
0
0
0
0
0
0
0
148
149
150
151
0
0
0
0
0
0
0
0
0
0
0
0
0
165
166
167
168
0
0
0
0
0
0
0
0
0
0
0
0
0
0
0
0
0
0
187
188
189
0
0
0
0
0
0
0
197
198
199
0
0
0
203
204
205
206
207
0
0
0
0
0
0
0
0
0
0
218
219
220
0
0
0
0
0
0
0
0
0
230
231
232
233
234
235
236
237
238
239
240
241
242
243
244
245
0
0
0
0
0
0
0
0
0
0
0
257
0
0
0
0
0
263
264
0
0
0
0
269
270
271
0
0
0
0
0
0
0
0
0
2
3
4
5
6
0
0
0
0
0
0
0
0
0
0
0
0
0
0
0
0
0
0
25
26
27
0
0
0
0
0
0
0
0
0
0
0
0
0
0
0
0
0
0
0
0
0
0
0
0
0
0
0
0
0
0
0
0
0
0
0
0
0
0
0
0
0
0
0
0
0
0
0
0
0
77
78
79
80
81
82
83
84
85
86
87
0
0
0
0
0
0
0
0
0
0
0
0
0
0
0
103
0
0
0
0
0
0
0
0
0
0
114
115
116
117
118
119
120
0
0
0
124
125
126
127
128
0
0
0
0
0
0
0
0
0
0
0
0
0
0
0
144
145
0
0
0
0
0
0
0
0
0
0
0
157
158
159
0
0
0
0
0
0
0
0
0
0
0
0
0
0
0
0
0
0
0
179
180
181
182
183
0
0
0
0
0
189
190
191
0
0
0
0
196
197
198
0
0
0
0
0
0
0
0
0
0
0
210
211
212
213
0
0
0
0
218
219
220
221
0
0
0
0
0
0
0
229
230
231
232
233
234
235
236
237
238
239
240
241
242
243
244
0
0
0
0
0
0
0
0
0
254
255
0
0
0
0
0
0
0
0
0
265
266
267
0
0
0
0
0
0
0
0
0
0
0
0
0
2
0
0
0
0
0
0
0
0
0
0
0
0
0
0
0
18
19
20
21
0
0
0
0
0
0
0
0
0
0
0
0
0
0
0
0
0
0
0
0
0
0
0
0
0
0
48
49
50
0
0
0
0
0
0
0
0
0
0
0
0
0
0
0
0
0
0
0
0
0
0
0
0
0
0
0
0
0
0
0
0
0
0
0
0
0
0
0
0
0
0
0
0
0
0
0
98
99
100
0
0
0
0
0
0
107
108
109
0
0
0
0
0
0
0
0
0
0
0
0
0
0
0
0
0
0
0
0
0
0
0
0
0
0
0
0
0
0
0
0
0
0
0
0
0
0
0
0
0
0
0
0
0
0
0
0
0
0
0
0
0
0
0
0
0
0
0
0
170
171
172
173
174
175
176
177
178
0
0
0
182
183
184
185
0
0
0
0
0
0
0
0
0
0
0
0
198
199
200
201
202
203
0
205
206
207
0
0
210
211
0
0
214
215
216
217
218
219
220
0
0
0
0
0
0
227
228
229
230
231
232
233
234
235
236
237
238
239
240
241
242
243
244
245
246
247
0
0
250
0
0
0
0
0
0
0
0
0
0
0
0
0
0
265
0
0
0
0
0
0
0
0
0
0
0
0
0
0
0
2
0
0
0
0
0
0
0
0
0
0
0
0
0
0
0
0
0
0
21
22
23
24
25
26
27
28
0
0
0
0
0
0
0
0
0
0
0
0
41
0
0
0
0
0
0
48
49
50
0
0
0
0
0
0
0
0
0
0
61
62
63
64
0
0
0
0
0
0
0
0
0
0
0
0
0
0
0
80
81
0
0
0
0
0
0
0
0
0
0
0
0
0
0
0
0
98
99
100
0
0
0
0
0
0
0
0
0
0
0
0
0
0
0
116
117
118
0
0
0
0
0
0
0
0
0
0
0
0
0
0
0
0
0
0
0
0
0
0
0
0
0
0
0
0
0
0
0
0
0
0
0
0
0
0
0
0
0
0
0
0
0
0
0
0
0
0
0
0
0
0
0
0
0
0
0
0
179
180
181
0
0
0
0
0
0
0
0
0
0
0
0
0
0
0
0
0
0
0
0
0
203
204
205
206
0
0
0
210
211
212
213
214
0
0
0
0
0
0
0
0
0
0
0
0
0
0
0
230
231
232
233
0
0
0
237
238
239
240
241
242
243
244
0
0
247
0
0
0
251
252
253
254
0
0
0
258
259
0
0
0
0
0
0
0
0
0
0
0
0
0
0
274
275
276
277
278
279
280
EOF
