DIMENSION : 280
NUMBER OF ITEMS : 279

TOUR_SECTION
1
280
3
279
278
248
249
256
257
258
259
260
261
262
263
264
265
266
140
141
148
149
139
138
137
267
268
136
135
269
270
134
133
132
131
20
19
18
17
16
271
272
273
274
275
276
277
4
5
6
7
9
8
10
11
12
13
15
14
24
23
25
22
26
27
28
29
30
31
32
33
34
35
36
37
38
39
40
41
42
43
60
61
118
62
63
59
44
45
46
47
48
49
50
51
52
53
54
55
56
57
58
64
65
66
67
68
69
70
71
72
73
74
75
76
77
78
79
80
81
82
83
84
85
86
116
117
115
114
113
87
88
112
111
110
108
109
89
90
91
92
93
94
95
96
97
98
99
100
101
102
103
104
105
106
107
174
173
171
172
170
169
168
167
166
165
164
163
162
161
175
160
159
158
157
119
120
121
122
123
124
125
126
127
128
21
130
129
154
155
153
156
152
151
177
178
150
179
180
176
181
182
183
184
185
186
187
188
189
190
191
192
193
194
195
196
197
198
199
145
146
147
142
143
144
200
201
202
203
204
205
206
207
208
253
254
255
252
209
210
211
212
213
214
215
216
217
218
219
220
221
222
223
224
225
226
227
228
229
230
251
250
247
245
246
231
232
233
234
235
236
237
238
239
240
241
244
243
242
2

PP_SECTION
2
3
0
0
0
7
0
0
10
0
0
0
14
0
0
0
0
0
0
0
0
0
0
0
0
0
0
29
0
0
0
0
0
0
0
0
0
39
0
0
0
0
44
0
0
0
48
0
0
51
0
0
0
0
56
0
0
59
0
0
62
63
0
65
0
67
68
69
70
71
0
0
0
0
0
0
0
0
80
81
0
83
0
0
0
87
0
0
90
0
92
93
94
0
96
0
0
99
100
0
0
0
0
0
0
0
108
0
0
0
0
113
0
0
0
0
0
119
120
0
122
123
124
0
0
0
0
129
130
131
0
0
0
0
0
0
0
0
0
0
142
143
0
0
0
147
148
0
0
0
0
0
0
155
156
0
158
0
160
0
0
163
164
0
0
0
168
0
170
171
0
173
0
175
0
0
0
0
180
0
0
0
184
185
0
0
188
189
190
191
192
0
194
195
0
197
198
0
0
201
202
203
204
205
0
0
208
0
0
0
212
213
214
0
216
217
218
0
220
221
222
223
224
0
226
227
0
229
230
231
232
0
234
235
236
237
238
239
240
241
242
243
244
245
246
0
0
0
250
0
252
0
0
0
0
257
0
0
0
0
0
0
0
265
266
0
0
269
0
0
0
0
0
0
0
0
0
279
0
EOF
