DIMENSION : 280
NUMBER OF ITEMS : 1395

TOUR_SECTION
1
280
3
279
278
248
249
256
255
254
257
258
259
260
261
262
263
264
265
266
140
141
142
143
144
145
146
147
148
149
139
138
137
267
268
136
135
269
270
134
133
132
131
130
21
20
19
18
17
16
271
272
273
274
275
276
277
4
5
6
7
9
8
10
11
12
15
13
14
24
23
25
22
26
27
28
29
30
31
32
33
34
35
36
37
38
39
40
41
42
43
60
61
118
62
63
59
44
45
46
47
48
49
50
51
52
53
54
55
56
57
58
64
65
66
67
68
69
70
71
72
73
74
75
76
77
78
79
80
81
82
83
88
112
113
87
84
85
86
116
117
115
114
111
110
108
109
89
90
91
92
93
94
95
96
97
98
99
100
101
102
103
104
105
106
107
174
173
172
171
170
169
168
167
166
165
164
163
162
161
175
160
159
158
157
119
120
121
122
123
124
125
126
127
128
129
154
155
153
156
152
151
177
178
150
179
180
176
181
182
183
184
185
186
187
188
189
190
191
192
193
197
194
195
196
201
198
199
200
202
203
204
205
206
207
208
253
252
209
210
211
212
213
214
215
216
217
218
219
220
221
222
223
224
225
226
227
228
229
230
251
250
247
244
245
246
231
232
233
234
235
236
237
238
239
240
241
243
242
2

PP_SECTION
2
0
4
0
0
0
8
9
0
0
0
13
0
0
16
0
18
19
0
0
22
0
24
0
0
0
28
0
0
31
0
0
34
0
0
37
0
0
0
0
42
43
0
0
46
0
0
49
0
0
52
0
54
55
0
0
0
0
60
0
0
0
64
0
66
0
0
0
0
0
72
0
74
75
76
0
78
0
0
0
0
0
84
0
0
87
88
89
0
0
0
0
0
95
0
0
98
0
0
101
0
103
104
105
106
107
0
109
0
111
0
0
114
115
0
0
118
0
0
121
0
123
0
125
126
127
0
129
130
0
0
133
0
0
0
137
0
139
0
141
0
0
0
0
146
0
0
0
0
0
0
153
154
0
0
157
158
159
0
161
162
0
164
165
0
167
168
169
0
0
172
173
174
175
0
177
0
0
0
181
182
183
0
0
186
187
188
0
190
191
0
193
194
195
196
197
0
199
200
0
0
203
0
0
206
207
0
209
210
211
0
0
214
215
0
0
0
219
220
221
222
0
224
225
226
0
228
0
230
231
232
233
234
0
0
237
238
239
240
241
242
243
0
245
246
247
0
0
250
251
0
253
0
0
256
0
258
0
0
0
262
263
0
0
0
0
0
0
0
0
0
0
274
0
276
277
278
0
280
2
0
0
0
6
7
0
0
10
0
12
0
0
15
0
17
0
19
0
0
22
0
24
0
0
27
28
29
0
0
0
33
0
0
0
37
38
0
40
0
0
0
44
0
0
0
0
49
0
0
52
0
0
0
56
57
0
0
60
0
0
0
64
0
66
67
0
0
0
0
72
0
0
75
0
0
0
79
80
0
82
0
84
0
0
87
0
89
90
0
92
93
0
95
96
97
98
99
100
0
102
103
104
105
0
0
108
109
110
111
0
0
0
0
0
117
118
119
0
121
122
0
0
125
0
0
128
0
0
131
132
133
134
135
0
0
0
139
0
0
0
143
0
145
0
0
0
149
150
151
152
153
154
155
156
0
0
159
160
0
162
163
164
0
166
0
0
169
170
171
172
0
174
0
0
0
178
179
180
181
0
183
184
185
186
187
188
0
0
191
192
0
194
0
196
197
198
0
200
201
202
203
204
205
206
207
208
209
210
211
212
213
214
0
216
217
218
219
220
0
222
223
224
225
226
227
228
0
230
231
232
233
234
235
236
237
0
239
240
241
242
243
244
245
246
247
248
0
250
0
252
253
0
0
0
0
258
259
260
0
262
263
0
265
266
0
0
269
0
0
0
273
0
0
0
0
278
279
280
2
0
0
5
6
0
8
0
0
0
0
13
14
0
0
0
18
19
0
21
22
0
24
0
26
0
0
29
30
31
0
0
34
35
0
37
0
0
40
0
0
0
0
0
0
47
0
0
0
51
0
0
0
0
0
57
58
0
0
0
62
0
0
0
66
0
0
0
70
71
0
0
0
75
76
0
0
0
0
0
82
0
84
0
0
87
0
89
90
0
0
0
0
95
0
0
0
99
0
101
102
0
0
0
106
107
108
0
0
111
0
113
0
0
116
117
118
119
0
0
122
123
124
125
0
127
0
0
0
0
0
0
0
0
0
137
138
0
0
141
142
143
144
0
0
0
148
0
150
151
152
153
0
155
156
0
158
159
160
161
0
0
164
165
0
0
0
0
0
0
0
0
0
0
176
177
0
179
180
0
0
183
184
185
0
187
0
189
190
191
192
0
0
195
196
197
0
199
200
0
0
203
204
205
206
207
208
209
210
211
0
213
214
215
0
217
218
0
220
221
222
223
224
225
226
227
0
229
230
231
232
233
234
235
0
237
238
239
240
241
242
243
0
0
246
247
0
249
250
0
0
0
0
0
256
0
258
0
0
0
0
0
0
0
0
0
0
0
270
271
272
0
0
275
0
0
0
279
280
2
0
0
5
0
7
8
0
0
11
12
13
14
0
0
17
18
0
20
0
0
0
24
25
0
27
0
0
30
0
0
0
0
0
36
0
38
39
40
0
0
0
44
45
0
47
0
49
0
51
0
0
54
0
56
0
58
0
0
61
0
63
0
65
66
0
0
0
0
71
0
73
0
0
0
0
78
0
0
0
0
0
84
85
86
0
88
89
0
91
92
93
94
95
0
0
0
99
0
101
102
0
0
0
0
107
108
0
0
0
0
113
0
115
116
0
0
119
120
121
122
0
124
125
0
0
128
129
0
0
132
0
0
0
0
0
0
0
0
0
0
0
144
0
0
147
0
0
150
0
152
0
154
155
156
157
0
0
160
161
162
163
0
165
166
167
168
169
170
0
172
0
174
175
176
0
0
179
180
0
182
183
0
185
186
187
0
189
190
191
192
0
194
195
0
197
198
199
200
201
202
203
204
205
0
0
208
0
210
0
212
213
214
0
0
217
218
219
220
0
222
223
0
225
0
227
228
0
230
0
232
233
234
235
0
237
238
239
240
241
242
243
0
245
246
0
0
0
250
251
252
253
0
0
256
257
0
0
0
261
262
263
264
265
0
0
268
269
0
0
272
273
0
0
276
0
0
0
0
2
3
4
5
6
0
8
9
0
11
0
0
0
0
0
0
0
0
20
0
22
0
24
0
0
0
28
0
0
31
0
0
0
0
36
0
38
0
40
41
42
43
0
45
0
0
0
49
0
0
0
0
0
55
0
0
0
59
60
61
62
63
0
0
0
67
68
0
70
0
72
73
74
75
0
0
0
79
0
0
0
83
0
85
0
87
0
0
0
0
0
0
94
95
96
0
98
0
0
0
0
103
0
0
106
0
108
0
0
0
0
113
114
115
0
0
0
119
120
121
0
123
124
0
126
0
0
0
0
131
0
133
0
0
0
0
138
0
0
141
142
0
144
0
146
147
148
0
150
0
152
0
154
155
156
157
0
159
0
0
162
0
164
165
0
167
168
169
0
0
0
0
174
175
176
177
178
0
180
181
182
183
184
0
186
0
0
189
190
191
192
0
0
195
0
197
0
0
0
201
202
0
204
205
206
207
208
209
210
211
212
213
214
0
0
217
218
219
0
221
222
0
224
225
226
227
228
229
0
0
232
233
234
235
0
237
238
239
240
241
242
243
244
245
246
247
0
0
250
0
252
253
0
255
256
257
0
259
260
0
0
0
0
0
0
267
0
269
0
0
0
0
274
0
0
0
0
0
0
EOF
