DIMENSION : 280
NUMBER OF ITEMS : 2790

TOUR_SECTION
1
2
242
243
241
240
239
238
237
236
235
234
233
232
231
246
245
244
247
250
251
230
229
228
227
226
225
224
223
222
221
220
219
218
217
216
215
214
213
212
211
210
209
252
255
254
253
208
207
206
205
204
203
202
201
198
197
196
195
194
193
192
191
190
189
188
187
186
185
184
183
182
181
176
180
179
150
178
177
151
152
156
153
155
154
129
130
131
20
21
128
127
126
30
125
124
123
122
121
120
119
157
158
159
160
175
161
162
163
164
165
166
167
168
169
170
171
172
173
174
107
106
105
104
103
102
101
100
99
98
97
96
95
94
93
92
91
90
89
109
108
110
111
114
115
117
116
86
85
84
87
113
112
88
83
82
81
80
79
78
77
76
75
74
73
72
71
70
69
68
67
66
65
64
58
57
56
55
54
53
52
51
50
49
48
47
46
45
44
59
63
62
118
61
60
43
42
41
40
39
38
37
36
35
34
33
32
31
29
28
27
26
22
25
23
24
14
15
13
12
11
10
9
8
7
6
5
4
277
276
275
274
273
272
271
16
17
18
19
132
133
134
270
269
135
136
268
267
137
138
139
149
148
147
146
145
199
200
144
143
142
141
140
266
265
264
263
262
261
260
259
258
257
256
249
248
278
279
3
280

PP_SECTION
0
3
0
5
6
7
0
9
10
0
12
0
14
15
0
0
0
0
0
0
0
0
0
25
26
27
0
29
0
0
32
33
0
0
36
0
38
39
0
41
0
0
44
0
0
47
48
0
0
51
0
53
0
0
56
0
0
59
0
61
62
63
0
65
0
67
68
69
70
71
72
0
0
0
0
0
0
0
80
81
82
83
0
0
0
87
0
0
90
91
92
93
94
0
96
0
0
99
100
0
0
0
0
0
0
0
108
0
0
0
0
113
0
0
0
0
0
119
120
0
0
123
124
0
0
0
0
0
0
131
132
0
134
135
136
0
0
0
140
0
142
143
0
0
0
147
148
0
0
0
0
0
0
155
156
0
158
0
160
0
0
0
164
0
0
0
168
0
170
0
0
0
0
0
0
0
0
0
0
0
0
0
0
185
0
0
188
189
190
0
0
0
0
0
0
197
0
0
0
0
0
0
204
0
0
0
208
0
0
0
0
213
0
0
0
0
0
0
0
0
0
223
0
0
226
0
0
0
0
0
232
0
0
0
236
0
0
0
0
0
0
243
244
0
0
0
248
249
0
0
252
0
0
0
0
257
258
259
260
261
0
0
264
265
266
267
268
269
270
0
0
273
0
275
0
0
278
279
280
0
3
0
5
0
0
8
9
0
11
0
13
14
15
16
17
18
0
0
0
0
23
0
0
0
0
0
29
0
31
32
33
34
35
36
0
0
39
0
0
42
43
0
0
0
0
0
0
50
51
0
0
54
55
0
0
58
0
0
61
0
0
0
65
0
0
68
69
0
71
0
73
74
0
0
0
0
0
0
81
82
83
0
0
86
0
88
0
0
91
0
0
94
0
0
0
0
0
0
101
0
0
0
0
106
0
0
0
0
0
112
113
114
115
116
0
0
0
0
0
0
0
124
0
0
0
128
0
0
0
0
0
134
0
0
137
138
0
140
141
142
143
144
0
146
147
148
0
150
151
0
0
154
0
0
157
0
0
0
0
0
0
0
0
0
167
168
169
170
0
0
0
0
175
176
177
178
0
0
0
0
0
0
0
0
187
0
0
0
0
0
0
0
0
0
0
0
0
0
0
0
203
0
205
206
0
0
0
0
0
0
0
0
0
0
0
218
0
0
0
0
0
0
0
0
0
0
0
0
0
0
0
234
0
236
0
0
0
240
0
0
0
0
0
0
247
248
249
250
251
252
253
254
0
256
257
258
0
260
261
262
263
264
265
0
0
268
0
270
271
272
0
0
275
276
0
278
0
280
0
3
4
0
0
7
8
0
10
0
12
0
0
15
0
17
0
0
0
0
0
23
24
0
0
27
28
0
0
0
0
0
0
0
0
0
38
39
0
0
42
43
0
45
0
47
0
49
50
0
52
53
54
0
0
0
0
0
0
61
0
63
64
0
0
67
68
69
0
0
72
0
0
0
0
77
78
79
0
0
0
83
0
0
86
0
88
0
0
91
92
93
0
0
96
97
98
0
0
0
102
0
104
105
0
0
0
109
0
0
0
0
0
0
0
0
0
0
120
121
0
123
0
0
0
0
128
129
0
0
132
0
0
135
136
137
0
139
140
0
0
0
0
0
146
147
0
149
0
0
0
0
154
0
0
0
0
0
0
0
0
163
0
0
0
167
168
0
0
0
172
173
174
0
0
177
0
0
0
0
182
0
0
0
186
0
0
0
0
0
0
0
194
0
0
0
0
0
200
0
202
0
0
0
0
207
208
0
210
0
0
213
0
0
216
0
0
0
0
0
222
0
0
0
0
0
228
0
0
0
232
0
0
0
236
0
0
239
0
241
0
0
0
245
0
0
248
0
0
251
252
0
254
0
256
257
0
259
260
261
262
263
264
265
266
267
268
269
0
0
0
273
0
0
0
277
278
279
280
2
3
4
0
6
0
0
9
10
0
0
0
0
15
16
0
0
19
0
0
22
0
0
0
26
0
28
29
0
31
32
0
34
35
0
37
0
0
0
0
42
43
0
0
46
0
48
0
50
0
0
53
0
55
0
57
0
59
60
0
62
0
64
0
0
67
68
69
70
0
72
73
74
75
0
0
78
79
0
81
82
83
0
0
86
87
0
0
90
0
92
0
0
0
96
97
0
0
100
0
0
103
0
0
106
0
0
109
0
111
112
0
0
0
116
117
0
0
0
0
0
123
0
0
0
0
0
0
130
0
0
133
134
135
0
0
138
139
140
141
142
0
0
145
146
0
148
0
0
151
0
153
0
0
0
0
0
0
0
0
0
0
164
0
0
0
0
0
0
171
0
173
0
0
0
177
178
0
0
0
0
0
184
0
186
0
0
0
0
0
0
0
194
0
0
0
0
199
0
0
0
0
0
0
0
207
0
0
0
0
0
0
214
0
216
0
0
0
0
0
0
0
0
0
226
0
228
0
0
0
0
233
0
0
0
0
238
0
0
0
0
0
0
245
0
0
248
249
0
0
0
0
0
255
0
257
258
0
260
261
0
263
264
0
266
0
0
0
270
271
0
0
274
0
0
277
278
279
280
0
0
0
0
0
7
0
0
10
0
12
0
14
15
0
17
18
19
0
21
22
23
0
25
26
0
0
29
0
0
0
33
34
35
0
0
0
39
0
0
42
0
44
0
0
47
48
0
50
51
0
53
0
0
56
0
58
0
0
0
0
0
64
0
66
0
0
69
0
71
0
0
0
0
76
77
0
0
80
81
0
83
84
0
86
0
88
0
0
91
0
0
0
0
0
97
0
99
0
0
102
0
104
0
0
0
0
0
110
0
0
113
0
0
0
117
118
0
0
0
122
0
0
125
0
127
0
0
0
0
0
0
134
135
0
137
138
139
140
0
142
143
0
0
0
147
0
149
0
151
0
0
0
0
0
0
158
0
160
161
0
163
0
0
166
167
0
0
0
0
0
0
0
0
0
0
0
179
0
0
0
0
0
185
0
187
0
0
0
0
0
0
194
0
0
0
198
0
200
201
202
0
0
0
0
0
208
209
0
0
0
0
0
0
0
0
0
0
0
221
222
0
0
0
0
0
0
0
0
231
0
0
0
0
0
237
0
0
0
0
0
0
0
0
0
0
248
249
0
0
0
0
254
0
0
0
258
0
0
261
262
263
264
265
266
0
268
269
270
271
0
0
0
275
276
277
278
279
280
0
3
4
0
6
7
0
0
0
11
12
0
0
15
16
17
0
19
0
21
22
23
0
25
0
27
28
0
0
0
32
0
0
35
0
0
38
39
40
0
42
43
0
0
46
47
48
0
50
51
52
53
0
0
56
57
58
59
0
0
0
63
64
0
0
0
0
0
0
0
72
73
0
75
76
0
0
79
0
0
0
0
0
85
86
0
88
0
90
0
92
0
0
0
0
97
0
99
0
0
102
103
104
0
0
0
108
109
0
0
112
113
114
115
116
0
0
0
0
0
0
0
0
0
126
0
0
0
0
131
132
0
134
135
0
137
138
0
140
141
0
0
144
145
146
0
0
149
0
151
0
153
154
155
156
0
0
0
0
0
0
0
164
0
0
0
168
0
0
0
0
0
0
0
176
0
0
0
180
0
0
0
0
0
0
0
188
0
190
0
0
193
0
0
0
0
0
199
200
0
0
0
204
0
206
207
208
0
0
211
0
213
0
0
0
0
0
0
0
0
0
0
224
0
0
0
0
0
0
0
232
0
0
0
0
0
0
0
0
0
0
243
0
0
0
0
0
249
0
0
252
0
0
0
256
0
0
259
260
0
262
263
0
265
266
267
268
269
0
271
0
273
0
275
276
277
278
279
280
0
3
4
5
6
0
0
9
0
11
12
0
0
15
0
17
0
19
20
0
22
23
24
0
0
27
0
0
30
0
0
33
34
0
36
37
38
39
40
0
42
0
0
45
46
47
0
0
50
51
0
0
0
0
0
0
58
59
60
61
62
0
64
65
0
0
0
0
0
0
72
73
0
0
0
0
78
0
80
81
82
83
0
0
86
87
0
0
0
0
0
0
0
0
0
97
0
0
0
0
0
103
0
0
0
0
0
0
0
0
0
113
0
0
0
0
0
0
0
0
0
0
0
125
0
0
0
0
0
0
132
0
0
135
136
0
138
0
140
141
0
0
144
145
146
147
148
149
150
0
0
153
0
155
0
0
0
0
160
0
0
163
0
0
0
0
0
0
0
171
0
0
174
175
0
177
0
179
0
181
0
0
0
185
0
0
0
0
0
0
0
193
194
195
0
197
198
0
0
0
202
0
0
0
0
207
0
0
0
0
0
0
0
0
0
0
218
0
0
0
0
0
0
0
0
0
228
0
0
231
232
0
0
0
0
0
0
239
0
0
0
0
244
0
0
247
248
0
0
0
0
0
0
0
256
0
0
259
260
261
262
0
264
265
0
0
268
269
0
271
0
273
0
275
276
277
278
279
280
0
3
4
0
6
7
8
9
10
11
0
13
0
0
16
0
18
0
0
0
22
0
24
25
0
0
28
29
0
31
32
0
34
35
36
0
38
39
0
41
0
0
0
0
0
47
48
49
0
51
52
0
0
55
56
0
58
59
60
0
0
63
64
0
66
0
0
69
70
71
0
0
74
0
0
0
0
79
80
81
82
0
0
0
86
0
88
0
0
0
0
0
0
95
0
0
98
0
0
101
0
0
0
0
106
0
0
0
110
0
112
0
0
0
0
117
118
119
120
0
0
0
0
0
0
0
0
129
130
0
132
133
134
0
0
137
138
139
140
141
142
143
144
0
146
147
148
0
0
0
0
0
0
155
0
0
158
0
0
0
0
0
164
0
0
0
168
0
0
0
0
173
0
0
0
177
0
0
0
181
0
0
0
0
0
0
0
0
0
191
0
0
0
0
0
0
0
199
200
0
0
0
204
0
0
0
208
0
0
211
0
0
214
0
0
0
0
219
0
0
0
0
224
0
0
0
0
0
0
0
0
0
0
0
0
0
0
0
0
0
0
0
0
0
0
0
248
249
0
0
0
0
0
255
256
257
0
0
260
0
0
263
264
265
0
267
268
0
0
271
0
0
274
275
0
0
278
279
280
0
3
0
0
6
7
8
0
0
11
0
13
14
15
0
17
18
0
20
0
22
0
0
0
26
0
28
29
30
31
0
0
0
35
36
0
38
0
0
41
0
0
0
0
46
0
48
0
0
0
0
53
54
0
56
57
58
0
0
0
0
0
0
0
0
0
68
69
0
0
0
0
0
75
0
0
0
79
80
0
82
0
0
0
86
0
0
89
0
91
0
0
0
0
96
0
98
99
0
0
0
103
0
105
106
0
108
109
0
0
112
113
0
0
116
117
0
0
0
0
122
0
124
0
126
0
0
0
130
131
132
133
0
0
0
137
138
0
140
141
142
0
144
0
146
147
148
0
150
0
0
153
0
0
0
0
158
0
0
0
0
163
0
0
0
0
168
0
170
0
172
0
174
0
0
177
178
0
0
0
0
0
0
185
186
0
0
189
0
0
0
0
0
195
0
0
0
199
200
0
0
0
0
0
0
0
0
0
0
0
0
213
0
0
216
0
218
0
220
0
222
0
0
0
0
0
0
0
0
0
0
0
0
235
0
0
0
0
0
0
0
0
244
0
0
247
0
0
0
0
0
0
0
0
256
257
0
0
0
261
262
263
264
265
266
0
0
269
270
0
272
0
274
275
276
277
278
279
280
0
3
4
5
0
7
0
9
10
0
12
0
0
0
0
17
18
19
20
21
0
0
0
0
26
27
0
0
0
0
32
0
34
35
0
0
38
0
40
41
0
43
44
0
46
0
48
0
0
0
52
53
54
0
56
57
0
0
60
0
62
0
64
65
0
0
0
0
0
0
0
0
0
75
76
77
78
79
80
81
82
0
0
0
0
87
0
0
90
0
0
93
94
95
0
0
0
0
0
0
102
0
0
0
0
107
0
0
0
0
0
113
0
0
116
0
0
0
0
0
0
123
124
0
0
0
0
0
0
0
0
0
0
0
136
137
138
139
140
141
142
143
0
145
0
147
0
149
0
0
0
0
0
0
0
0
0
0
0
161
0
0
0
165
166
0
0
0
0
171
0
0
174
0
176
0
178
0
0
181
182
0
184
185
0
0
0
0
0
0
0
0
0
0
196
0
198
0
0
0
0
203
0
0
0
0
0
0
0
0
0
0
214
0
0
0
0
0
0
0
0
0
0
225
226
0
0
0
0
0
0
0
0
0
0
0
238
0
0
0
0
243
0
0
0
247
248
249
0
0
0
0
254
255
256
257
258
0
260
261
0
0
264
0
266
0
0
269
270
271
272
0
0
0
276
277
0
279
280
EOF
