DIMENSION : 280
NUMBER OF ITEMS : 279

TOUR_SECTION
1
2
242
243
241
240
239
238
237
236
235
234
233
232
231
246
245
244
247
250
251
230
229
228
227
226
225
224
223
222
221
220
219
218
217
216
215
214
213
212
211
210
209
208
207
206
205
204
203
202
201
200
144
143
142
141
140
139
149
148
147
146
145
199
198
197
196
195
194
193
192
191
190
189
188
186
187
185
184
183
182
181
176
180
179
150
178
177
151
152
156
153
155
154
129
128
127
126
125
124
123
122
121
120
119
157
158
159
160
175
161
162
163
164
165
166
167
168
169
170
171
172
173
174
107
106
105
104
103
102
101
100
99
98
97
96
95
94
93
92
91
90
89
109
108
110
111
114
115
117
116
86
85
84
87
113
112
88
83
82
81
80
79
78
77
76
75
74
73
72
71
70
69
68
67
66
65
64
58
57
56
55
54
53
52
51
50
49
48
47
46
45
44
59
63
62
118
61
60
43
42
41
40
39
38
37
36
35
34
33
32
31
30
29
28
27
26
22
25
23
24
14
13
15
12
11
10
8
9
7
6
5
4
277
276
275
274
273
272
271
16
17
18
19
20
21
130
131
132
133
134
270
269
135
136
268
267
137
138
266
265
264
263
262
261
260
259
258
257
254
253
252
255
256
249
248
278
279
3
280

PP_SECTION
2
3
4
0
6
7
8
9
0
11
12
13
14
15
16
17
18
19
20
21
22
0
24
25
26
0
28
29
30
31
32
0
34
35
0
37
38
39
40
41
42
43
44
0
46
0
48
49
0
51
52
0
54
55
0
0
58
0
60
61
62
63
64
0
66
67
0
0
70
71
72
73
74
75
76
77
78
0
0
81
0
83
84
0
0
87
88
89
90
0
92
0
94
95
0
97
98
0
100
101
0
103
104
105
106
107
0
109
110
111
112
0
114
115
116
117
118
119
0
121
0
123
0
125
126
127
0
129
130
131
132
133
134
135
136
137
138
139
0
141
142
143
0
0
146
0
0
0
0
151
152
153
154
0
0
157
158
159
160
161
162
0
164
165
166
167
168
169
170
0
172
173
174
175
0
177
0
179
0
181
182
183
0
0
186
187
188
0
190
191
0
193
194
195
196
197
0
199
200
0
0
203
0
0
206
207
0
209
210
211
0
0
0
215
0
0
0
219
220
221
222
0
0
225
226
0
228
0
0
231
0
233
234
0
0
0
0
0
0
0
242
0
0
0
246
247
248
249
250
251
0
253
254
255
256
257
258
259
260
261
262
263
264
265
0
267
268
269
270
0
272
0
274
275
276
277
278
279
280
EOF
