DIMENSION : 280
NUMBER OF ITEMS : 279

TOUR_SECTION
1
280
3
279
278
248
249
256
255
252
253
254
257
258
259
260
261
262
263
264
265
266
140
141
148
149
139
138
137
267
268
136
135
269
270
134
133
132
131
20
19
18
17
16
271
272
273
274
275
276
277
4
5
6
7
8
9
10
11
12
13
15
14
24
23
25
22
26
27
28
29
30
31
32
33
34
35
36
37
38
39
40
41
42
43
60
61
118
62
63
59
44
45
46
47
48
49
50
51
52
53
54
55
56
57
58
64
65
66
67
68
69
70
71
72
73
74
75
76
77
78
79
80
81
82
83
88
112
113
87
84
85
86
116
117
115
114
111
110
108
109
89
90
91
92
93
94
95
96
97
98
99
100
101
102
103
104
105
106
107
174
173
171
172
170
169
168
167
166
165
164
163
162
161
175
160
159
158
157
119
120
121
122
123
124
125
126
127
128
21
130
129
154
155
153
156
152
151
177
178
150
179
180
176
181
182
183
184
185
186
187
188
189
190
191
192
193
194
195
196
197
198
199
145
146
147
142
143
144
200
201
202
203
204
205
206
207
208
209
210
211
212
213
214
215
216
217
218
219
220
221
222
223
224
225
226
227
228
229
230
251
250
247
245
246
231
232
233
234
235
236
237
238
239
240
241
244
243
242
2

PP_SECTION
2
0
4
0
0
0
8
9
0
0
0
13
0
0
16
0
18
19
0
0
22
0
24
0
0
0
28
0
0
31
0
0
34
0
0
37
0
0
0
0
42
43
0
0
46
0
0
49
0
0
52
0
54
55
0
0
0
0
60
0
0
0
64
0
66
0
0
0
0
0
72
73
74
75
76
0
78
0
0
81
0
0
84
0
0
87
88
89
0
0
0
0
0
95
0
0
98
0
0
101
0
103
104
105
106
107
0
109
0
111
0
0
114
115
0
0
118
0
0
121
0
123
0
125
126
127
0
129
130
0
0
133
0
0
0
137
0
139
0
141
142
143
144
0
146
0
0
0
0
151
0
153
154
0
0
157
158
159
0
161
162
0
164
165
166
167
168
169
0
0
172
173
174
175
0
177
0
0
0
181
182
183
0
0
186
187
188
0
190
191
0
193
194
195
196
197
0
199
200
0
0
203
0
0
206
207
0
209
210
211
0
0
214
215
0
217
0
219
220
221
222
0
224
225
226
0
228
229
230
231
232
233
234
0
0
237
238
239
240
241
242
243
0
245
246
247
0
0
250
251
0
253
0
0
256
0
258
0
0
0
262
263
0
0
0
0
0
0
0
0
272
0
274
0
276
277
278
0
280
EOF
