DIMENSION : 52
NUMBER OF ITEMS : 255

TOUR_SECTION
1
22
31
18
3
17
21
42
7
2
30
23
20
50
29
16
46
44
34
35
36
39
40
37
38
48
24
5
15
6
4
25
12
28
27
26
47
13
14
52
11
51
33
43
10
9
8
41
19
45
32
49

PP_SECTION
0
0
0
0
0
0
0
0
10
0
0
0
14
0
0
0
0
0
0
0
0
0
0
0
0
0
0
0
0
0
32
0
0
0
0
0
0
0
0
0
0
0
0
0
0
0
0
49
0
51
0
0
0
0
0
0
0
8
0
0
11
0
0
14
0
0
0
0
19
0
0
0
0
0
0
0
0
0
0
0
0
32
0
0
0
0
0
0
39
0
0
0
0
0
0
0
0
0
49
0
0
0
0
0
0
0
0
0
0
0
0
11
0
0
0
0
0
0
0
0
0
0
0
0
0
0
0
0
0
0
0
0
32
0
0
0
0
0
0
0
0
0
0
0
0
0
0
0
0
49
0
0
0
0
0
0
0
0
0
0
0
0
0
0
0
0
0
0
0
0
0
0
0
0
0
0
0
0
0
0
0
0
0
32
0
0
0
0
0
0
0
0
0
0
0
0
0
0
0
0
49
0
0
0
0
0
0
0
0
0
0
9
0
0
0
0
0
0
0
0
0
19
0
0
0
0
0
0
0
0
28
0
0
0
32
0
0
0
0
0
0
0
0
0
0
0
0
45
0
0
0
49
0
0
0
EOF
