DIMENSION : 52
NUMBER OF ITEMS : 255

TOUR_SECTION
1
49
32
45
19
41
8
9
10
43
33
51
11
52
14
13
47
26
27
28
12
25
4
6
15
5
24
48
38
37
40
39
36
35
34
44
46
16
29
50
20
23
30
2
7
42
21
17
3
18
31
22

PP_SECTION
0
3
4
5
6
7
0
0
10
11
12
0
14
15
0
17
18
0
20
0
22
0
0
25
26
27
28
29
0
31
32
33
0
0
36
0
38
39
40
41
42
0
44
0
46
47
48
0
50
51
0
2
3
0
5
6
0
8
0
10
11
12
0
14
15
16
17
18
19
20
21
22
23
0
0
26
0
0
29
30
31
32
33
34
35
36
0
0
39
40
41
42
43
44
45
46
0
48
49
0
51
0
2
0
0
0
6
7
0
0
0
11
12
0
0
15
0
17
18
19
20
21
22
23
0
0
26
27
28
29
30
31
32
33
34
35
0
0
38
0
40
41
42
0
0
45
46
0
48
0
50
0
0
2
3
4
5
6
7
0
0
10
11
0
13
0
15
16
17
18
0
20
0
22
0
0
25
26
27
28
0
30
31
32
0
0
35
36
37
38
39
0
41
42
0
44
45
0
0
48
49
50
51
52
2
0
4
0
0
7
8
9
10
0
12
13
14
0
16
17
18
19
20
0
22
23
0
25
26
27
28
0
30
31
32
0
34
35
36
37
38
39
40
0
42
0
44
45
46
0
48
0
50
0
0
EOF
