DIMENSION : 1000
NUMBER OF ITEMS : 9990

TOUR_SECTION
1
817
728
324
300
77
971
757
385
524
534
136
85
615
967
372
387
964
182
842
640
718
625
767
154
238
339
862
648
886
236
604
314
398
826
287
576
657
117
396
878
112
547
243
703
738
290
125
907
781
245
603
852
169
253
467
495
959
629
787
378
623
205
541
649
729
644
484
219
384
435
392
708
459
488
571
749
780
916
550
417
774
74
416
355
143
317
97
745
759
366
443
542
773
332
988
448
433
455
874
228
533
585
986
824
153
98
30
104
268
420
296
776
942
262
702
755
822
178
591
80
52
937
275
409
320
679
882
266
741
386
562
256
655
514
544
150
190
727
512
610
561
952
797
620
292
858
521
348
633
196
608
624
250
21
871
659
422
248
884
601
260
152
651
280
688
141
681
641
155
428
711
796
819
974
821
391
855
149
226
935
680
756
47
885
592
788
472
115
400
908
535
486
493
593
844
595
404
168
856
231
14
485
203
611
283
663
451
833
737
984
939
160
10
354
129
429
872
216
490
295
69
113
802
423
792
306
518
342
235
424
766
188
949
393
764
713
346
645
598
515
224
381
981
382
206
771
565
335
536
492
157
407
48
898
446
284
501
27
8
834
319
81
108
277
627
960
543
15
426
807
123
520
697
698
810
546
673
957
784
26
548
37
177
304
82
146
779
597
264
768
194
712
945
685
583
523
232
638
75
477
301
161
667
783
214
853
794
707
973
222
972
963
38
265
91
454
578
101
131
436
60
607
363
918
913
765
552
742
95
891
946
564
465
56
93
311
230
596
352
353
861
191
812
739
147
132
706
961
895
507
450
276
215
430
432
223
795
586
866
580
647
675
105
246
128
668
820
843
473
554
537
189
13
873
761
7
267
790
212
927
911
881
589
482
410
573
752
274
525
437
456
359
33
175
928
39
278
975
837
616
218
670
932
413
721
361
201
801
630
22
298
313
785
198
700
590
457
753
869
63
867
622
369
870
103
848
969
719
481
225
408
849
639
17
399
308
733
530
778
496
926
412
705
303
261
89
464
502
20
375
584
976
504
998
674
897
124
726
137
978
923
860
909
568
529
415
50
109
84
955
309
162
660
263
293
107
732
195
418
116
41
307
839
227
90
775
322
273
461
933
401
166
471
863
445
831
689
294
165
351
458
692
880
388
736
850
244
54
701
159
617
55
110
221
271
419
966
751
985
374
710
669
469
380
613
425
799
815
167
599
92
693
626
58
665
1000
936
526
242
553
126
70
341
67
654
962
365
722
489
35
156
950
318
791
377
475
924
176
133
813
12
803
883
968
643
846
171
468
403
716
181
653
36
875
609
500
53
220
483
211
460
827
358
522
816
845
272
444
993
772
135
516
371
100
383
497
5
11
545
851
6
558
73
954
367
901
343
474
323
88
315
805
782
754
187
735
941
808
233
804
574
370
476
463
330
46
922
106
347
508
572
258
606
78
68
185
234
724
9
715
559
809
344
683
333
887
889
676
730
4
903
569
2
631
3
328
818
86
890
65
470
731
491
239
506
316
334
289
487
453
173
357
717
440
814
326
121
151
144
915
618
637
983
934
956
691
402
709
628
912
947
888
929
920
61
999
19
251
746
338
823
910
723
877
394
148
758
288
119
793
838
254
252
405
442
519
297
517
899
498
282
163
174
127
879
241
847
602
509
270
859
379
59
179
938
480
462
919
725
503
841
549
362
684
102
286
581
948
118
197
588
327
302
789
563
762
696
34
943
87
134
587
605
478
28
921
281
349
62
982
905
906
217
158
925
204
427
72
989
23
646
720
170
337
566
840
111
619
556
527
582
540
390
186
570
990
531
336
376
579
269
257
51
940
114
868
695
612
904
743
83
944
995
677
965
740
99
902
24
389
678
184
577
79
183
414
894
951
130
661
421
247
142
209
958
434
770
828
395
699
513
991
305
931
650
977
291
120
760
987
763
557
777
800
539
992
811
325
744
397
411
350
138
213
656
687
494
857
798
32
555
259
438
406
953
747
145
532
43
930
299
892
825
538
830
180
829
662
896
997
373
666
64
76
690
122
499
642
364
18
636
806
199
748
594
237
865
621
45
996
652
71
750
672
836
528
917
164
664
979
139
970
714
42
551
835
29
25
786
560
694
210
66
96
208
439
980
172
449
329
331
249
193
441
240
671
368
431
310
479
345
94
734
658
682
140
356
16
686
452
832
575
31
511
600
994
854
704
567
49
200
510
466
312
285
505
321
635
447
360
340
44
876
279
900
192
229
632
40
864
614
57
202
255
634
893
769
207
914

PP_SECTION
2
3
4
5
0
0
0
9
0
11
0
0
0
0
16
0
18
19
20
21
22
23
24
25
0
0
28
29
0
31
32
0
34
35
36
0
0
0
40
0
42
43
44
45
46
0
0
49
50
51
52
0
0
0
0
57
58
59
60
61
62
63
64
65
66
67
68
69
0
71
72
0
0
0
76
0
78
79
0
0
0
83
0
85
86
87
88
89
90
91
92
0
94
0
96
0
0
99
100
101
102
103
0
105
0
107
108
109
0
111
0
0
114
0
0
0
118
119
120
121
122
0
0
0
126
127
128
129
130
131
0
133
134
0
0
0
138
139
140
0
142
0
144
145
0
0
148
0
150
151
152
153
0
0
0
0
158
159
160
161
162
163
164
0
0
167
168
0
170
0
172
173
174
0
0
0
0
179
180
0
182
183
184
0
186
187
0
0
0
0
192
193
0
0
0
197
0
199
200
0
202
0
204
0
0
207
208
209
210
211
212
213
214
215
216
217
0
0
0
221
222
223
224
225
226
0
0
229
0
0
0
0
0
0
0
237
0
239
240
241
0
0
0
0
0
247
0
249
0
251
252
0
254
255
256
257
258
259
0
0
0
0
0
0
0
0
0
269
270
0
0
0
0
0
0
0
0
279
0
281
282
0
0
285
286
0
288
289
0
291
292
0
0
0
296
297
0
299
300
301
302
303
304
305
306
307
0
0
310
0
312
313
0
315
316
0
318
319
320
321
322
323
324
325
326
327
328
329
330
331
332
333
334
0
336
337
338
0
340
341
342
343
0
345
0
0
0
349
350
0
0
0
0
0
356
357
0
0
360
0
362
0
364
365
0
367
368
369
370
371
0
373
0
0
376
0
0
379
0
0
0
0
0
0
0
0
0
389
390
0
0
0
394
395
0
397
0
399
0
401
402
403
404
405
406
407
408
0
0
411
412
413
414
415
0
0
418
419
0
421
0
0
0
0
0
427
0
0
0
431
0
0
434
435
436
437
438
439
440
441
442
0
0
0
0
447
0
449
0
0
452
453
0
0
0
0
0
0
0
461
462
463
464
465
466
467
0
0
470
0
0
0
474
475
476
0
478
479
480
0
0
0
0
0
0
487
0
0
0
491
0
0
494
495
496
497
498
499
0
0
0
503
504
505
506
507
508
509
510
511
512
513
514
0
0
517
0
519
0
0
0
0
0
0
0
527
528
529
530
531
532
0
0
0
0
0
538
539
540
0
0
0
0
0
0
0
0
549
0
551
0
0
0
555
556
557
558
559
560
0
562
563
564
0
566
567
0
569
570
571
572
0
0
575
0
577
0
579
580
581
582
0
0
0
0
587
588
0
0
0
0
0
594
0
0
0
0
599
600
601
602
603
604
605
0
607
608
609
610
611
612
613
614
0
0
0
618
619
0
621
0
0
0
0
626
0
628
0
0
631
632
0
634
635
636
637
638
0
0
0
642
643
0
0
646
0
0
0
650
0
652
653
654
655
656
0
658
0
0
661
662
663
664
665
666
0
0
0
0
671
672
0
0
0
676
677
678
0
0
0
682
0
684
0
686
687
0
0
690
691
0
0
694
695
696
0
0
699
0
701
0
0
704
0
0
0
0
709
0
711
712
0
714
715
716
717
0
0
720
0
0
723
724
725
726
0
728
729
730
731
0
0
734
735
736
737
738
739
740
0
742
743
744
0
746
747
748
0
750
0
0
753
754
755
756
757
758
0
760
0
762
763
0
0
0
0
0
769
770
0
0
0
0
0
0
777
0
0
0
0
782
783
0
0
786
0
788
789
790
791
0
793
794
795
796
0
798
0
800
801
0
803
804
805
806
0
0
809
0
811
0
0
0
0
816
0
818
0
0
0
0
823
0
825
0
0
828
829
830
0
832
0
0
835
836
0
838
0
840
841
0
0
0
845
846
847
0
849
850
0
0
0
854
855
856
857
0
859
860
0
0
0
864
865
0
867
868
0
870
0
0
0
0
0
876
877
0
879
0
0
0
0
0
0
0
887
888
889
0
0
892
893
894
0
896
897
898
899
900
0
902
903
904
905
906
0
0
0
910
0
912
0
914
915
0
917
0
919
920
921
922
0
0
925
0
927
928
929
930
931
932
933
934
935
936
0
938
0
940
0
0
943
944
0
0
947
948
0
0
951
0
953
954
955
956
957
958
0
0
0
0
0
0
965
966
967
968
0
970
0
0
0
0
0
0
977
0
979
980
0
982
983
0
985
986
987
0
989
990
991
992
0
994
995
996
997
0
999
0
2
3
4
5
6
0
0
9
0
0
0
0
14
15
16
17
18
19
0
0
22
23
24
25
0
27
28
29
0
31
32
0
34
0
0
0
0
0
40
41
42
43
44
45
46
0
0
49
0
51
52
53
54
55
56
57
58
59
0
61
62
63
64
65
66
67
68
0
0
71
72
73
0
75
76
0
78
79
0
0
0
83
0
0
86
87
88
0
0
0
0
93
94
0
96
0
0
99
0
101
102
103
104
0
0
0
0
109
110
111
112
0
114
0
0
0
118
119
120
121
122
0
0
0
0
127
0
0
130
0
0
0
134
0
0
0
138
139
140
141
142
143
144
145
146
147
148
149
150
151
0
0
0
155
156
157
158
159
160
0
0
163
164
165
0
0
0
0
170
0
172
173
174
0
0
177
178
179
180
181
182
183
184
185
186
187
188
189
190
191
192
193
0
195
196
197
198
199
200
0
202
0
204
0
0
207
208
209
210
0
0
213
0
0
0
217
0
0
220
221
0
223
0
225
0
0
0
229
0
0
0
0
0
235
236
237
0
239
240
241
0
0
0
0
246
247
248
249
0
251
252
0
254
255
0
257
258
259
0
0
0
263
0
265
266
267
0
269
270
0
0
0
0
0
0
0
278
279
280
281
282
0
0
285
286
287
288
289
0
291
0
0
0
0
0
297
0
299
0
0
302
303
304
305
306
0
0
0
310
311
312
0
0
0
0
0
0
0
0
321
0
0
0
325
326
327
328
329
330
331
332
333
334
0
336
337
338
0
340
341
0
343
344
345
346
347
348
349
350
0
0
0
0
0
356
357
0
0
360
0
362
0
364
365
0
367
368
0
0
0
0
373
374
375
376
0
0
379
380
0
0
383
0
0
0
0
388
389
390
391
392
393
394
395
0
397
0
0
0
0
402
0
0
405
406
0
0
0
0
411
0
413
414
0
0
0
0
0
0
421
422
423
0
0
0
427
428
429
430
431
432
0
434
0
0
437
438
439
440
441
442
0
444
0
0
447
448
449
450
0
452
453
0
0
0
0
458
459
460
461
462
463
464
465
466
0
468
469
470
471
472
473
474
0
0
0
478
479
480
0
0
0
0
485
0
487
0
489
0
491
0
493
494
0
0
0
498
499
0
501
502
503
504
505
506
507
0
509
510
511
0
513
0
0
516
517
518
519
520
521
522
523
0
0
0
527
528
529
530
531
532
0
0
0
0
0
538
539
540
0
0
0
0
0
0
0
0
549
0
551
0
0
0
555
556
557
0
0
560
0
0
563
0
565
566
567
0
569
570
0
0
0
574
575
0
577
578
579
580
581
582
583
584
0
0
587
588
0
590
591
592
593
594
0
0
0
0
0
600
0
602
0
0
605
606
0
0
609
0
611
612
613
614
0
0
0
618
619
0
621
0
0
0
0
626
627
628
629
630
0
632
0
634
635
636
637
0
0
0
0
642
643
0
0
646
0
0
0
650
0
652
0
0
0
656
0
658
0
0
661
662
663
664
665
666
667
668
669
670
671
672
0
674
0
676
677
678
0
0
0
682
683
684
685
686
687
0
0
690
691
0
0
694
695
696
697
698
699
700
701
0
0
704
705
706
707
708
709
710
711
712
713
714
715
716
717
0
719
720
721
722
723
724
725
0
0
0
0
730
731
732
0
734
735
736
737
0
0
740
0
0
743
744
0
746
747
748
0
750
0
0
0
754
0
0
0
758
0
760
0
762
763
0
0
0
0
0
769
770
0
0
0
0
0
0
777
778
779
0
781
782
783
784
785
786
787
788
789
790
791
0
793
0
0
0
0
798
799
800
801
0
0
0
0
806
0
808
809
0
811
0
813
814
0
0
0
818
0
0
0
0
823
824
825
826
827
828
829
830
0
832
0
0
835
836
0
838
839
840
841
842
843
0
845
846
847
0
0
0
851
0
0
854
0
0
857
0
859
860
0
862
863
864
865
0
0
868
0
0
0
872
873
874
0
876
877
878
879
880
881
882
0
0
0
0
0
888
889
890
0
892
893
894
895
896
0
0
899
900
0
902
0
904
905
906
907
0
0
910
0
912
0
914
915
0
917
0
919
920
921
0
0
0
925
0
0
0
929
930
931
932
0
934
0
936
0
938
939
940
941
0
943
944
945
946
947
948
0
950
951
0
953
954
955
956
957
958
959
960
0
962
0
0
965
0
0
0
0
970
0
0
0
0
0
0
977
0
979
980
981
982
983
0
0
0
987
0
989
990
991
992
0
994
995
996
997
0
999
0
2
3
4
5
6
7
8
9
0
0
0
0
0
0
16
0
18
19
20
0
22
23
24
25
0
0
28
29
0
31
32
33
34
35
36
37
38
39
40
41
42
43
44
45
46
0
0
49
50
51
0
0
0
55
56
57
58
59
60
61
62
0
64
65
66
0
0
69
70
71
72
73
74
75
76
0
78
79
80
81
82
83
84
0
86
87
88
0
90
0
0
0
94
0
96
0
0
99
100
0
102
0
0
0
106
0
0
0
0
111
112
113
114
0
0
0
118
119
120
121
122
0
0
0
0
127
0
0
130
0
0
0
134
135
136
137
138
139
140
0
142
0
144
145
146
0
148
0
0
151
152
153
0
0
0
0
158
159
0
0
162
163
164
165
166
167
0
0
170
0
172
173
174
175
176
0
0
179
180
0
0
183
184
185
186
187
188
189
0
0
192
193
0
195
0
197
0
199
200
0
202
0
204
0
0
207
208
209
210
211
212
213
214
0
0
217
0
0
220
221
222
0
0
0
0
0
0
229
0
0
0
233
234
0
0
237
0
239
240
241
0
0
244
0
0
247
0
249
0
251
252
253
254
255
0
257
258
259
0
0
0
0
0
0
0
0
0
269
270
0
272
273
274
275
276
277
278
279
0
281
282
283
284
285
286
0
288
289
0
291
0
293
294
0
0
297
0
299
0
301
302
0
0
305
0
0
308
309
310
0
312
0
0
0
316
0
0
0
0
321
322
323
324
325
326
327
0
329
0
331
332
333
334
335
336
337
338
0
340
341
342
343
344
345
0
0
0
349
350
0
0
0
0
0
356
0
0
0
360
0
362
0
364
365
0
0
368
369
370
0
0
373
0
0
376
0
0
379
0
0
0
0
0
0
0
0
0
389
390
0
0
0
394
395
0
397
0
0
0
0
402
0
404
405
406
407
408
409
410
411
412
0
414
0
416
417
418
419
0
421
0
0
0
0
0
427
0
0
0
431
432
433
434
435
436
437
438
439
440
441
442
0
444
445
0
447
448
449
450
0
452
453
0
0
0
0
0
0
460
461
462
463
464
465
466
467
468
469
470
471
472
473
0
0
0
0
478
479
480
481
482
483
484
0
0
487
0
0
0
491
0
0
494
0
0
497
498
499
500
0
0
503
504
505
506
0
508
509
510
511
0
513
0
0
0
517
0
519
0
0
0
0
0
0
0
527
528
529
0
531
532
0
534
535
536
537
538
539
540
541
0
0
0
545
0
0
0
549
0
551
0
0
554
555
556
557
558
0
560
561
562
563
0
0
566
567
568
569
570
0
0
0
574
575
576
577
0
579
0
581
582
0
0
0
0
587
588
589
0
0
0
593
594
0
0
0
0
0
600
0
602
0
0
605
606
0
0
0
0
611
612
613
614
0
616
617
618
619
0
621
0
0
0
0
0
0
628
629
630
631
632
0
634
635
636
637
0
0
0
0
642
0
0
0
646
0
0
0
650
0
652
0
0
0
656
0
658
0
0
661
662
0
664
0
666
0
0
0
0
671
672
673
674
675
676
677
678
0
0
0
682
683
684
0
686
687
0
0
690
691
692
693
694
695
696
0
0
699
0
701
0
0
704
0
0
0
0
709
0
0
0
0
714
715
716
717
0
719
720
0
0
723
724
725
726
0
0
0
0
731
0
0
734
735
0
0
0
0
740
0
0
743
744
0
746
747
748
0
750
0
0
0
0
0
0
0
758
0
760
0
762
763
764
765
766
767
0
769
770
771
772
0
0
775
0
777
778
0
0
0
0
0
0
0
786
787
788
789
790
791
792
793
0
0
0
0
798
0
800
0
0
0
804
805
806
807
0
0
0
811
0
813
814
815
0
0
0
0
0
0
0
823
824
825
826
827
828
829
830
0
832
0
0
835
836
0
838
0
840
841
0
843
0
845
846
847
848
849
0
851
0
0
854
0
0
857
0
859
0
0
0
863
864
865
866
0
868
0
0
0
0
873
874
0
876
877
878
879
880
0
0
883
884
885
886
887
888
889
890
0
892
893
894
0
896
897
0
899
900
901
902
903
904
905
906
0
0
0
910
0
912
913
914
915
916
917
0
919
920
921
922
923
0
925
0
0
0
929
930
931
0
0
934
0
936
0
938
939
940
941
0
943
944
0
0
947
948
0
950
951
0
953
954
0
956
0
958
0
960
961
962
963
0
965
0
0
0
0
970
0
0
973
974
0
0
977
978
979
980
0
982
983
0
0
0
987
0
989
990
991
992
993
994
995
996
997
998
999
1000
2
3
4
5
6
0
8
9
10
11
12
0
0
0
16
0
18
19
0
0
0
23
24
25
0
27
28
29
30
31
32
0
34
35
36
37
0
0
40
41
42
43
44
45
46
0
48
49
50
51
0
0
0
0
56
57
58
59
0
61
62
0
64
65
66
67
68
0
70
71
72
73
74
0
76
0
0
79
0
0
0
83
84
0
0
87
0
0
90
91
0
0
94
0
96
0
0
99
0
0
102
0
0
0
0
0
0
0
0
111
0
0
114
0
116
0
118
119
120
121
122
0
0
0
0
127
0
0
130
0
0
0
134
0
0
0
138
139
140
0
142
0
0
145
0
0
148
0
0
151
0
0
0
0
156
0
158
0
0
0
0
163
164
165
166
167
168
0
170
171
172
173
174
0
0
0
0
179
180
181
182
183
184
185
186
187
0
0
0
191
192
193
0
0
196
197
198
199
200
201
202
203
204
205
0
207
208
209
210
0
212
213
214
215
216
217
0
0
220
221
222
223
0
0
0
0
0
229
0
0
0
0
234
0
0
237
0
239
240
241
242
243
244
0
246
247
248
249
250
251
252
0
254
255
0
257
258
259
260
0
0
0
264
265
266
0
0
269
270
271
272
0
0
0
0
0
0
279
0
281
282
0
0
285
286
0
288
289
0
291
0
0
294
295
296
297
0
299
0
0
302
0
0
305
0
0
0
309
310
311
312
0
0
0
316
0
0
0
0
321
322
323
0
325
326
327
328
329
330
331
332
333
334
0
336
337
338
0
340
0
0
0
344
345
0
347
348
349
350
0
352
353
354
0
356
357
0
0
360
0
362
363
364
0
0
367
368
369
370
0
0
373
0
0
376
0
0
379
380
381
0
0
0
0
0
0
0
389
390
0
0
0
394
395
0
397
0
399
0
0
402
403
0
405
406
0
408
409
410
411
412
413
414
415
0
0
0
0
0
421
422
0
0
0
0
427
0
0
0
431
0
0
434
435
436
437
438
439
440
441
442
443
444
0
0
447
0
449
450
451
452
453
454
455
456
457
458
0
460
461
462
0
0
0
466
467
468
469
470
471
472
0
0
0
0
0
478
479
480
0
0
0
0
0
0
487
488
489
490
491
0
0
494
495
496
497
498
499
500
0
0
503
0
505
506
0
0
509
510
511
512
513
0
0
0
517
518
519
520
521
522
523
524
525
526
527
528
0
0
531
532
533
0
0
0
537
538
539
540
0
0
0
0
0
0
0
548
549
0
551
0
553
554
555
556
557
558
559
560
0
0
563
0
0
566
567
0
569
570
0
572
0
574
575
0
577
0
579
0
581
582
583
584
585
586
587
588
0
0
0
0
0
594
0
596
0
598
599
600
0
602
0
0
605
606
0
0
0
0
0
612
0
614
0
0
0
618
619
0
621
622
0
0
0
626
627
628
629
630
631
632
0
634
635
636
637
0
0
0
0
642
643
0
0
646
0
0
0
650
0
652
0
0
0
656
0
658
659
660
661
662
0
664
665
666
0
0
669
670
671
672
673
674
675
676
677
678
679
680
681
682
0
684
685
686
687
0
689
690
691
0
0
694
695
696
0
0
699
0
701
0
0
704
705
0
0
0
709
710
711
712
713
714
0
0
717
0
0
720
0
0
723
0
725
0
727
728
729
0
0
0
0
734
0
0
737
0
739
740
0
0
743
744
0
746
747
748
0
750
0
0
0
0
0
0
0
758
0
760
0
762
763
0
0
0
0
768
769
770
771
772
0
0
775
0
777
0
0
0
0
782
783
784
785
786
787
0
789
0
0
0
793
0
0
0
0
798
0
800
0
0
803
804
805
806
807
808
809
810
811
0
0
814
0
816
0
818
0
0
0
822
823
0
825
826
827
828
829
830
831
832
0
0
835
836
0
838
0
840
841
0
0
0
0
0
847
0
849
850
851
0
0
854
0
0
857
0
859
0
0
0
0
864
865
0
867
868
869
870
871
872
873
874
875
876
877
0
879
880
0
0
0
0
0
886
887
888
889
890
891
892
893
894
0
896
0
0
899
900
0
902
903
904
905
906
0
0
0
910
0
912
0
914
915
916
917
0
919
920
921
922
0
0
925
0
0
0
929
930
931
0
0
934
0
936
937
938
0
940
941
0
943
944
0
0
947
948
0
950
951
952
953
954
955
956
0
958
959
960
961
0
0
0
965
0
0
0
0
970
0
0
0
0
975
976
977
978
979
980
0
982
983
0
985
0
987
0
989
990
991
992
993
994
995
996
997
0
999
0
0
3
4
5
6
7
8
9
10
11
12
13
0
0
16
17
18
19
20
0
0
23
24
25
0
0
28
29
0
31
32
0
34
0
0
0
38
39
40
0
42
43
44
45
46
0
0
49
0
51
0
0
54
55
56
57
58
59
60
61
62
0
64
0
66
0
0
0
0
71
72
73
0
0
76
0
0
79
0
0
82
83
0
0
86
87
88
0
90
0
92
0
94
95
96
0
0
99
100
0
102
103
0
0
0
0
0
0
0
111
0
0
114
115
116
117
118
119
120
121
122
0
0
0
0
127
0
0
130
0
0
0
134
135
136
137
138
139
140
0
142
0
144
145
0
0
148
0
0
151
0
0
0
0
156
157
158
159
0
0
0
163
164
165
166
167
0
0
170
171
172
173
174
0
176
0
0
179
180
0
0
183
184
0
186
187
0
0
0
0
192
193
194
195
196
197
0
199
200
0
202
0
204
0
0
207
208
209
210
0
0
213
0
0
0
217
0
0
0
0
0
0
0
0
0
0
0
229
0
0
0
0
0
0
0
237
238
239
240
241
242
243
244
0
0
247
0
249
0
251
252
0
254
255
0
257
258
259
0
261
262
263
264
265
266
267
268
269
270
271
272
0
0
0
0
0
0
279
0
281
282
0
0
285
286
0
288
0
0
291
0
0
294
0
0
297
0
299
0
0
302
303
0
305
0
0
0
0
310
0
312
313
0
315
316
0
0
0
0
321
0
0
0
325
326
327
328
329
0
331
0
333
334
335
336
337
338
0
340
0
0
0
0
345
0
347
348
349
350
0
0
0
0
0
356
357
0
0
360
0
362
363
364
365
366
367
368
369
0
0
0
373
0
0
376
0
0
379
0
0
0
0
0
0
0
0
0
389
390
0
0
0
394
395
396
397
398
399
0
0
402
403
0
405
406
407
408
409
0
411
0
413
414
0
0
0
418
0
0
421
0
423
424
425
0
427
0
0
0
431
0
0
434
0
0
0
438
439
440
441
442
0
0
0
0
447
0
449
0
0
452
453
454
0
0
0
0
0
460
461
462
463
464
465
466
0
0
0
470
0
0
0
474
475
476
477
478
479
480
0
0
0
0
0
0
487
488
0
0
0
0
0
494
0
0
0
498
499
0
0
502
503
0
505
506
507
508
509
510
511
0
513
0
0
516
517
518
519
520
0
0
523
0
525
526
527
528
529
0
531
532
0
0
535
536
537
538
539
540
541
542
543
544
545
0
0
0
549
0
551
0
0
0
555
556
557
0
559
560
0
0
563
0
0
566
567
0
569
570
0
0
0
0
575
0
577
578
579
580
581
582
0
0
0
0
587
588
0
0
0
0
0
594
0
596
597
598
599
600
0
602
0
0
605
606
0
0
0
0
0
612
0
614
0
616
617
618
619
0
621
622
623
0
0
0
0
628
0
0
631
632
0
634
635
636
637
638
639
0
0
642
643
644
645
646
0
0
0
650
0
652
0
0
0
656
0
658
0
0
661
662
0
664
0
666
667
668
669
670
671
672
0
674
675
676
677
678
679
680
681
682
683
684
685
686
687
0
0
690
691
692
693
694
695
696
0
0
699
0
0
702
703
704
705
706
707
708
709
710
711
712
0
714
715
0
717
0
0
720
0
0
723
724
725
0
0
0
0
730
731
732
733
734
735
0
0
0
0
740
0
0
743
744
0
746
747
748
0
750
751
0
0
754
755
756
757
758
0
760
0
762
763
0
0
0
0
768
769
770
0
0
0
0
0
0
777
0
0
0
0
782
783
784
785
786
0
0
789
0
0
792
793
794
795
796
797
798
799
800
0
0
0
804
805
806
0
0
0
0
811
812
813
814
0
0
0
818
0
0
0
0
823
0
825
0
0
828
829
830
0
832
833
834
835
836
837
838
839
840
841
0
0
844
845
0
847
0
0
0
851
0
0
854
0
0
857
0
859
860
861
862
863
864
865
866
867
868
0
0
0
0
0
0
0
876
877
0
879
0
0
0
883
0
885
0
887
888
889
890
0
892
893
894
895
896
897
898
899
900
0
902
903
904
905
906
0
0
909
910
911
912
0
914
915
0
917
918
919
920
921
0
0
0
925
0
0
0
929
930
931
0
0
934
935
936
937
938
939
940
0
0
943
944
945
946
947
948
0
0
951
0
953
954
0
956
0
958
0
0
0
0
0
0
965
0
0
0
0
970
0
972
973
0
0
0
977
978
979
980
0
982
983
0
0
0
987
0
989
990
991
992
0
994
995
996
997
998
999
1000
2
3
4
0
0
0
0
9
0
11
12
0
0
0
16
17
18
19
20
21
0
23
24
25
0
0
28
29
0
31
32
0
34
0
0
0
0
0
40
0
42
43
44
45
0
0
0
49
0
51
52
53
54
55
56
57
58
59
60
61
62
63
64
65
66
67
68
0
0
71
72
0
0
0
76
0
78
79
0
0
0
83
84
0
86
87
0
0
90
91
92
93
94
0
96
0
0
99
0
0
102
0
0
0
106
0
0
0
0
111
0
0
114
0
116
117
118
119
120
121
122
0
124
0
0
127
0
0
130
0
0
0
134
135
0
0
138
139
140
141
142
0
144
145
146
147
148
0
0
151
0
0
0
0
156
0
158
159
160
0
0
163
164
0
166
167
0
0
170
0
172
173
174
175
176
177
178
179
180
181
182
183
184
185
186
187
0
0
0
0
192
193
0
195
196
197
198
199
200
0
202
0
204
0
0
207
208
209
210
211
212
213
214
0
0
217
218
0
220
0
0
0
0
225
0
227
0
229
230
231
232
233
234
235
0
237
0
239
240
241
0
0
0
0
246
247
0
249
250
251
252
0
254
255
0
257
258
259
0
0
262
263
264
265
0
0
0
269
270
271
272
273
274
0
0
0
0
279
0
281
282
0
0
285
286
0
288
289
0
291
0
0
294
0
0
297
0
299
0
0
302
303
0
305
0
0
0
0
310
0
312
313
0
315
316
0
0
0
320
321
322
0
0
325
326
327
328
329
330
331
0
0
334
335
336
337
338
0
340
0
0
343
344
345
0
347
0
349
350
0
0
0
0
0
356
357
358
0
360
0
362
0
364
0
0
0
368
369
370
371
0
373
0
0
376
377
0
379
380
381
0
0
0
385
386
387
388
389
390
391
392
393
394
395
0
397
398
399
0
0
402
403
0
405
406
407
0
0
0
411
0
0
414
0
0
0
0
0
0
421
0
0
0
425
426
427
0
0
0
431
0
433
434
435
436
437
438
439
440
441
442
0
0
445
0
447
0
449
0
0
452
453
0
0
0
0
0
459
460
0
462
463
0
0
466
0
0
0
470
0
0
0
0
0
476
0
478
479
480
0
0
483
484
485
486
487
0
0
0
491
0
0
494
0
0
0
498
499
0
0
0
503
0
505
506
0
508
509
510
511
0
513
0
0
0
517
0
519
0
0
522
523
0
0
0
527
528
0
0
531
532
0
0
0
0
0
538
539
540
541
542
0
0
545
0
0
548
549
550
551
0
0
0
555
556
557
558
559
560
0
0
563
0
0
566
567
0
0
570
0
572
0
574
575
0
577
578
579
580
581
582
0
0
0
0
587
588
0
0
0
0
0
594
0
596
597
598
0
600
0
602
0
0
605
606
607
608
609
610
0
612
613
614
0
616
617
0
619
0
621
622
623
0
0
0
0
628
0
0
631
632
633
634
635
636
637
0
0
0
0
642
643
0
645
646
0
0
649
650
651
652
0
0
0
656
0
658
0
0
661
662
0
664
0
666
0
0
0
0
671
672
0
0
0
676
677
678
0
0
0
682
683
684
685
686
687
0
0
690
691
0
0
694
695
696
0
0
699
0
701
702
0
704
0
706
707
708
709
710
711
0
0
714
715
716
717
718
0
720
721
722
723
724
725
726
727
0
0
730
731
732
733
734
0
0
0
0
0
740
0
0
743
744
0
746
747
748
749
750
0
0
0
0
0
0
0
758
759
760
761
762
763
0
0
0
0
0
769
770
0
772
0
0
0
0
777
0
779
0
0
0
0
0
785
786
0
0
789
790
791
792
793
794
795
0
0
798
0
800
0
0
0
804
0
806
0
0
809
0
811
0
813
814
815
0
0
818
0
0
0
0
823
0
825
0
827
828
829
830
0
832
0
0
835
836
837
838
839
840
841
0
0
0
0
0
847
0
0
0
851
0
0
854
0
0
857
0
859
860
861
0
0
864
865
0
0
868
0
0
0
0
0
0
875
876
877
0
879
880
881
0
883
884
885
886
887
888
0
0
0
892
893
894
0
896
897
0
899
900
901
902
903
904
905
906
0
0
0
910
0
912
0
914
915
0
917
918
919
920
921
922
923
924
925
0
0
0
929
930
931
932
0
934
0
0
0
938
0
940
941
942
943
944
945
946
947
948
0
950
951
0
953
0
0
956
0
958
959
960
0
962
0
0
965
0
0
0
969
970
971
0
0
0
975
976
977
978
979
980
0
982
983
0
0
0
987
0
989
990
991
992
0
994
995
996
997
998
999
0
2
3
4
0
0
0
8
9
10
11
12
13
0
0
16
0
18
19
0
0
0
23
24
25
0
0
28
29
0
31
32
0
34
35
36
37
38
39
40
0
42
43
44
45
0
0
0
49
0
51
0
0
0
55
0
57
0
59
0
61
62
63
64
65
66
0
0
0
0
71
72
0
0
0
76
0
78
79
0
0
82
83
84
85
86
87
88
0
0
0
0
0
94
0
96
0
0
99
100
0
102
0
0
0
106
0
0
0
0
111
0
0
114
115
116
117
118
119
120
121
122
0
0
0
0
127
0
0
130
131
132
133
134
135
136
137
138
139
140
141
142
143
144
145
0
0
148
0
0
151
0
0
0
0
156
0
158
0
0
0
162
163
164
165
166
167
0
0
170
171
172
173
174
0
0
0
0
179
180
181
182
183
184
185
186
187
0
0
0
0
192
193
194
195
0
197
0
199
200
201
202
0
204
0
0
207
208
209
210
0
0
213
0
0
0
217
218
219
220
0
0
0
0
0
0
227
0
229
230
0
0
0
0
0
0
237
238
239
240
241
242
243
0
0
0
247
0
249
0
251
252
253
254
255
0
257
0
259
0
0
0
263
0
0
0
0
268
269
270
271
0
0
0
0
0
277
278
279
0
281
282
0
0
285
286
0
288
289
0
291
292
293
294
0
0
297
0
299
0
0
302
0
0
305
0
0
0
0
310
0
312
313
314
315
316
0
318
0
0
321
0
0
0
325
326
327
328
329
330
331
332
333
334
335
336
337
338
339
340
0
0
0
344
345
346
347
348
349
350
351
352
353
0
0
356
357
0
359
360
361
362
363
364
0
0
367
368
0
0
371
0
373
374
375
376
0
0
379
0
0
0
383
0
0
386
387
388
389
390
391
392
0
394
395
0
397
398
399
400
401
402
0
0
405
406
0
0
0
410
411
412
0
414
0
0
0
0
419
0
421
422
423
0
425
0
427
428
0
430
431
0
0
434
0
0
0
438
439
440
441
442
0
0
0
0
447
0
449
0
0
452
453
454
455
456
457
458
0
460
0
462
0
0
0
466
0
0
0
470
471
0
0
474
475
476
0
478
479
480
481
482
0
0
0
0
487
0
0
0
491
492
493
494
0
0
0
498
499
0
0
502
503
504
505
0
0
0
509
510
511
512
513
0
515
516
517
0
519
520
521
522
523
0
0
526
527
528
0
0
531
532
0
0
0
0
0
538
539
540
0
0
0
0
545
0
547
548
549
0
551
0
0
0
555
556
557
558
559
560
0
0
563
0
0
566
567
568
569
570
0
572
573
574
575
0
577
0
579
0
581
582
0
0
0
586
587
588
589
0
0
0
593
594
595
596
597
0
599
600
0
602
0
0
605
0
0
608
0
0
0
612
0
614
0
0
0
618
619
0
621
622
623
624
625
626
627
628
629
0
631
632
0
634
635
636
637
638
639
0
0
642
643
0
0
646
0
0
0
650
0
652
653
654
655
656
0
658
0
660
661
662
0
664
0
666
0
0
669
0
671
672
0
0
0
676
677
678
0
0
0
682
683
684
685
686
687
0
0
690
691
0
0
694
695
696
697
698
699
0
0
0
0
704
0
0
0
0
709
0
0
0
0
714
0
0
717
0
0
720
0
0
723
724
725
726
0
0
0
730
0
0
0
734
735
0
0
0
0
740
0
0
743
744
0
746
747
748
0
750
0
0
0
0
0
0
0
758
0
760
0
762
763
0
0
0
0
0
769
770
0
0
0
0
0
0
777
0
0
0
0
0
0
0
0
786
0
0
789
790
791
0
793
0
0
0
0
798
0
800
0
0
0
0
0
806
807
808
809
0
811
0
0
814
815
0
817
818
819
820
0
0
823
0
825
826
827
828
829
830
831
832
0
0
835
836
0
838
0
840
841
842
0
0
845
846
847
0
0
0
0
0
0
854
855
856
857
858
859
0
0
0
0
864
865
0
0
868
0
870
0
0
0
0
0
876
877
878
879
0
0
0
0
0
0
0
887
888
889
890
0
892
893
894
895
896
897
0
899
900
901
902
903
904
905
906
907
908
0
910
0
912
0
914
915
0
917
0
919
920
921
922
923
924
925
0
0
0
929
930
931
0
0
934
0
0
0
938
0
940
941
942
943
944
0
0
947
948
0
0
951
0
953
954
955
956
0
958
0
0
0
0
0
0
965
0
0
968
969
970
0
0
0
0
975
976
977
0
979
980
0
982
983
0
985
986
987
0
989
990
991
992
0
994
995
996
997
998
999
1000
0
0
4
5
6
7
0
9
0
11
0
0
0
0
16
0
18
19
0
0
0
23
24
25
0
0
28
29
0
31
32
0
34
35
36
0
0
0
40
0
42
43
44
45
46
0
0
49
0
51
0
53
54
55
0
57
58
59
60
61
62
0
64
65
66
0
68
0
0
71
72
0
0
0
76
0
78
79
0
0
0
83
0
0
0
87
0
0
0
0
0
0
94
0
96
0
0
99
100
0
102
0
0
0
106
107
0
109
0
111
0
0
114
0
0
0
118
119
120
121
122
0
0
0
0
127
0
0
130
131
132
133
134
135
0
137
138
139
140
0
142
0
144
145
0
0
148
0
0
151
0
0
154
155
156
157
158
0
0
0
0
163
164
165
166
167
0
0
170
171
172
173
174
175
0
0
0
179
180
0
182
183
184
185
186
187
0
189
0
0
192
193
0
195
0
197
0
199
200
0
202
203
204
0
206
207
208
209
210
211
212
213
214
0
0
217
0
0
0
0
0
0
0
0
0
0
0
229
0
0
0
0
0
0
0
237
0
239
240
241
0
243
244
0
0
247
0
249
250
251
252
0
254
255
0
257
258
259
0
0
0
263
264
0
0
267
268
269
270
271
272
0
0
0
0
0
0
279
0
281
282
0
284
285
286
0
288
289
0
291
0
0
0
0
0
297
298
299
300
301
302
0
0
305
306
307
308
309
310
311
312
313
0
315
316
0
0
0
0
321
0
323
0
325
326
327
0
329
0
331
332
333
334
0
336
337
338
0
340
341
342
343
0
345
0
0
0
349
350
351
352
353
354
355
356
357
358
359
360
361
362
0
364
365
0
0
368
0
0
0
0
373
374
375
376
0
0
379
380
0
0
0
0
0
0
0
388
389
390
0
0
0
394
395
0
397
398
399
0
0
402
0
404
405
406
407
0
0
0
411
412
413
414
0
0
0
0
0
0
421
0
0
0
0
0
427
0
0
0
431
0
0
434
0
0
0
438
439
440
441
442
443
444
445
0
447
0
449
0
0
452
453
0
0
0
0
458
459
460
461
462
463
464
465
466
467
468
469
470
471
472
473
474
475
476
477
478
479
480
0
0
0
0
0
0
487
0
0
0
491
0
0
494
0
0
0
498
499
0
0
0
503
504
505
506
507
508
509
510
511
0
513
514
515
0
517
0
519
0
0
0
0
0
0
526
527
528
0
0
531
532
0
0
0
0
537
538
539
540
0
0
0
0
545
546
0
0
549
0
551
0
0
0
555
556
557
0
0
560
0
0
563
0
565
566
567
568
569
570
0
572
0
0
575
0
577
0
579
580
581
582
583
584
585
586
587
588
589
590
591
0
0
594
595
596
0
0
0
600
0
602
0
0
605
606
607
0
609
610
611
612
613
614
0
0
0
618
619
0
621
0
0
0
625
626
627
628
629
0
631
632
0
634
635
636
637
0
0
0
0
642
643
0
645
646
647
648
649
650
0
652
0
0
0
656
0
658
0
0
661
662
0
664
0
666
0
0
669
0
671
672
0
674
675
676
677
678
0
0
0
682
683
684
0
686
687
0
689
690
691
0
0
694
695
696
0
0
699
0
0
0
0
704
705
706
0
0
709
0
0
0
0
714
715
716
717
718
719
720
0
0
723
724
725
0
727
728
729
730
731
732
733
734
0
0
0
738
739
740
0
742
743
744
745
746
747
748
0
750
751
752
0
754
0
0
0
758
0
760
0
762
763
0
0
0
0
0
769
770
0
0
0
0
0
0
777
0
0
0
0
0
783
784
0
786
0
0
789
0
791
792
793
0
0
0
0
798
0
800
0
0
803
804
805
806
0
808
809
0
811
0
0
814
0
0
0
818
0
0
0
0
823
824
825
826
827
828
829
830
831
832
0
0
835
836
0
838
0
840
841
842
0
844
845
846
847
848
849
0
0
0
0
854
0
0
857
858
859
860
0
0
0
864
865
0
0
868
869
870
0
0
0
0
0
876
877
0
879
880
881
882
0
0
0
886
887
888
889
890
0
892
893
894
0
896
0
0
899
900
901
902
903
904
905
906
0
0
0
910
0
912
0
914
915
916
917
918
919
920
921
922
923
924
925
0
0
0
929
930
931
0
0
934
935
936
937
938
939
940
941
942
943
944
0
0
947
948
0
950
951
0
953
954
955
956
0
958
0
0
0
962
0
0
965
0
0
968
0
970
0
0
0
0
975
976
977
0
979
980
0
982
983
0
0
0
987
0
989
990
991
992
0
994
995
996
997
998
999
1000
2
3
4
5
6
0
0
9
0
0
0
0
14
15
16
17
18
19
20
0
0
23
24
25
0
0
28
29
0
31
32
33
34
35
36
37
0
0
40
41
42
43
44
45
46
0
0
49
0
51
0
0
0
0
0
57
0
59
0
61
62
63
64
65
66
0
0
0
70
71
72
0
0
0
76
77
78
79
0
0
0
83
0
0
0
87
0
0
90
91
92
93
94
95
96
0
0
99
0
0
102
103
0
0
106
0
0
0
0
111
0
0
114
115
116
117
118
119
120
121
122
0
0
0
0
127
0
0
130
0
132
133
134
0
136
137
138
139
140
0
142
0
144
145
0
147
148
149
150
151
152
153
0
0
0
0
158
0
0
0
0
163
164
0
0
0
0
0
170
171
172
173
174
0
176
0
0
179
180
0
0
183
184
185
186
187
0
0
0
0
192
193
0
0
0
197
198
199
200
0
202
203
204
205
206
207
208
209
210
211
0
213
0
0
216
217
218
0
220
0
0
0
0
0
0
0
0
229
0
0
0
233
234
0
0
237
0
239
240
241
242
0
244
0
0
247
0
249
0
251
252
253
254
255
0
257
258
259
0
0
0
0
0
0
266
267
0
269
270
271
272
273
0
0
0
0
0
279
280
281
282
283
0
285
286
0
288
0
0
291
292
293
294
295
296
297
298
299
0
301
302
303
304
305
0
307
0
0
310
311
312
313
0
315
316
0
0
0
320
321
322
323
0
325
326
327
328
329
330
331
0
0
334
0
336
337
338
0
340
341
342
343
344
345
0
0
0
349
350
0
0
0
0
0
356
357
0
0
360
0
362
0
364
0
0
0
368
0
0
371
372
373
374
375
376
377
0
379
380
0
0
383
0
0
0
387
388
389
390
0
0
393
394
395
0
397
0
0
0
0
402
0
0
405
406
0
408
409
410
411
0
0
414
0
0
0
0
0
0
421
0
0
424
425
426
427
428
429
430
431
0
0
434
0
0
0
438
439
0
441
442
0
0
0
0
447
0
449
0
0
452
453
0
0
0
0
458
0
460
0
462
463
0
0
466
0
468
469
470
471
0
473
474
0
476
0
478
479
480
481
482
483
0
0
0
487
488
489
490
491
0
0
494
495
496
497
498
499
500
0
0
503
504
505
506
507
508
509
510
511
0
513
0
0
0
517
0
519
0
0
0
0
0
0
526
527
528
529
0
531
532
0
0
0
0
537
538
539
540
541
542
543
544
545
546
547
548
549
0
551
0
0
0
555
556
557
558
559
560
0
0
563
0
0
566
567
0
569
570
0
0
0
0
575
0
577
0
579
0
581
582
0
0
0
0
587
588
0
0
591
0
0
594
0
0
0
0
599
600
601
602
0
0
605
0
0
0
0
0
0
612
0
614
0
0
0
618
619
0
621
0
0
0
0
0
0
628
0
0
631
632
0
634
635
636
637
638
639
640
0
642
0
0
0
646
0
648
649
650
651
652
653
654
655
656
657
658
0
0
661
662
663
664
0
666
0
0
0
670
671
672
673
0
0
0
677
678
0
0
0
682
683
684
0
686
687
688
689
690
691
692
693
694
695
696
0
0
699
0
0
702
0
704
705
706
0
0
709
0
0
0
0
714
715
0
717
0
0
720
0
0
723
0
725
726
0
0
0
730
731
732
733
734
735
0
0
0
0
740
0
0
743
744
0
746
747
748
0
750
751
752
0
754
0
0
0
758
759
760
761
762
763
0
0
0
0
768
769
770
0
772
0
0
0
0
777
0
0
0
0
782
0
0
785
786
0
0
789
790
791
0
793
0
0
0
0
798
0
800
0
0
0
0
805
806
0
0
809
0
811
0
0
814
815
816
0
818
0
820
0
0
823
0
825
0
827
828
829
830
0
832
0
0
835
836
0
838
0
840
841
0
843
0
845
0
847
0
0
850
851
852
0
854
0
0
857
0
859
0
861
862
863
864
865
866
867
868
0
0
0
0
0
0
0
876
877
0
879
0
0
882
883
884
885
0
887
888
889
890
0
892
893
894
0
896
897
898
899
900
901
902
903
904
905
906
0
0
909
910
0
912
0
914
915
0
917
918
919
920
921
0
0
0
925
0
0
0
929
930
931
0
0
934
0
0
0
938
0
940
941
942
943
944
0
946
947
948
949
950
951
0
953
0
0
956
0
958
0
0
0
962
0
0
965
966
0
968
0
970
0
0
0
0
0
0
977
0
979
980
0
982
983
0
0
0
987
0
989
990
991
992
993
994
995
996
997
0
999
0
2
3
4
5
0
0
0
9
10
11
12
0
0
0
16
0
18
19
0
0
0
23
24
25
0
0
28
29
0
31
32
0
34
35
36
0
0
0
40
0
42
43
44
45
46
0
0
49
50
51
0
0
0
0
56
57
58
59
0
61
62
63
64
65
66
67
68
0
70
71
72
73
0
0
76
0
78
79
0
0
0
83
0
85
86
87
88
89
90
91
0
0
94
0
96
0
0
99
100
101
102
0
0
0
106
107
108
109
110
111
112
113
114
115
116
117
118
119
120
0
122
0
0
125
126
127
128
129
130
131
0
133
134
135
136
137
138
139
140
0
142
0
144
145
0
147
148
149
0
151
0
0
0
0
156
157
158
159
160
161
162
163
164
0
0
0
0
169
170
171
172
173
174
175
176
177
0
179
180
0
0
183
184
185
186
187
188
189
190
0
192
193
0
195
0
197
0
199
200
0
202
0
204
0
0
207
208
209
210
211
212
213
214
0
0
217
0
0
0
0
222
223
224
0
0
0
0
229
0
0
232
233
234
235
0
237
0
239
240
241
242
243
244
245
246
247
0
249
0
251
252
0
254
255
0
257
258
259
0
0
0
0
0
0
0
0
0
269
270
0
0
0
0
0
0
0
0
279
0
281
282
0
0
285
286
0
288
289
0
291
0
0
0
0
296
297
0
299
0
0
302
0
0
305
0
307
308
309
310
311
312
0
0
0
316
0
0
0
0
321
322
323
324
325
326
327
328
329
330
331
0
333
334
0
336
337
338
0
340
0
0
0
344
345
0
0
0
349
350
351
0
353
354
355
356
357
358
359
360
361
362
0
364
0
0
0
368
0
0
371
372
373
374
375
376
0
0
379
380
381
382
383
0
0
0
0
0
389
390
0
0
0
394
395
0
397
0
0
400
401
402
403
404
405
406
0
408
0
410
411
0
0
414
0
0
0
0
0
0
421
0
0
0
0
0
427
0
429
430
431
432
0
434
0
0
0
438
439
440
441
442
0
444
445
446
447
0
449
0
0
452
453
0
0
0
0
0
0
460
461
462
463
0
0
466
467
468
0
0
0
0
0
0
0
0
0
478
479
480
481
482
0
0
0
0
487
0
0
0
0
0
493
494
495
496
0
498
499
0
0
0
503
0
505
506
0
508
509
510
511
0
513
0
0
516
517
518
519
0
0
522
523
524
0
0
527
528
0
0
531
532
0
0
0
0
537
538
539
540
0
0
0
0
0
0
0
0
549
0
551
0
0
0
555
556
557
558
559
560
0
0
563
0
0
566
567
568
569
570
0
572
573
574
575
0
577
0
579
580
581
582
583
584
0
586
587
588
0
0
0
0
0
594
0
596
597
598
599
600
0
602
0
0
605
606
0
608
609
610
0
612
613
614
0
0
0
618
619
620
621
622
0
0
0
0
0
628
0
0
631
632
0
634
635
636
637
0
0
0
0
642
643
0
0
646
0
648
0
650
651
652
653
654
0
656
0
658
0
660
661
662
0
664
0
666
667
668
0
0
671
672
0
674
0
0
677
678
679
680
681
682
0
684
0
686
687
688
689
690
691
0
0
694
695
696
0
0
699
0
0
0
0
704
0
0
0
0
709
710
0
0
0
714
0
0
717
0
0
720
0
0
723
724
725
726
727
728
729
730
731
732
733
734
735
736
0
0
739
740
741
0
743
744
0
746
747
748
0
750
751
0
0
0
0
756
757
758
0
760
761
762
763
764
765
766
0
768
769
770
771
772
773
0
0
0
777
778
779
0
0
782
0
0
0
786
787
788
789
0
791
0
793
0
0
0
0
798
799
800
0
0
0
0
0
806
0
0
0
0
811
812
813
814
0
816
0
818
0
0
0
0
823
0
825
0
827
828
829
830
0
832
0
0
835
836
837
838
839
840
841
0
0
0
0
0
847
0
0
0
0
0
0
854
0
0
857
0
859
0
0
0
0
864
865
0
0
868
0
0
0
0
0
0
875
876
877
878
879
0
0
0
0
0
0
0
887
888
889
890
891
892
893
894
895
896
897
0
899
900
0
902
0
904
905
906
0
908
909
910
911
912
0
914
915
0
917
0
919
920
921
0
0
924
925
926
0
0
929
930
931
932
933
934
0
0
937
938
939
940
941
942
943
944
0
0
947
948
949
950
951
952
953
954
955
956
0
958
0
0
0
962
0
0
965
0
0
0
0
970
0
0
0
0
0
0
977
0
979
980
0
982
0
0
0
986
987
988
989
990
991
992
0
994
995
996
997
0
999
0
EOF
