DIMENSION : 1000
NUMBER OF ITEMS : 4995

TOUR_SECTION
1
817
728
324
300
77
971
757
385
524
534
136
85
615
372
967
348
521
633
196
608
624
250
21
871
659
422
248
825
892
538
830
829
180
299
930
43
532
145
747
953
406
438
259
555
32
798
857
494
687
656
213
138
350
411
965
99
740
677
995
944
83
743
904
612
695
868
114
940
51
257
269
149
226
935
680
170
720
756
47
885
72
989
427
204
925
158
217
906
905
23
646
982
62
337
566
840
111
619
556
579
376
336
531
990
570
186
390
540
582
527
605
587
943
87
134
478
28
921
281
349
404
595
844
593
493
486
535
908
400
115
472
788
592
391
855
821
974
819
796
711
428
155
641
681
141
688
280
651
152
260
601
884
620
797
952
292
858
561
610
512
727
190
150
544
514
655
256
562
386
741
266
882
679
842
182
964
387
640
718
625
767
154
238
339
862
648
541
219
649
729
644
484
708
392
435
384
205
623
378
787
629
959
495
467
852
169
253
774
74
417
550
916
780
749
571
488
416
355
143
459
317
97
745
759
366
443
542
773
332
988
448
433
603
245
781
907
125
290
738
703
243
547
112
878
396
117
657
576
287
886
236
604
314
826
398
822
755
178
591
80
52
937
275
409
320
702
262
942
776
296
420
268
104
30
98
153
824
986
585
533
228
874
455
407
157
492
536
565
335
898
48
446
284
501
27
8
834
319
81
108
277
627
960
543
15
426
807
123
520
697
698
810
546
673
957
784
26
548
37
177
381
981
382
206
771
224
515
598
645
346
393
949
188
235
424
766
423
792
306
518
342
764
713
304
82
146
779
597
264
768
194
712
945
685
583
523
232
638
75
477
301
161
667
783
214
853
794
707
973
222
972
963
38
265
91
454
578
101
131
436
60
607
363
918
913
765
552
742
95
891
946
564
465
56
93
311
230
596
352
353
861
191
812
739
147
132
706
961
895
507
450
276
215
430
432
223
795
586
866
580
647
675
105
246
128
668
820
843
473
554
537
189
13
873
761
7
267
790
212
927
911
881
589
482
410
573
622
867
752
274
525
437
456
359
33
175
928
39
278
975
837
616
218
670
932
413
721
361
201
801
630
22
298
313
785
198
700
590
457
753
869
63
969
848
103
870
369
926
412
496
778
530
733
308
399
17
639
849
408
225
481
719
354
10
160
939
833
737
984
129
429
872
216
490
295
69
113
802
451
663
283
611
203
485
14
231
856
168
909
860
568
923
978
137
726
124
897
674
998
504
976
584
375
20
502
464
89
261
303
705
315
805
782
88
323
343
474
754
187
5
497
545
11
851
6
558
73
367
901
954
993
444
772
135
516
371
100
383
735
941
808
233
804
574
370
476
463
272
845
816
522
358
468
171
846
403
716
181
653
36
827
875
609
500
220
53
211
460
483
46
330
922
106
347
508
572
258
606
78
68
185
234
724
9
715
559
809
344
683
676
730
889
887
333
968
643
813
12
803
883
380
613
425
799
815
133
176
924
475
377
791
318
950
156
35
489
722
365
962
654
67
341
70
126
553
242
526
665
936
1000
599
167
92
693
626
58
110
221
271
55
617
419
966
751
985
374
710
469
669
628
912
947
888
929
920
61
999
19
251
746
338
823
910
440
814
717
357
173
326
121
151
144
915
618
637
983
934
956
691
709
402
631
2
569
903
4
3
328
818
334
316
289
487
453
506
239
491
86
890
65
470
731
723
877
394
148
758
288
701
54
159
244
850
736
880
388
119
793
838
254
252
405
442
519
297
282
498
899
517
166
471
863
692
458
351
165
294
689
831
445
401
933
461
273
322
775
90
227
839
307
41
116
418
195
732
107
293
263
660
162
309
955
84
109
50
415
529
919
725
503
362
549
841
696
34
762
563
789
302
327
588
197
118
948
581
286
102
684
462
480
938
179
163
174
127
879
241
847
602
509
270
859
379
59
130
951
894
414
183
79
577
184
678
661
421
247
142
209
958
434
770
828
395
699
513
389
24
902
991
305
931
650
977
291
120
760
987
325
744
397
811
992
539
800
777
557
763
199
748
594
237
865
621
45
996
652
71
750
672
836
528
917
164
664
979
139
970
714
42
551
835
29
25
786
560
694
210
66
96
208
439
980
172
449
329
331
249
193
441
240
671
368
431
310
479
345
94
734
658
682
140
356
16
686
452
832
575
31
511
600
806
636
18
364
642
499
122
690
76
64
662
896
997
666
373
285
505
321
312
466
510
200
994
49
854
567
704
635
447
360
340
44
876
279
900
192
229
632
40
864
614
57
202
255
634
893
769
207
914

PP_SECTION
2
0
4
0
6
0
8
9
0
11
12
13
0
0
16
17
18
19
20
0
22
0
24
25
26
0
28
29
30
31
32
0
34
35
0
37
0
0
40
41
42
43
44
45
46
0
48
49
0
0
52
0
54
55
0
57
58
59
60
61
62
63
64
0
66
67
68
0
70
71
72
73
74
75
76
77
78
0
0
81
0
0
84
0
0
87
88
89
90
0
92
0
94
95
96
0
98
0
100
101
102
103
104
105
106
107
0
109
110
111
0
0
114
115
116
117
118
119
0
121
122
123
0
125
126
127
0
129
130
0
132
133
0
135
136
137
138
139
140
141
142
143
144
0
146
0
0
0
0
151
0
153
154
0
0
157
158
159
160
161
162
0
164
165
166
167
168
169
0
0
172
173
174
175
0
177
0
179
0
181
182
183
0
0
0
187
188
0
190
191
192
193
194
195
196
197
0
199
200
0
202
203
0
0
206
207
208
209
210
211
0
0
0
215
0
0
0
219
220
221
222
0
0
225
0
227
228
229
0
231
0
233
234
0
0
237
0
0
240
241
242
0
0
0
246
247
0
249
250
251
0
253
254
255
256
0
258
259
260
261
262
263
264
265
0
0
0
269
270
0
272
0
274
275
276
277
278
279
280
281
282
283
0
285
286
0
288
289
0
291
292
0
294
295
296
297
298
0
0
301
302
303
0
0
306
307
308
309
310
0
312
0
314
315
316
317
318
319
0
321
0
323
0
325
326
327
328
329
330
331
332
0
0
335
336
0
0
339
340
0
0
343
344
345
346
347
0
0
350
351
0
0
354
0
356
357
358
359
360
361
362
363
364
0
366
367
368
369
370
371
372
373
374
375
376
377
378
379
380
381
382
383
384
0
0
387
388
389
390
391
0
0
394
0
396
397
398
0
400
401
402
0
404
0
0
407
408
409
410
411
412
413
414
415
0
417
418
419
420
0
422
0
424
0
0
0
428
429
430
431
432
433
434
435
0
0
438
439
0
441
442
443
0
445
0
447
448
449
450
451
452
453
454
0
0
457
458
459
460
461
462
463
464
465
466
467
0
0
470
471
0
473
0
475
476
477
0
479
480
481
482
483
484
485
0
487
488
489
490
491
492
493
0
495
496
497
498
499
0
501
502
503
504
505
506
507
0
509
510
511
512
513
514
515
516
0
518
0
520
0
522
523
0
525
526
527
528
529
0
531
532
0
534
0
0
537
538
539
540
541
542
543
544
545
0
547
548
549
550
551
552
553
554
555
0
557
558
559
560
0
562
563
564
0
566
567
0
569
0
571
572
573
0
575
576
577
0
579
580
581
582
583
584
0
586
587
588
589
0
0
592
593
594
595
0
0
598
599
600
0
602
603
604
605
606
0
0
609
610
0
0
613
614
615
616
0
618
0
620
621
622
0
624
0
626
0
628
629
0
631
632
633
634
635
0
0
0
0
640
0
642
643
644
645
0
647
648
0
0
0
652
653
0
655
0
657
658
659
660
661
662
0
664
665
666
0
668
669
670
671
672
0
674
675
676
677
678
0
680
681
682
683
684
685
0
0
0
689
690
691
692
0
694
695
696
0
698
699
700
701
702
703
704
705
706
707
708
709
710
711
0
713
714
715
716
717
718
719
0
0
722
723
724
725
0
0
0
0
0
731
732
0
734
735
0
737
738
0
0
741
742
743
744
745
0
747
748
749
750
0
0
753
754
755
0
757
758
0
760
761
762
763
764
765
766
767
768
769
0
771
772
773
0
775
776
0
778
779
780
781
782
0
784
785
0
787
788
789
0
791
792
793
0
795
796
0
0
799
0
801
0
0
804
805
806
807
808
0
0
811
812
0
814
0
816
0
818
0
0
0
822
0
0
0
826
0
828
829
830
831
832
833
0
835
836
837
838
0
840
841
842
0
844
845
846
847
848
849
850
851
0
853
854
855
0
857
0
859
860
861
862
863
864
865
866
867
0
0
0
0
0
873
874
875
876
877
0
0
880
881
882
883
884
0
886
887
888
0
890
891
0
893
894
895
896
0
898
0
900
901
902
903
0
0
906
907
908
0
910
0
0
0
914
915
916
0
0
919
920
921
922
923
924
925
926
0
928
929
930
931
932
933
0
935
936
0
938
939
0
941
0
0
944
945
946
947
948
0
950
951
952
953
0
0
956
957
958
959
0
961
962
0
0
965
966
0
968
969
0
0
972
0
0
975
0
977
0
979
980
981
0
983
984
0
986
987
988
989
0
991
992
993
994
0
996
997
998
999
1000
2
3
4
5
6
7
8
9
10
11
12
13
14
0
16
17
18
0
20
21
0
23
24
25
0
27
28
29
30
31
32
33
34
35
36
37
38
39
40
41
42
43
44
0
46
0
48
49
50
51
52
0
0
55
56
57
58
59
60
61
0
63
64
65
66
0
68
0
70
71
72
73
0
75
76
77
78
79
80
0
0
83
84
0
0
0
88
89
90
91
92
0
94
95
0
97
0
99
100
101
102
103
104
105
106
107
0
109
110
111
112
0
114
0
116
0
118
119
120
121
122
123
0
125
126
0
128
129
130
131
0
0
0
0
136
137
0
139
0
141
142
143
144
145
0
147
148
0
150
151
0
153
0
155
156
157
158
159
160
0
162
163
164
165
166
167
0
0
0
171
172
173
174
175
176
177
178
179
180
181
0
183
184
185
0
187
188
189
190
191
192
193
0
0
196
197
198
199
200
0
202
203
204
0
0
207
0
209
210
211
212
213
0
215
0
0
0
219
220
0
0
223
0
225
0
227
0
229
230
231
232
233
0
0
236
237
238
0
240
241
242
243
244
0
0
247
248
249
250
251
0
0
0
255
0
257
258
259
0
261
0
263
264
265
266
267
0
269
270
271
272
273
274
0
276
0
0
279
0
281
282
0
284
285
286
0
288
289
0
291
292
293
294
295
0
297
298
299
300
301
302
303
0
305
306
307
308
309
310
0
312
0
314
0
316
0
318
319
0
321
322
323
0
325
326
327
328
329
330
331
0
0
334
335
336
0
338
339
340
341
0
343
344
345
346
0
0
349
0
351
0
0
354
355
356
357
358
359
360
361
362
363
364
365
0
367
368
369
370
371
372
373
374
375
376
377
378
379
380
381
0
0
384
0
386
387
388
389
390
391
0
0
394
395
396
0
0
399
400
401
402
0
404
405
406
407
408
409
410
411
0
0
414
415
0
417
418
0
420
421
422
423
0
0
426
427
428
429
430
0
432
433
0
435
0
437
438
439
440
441
442
0
0
445
446
447
0
449
450
451
452
453
454
0
456
457
458
0
0
461
462
463
464
465
466
467
468
469
470
471
0
0
474
0
476
477
478
479
480
481
482
0
484
485
0
487
0
489
490
491
492
0
0
495
496
497
498
499
0
0
502
503
504
505
506
0
508
509
0
511
0
0
514
515
516
517
518
0
520
0
522
523
524
525
526
0
0
529
0
531
532
533
534
535
536
537
538
539
0
0
542
543
0
545
546
0
548
549
0
0
552
553
554
555
556
557
558
559
560
0
562
563
0
0
566
567
568
569
570
571
0
573
574
575
576
577
0
579
0
581
582
583
584
585
586
0
588
589
0
0
592
593
594
0
596
597
598
0
600
0
602
0
0
605
606
0
608
0
610
611
612
613
614
0
616
617
618
0
0
621
622
623
0
625
0
627
628
0
630
631
632
633
634
635
636
637
638
639
0
0
642
643
644
645
0
647
0
649
650
651
652
653
654
655
0
657
658
0
660
0
662
663
664
665
666
667
668
0
670
0
672
0
0
675
676
677
678
679
0
681
682
0
0
685
686
0
688
689
690
691
0
693
694
695
696
0
698
699
700
701
0
703
704
705
706
707
0
0
0
0
712
713
714
715
716
717
718
719
720
0
722
723
724
725
726
727
728
729
730
0
732
733
0
735
0
0
738
0
0
741
742
743
744
745
746
0
748
0
750
0
752
753
754
0
756
0
758
759
760
0
762
763
764
0
766
767
0
769
770
771
772
773
774
775
0
777
778
779
0
781
782
783
784
785
786
787
0
789
790
791
792
0
794
795
796
797
798
799
800
801
802
803
804
805
806
0
808
809
810
0
0
813
814
815
0
817
818
0
0
821
822
823
824
0
826
827
0
0
830
831
832
0
834
835
836
0
838
839
0
841
842
843
844
845
846
847
848
849
850
0
0
853
854
855
856
857
858
859
0
861
0
863
864
0
866
867
0
0
0
871
0
873
874
875
876
877
878
879
880
881
0
883
0
885
0
887
888
0
890
891
0
893
894
0
896
897
898
899
900
0
902
903
904
0
0
0
908
909
910
0
912
913
914
915
0
917
918
919
920
0
0
923
924
925
926
0
0
929
930
931
932
933
934
0
936
0
938
0
0
941
942
0
0
945
946
947
948
0
950
951
0
953
954
955
956
0
958
959
0
0
0
963
0
0
966
967
968
969
970
971
0
0
974
0
976
977
0
979
0
981
982
983
984
985
986
987
0
989
0
0
992
0
994
0
996
997
998
999
1000
2
0
4
0
6
0
8
0
10
0
12
0
0
0
16
17
18
19
20
0
22
23
24
25
0
27
0
29
30
31
32
33
34
35
0
0
0
39
40
0
42
0
44
45
46
47
48
49
50
51
52
53
54
55
56
57
0
59
60
61
62
0
64
0
66
0
68
69
70
71
0
73
0
75
76
77
78
0
80
81
0
83
84
0
86
0
88
0
90
91
92
93
94
95
96
97
0
0
0
0
102
103
0
105
106
107
108
109
110
0
0
113
0
115
116
117
118
119
120
121
122
0
124
125
0
127
0
129
130
131
132
133
134
135
136
137
138
139
140
141
142
143
144
145
0
0
148
149
0
0
152
153
0
155
156
157
158
159
160
161
162
163
164
165
166
0
168
0
170
171
172
173
0
175
176
177
178
0
0
0
0
183
184
185
0
0
0
189
190
191
192
193
194
195
196
197
198
199
200
201
202
203
204
205
206
207
208
209
210
211
212
213
214
0
216
0
0
0
0
221
222
223
224
225
226
227
228
229
230
231
0
233
234
0
236
237
238
239
240
241
242
0
244
245
246
247
0
249
250
251
252
253
0
255
0
257
258
259
0
261
0
263
0
0
266
267
0
0
270
271
0
273
274
275
276
277
278
279
0
281
0
283
284
285
286
0
0
289
290
291
0
293
294
295
296
297
0
299
300
301
302
303
304
305
306
307
0
309
310
311
312
0
314
315
0
0
318
319
320
321
322
323
324
325
326
327
328
329
330
331
0
333
334
335
336
337
338
339
340
341
342
343
344
345
0
0
348
0
0
351
0
353
354
0
356
357
358
359
360
361
362
363
364
0
0
367
368
369
0
371
372
373
0
375
0
377
0
379
380
0
382
383
0
385
386
0
388
389
0
391
0
393
394
395
396
397
398
0
400
401
402
0
0
405
406
407
408
0
410
0
412
413
414
415
416
417
418
0
0
421
422
423
424
425
426
427
428
0
430
431
432
433
434
435
436
0
0
439
440
441
442
0
444
445
446
0
448
449
0
451
452
453
0
455
456
0
458
0
0
461
462
0
464
465
466
467
468
0
0
471
472
473
0
475
476
477
0
479
480
0
482
483
484
485
486
487
488
489
490
491
492
493
494
0
496
497
498
499
500
0
502
503
504
505
506
507
508
509
510
511
0
513
514
0
516
517
518
519
0
521
0
0
524
525
526
527
528
529
530
531
0
0
0
535
536
0
538
0
0
541
542
543
544
0
546
0
0
549
0
0
552
553
0
555
0
557
558
559
560
0
562
0
564
565
566
567
0
569
0
571
572
0
574
575
576
577
0
579
580
581
582
583
584
585
586
587
0
589
0
0
0
0
594
0
596
0
598
0
600
601
602
0
604
605
606
0
608
609
0
611
0
613
614
0
0
617
618
619
620
621
0
623
624
625
626
627
628
0
630
631
632
633
634
635
636
637
638
639
640
641
642
643
0
0
646
647
648
0
650
0
0
653
654
0
0
657
658
0
660
661
662
0
664
665
666
667
668
669
0
671
672
673
0
675
676
677
678
0
0
0
682
683
0
0
686
0
688
689
690
0
692
693
694
0
696
697
0
699
0
701
702
703
704
705
706
707
708
709
710
0
712
713
714
0
716
717
718
719
720
0
722
723
724
725
726
727
728
729
0
731
732
733
734
735
736
737
0
739
740
741
0
743
744
0
746
747
748
749
750
0
752
753
754
755
0
0
758
759
760
0
762
763
764
765
766
767
0
769
770
771
772
0
0
775
0
777
778
0
780
0
782
0
0
785
786
787
788
789
0
791
0
793
794
0
0
0
798
799
800
801
802
803
804
805
0
0
808
809
0
811
812
0
0
0
0
817
818
0
0
821
822
0
824
825
826
827
828
829
0
831
832
833
834
835
836
837
838
839
840
0
0
843
0
0
0
847
848
849
0
851
0
0
854
855
856
0
858
859
0
0
862
863
864
0
0
867
0
869
870
871
0
873
874
875
876
0
878
879
880
881
882
883
884
885
0
887
888
889
890
891
892
893
894
895
896
897
898
899
900
901
902
0
0
0
0
0
908
909
910
911
912
913
914
915
0
917
0
919
920
921
922
0
924
925
926
927
928
0
0
931
932
933
934
935
936
937
938
939
940
941
942
0
0
945
946
947
948
949
950
0
952
0
954
955
956
957
958
959
960
961
962
963
964
965
966
967
0
0
970
0
972
0
974
975
976
977
978
979
980
0
0
983
984
985
0
987
0
0
0
991
992
993
994
0
996
997
998
0
0
2
3
4
5
6
7
8
9
0
0
0
13
14
0
16
17
18
19
0
0
22
0
24
25
26
0
28
29
30
31
32
33
34
0
0
37
38
39
40
41
42
0
44
45
46
0
48
49
50
51
52
53
54
55
0
0
58
0
60
61
62
63
64
65
66
0
0
69
70
0
72
0
74
0
76
77
78
79
0
81
82
83
84
85
86
87
88
89
90
91
92
0
94
0
96
97
98
0
100
101
102
103
0
105
106
107
108
109
110
0
112
113
114
115
116
117
118
0
120
121
122
0
0
125
0
127
128
0
0
0
0
133
134
135
0
137
138
139
140
141
142
143
144
145
146
147
0
0
150
151
152
153
154
0
156
0
158
159
160
161
162
163
164
165
166
167
168
169
170
171
172
173
174
175
0
177
178
179
180
0
182
183
0
185
0
187
0
189
190
0
192
193
194
195
0
197
198
199
200
0
202
203
204
0
206
207
208
209
210
0
0
213
214
0
216
0
0
219
220
0
222
0
224
225
0
227
0
229
230
0
0
233
234
235
0
0
0
239
0
241
242
243
244
245
246
247
0
249
250
251
252
253
254
255
0
257
258
259
260
0
262
263
264
265
266
0
0
269
270
0
272
0
0
0
0
277
278
279
0
0
282
283
284
285
0
287
0
289
0
291
292
293
294
0
0
297
298
0
0
301
302
303
0
305
306
307
308
309
310
311
312
313
0
315
316
0
318
0
320
321
322
0
324
325
326
327
328
329
330
331
332
333
334
335
0
337
338
0
340
341
342
343
344
345
346
347
348
0
0
351
0
353
354
355
356
357
358
359
360
361
362
363
364
365
366
367
368
369
0
371
372
373
374
375
376
377
0
379
380
381
382
383
384
385
0
387
0
389
390
391
392
393
394
395
396
397
398
399
400
401
402
403
404
405
0
0
0
0
410
411
0
413
414
415
416
0
418
419
0
0
0
0
0
425
426
0
0
429
0
431
0
433
434
435
436
437
0
439
440
441
442
443
0
445
0
447
448
449
0
451
452
453
454
0
456
0
458
459
460
461
0
0
464
0
466
0
468
469
470
471
0
473
474
475
476
0
478
479
480
481
482
0
484
485
0
487
488
489
490
491
0
493
494
495
496
0
498
499
500
0
502
503
504
505
0
507
508
509
510
511
512
0
514
0
0
517
518
519
520
521
522
0
524
525
526
527
528
529
530
531
532
533
534
535
0
0
538
0
540
0
542
0
544
545
546
0
548
0
550
551
552
553
554
555
556
557
558
559
560
0
0
563
564
565
566
567
0
0
570
571
0
573
574
575
576
577
0
0
0
581
582
0
584
585
586
0
588
0
0
591
0
593
594
595
596
597
598
599
600
601
602
603
604
0
606
0
0
609
0
0
612
0
614
615
0
617
618
619
0
0
622
623
0
625
626
627
0
0
630
0
632
0
634
635
636
637
0
639
640
0
642
643
644
645
646
0
648
649
0
651
652
653
654
655
0
657
658
0
660
661
662
663
664
665
666
667
668
669
670
671
672
673
674
675
676
0
0
0
680
681
682
0
684
685
686
0
688
689
690
691
692
693
694
695
696
697
698
699
700
701
0
0
0
0
0
707
708
709
710
0
712
713
714
715
716
0
718
0
720
721
722
723
724
725
726
727
0
729
730
0
732
733
734
0
736
737
738
0
740
741
742
743
744
745
746
0
748
0
750
0
0
753
0
755
756
0
0
0
760
761
0
763
764
0
766
767
768
769
770
771
772
773
774
775
0
777
0
779
0
0
782
783
784
785
786
787
0
789
790
791
0
793
794
0
0
797
0
799
800
801
0
803
804
805
806
0
808
809
810
811
812
813
814
0
0
0
0
819
0
821
822
823
824
0
0
827
828
0
0
831
832
833
834
835
836
0
838
0
840
841
0
0
844
845
846
847
848
849
850
851
852
853
0
0
0
857
858
859
860
861
862
863
864
865
866
867
0
0
0
0
872
873
0
875
876
877
878
0
880
881
882
883
884
0
886
887
0
0
890
0
892
893
0
895
896
897
898
899
900
901
902
903
904
905
0
907
0
909
910
0
912
913
914
915
0
917
918
919
0
0
922
0
0
0
926
927
928
929
930
931
0
933
934
0
936
937
938
0
0
941
0
943
944
945
946
947
948
0
950
951
0
0
954
955
956
957
958
0
960
0
962
0
0
965
0
967
968
0
970
971
972
0
974
975
0
977
978
979
980
981
982
983
984
985
0
987
988
989
990
0
992
993
994
995
996
997
998
999
1000
2
3
4
5
0
0
0
9
0
11
12
0
14
0
16
17
18
19
20
21
22
0
24
25
26
0
0
29
30
31
32
0
34
35
36
0
38
39
0
41
42
43
44
0
46
47
0
49
50
51
52
53
54
55
56
57
58
59
60
61
62
63
64
65
66
67
68
69
70
71
72
73
0
0
76
77
78
79
80
81
0
0
0
85
86
87
88
89
90
0
92
93
94
95
96
97
0
99
0
101
102
0
104
0
106
0
0
109
110
0
0
113
0
115
116
117
118
119
120
121
122
123
124
125
126
127
128
129
0
131
132
133
0
135
136
137
138
139
140
141
142
143
144
145
0
0
148
149
0
151
0
153
154
0
156
0
158
159
160
161
162
163
164
165
166
167
168
169
170
171
172
173
174
175
176
177
178
179
180
181
0
183
184
185
186
0
0
0
190
191
192
193
0
195
0
0
198
199
200
201
202
203
204
0
206
207
208
0
210
211
212
213
0
215
216
217
218
0
0
221
222
223
0
0
226
227
228
0
230
231
232
233
234
235
236
237
238
239
240
241
242
243
0
0
246
247
0
249
0
251
0
253
254
255
256
257
0
259
260
261
0
0
264
265
0
267
268
0
270
271
272
273
274
275
0
0
0
279
0
281
282
283
0
285
286
0
288
0
290
0
292
293
294
0
296
0
298
299
300
0
302
303
304
305
0
307
308
309
0
0
312
0
0
315
316
0
318
319
320
321
322
323
324
325
0
327
328
329
0
331
0
0
0
0
0
337
338
339
340
341
342
343
344
0
346
347
348
0
350
0
0
353
354
355
356
357
358
0
360
361
362
363
364
0
366
0
0
0
0
0
0
0
374
375
376
377
378
379
380
381
382
383
384
0
386
387
388
389
390
391
392
0
394
0
396
0
0
399
400
401
402
0
404
0
406
0
0
409
410
0
412
0
414
415
416
417
418
419
0
421
422
0
0
425
426
0
428
429
430
431
432
433
434
435
436
0
0
439
440
441
442
443
444
445
446
447
448
449
0
451
452
453
454
455
0
457
458
459
460
461
462
463
464
465
466
467
468
469
470
0
472
473
0
475
0
0
0
479
480
0
482
483
0
485
486
487
0
489
490
0
492
0
494
495
496
497
498
499
500
501
0
503
0
505
506
507
0
509
0
511
512
513
0
0
0
517
518
519
520
521
522
0
524
525
0
527
528
529
530
531
0
533
534
535
536
0
538
539
540
0
0
543
544
0
0
547
548
0
0
551
0
0
554
555
0
557
558
559
560
561
0
563
564
565
566
567
0
569
0
0
572
573
574
575
576
577
0
0
580
581
0
583
584
0
586
0
588
0
0
591
592
593
594
0
596
597
598
599
600
0
602
603
604
0
0
607
608
0
0
0
612
613
614
615
616
617
618
619
0
621
0
0
624
0
0
627
628
0
630
631
632
0
634
635
636
637
638
639
0
641
642
643
644
645
0
0
648
649
650
651
652
653
654
655
656
657
658
659
0
0
662
0
664
665
0
667
668
669
670
671
0
673
674
0
676
0
0
679
0
0
682
683
684
685
686
0
688
689
690
691
692
693
694
0
696
697
698
699
700
701
0
703
704
705
706
707
0
709
710
711
712
713
714
715
0
717
718
0
0
721
0
723
724
725
726
727
728
729
730
731
732
733
734
735
736
737
0
0
0
741
0
743
0
745
0
747
748
0
750
751
0
0
0
755
0
0
758
0
760
761
762
763
764
765
766
0
0
769
770
771
772
773
774
775
0
777
778
779
780
0
782
0
784
785
786
0
0
789
790
0
0
793
794
0
0
797
798
0
0
801
802
803
804
0
806
0
808
809
810
811
812
813
814
815
816
817
818
819
820
821
0
0
824
825
0
827
828
829
830
831
832
833
0
835
836
0
838
839
0
841
842
843
844
845
846
847
0
849
0
0
852
853
854
0
856
857
858
859
860
0
0
863
864
865
866
0
0
869
870
871
872
873
874
875
876
877
0
879
880
881
0
883
0
885
0
887
0
889
890
0
0
893
894
0
896
0
898
899
900
901
902
903
904
905
0
907
0
909
0
911
912
913
914
915
0
917
918
919
920
921
922
0
0
0
926
0
928
0
0
931
932
933
934
935
0
937
938
939
940
941
0
0
944
0
946
947
948
949
950
951
0
953
954
955
956
957
958
0
960
961
0
963
0
0
966
0
0
969
970
0
0
973
974
975
976
977
978
979
0
0
982
0
0
985
986
987
0
0
990
991
992
993
994
995
996
997
998
999
0
EOF
