DIMENSION : 1000
NUMBER OF ITEMS : 9990

TOUR_SECTION
1
914
207
769
893
634
255
202
57
614
864
40
632
229
192
900
279
876
44
340
360
240
441
193
249
331
329
449
172
980
439
96
208
786
560
694
210
66
368
671
431
310
479
345
94
734
658
664
979
139
970
714
42
551
835
25
29
672
750
836
71
652
996
528
917
164
682
140
356
16
45
621
865
237
594
748
199
31
575
832
686
452
854
49
567
704
447
635
321
505
285
312
466
510
200
994
600
511
806
636
18
364
642
499
122
690
76
64
666
373
997
896
662
829
180
830
538
892
825
152
651
280
688
141
681
641
155
428
711
796
819
974
821
391
855
149
226
269
257
51
940
114
868
695
612
904
743
83
944
995
677
740
99
965
411
350
138
213
656
687
494
857
798
32
555
259
438
406
953
299
930
43
532
747
145
800
777
557
763
539
992
811
397
744
325
987
760
120
291
977
650
931
305
991
902
24
389
513
699
395
828
770
434
958
209
142
247
421
661
678
184
577
79
183
414
894
951
130
59
379
859
270
509
602
847
241
879
127
174
519
297
442
405
252
254
838
793
119
388
880
736
850
244
159
54
701
288
758
617
55
110
221
271
419
751
966
251
19
999
61
920
929
888
947
912
956
934
983
637
618
915
144
151
121
326
173
357
717
814
440
910
823
338
746
148
394
877
723
731
470
65
890
86
491
239
506
453
487
289
316
334
818
328
3
4
903
569
2
631
691
402
709
628
669
469
710
985
374
380
613
425
799
815
167
599
92
693
626
58
665
1000
936
526
242
553
126
70
341
67
654
962
365
722
489
35
156
950
318
791
377
475
924
176
133
813
12
803
883
643
968
333
887
889
730
676
683
344
809
559
715
9
724
234
185
68
78
606
258
572
508
347
106
922
330
46
483
460
211
53
220
500
609
875
827
36
653
181
716
403
846
171
468
358
522
816
845
272
463
476
370
574
804
233
808
941
735
383
100
371
516
135
772
444
993
954
901
367
73
558
6
851
11
545
497
5
187
754
474
343
323
88
782
805
315
705
303
261
89
464
502
20
375
584
976
504
998
674
897
124
726
137
978
923
860
909
568
529
415
50
109
84
955
309
162
660
263
293
107
732
195
418
116
41
307
839
227
90
775
322
273
461
933
401
445
831
689
294
165
351
458
692
863
471
166
517
899
498
282
163
179
938
480
462
919
725
503
841
549
362
684
102
286
581
948
118
197
588
327
302
789
563
762
696
34
943
87
134
587
605
478
28
921
281
349
62
982
905
906
217
158
925
204
427
72
989
23
646
720
170
337
566
840
111
527
582
540
390
186
570
990
531
336
376
579
556
619
935
680
756
47
885
592
788
472
115
400
908
535
486
493
593
844
595
404
168
856
231
14
485
203
611
283
663
451
802
113
69
295
490
216
872
429
129
984
737
833
939
160
10
354
719
481
225
408
849
639
17
399
308
733
530
778
496
412
926
369
870
103
848
969
63
869
753
457
590
700
198
785
313
298
22
630
801
201
361
721
413
932
670
218
616
837
975
278
39
928
175
33
359
456
437
525
274
752
867
622
573
410
482
589
881
911
927
212
790
267
7
761
873
13
189
537
554
473
843
820
668
128
246
105
675
647
580
866
586
795
223
432
430
215
276
450
507
895
961
706
132
147
739
812
191
861
353
352
596
230
311
93
56
465
564
946
891
95
742
552
765
913
918
363
607
60
436
131
101
578
454
91
265
38
963
972
222
973
707
794
853
214
783
667
161
301
477
75
638
232
523
583
685
945
712
194
768
264
597
779
146
82
304
713
764
342
518
306
792
423
766
424
235
188
949
393
346
645
598
515
224
771
206
382
981
381
177
37
548
26
784
957
673
546
810
698
697
520
123
807
426
15
543
960
627
277
108
81
319
834
8
27
501
284
446
48
898
335
565
536
492
157
407
228
874
455
433
448
988
332
773
542
443
366
759
745
97
317
143
355
416
74
774
417
550
916
780
749
571
488
459
708
392
435
384
219
484
644
729
649
541
205
623
378
787
629
959
495
467
253
169
852
603
245
781
907
125
290
98
153
824
986
585
533
776
942
262
702
320
409
275
937
52
80
591
178
822
755
296
268
420
30
104
738
703
243
547
112
878
396
117
657
576
287
826
398
314
604
236
886
648
862
339
238
154
767
625
718
640
387
964
182
842
679
882
266
741
386
562
256
655
514
544
150
190
727
512
610
561
858
292
952
797
620
260
601
884
248
422
659
871
21
250
624
608
196
633
521
348
967
372
615
85
136
534
524
385
757
971
77
300
324
728
817

PP_SECTION
0
3
0
0
0
7
0
0
10
0
0
0
14
15
0
0
0
0
0
0
0
0
0
0
26
27
0
29
0
0
0
0
0
0
36
0
38
39
0
41
0
0
0
0
0
47
48
0
0
51
0
0
0
0
56
0
0
59
0
0
62
63
0
65
0
67
68
69
70
71
72
0
74
0
0
77
0
0
80
81
82
83
0
85
0
87
0
0
90
91
0
93
0
95
0
97
98
0
100
0
0
0
104
0
0
0
108
0
0
0
0
113
0
0
0
117
0
119
0
0
0
123
124
125
0
0
0
129
0
131
132
0
134
135
136
0
0
0
0
0
0
143
0
0
0
147
148
0
150
0
0
0
154
155
156
157
158
0
160
0
0
0
164
0
0
0
168
169
170
0
0
0
0
175
0
0
178
0
0
0
0
0
0
185
0
0
188
189
190
191
0
0
194
0
0
197
198
0
0
201
0
203
204
205
0
0
208
0
0
0
212
213
214
0
0
217
0
0
0
0
222
223
0
0
226
227
0
0
230
231
232
0
0
0
236
0
238
0
0
0
0
243
244
245
246
0
248
0
250
0
252
0
0
0
0
257
0
0
260
261
0
0
264
265
266
267
268
269
0
0
0
0
0
275
0
0
0
279
0
0
282
0
284
0
0
287
0
0
290
0
292
293
0
295
296
0
0
0
300
0
302
0
0
0
0
0
308
0
0
311
0
313
314
315
0
0
318
0
320
0
322
0
324
0
0
0
0
329
0
0
332
0
0
0
0
337
0
0
0
0
342
0
344
0
0
0
348
0
0
0
352
353
0
355
0
0
0
0
360
361
362
363
0
365
366
0
0
0
370
0
372
0
0
0
0
0
378
0
0
0
0
0
0
385
386
0
0
0
0
391
392
393
394
395
0
0
0
0
0
0
0
403
0
0
0
407
0
0
0
0
0
413
0
0
416
417
0
419
420
0
422
0
0
0
426
427
0
429
430
0
0
433
0
435
436
0
0
0
0
0
0
443
0
0
446
447
448
0
0
0
0
0
454
455
456
457
0
459
0
0
0
0
0
0
466
467
0
0
0
471
0
0
0
0
0
477
0
0
0
481
482
0
484
485
0
0
488
0
0
491
0
0
0
0
0
497
0
0
0
0
0
0
0
0
506
507
508
0
0
0
0
513
0
515
0
0
0
519
0
521
0
0
524
0
526
0
0
529
530
531
532
533
534
535
536
0
0
0
540
541
0
543
544
0
0
547
0
0
550
551
0
0
0
0
0
0
0
0
0
561
562
0
0
565
0
0
568
0
570
0
0
573
0
0
0
0
0
0
0
581
0
0
0
585
586
0
0
0
0
0
0
0
0
0
596
597
0
0
0
601
0
603
604
0
0
607
608
0
610
611
0
0
0
615
0
0
0
619
0
621
622
623
624
625
626
627
0
629
630
0
0
0
0
635
0
637
0
0
640
0
0
0
644
0
646
0
0
649
650
0
0
0
654
655
656
0
0
659
660
0
662
663
0
0
0
667
0
0
0
0
0
0
0
0
0
0
678
679
680
0
0
0
0
685
686
0
0
0
0
0
0
0
694
0
0
697
698
0
0
0
0
703
0
705
0
707
0
0
0
0
712
0
0
0
0
0
718
0
0
721
0
0
0
725
726
727
728
729
730
0
732
733
0
735
0
0
0
0
740
0
0
0
744
745
0
0
0
749
0
0
752
0
0
755
0
757
758
759
760
0
0
0
764
765
766
0
768
0
0
771
0
773
774
0
776
0
0
0
780
781
0
783
0
0
786
0
0
0
790
0
792
0
794
795
0
797
0
799
0
0
0
803
0
0
0
0
0
809
810
0
812
0
0
815
0
817
818
819
820
0
822
823
824
0
826
827
0
0
0
831
0
0
834
0
0
0
0
839
0
0
0
0
0
0
0
0
0
0
0
0
852
853
0
0
0
0
858
859
0
0
862
863
0
0
866
0
868
869
0
871
872
0
874
0
0
0
878
0
0
0
882
883
0
885
0
887
0
0
0
0
0
0
894
0
0
897
0
899
0
901
0
0
0
905
906
907
0
0
0
911
912
913
0
0
916
0
918
919
0
0
0
0
924
0
0
927
0
929
0
0
932
933
934
0
0
937
0
0
0
0
942
943
0
0
946
0
948
949
0
0
0
0
954
0
0
0
0
959
960
0
0
963
964
0
0
967
0
0
970
971
972
0
0
975
0
977
0
979
0
0
0
0
0
985
0
0
988
0
990
0
0
0
0
0
0
0
0
0
0
2
0
0
0
0
0
8
9
0
11
0
0
0
15
16
0
0
0
0
21
22
0
24
0
0
27
0
0
30
0
32
0
34
0
0
0
0
0
0
41
0
0
0
45
0
47
0
0
0
0
52
0
54
0
0
0
0
0
0
0
0
63
64
0
66
0
0
69
0
71
0
73
74
75
76
77
0
0
80
81
82
83
0
85
86
87
88
89
0
0
92
93
0
0
96
0
98
0
0
0
0
0
104
0
0
0
108
0
0
0
112
0
0
0
116
117
118
0
0
0
0
0
124
125
0
0
0
129
0
131
132
0
134
135
136
0
138
0
0
0
142
143
0
0
146
0
0
0
150
151
0
0
154
0
156
0
0
0
0
161
0
0
164
0
0
167
168
169
170
0
0
173
0
175
0
0
0
0
0
0
182
183
0
0
186
0
188
0
0
0
0
0
194
0
0
197
198
0
0
201
0
203
0
205
206
0
0
0
0
0
0
0
214
0
216
0
0
219
0
0
0
0
224
0
0
0
228
0
230
0
0
0
234
235
0
0
0
239
0
0
242
243
244
0
0
0
0
0
250
251
0
0
0
0
256
0
0
0
260
0
0
0
264
0
266
0
268
0
0
0
0
0
0
275
0
277
278
0
280
281
0
283
284
0
0
287
0
0
290
0
292
0
0
0
296
0
298
0
300
0
302
0
304
0
0
0
0
0
0
311
0
0
0
315
0
317
318
319
320
0
0
0
324
325
326
0
0
0
330
0
332
0
0
0
0
0
338
339
0
0
342
0
0
0
0
0
348
0
0
0
0
353
354
355
0
0
0
0
0
361
0
0
0
365
366
0
0
0
0
371
372
0
0
375
0
0
378
0
380
381
382
383
0
385
386
387
0
0
0
0
392
393
0
0
396
0
398
0
0
0
0
0
0
0
0
407
408
409
0
0
412
413
0
415
416
417
418
419
0
0
422
423
424
0
0
0
0
0
0
431
0
0
0
435
436
0
0
0
0
0
0
443
444
0
446
0
448
0
450
0
0
453
454
455
0
0
0
459
0
0
0
0
0
0
0
467
468
0
0
471
472
0
0
475
0
0
0
0
0
481
482
0
484
0
486
0
488
0
490
0
492
493
0
495
0
0
498
499
500
501
0
0
504
505
0
507
508
0
0
0
512
0
0
0
0
0
0
0
0
521
522
0
524
0
0
527
0
0
530
531
0
533
534
0
536
0
0
0
540
541
542
0
544
545
546
547
0
549
550
0
552
0
0
0
0
0
0
0
0
561
0
0
564
0
0
0
0
0
0
571
572
573
0
0
576
0
578
0
0
0
582
0
584
0
586
587
0
589
590
591
592
0
0
0
596
0
0
0
600
601
602
603
604
0
0
607
608
609
610
0
0
0
0
615
0
0
618
0
620
0
0
0
624
0
0
627
628
629
0
0
0
633
0
0
0
0
0
639
0
0
0
0
0
645
0
0
648
0
0
0
652
0
0
655
656
0
0
659
0
661
0
0
0
0
0
667
0
0
0
671
0
673
674
675
0
0
0
679
680
0
0
0
684
0
0
687
0
0
690
0
692
0
0
695
0
697
698
0
0
0
702
0
0
705
0
707
708
709
0
711
712
713
0
715
0
717
0
0
720
721
0
0
0
725
0
727
728
0
0
0
0
733
734
735
0
737
738
739
0
0
0
0
0
0
0
747
748
749
0
0
0
753
0
755
756
757
758
759
0
761
762
0
0
0
766
767
768
0
0
0
0
0
774
0
776
0
778
779
780
781
0
0
0
0
0
787
788
0
0
0
0
0
0
0
0
797
0
0
0
0
0
0
0
0
0
807
0
0
0
0
0
0
0
0
816
817
0
0
820
0
822
823
824
825
826
0
828
0
830
0
0
0
0
835
0
0
838
0
0
0
842
0
844
0
846
0
0
849
850
0
852
0
854
0
856
0
0
0
860
0
862
0
0
0
0
867
868
869
870
871
872
873
0
0
0
877
878
0
0
881
882
0
884
885
886
0
0
889
0
0
0
893
0
895
0
897
898
899
0
0
0
903
0
905
906
907
0
909
0
911
0
0
914
0
916
0
918
919
0
0
922
0
0
0
0
0
928
0
0
0
0
0
0
0
0
937
0
939
0
0
0
943
0
0
946
0
0
0
950
951
952
0
0
0
0
957
958
0
960
961
962
963
964
0
0
967
0
0
0
0
972
0
0
0
0
0
978
0
0
981
0
0
0
0
986
0
988
0
990
0
992
0
0
0
0
0
0
0
0
2
0
0
0
6
7
8
0
10
11
0
13
14
15
0
0
0
19
0
21
0
0
0
0
26
0
0
0
30
0
0
0
34
35
36
37
0
0
0
41
0
0
0
0
0
0
0
0
50
0
52
53
0
0
56
0
0
0
60
0
0
0
0
0
0
0
0
0
0
0
72
73
74
75
0
77
0
0
0
0
0
0
84
85
0
87
0
89
0
0
0
93
0
95
0
0
98
0
0
101
0
0
104
0
0
0
0
0
0
0
112
113
0
0
0
117
0
119
0
0
0
123
0
0
0
0
128
0
0
0
132
0
0
0
136
0
0
0
0
0
0
0
0
0
146
0
0
0
150
0
0
0
154
0
0
157
0
159
0
0
0
163
0
0
166
167
0
169
0
0
0
0
174
0
0
0
0
179
0
0
182
0
184
0
0
0
188
189
190
0
0
0
194
0
196
0
0
0
0
201
0
0
0
0
206
0
0
0
210
211
0
0
0
215
0
0
218
219
0
0
222
0
0
0
0
0
0
0
230
0
0
233
0
0
0
0
238
0
0
241
242
243
0
245
0
247
248
0
250
0
252
0
254
0
256
0
0
0
260
0
262
263
264
265
266
0
268
269
270
0
0
0
0
275
0
0
0
0
0
0
0
0
0
0
0
287
288
0
290
291
292
0
0
0
0
0
0
0
300
0
302
303
0
0
0
0
0
309
0
311
0
313
314
0
316
317
0
0
320
0
0
323
324
325
0
0
0
0
330
0
332
333
0
0
0
337
0
339
0
0
342
343
0
0
346
0
348
0
350
351
352
353
0
0
356
0
358
0
360
0
0
0
364
365
366
0
0
0
0
371
372
0
0
0
0
0
378
0
0
381
382
0
384
385
386
387
0
0
0
0
392
0
0
0
0
397
398
0
0
0
402
0
404
0
0
0
408
409
0
0
412
0
0
0
0
0
0
419
420
0
422
423
424
0
426
0
0
429
430
0
0
433
0
435
0
437
0
0
0
0
0
443
0
0
446
447
448
0
450
451
452
453
454
455
456
457
0
459
0
461
0
463
0
0
0
0
0
469
0
0
0
473
474
0
0
0
478
0
0
481
0
0
484
0
0
0
488
0
0
0
0
0
0
495
496
497
498
0
500
0
0
0
0
0
0
0
508
0
0
0
512
0
514
0
0
517
518
0
520
521
522
523
524
525
0
0
0
0
530
531
0
533
534
0
0
0
0
539
540
0
0
0
544
545
546
547
548
0
0
551
0
0
554
0
556
0
0
559
0
561
562
0
0
565
0
0
0
0
570
571
0
573
0
575
0
0
578
0
580
0
0
0
0
0
0
0
588
589
590
591
592
593
0
595
0
0
0
0
0
0
0
603
0
0
606
607
608
0
610
0
0
0
0
615
0
0
0
0
620
0
0
0
624
0
626
0
0
629
630
0
0
0
0
0
0
637
0
0
0
0
0
0
644
0
0
0
648
649
0
0
652
0
654
655
0
0
0
659
660
0
0
0
0
0
0
667
668
0
0
0
0
0
674
0
0
0
678
679
0
0
0
0
684
0
0
687
0
689
0
0
0
0
0
695
0
697
698
0
700
0
0
703
0
705
0
0
708
709
0
0
0
0
0
715
716
0
0
719
0
0
0
0
0
0
0
727
728
0
0
0
0
0
0
0
0
0
738
739
0
741
742
0
0
745
0
0
0
0
0
751
752
0
0
0
756
757
0
0
760
761
0
0
0
765
0
767
768
0
0
771
0
773
0
0
0
0
0
779
0
0
0
783
784
0
0
0
0
789
0
0
792
0
794
795
796
797
0
0
800
0
802
803
0
805
806
807
0
0
810
0
0
0
0
815
816
817
0
0
820
821
0
0
0
0
826
0
0
0
830
0
0
833
0
0
0
0
0
839
0
841
842
843
0
845
0
0
0
0
850
0
852
853
854
0
0
0
858
0
860
861
0
0
0
0
866
0
868
0
0
871
872
0
0
0
876
0
0
0
880
0
0
0
884
0
886
887
0
0
0
0
892
0
0
895
0
0
898
899
0
0
902
903
904
905
906
907
0
0
0
0
0
0
0
0
916
0
918
919
0
0
922
923
924
0
0
0
928
0
930
0
0
933
0
0
0
937
0
0
0
0
0
0
944
945
0
0
0
949
0
0
0
953
0
0
0
957
958
959
960
0
0
963
964
0
0
0
0
969
0
971
0
973
0
975
0
0
0
0
0
981
0
0
0
985
986
987
988
989
990
0
992
993
0
995
0
0
998
999
0
0
0
0
0
0
7
8
0
0
0
12
13
0
15
0
0
0
0
0
21
0
0
0
0
26
27
0
0
30
0
0
0
0
35
0
0
38
0
0
0
0
0
0
0
0
47
48
0
0
0
0
0
0
0
56
0
0
0
60
0
0
0
0
0
66
0
68
69
0
0
0
0
0
75
0
77
0
0
80
81
0
83
0
0
0
0
0
89
90
0
0
0
0
95
0
97
0
0
100
101
102
103
104
0
0
0
0
109
110
111
112
0
0
115
116
117
0
119
0
121
0
123
0
0
126
0
0
0
130
0
132
133
134
0
136
137
0
0
0
0
0
0
0
0
0
0
0
0
150
151
152
0
0
155
0
157
0
0
160
0
0
0
0
0
166
167
0
0
0
0
172
173
0
175
0
177
178
0
0
181
182
0
0
0
186
0
188
0
0
191
0
0
194
0
196
197
0
0
0
201
0
203
204
205
0
0
0
0
0
0
0
0
0
215
216
217
218
219
0
0
222
223
0
225
0
0
0
0
0
0
232
0
0
235
236
237
238
0
240
0
0
243
0
245
246
0
248
0
250
0
0
0
0
0
256
0
258
0
0
0
0
263
0
265
266
267
268
0
0
271
0
0
274
275
276
277
0
0
280
281
0
0
0
0
286
287
0
0
290
0
292
293
294
295
296
0
298
299
300
0
302
303
304
0
306
307
0
0
0
0
0
0
314
0
0
317
0
319
320
0
322
0
324
0
0
327
0
0
0
0
0
0
0
335
0
0
0
339
0
0
0
343
0
0
346
0
348
349
0
0
352
0
354
0
0
0
0
359
360
0
362
0
364
0
366
0
0
369
0
0
372
0
0
0
376
0
378
0
0
0
0
0
384
385
386
387
0
0
390
0
0
0
0
0
396
0
398
0
0
401
402
0
404
405
0
407
0
409
410
0
0
0
414
0
0
417
418
419
420
421
422
423
424
0
426
427
0
0
430
431
432
0
0
435
0
437
438
0
0
0
0
0
0
445
446
0
448
0
450
0
0
0
0
0
0
457
0
459
0
0
462
463
0
465
466
467
468
0
0
471
472
473
0
0
0
477
0
0
0
481
0
483
0
485
486
0
488
489
0
0
492
493
0
0
0
497
0
0
0
501
502
503
504
0
0
0
0
0
0
511
512
513
0
515
0
0
518
0
520
0
0
523
524
0
526
0
528
0
0
0
0
0
534
0
536
537
0
0
540
541
0
543
544
0
0
547
548
549
0
551
0
0
0
0
556
0
0
0
0
561
562
0
0
0
0
567
568
569
0
571
572
573
0
0
576
0
578
0
580
0
0
583
584
585
586
0
588
0
590
591
0
0
0
595
0
0
0
0
0
601
0
0
604
605
0
607
608
0
610
0
0
0
0
0
0
0
0
0
620
0
622
0
624
625
0
627
0
629
630
631
0
633
0
0
0
0
638
0
640
0
0
0
0
645
0
647
0
0
0
651
0
0
0
655
656
657
0
659
0
0
0
663
0
0
0
0
0
669
670
0
0
673
674
675
0
0
0
679
0
0
682
0
0
0
0
0
0
0
0
691
692
0
694
695
0
697
698
0
700
0
702
703
704
705
706
707
0
0
0
0
0
713
0
0
0
0
0
719
0
0
722
0
724
725
0
727
728
729
730
0
732
0
0
0
736
0
738
0
0
741
0
0
0
745
746
747
0
749
0
0
752
0
754
0
756
757
0
759
0
761
762
0
0
0
766
0
768
0
0
771
772
773
774
0
776
0
778
0
780
781
0
0
0
0
0
0
0
789
790
791
792
793
0
795
0
0
0
0
0
0
802
0
804
0
0
0
0
0
810
0
812
0
814
0
0
817
818
0
820
0
822
0
824
825
826
827
0
829
0
0
0
0
834
0
0
837
838
839
0
0
842
0
0
0
0
0
0
0
0
0
0
0
0
0
856
0
858
0
860
0
862
0
0
0
0
0
0
869
870
871
0
873
874
0
0
0
0
0
0
0
882
0
884
885
0
0
0
889
0
891
0
0
0
0
0
0
898
899
0
901
902
903
0
0
906
907
0
0
0
911
0
0
914
0
916
0
918
0
0
921
0
923
0
0
926
0
928
0
0
0
0
0
0
0
0
0
938
939
0
0
942
0
0
0
946
0
0
949
0
0
952
0
0
955
0
0
958
959
0
961
0
963
964
0
0
967
0
969
0
971
972
973
0
975
0
977
0
0
0
0
0
0
984
0
986
0
988
0
0
0
992
993
0
0
0
0
0
0
0
0
0
0
5
6
7
8
0
10
11
0
0
14
0
0
0
18
0
0
21
0
23
0
0
0
27
28
0
30
0
32
33
0
0
0
37
0
0
40
0
0
0
0
45
46
0
48
0
0
0
0
0
0
0
0
57
0
0
60
0
0
0
0
0
0
0
68
0
0
71
0
0
74
75
0
0
0
0
80
0
82
0
84
0
0
0
0
0
90
0
0
0
0
95
0
0
98
0
100
0
0
0
0
105
0
107
108
109
0
111
112
0
0
0
0
117
0
0
0
0
0
0
0
125
0
0
128
0
0
0
132
0
134
135
136
137
0
0
0
0
0
143
0
0
146
147
0
0
150
151
152
0
154
155
0
157
0
0
160
0
162
0
0
0
0
0
168
169
0
0
0
0
0
0
176
177
178
0
0
0
182
0
184
0
0
187
0
189
190
0
0
0
194
195
196
197
0
0
200
0
0
0
0
205
206
0
0
0
0
0
0
0
214
215
0
0
218
219
220
221
222
0
224
225
0
0
228
0
0
231
232
0
234
235
0
0
0
0
0
0
0
243
0
245
0
0
248
249
250
0
0
0
254
0
256
0
258
0
0
261
262
263
0
265
266
0
0
0
0
271
0
0
0
0
276
277
278
0
0
281
0
0
0
0
0
287
0
289
0
0
292
293
0
295
0
0
0
0
300
301
0
303
304
0
306
0
0
309
310
311
0
313
314
0
0
317
0
0
320
0
0
0
324
0
326
0
0
0
0
0
332
333
334
335
336
337
0
0
0
0
0
0
0
0
346
0
348
349
0
0
352
0
0
0
0
357
0
359
0
361
0
363
0
0
366
367
368
369
370
371
372
0
0
0
376
0
0
0
380
381
382
383
384
385
386
387
0
0
0
0
0
0
394
395
396
0
398
0
400
401
0
0
0
0
0
407
0
409
410
0
0
413
0
0
0
0
0
0
420
0
422
423
424
0
0
427
0
0
0
0
0
433
434
435
436
437
0
0
0
0
0
0
0
0
446
0
448
0
450
451
0
0
0
455
0
0
0
459
0
0
0
0
464
0
0
0
0
469
0
0
472
473
474
475
476
0
478
0
0
481
482
0
484
0
0
0
0
489
0
0
492
493
494
0
0
0
498
0
0
0
502
0
0
0
0
0
508
0
0
0
512
0
514
515
0
0
518
0
0
521
0
0
524
525
526
527
0
0
0
0
0
0
534
535
536
537
0
0
0
541
542
0
0
0
0
547
548
549
550
0
552
553
554
0
0
0
0
0
560
0
562
0
0
565
0
0
0
0
0
571
0
0
574
0
0
0
578
0
0
0
582
583
584
585
0
0
588
589
590
591
592
0
0
595
0
597
598
0
600
601
602
0
0
605
606
0
608
0
610
611
0
0
0
615
0
0
0
619
620
0
622
623
624
625
626
0
0
629
0
0
0
633
0
635
0
0
0
0
640
0
0
0
644
645
646
647
648
0
0
0
0
653
0
655
0
657
0
0
660
661
0
0
0
0
0
0
0
669
0
0
0
673
0
675
676
0
678
0
680
681
0
0
684
685
0
0
0
689
0
0
0
0
0
0
0
697
698
0
0
0
702
703
704
0
706
0
708
0
0
0
0
0
0
0
716
0
718
719
720
721
722
0
0
0
0
0
728
0
0
0
0
0
0
0
0
0
738
0
0
741
742
0
744
0
746
747
0
749
0
0
752
753
0
0
756
757
0
0
760
0
762
0
0
0
0
767
768
0
0
771
0
773
774
0
776
0
0
779
0
781
0
783
784
0
0
787
0
0
790
0
792
0
0
795
0
797
0
0
800
801
802
803
0
805
806
807
0
809
0
0
812
0
814
0
0
817
0
0
0
0
822
0
824
0
826
0
0
0
0
0
0
0
834
0
0
837
0
0
0
0
0
843
844
0
0
0
848
0
0
851
0
0
0
0
856
0
858
859
0
861
862
0
0
0
0
867
0
0
0
871
0
0
874
0
0
877
878
0
0
0
882
0
884
0
886
0
888
0
0
891
0
0
0
895
0
0
898
0
0
0
0
0
0
0
0
907
908
909
0
911
0
913
0
0
916
0
918
919
0
0
0
0
0
925
0
0
0
0
0
0
0
933
0
935
0
937
0
939
0
0
942
0
0
945
946
0
0
0
950
0
952
0
0
0
0
0
958
959
960
0
962
0
964
0
0
967
0
969
0
971
972
973
0
975
0
977
0
0
0
981
0
983
984
0
0
0
988
989
990
0
0
0
994
0
0
0
0
0
1000
0
0
0
0
0
0
0
0
10
11
0
13
0
0
0
17
0
0
20
21
22
0
0
0
26
27
0
29
30
0
0
33
0
0
0
0
0
39
40
0
0
0
0
0
0
47
48
0
50
0
52
0
0
0
56
0
0
59
60
61
0
0
0
0
0
0
0
0
0
71
72
73
0
0
0
77
0
0
0
81
0
0
84
0
0
0
88
0
0
91
92
0
0
0
0
97
98
0
0
101
102
0
104
0
0
0
108
109
0
0
112
0
0
0
0
117
0
0
0
0
0
123
0
125
0
0
128
0
0
0
0
0
134
135
136
137
0
0
0
0
142
0
144
0
146
0
0
0
150
0
0
153
154
0
156
157
0
0
160
161
0
0
0
0
0
0
168
0
0
0
172
0
0
175
176
177
178
0
0
181
0
0
184
0
0
0
188
0
190
0
0
0
194
0
196
0
0
0
0
0
0
0
0
205
0
0
0
0
0
0
0
213
214
0
0
0
0
219
220
0
222
223
224
0
0
227
228
0
0
231
232
0
0
235
236
0
238
0
0
241
0
0
0
245
0
247
0
249
250
0
0
0
0
0
0
0
0
0
260
0
262
0
264
265
0
267
268
269
0
271
0
0
274
0
276
277
278
0
0
0
282
0
0
0
0
287
288
289
290
0
292
0
0
0
296
0
0
299
300
301
0
0
0
0
0
0
308
309
0
311
0
0
314
0
0
317
0
0
320
0
0
0
324
0
0
0
0
0
330
0
0
0
0
0
0
0
0
339
0
341
342
343
0
0
346
347
348
0
0
0
352
0
0
355
356
0
0
0
0
361
0
363
364
0
366
0
0
369
0
371
372
0
0
0
0
0
378
0
0
0
382
0
0
385
386
0
0
389
0
0
0
393
0
0
396
397
398
0
0
401
0
403
404
0
0
0
0
409
0
0
0
413
0
415
0
417
418
0
420
421
422
0
0
425
0
0
0
0
0
0
0
0
0
435
436
437
0
0
0
0
0
0
444
0
0
0
0
449
0
0
0
0
454
455
0
0
0
459
460
461
462
0
0
465
0
467
0
0
0
0
472
473
0
0
0
0
478
0
0
0
482
0
484
0
0
0
488
0
0
0
0
0
0
0
496
497
498
0
0
0
502
0
0
0
0
0
0
0
0
0
512
0
514
515
516
0
518
0
520
521
0
0
524
0
526
0
528
0
530
0
0
0
534
0
0
537
0
0
540
541
542
0
544
0
0
547
0
0
550
0
0
0
554
0
556
0
0
0
0
0
562
0
0
565
0
0
0
0
570
571
0
573
0
0
576
0
0
0
580
0
0
583
0
0
0
0
588
0
0
591
0
593
594
0
0
597
0
0
0
601
602
603
604
605
0
607
608
0
610
0
0
0
0
615
0
617
0
0
620
621
622
0
0
625
0
627
628
0
0
631
0
633
0
0
0
0
638
0
640
0
0
643
644
0
0
0
648
0
650
0
0
653
0
655
0
657
0
659
0
0
0
0
0
0
0
0
668
669
670
0
0
0
0
675
676
0
0
679
0
0
0
0
0
685
0
0
0
0
690
0
0
0
0
0
0
0
698
0
700
0
702
703
0
0
706
0
0
0
0
0
712
713
0
0
0
0
718
0
720
0
0
0
0
0
0
0
728
729
0
0
0
0
0
0
0
737
738
0
0
741
742
0
0
745
0
0
0
749
0
0
752
753
0
755
756
757
0
759
0
761
0
763
764
0
0
767
768
0
0
771
0
773
0
0
0
0
0
779
0
0
782
783
784
0
0
787
788
0
0
0
792
0
0
795
0
797
0
0
0
801
802
0
0
805
806
807
808
0
810
0
0
0
0
0
816
817
0
0
0
0
0
0
824
0
826
0
0
0
0
0
832
0
834
0
0
0
0
0
840
0
842
0
844
0
846
0
0
0
0
851
852
0
0
0
0
0
858
859
0
0
0
863
0
865
866
867
0
0
870
871
872
873
874
0
0
0
878
879
0
0
882
0
884
0
886
0
0
889
0
0
892
0
0
0
0
0
898
0
0
0
0
0
0
905
906
0
908
0
0
0
0
0
0
915
916
0
0
0
920
0
922
0
0
0
0
927
0
0
0
0
932
0
0
0
0
0
938
939
940
0
942
943
0
945
0
947
0
949
0
0
952
0
0
955
0
957
958
959
0
0
0
0
964
0
966
967
968
0
0
971
972
0
0
0
976
0
0
0
0
0
0
0
984
0
986
0
0
0
990
0
992
993
0
995
0
0
0
0
0
0
3
0
0
0
7
8
0
10
0
0
13
0
0
0
0
0
0
20
21
22
0
0
0
0
0
28
0
30
0
0
33
34
35
0
37
0
39
40
41
0
0
0
0
0
0
0
49
50
0
52
0
0
0
0
0
58
0
0
0
62
63
0
0
0
0
0
0
70
0
0
73
0
75
0
77
0
0
80
81
82
0
0
85
0
87
88
0
0
0
0
0
0
95
0
97
98
0
0
0
0
0
104
0
0
107
108
109
0
0
112
113
114
0
0
117
118
0
0
0
0
0
0
125
126
127
0
0
0
0
132
0
0
135
136
0
0
0
140
0
0
0
144
0
146
0
0
0
150
0
0
153
0
0
0
157
0
0
0
0
0
163
164
0
166
0
168
169
170
0
172
0
0
0
176
177
0
179
0
0
0
0
184
185
0
0
188
0
190
0
0
0
194
195
196
0
0
199
0
201
0
0
0
205
0
0
0
0
0
211
212
0
214
0
216
217
0
219
220
0
222
0
224
225
0
0
228
0
230
231
232
0
0
0
0
0
0
0
240
0
0
243
0
245
246
0
248
0
250
0
0
0
0
0
256
0
0
0
260
0
262
263
264
0
0
267
268
0
0
0
272
0
0
275
0
0
0
0
0
0
0
0
284
0
0
287
288
0
290
0
292
0
0
0
0
297
298
0
300
301
302
0
304
0
306
307
0
0
0
0
0
313
314
315
0
317
0
319
320
321
0
0
324
325
0
0
0
329
0
0
332
333
0
0
0
0
338
339
0
341
342
0
0
0
0
0
348
0
350
351
352
353
354
355
0
0
0
359
0
0
362
0
364
365
366
0
0
369
0
371
372
0
0
0
376
377
0
0
0
381
382
0
384
385
0
387
0
389
390
391
0
0
0
0
396
397
398
0
0
0
0
0
404
0
0
0
0
409
410
0
0
413
0
0
0
417
418
0
0
0
0
423
424
0
426
0
428
0
430
0
0
433
0
435
0
437
0
0
0
0
0
443
444
0
446
447
448
0
450
0
0
0
0
0
0
0
458
459
460
0
0
463
0
0
466
467
0
0
0
0
0
473
0
475
0
0
0
0
0
481
0
0
0
485
486
0
488
0
490
0
492
0
0
0
496
497
0
0
0
501
502
0
0
0
0
507
0
0
510
0
512
0
514
0
0
517
518
0
520
521
0
523
524
525
0
0
0
0
0
0
0
533
534
535
536
0
0
0
0
541
542
0
544
0
0
0
0
0
0
0
552
553
0
0
556
0
558
0
560
561
562
0
564
565
0
0
0
0
0
571
572
0
0
0
0
577
578
0
580
581
0
583
0
0
0
0
0
589
0
591
592
593
594
595
596
597
598
0
0
601
0
603
604
0
606
0
0
609
610
611
0
0
0
615
0
0
0
0
620
0
0
623
624
625
0
627
0
629
0
0
0
633
634
0
0
0
0
0
640
0
0
0
0
0
646
647
648
0
650
0
652
0
0
655
0
0
0
659
0
0
0
0
0
0
0
667
0
0
0
671
0
673
0
0
0
0
0
679
680
0
0
0
684
685
686
0
0
0
0
0
692
0
0
0
696
697
698
699
700
0
702
703
0
0
0
707
708
0
710
0
712
713
0
0
0
0
718
0
0
0
0
0
0
0
0
727
728
0
0
731
0
0
0
0
0
0
738
0
740
741
0
0
0
745
746
0
0
0
0
751
752
753
0
755
756
757
0
0
0
0
0
763
0
0
766
767
768
0
770
771
0
0
774
0
776
777
0
0
780
781
0
0
784
785
0
787
0
0
0
0
792
0
794
795
796
797
0
799
0
0
802
803
0
805
0
0
808
0
810
0
812
813
814
0
816
817
0
0
820
0
822
0
824
0
826
0
0
0
0
0
832
833
834
835
0
0
0
839
840
0
842
0
844
0
0
0
0
0
850
0
852
853
0
0
0
0
858
0
0
0
0
863
864
0
866
0
0
0
870
871
872
0
874
0
876
0
878
0
0
881
882
0
884
0
886
887
888
889
0
0
0
0
894
0
0
897
898
899
0
901
0
903
904
905
906
907
908
0
0
0
0
913
0
915
0
0
918
919
0
0
0
923
924
0
926
0
928
929
930
0
932
0
934
0
0
0
0
939
0
0
942
0
0
945
0
0
0
949
0
951
952
0
0
0
0
957
0
959
960
0
0
0
964
0
0
967
968
969
0
971
0
973
0
0
976
0
978
0
0
981
0
983
984
0
0
0
988
989
0
991
0
993
994
0
996
997
0
0
0
0
0
0
0
0
0
8
9
0
0
0
13
0
15
0
0
0
19
0
0
0
23
0
0
0
27
0
0
30
0
32
33
0
0
0
0
38
0
0
0
42
0
44
0
0
0
0
0
0
0
0
53
0
55
0
0
0
0
0
0
62
0
0
0
0
67
0
0
70
0
72
73
74
75
0
77
0
79
80
81
82
83
0
85
0
0
0
0
0
0
0
0
0
0
0
97
98
0
0
101
0
0
104
0
0
0
0
0
0
0
112
113
0
0
116
0
0
0
0
0
122
0
0
125
0
127
128
129
0
0
0
133
134
0
136
0
0
0
0
0
0
143
144
0
146
147
0
0
150
151
152
0
154
0
0
157
0
159
0
161
0
163
0
165
0
0
0
0
0
0
172
0
0
175
0
0
0
0
0
0
0
0
0
0
0
0
0
0
190
0
0
0
0
195
196
197
0
0
0
0
0
0
204
205
206
0
0
0
0
0
212
213
214
0
0
0
218
219
0
0
222
223
0
225
0
0
228
0
230
231
0
0
0
0
236
0
0
0
0
0
242
243
244
245
246
247
248
0
250
0
0
253
254
0
256
257
0
0
260
261
262
0
264
0
266
267
268
0
0
0
0
0
0
275
276
0
0
0
0
0
282
0
0
0
286
287
0
0
290
0
292
0
294
0
296
0
298
0
300
301
0
0
304
0
306
0
308
0
0
0
0
0
314
0
0
0
0
0
0
0
0
323
324
0
0
327
0
0
330
331
332
333
0
335
336
0
0
339
340
0
342
0
344
0
0
347
348
0
0
351
0
353
0
0
356
0
0
0
360
0
0
363
0
365
366
0
0
0
0
0
372
0
0
375
0
377
378
0
0
381
382
0
0
385
386
387
0
0
390
0
392
393
394
0
396
0
398
0
400
0
0
0
0
0
0
407
0
409
410
411
0
413
0
0
0
417
0
0
420
0
422
423
0
0
426
427
0
429
0
0
0
0
0
0
0
437
0
0
0
441
0
0
0
0
0
447
448
0
450
0
0
453
0
0
0
0
0
459
0
0
0
0
0
465
0
467
0
0
0
0
0
473
0
0
0
0
478
0
0
481
0
0
0
0
0
0
488
0
490
491
492
493
0
495
496
0
498
499
0
0
502
0
0
0
0
507
508
0
0
0
512
0
0
515
0
0
0
0
520
0
522
523
524
0
0
0
0
529
0
0
0
0
534
0
0
0
0
0
0
541
542
0
0
0
546
547
548
0
550
0
0
0
554
0
0
557
558
559
0
561
562
563
0
0
0
0
0
569
0
571
0
0
0
0
576
0
578
0
580
581
582
0
0
0
0
0
0
0
590
591
0
593
0
595
596
0
598
0
0
601
0
603
604
605
0
607
608
0
0
0
0
0
0
615
616
0
0
0
620
0
622
0
624
625
0
0
628
629
0
0
0
0
0
0
0
0
0
0
640
641
0
643
644
645
0
0
648
649
0
0
0
0
0
655
656
657
0
659
0
0
0
0
0
665
0
667
668
0
0
0
672
673
674
0
0
0
678
679
680
0
0
683
0
0
0
687
0
689
0
0
692
0
0
0
0
697
0
0
0
0
0
0
0
705
0
0
0
709
0
0
712
713
0
0
0
0
718
0
720
721
0
0
724
0
0
0
728
729
730
0
732
0
0
0
0
0
738
739
0
741
742
0
0
0
0
0
0
749
0
751
0
753
0
755
0
757
758
0
0
0
0
0
0
0
0
767
0
0
770
0
0
0
0
0
0
0
0
779
780
781
0
0
784
785
786
0
0
0
0
0
0
0
0
0
0
797
0
0
0
0
0
803
0
0
0
0
0
0
810
0
812
0
0
0
0
817
0
0
0
0
822
823
824
0
0
0
0
0
0
0
0
0
834
0
0
0
0
0
0
841
842
843
844
0
0
0
0
849
850
0
852
0
0
0
0
0
858
0
0
861
862
0
0
0
0
0
0
0
870
871
872
0
0
0
0
0
0
0
880
0
882
0
884
885
886
887
888
0
0
0
0
0
894
0
0
897
898
0
0
0
0
0
0
0
0
907
0
0
0
0
912
913
914
0
0
0
0
0
920
0
0
0
0
0
926
0
0
0
0
0
932
933
0
935
0
0
938
939
0
941
0
0
0
945
946
0
948
949
0
0
952
0
0
955
956
957
958
0
0
961
0
0
964
965
966
967
0
0
0
971
972
0
0
0
0
0
0
0
0
981
982
0
0
0
986
987
0
989
990
0
992
0
0
0
0
0
0
0
0
0
3
0
0
0
7
0
0
10
0
0
13
0
15
16
0
0
0
0
21
0
0
0
0
26
27
0
29
30
31
0
33
0
35
0
37
0
0
0
0
0
0
0
45
46
0
48
0
50
0
52
0
0
0
56
0
0
0
60
0
62
0
0
0
0
0
68
0
70
0
0
0
74
0
0
77
0
79
80
81
0
0
0
85
86
87
0
0
90
0
0
93
0
95
0
97
98
99
0
101
0
0
104
105
106
107
108
0
0
0
112
0
114
115
116
117
0
119
0
121
0
123
0
125
0
0
0
0
0
0
132
0
0
0
0
137
0
139
0
0
0
143
0
0
0
147
0
149
0
0
152
153
154
0
0
157
0
0
160
0
0
163
0
0
166
0
0
169
0
0
0
0
0
175
0
177
178
0
0
0
182
183
0
0
0
0
0
0
190
191
0
0
0
0
196
0
198
0
0
201
0
0
0
205
206
207
0
209
0
0
212
0
0
0
216
217
0
219
0
221
0
223
0
0
0
0
228
229
230
0
232
0
0
235
0
0
238
0
0
0
242
0
0
245
0
0
0
0
250
0
0
0
0
0
256
257
0
0
260
0
262
263
264
0
266
0
268
0
0
0
0
273
0
275
0
277
278
0
0
0
0
0
0
0
0
0
0
0
290
291
292
0
294
295
296
0
298
0
300
301
302
303
304
0
306
0
0
0
0
0
0
313
314
315
0
317
0
0
320
0
0
0
324
325
0
0
0
0
0
0
332
0
0
335
336
337
0
0
0
0
342
343
0
0
346
0
348
349
0
0
352
0
354
355
356
357
0
359
0
361
0
0
0
0
366
0
0
369
0
0
372
0
0
0
0
0
0
0
380
381
382
0
0
385
386
387
0
0
0
0
392
393
0
0
396
397
398
399
400
401
0
0
0
0
0
0
0
409
0
411
412
0
414
0
416
417
0
419
420
0
422
423
0
0
426
0
0
0
0
0
0
0
0
435
0
437
0
0
440
0
0
443
0
0
446
0
448
0
0
451
0
0
0
0
456
0
0
459
0
0
462
0
0
0
0
0
0
469
0
471
472
473
0
0
0
0
478
0
480
481
0
0
484
0
486
487
488
0
0
0
0
493
0
0
0
0
498
0
0
0
502
0
0
0
506
0
508
0
0
0
512
513
514
0
0
0
0
0
0
521
0
523
524
0
526
0
0
0
0
0
0
533
534
535
536
537
0
0
540
541
542
0
544
0
0
547
0
0
550
0
552
0
554
555
0
557
0
559
0
561
562
0
564
565
566
0
568
0
570
0
572
573
574
575
0
0
578
579
0
0
0
583
584
585
586
587
588
0
590
0
0
0
0
0
0
597
0
0
0
601
0
0
0
605
606
607
608
0
610
611
0
0
0
615
0
0
618
619
0
0
622
623
624
625
0
0
0
629
0
0
0
633
0
635
0
0
0
0
640
0
642
0
644
645
646
647
648
649
0
0
0
0
654
655
0
657
0
659
0
0
0
0
0
0
0
667
0
0
670
0
0
673
0
0
0
0
678
679
0
0
0
0
684
685
0
687
0
0
0
691
0
0
0
695
696
0
698
699
0
0
0
0
0
0
706
707
0
0
0
0
0
0
0
715
0
0
718
0
720
0
0
0
0
725
0
727
728
0
0
0
0
733
0
0
736
0
738
739
0
741
0
0
0
0
0
0
0
749
0
0
0
0
0
755
0
757
0
759
0
0
0
763
764
0
0
0
0
0
0
771
772
773
774
0
0
0
778
779
0
781
0
783
0
785
0
787
0
789
0
0
0
0
794
0
0
0
0
0
800
801
0
803
0
805
806
0
0
0
810
0
0
0
0
815
0
817
0
0
0
0
822
823
0
0
826
0
828
829
0
0
0
0
834
0
0
837
0
839
840
0
842
843
0
0
0
0
848
849
0
0
852
0
854
0
0
0
858
859
0
861
862
863
0
0
866
867
868
0
0
871
0
0
874
0
0
877
0
0
0
0
882
883
884
885
0
0
888
0
0
891
0
0
0
895
0
0
0
899
900
0
0
0
0
905
906
907
0
0
0
0
0
0
914
0
916
0
0
0
0
0
922
0
0
925
0
0
0
0
930
0
932
0
0
935
0
937
938
0
0
0
942
0
0
945
0
0
948
0
950
0
952
0
954
955
0
957
0
0
960
961
0
963
964
965
0
967
968
969
0
971
972
973
0
0
0
0
0
0
0
981
0
983
984
0
986
987
0
989
0
0
0
993
0
0
0
0
0
999
1000
0
0
0
0
6
0
0
9
0
0
0
0
14
15
0
17
0
0
20
21
22
23
0
0
26
27
0
0
30
0
32
0
34
35
0
37
38
39
0
41
0
0
0
0
46
0
48
0
0
51
52
0
0
0
0
0
0
0
60
0
62
0
0
0
0
0
0
0
70
0
72
0
74
0
0
77
78
0
0
81
0
0
84
85
0
0
0
0
0
0
0
93
0
0
96
97
0
0
0
101
102
0
104
105
0
0
108
109
0
111
0
0
0
115
0
117
118
0
0
0
122
0
0
0
126
0
128
129
0
0
132
0
0
135
136
0
0
0
0
0
142
0
144
0
146
0
0
0
150
0
0
153
154
155
0
157
158
0
0
0
0
163
0
0
0
0
0
0
0
0
0
0
0
0
0
177
178
0
0
0
0
0
0
0
0
0
0
189
190
191
0
0
194
195
196
197
0
0
200
0
0
0
0
205
206
0
0
209
0
0
212
0
214
0
0
0
218
0
0
0
222
0
0
0
0
0
228
0
0
0
232
0
234
0
0
0
238
239
0
241
0
243
244
0
246
0
248
0
0
0
0
253
254
0
0
0
0
0
260
0
262
0
0
265
266
0
268
269
0
0
0
273
274
0
0
277
0
0
0
281
0
0
284
0
0
287
0
289
290
0
292
0
294
0
296
0
0
0
300
0
0
0
304
305
306
0
308
309
0
0
312
0
314
0
0
317
0
0
0
0
0
0
324
0
326
0
0
0
330
0
0
0
0
0
0
337
338
0
0
0
342
343
0
345
346
0
348
0
0
0
0
353
0
355
0
0
358
0
0
361
0
0
0
365
0
0
368
0
370
0
372
0
0
0
0
0
378
0
0
0
382
0
384
385
386
387
0
0
0
0
392
393
0
0
0
0
0
0
0
401
402
403
404
0
0
407
0
0
0
411
412
413
0
0
416
0
0
0
420
421
0
423
424
0
0
0
0
429
0
0
0
0
0
0
0
437
0
0
440
0
0
443
0
445
446
0
0
0
450
0
0
0
454
455
456
0
458
459
0
0
462
463
0
0
0
0
0
469
0
0
0
473
0
475
0
0
478
479
480
0
0
0
0
0
486
0
0
0
0
0
0
0
0
495
0
0
498
0
0
0
502
0
0
0
0
0
0
509
0
0
0
0
0
515
0
517
0
0
0
521
522
523
524
0
0
527
0
0
530
531
0
533
534
0
536
537
0
0
540
0
542
0
544
545
546
547
548
0
550
0
552
0
0
555
556
0
558
0
560
561
0
0
564
565
0
0
568
0
0
571
572
573
0
0
0
0
0
579
0
0
582
583
0
0
0
0
0
0
0
591
0
0
594
595
596
0
0
0
0
601
0
603
604
605
606
607
608
609
610
611
0
0
0
615
616
0
618
619
0
0
622
623
624
625
0
0
628
0
0
631
0
633
0
0
0
637
0
0
0
0
0
643
0
0
0
0
648
649
0
0
0
0
0
655
656
657
0
659
0
0
0
0
0
0
0
0
0
0
670
0
0
673
0
675
676
0
678
679
0
0
0
683
684
685
686
0
0
0
0
0
692
0
0
0
0
0
0
0
0
701
702
0
704
0
706
0
708
0
0
0
712
713
0
0
716
0
718
0
0
721
0
0
0
0
0
727
728
729
0
0
0
0
0
0
0
0
0
739
0
0
0
0
0
745
0
0
0
749
750
0
0
0
754
755
0
757
0
0
0
0
0
0
0
0
766
0
0
0
0
771
0
773
774
0
0
0
778
0
0
0
782
783
784
0
0
0
0
789
0
0
792
0
794
0
0
797
0
0
0
801
0
0
804
0
0
0
0
0
0
0
812
0
0
815
0
817
0
0
0
0
0
0
824
0
0
827
0
829
0
831
832
0
834
0
0
837
0
839
840
0
842
843
844
0
846
0
848
849
0
0
852
853
0
855
0
0
858
0
0
861
0
0
864
0
0
867
0
869
0
871
872
873
874
0
0
0
878
0
0
881
882
0
884
0
886
0
0
0
0
0
892
0
0
0
0
0
898
0
900
0
0
903
0
905
0
0
908
0
910
0
912
913
0
0
916
917
0
0
920
0
0
0
924
925
926
927
0
0
930
0
932
0
934
935
0
937
938
0
0
0
942
943
0
945
946
0
0
0
0
0
952
953
0
0
956
957
0
959
960
961
962
963
964
965
0
967
0
969
0
971
972
0
0
975
0
0
978
0
0
0
0
0
984
0
986
0
988
0
990
0
0
0
0
995
996
997
998
999
0
EOF
