DIMENSION : 1000
NUMBER OF ITEMS : 4995

TOUR_SECTION
1
817
728
324
300
77
971
757
385
524
534
136
85
615
372
967
348
521
633
196
608
624
250
21
871
659
422
248
825
892
538
830
829
180
299
930
43
532
145
747
953
406
438
259
555
32
798
857
494
687
656
213
138
350
411
965
99
740
677
995
944
83
743
904
612
695
868
114
940
51
257
269
149
226
935
680
170
720
756
47
885
72
989
427
204
925
158
217
906
905
23
646
982
62
337
566
840
111
619
556
579
376
336
531
990
570
186
390
540
582
527
605
587
943
87
134
478
28
921
281
349
404
595
844
593
493
486
535
908
400
115
472
788
592
391
855
821
974
819
796
711
428
155
641
681
141
688
280
651
152
260
601
884
620
797
952
292
858
561
610
512
727
190
150
544
514
655
256
562
386
741
266
882
679
842
182
964
387
640
718
625
767
154
238
339
862
648
886
236
604
314
398
826
287
576
657
117
396
878
112
547
243
703
738
104
30
420
268
296
755
822
178
591
80
52
937
275
409
320
702
262
942
776
533
585
986
824
153
98
290
125
907
781
245
603
852
169
253
467
495
959
629
787
378
623
205
541
649
729
644
484
219
384
435
392
708
459
488
571
749
780
916
550
417
774
74
416
355
143
317
97
745
759
366
443
542
773
332
988
448
433
455
874
228
407
157
492
536
565
335
898
48
446
284
501
27
8
834
319
81
108
277
627
960
543
15
426
807
123
520
697
698
810
546
673
957
784
26
548
37
177
381
981
382
206
771
224
515
598
645
346
393
949
188
235
424
766
423
792
306
518
342
764
713
304
82
146
779
597
264
768
194
712
945
685
583
523
232
638
75
477
301
161
667
783
214
853
794
707
973
222
972
963
38
265
91
454
578
101
131
436
60
607
363
918
913
765
552
742
95
891
946
564
465
56
93
311
230
596
352
353
861
191
812
739
147
132
706
961
895
507
450
276
215
430
432
223
795
586
866
580
647
675
105
246
128
668
820
843
473
554
537
189
13
873
761
7
267
790
212
927
911
881
589
482
410
573
622
867
752
274
525
437
456
359
33
175
928
39
278
975
837
616
218
670
932
413
721
361
201
801
630
22
298
313
785
198
700
590
457
753
869
63
969
848
103
870
369
733
308
399
17
639
849
408
225
481
719
354
10
160
939
833
737
984
129
429
872
216
490
295
69
113
802
451
663
283
611
203
485
14
231
856
168
778
530
496
926
412
705
303
261
89
464
502
20
375
584
674
124
897
998
504
976
909
860
568
923
978
137
726
107
293
263
660
162
955
309
227
839
307
41
116
418
732
195
273
461
322
775
90
933
401
166
471
863
445
831
689
294
126
70
553
242
526
67
341
654
962
365
722
489
35
156
950
318
791
377
475
924
176
133
813
12
803
883
968
643
846
171
468
403
716
181
653
36
875
609
500
53
220
483
211
460
827
358
522
816
845
272
444
993
772
135
516
371
100
383
497
5
11
545
851
6
558
73
954
367
901
343
474
323
88
315
805
782
754
187
735
941
808
233
804
574
370
476
463
330
46
922
106
347
508
572
258
606
78
68
185
234
724
9
715
559
809
344
683
333
887
889
676
730
4
903
569
2
631
3
328
818
334
316
289
487
453
506
239
491
86
890
65
470
731
723
877
394
148
746
338
823
910
440
814
717
357
173
326
121
151
144
915
618
637
983
934
956
691
402
709
628
912
947
888
929
920
61
999
19
251
419
966
751
985
374
710
669
469
380
613
425
799
815
167
599
92
626
693
1000
936
665
58
110
221
271
55
617
758
288
701
54
159
244
736
850
165
351
458
692
880
388
119
793
838
254
252
405
442
519
297
517
899
282
498
84
109
50
415
529
919
725
503
362
549
841
696
34
762
563
789
302
327
588
197
118
948
581
286
102
684
462
480
938
179
163
174
127
879
241
847
602
509
270
859
379
59
130
951
894
414
183
79
577
184
678
661
421
247
142
209
958
434
770
828
395
699
513
389
24
902
991
305
931
650
977
291
120
760
987
325
744
397
811
992
539
800
777
557
763
199
748
594
237
865
621
45
996
652
71
750
672
836
528
917
164
664
979
139
970
714
42
551
835
29
25
786
560
694
210
66
96
208
439
980
172
449
329
331
249
193
441
240
671
368
431
310
479
345
94
734
658
682
140
356
16
686
452
832
575
31
511
600
806
636
18
364
642
499
122
690
76
64
662
896
997
666
373
285
505
321
312
466
510
200
994
49
854
567
704
635
447
360
340
44
876
279
900
192
229
632
40
864
614
57
202
255
634
893
769
207
914

PP_SECTION
0
3
0
5
6
7
0
0
10
0
12
0
14
15
0
0
18
0
20
0
0
0
0
25
26
27
0
29
0
31
0
0
0
0
36
0
0
39
40
41
42
0
44
0
0
0
48
49
0
51
0
53
0
0
56
57
0
59
0
61
62
63
0
65
66
67
68
69
70
71
0
0
0
0
0
0
0
0
0
0
0
0
84
0
0
0
0
0
90
0
92
93
94
0
96
0
0
0
100
0
102
0
0
0
0
0
108
0
0
0
0
113
0
0
0
0
0
119
120
121
122
123
124
0
0
0
0
0
130
131
0
0
0
135
0
0
0
0
140
0
142
0
0
0
0
0
148
0
0
0
0
0
0
155
156
0
0
159
160
0
0
163
164
0
0
0
168
0
0
171
0
173
0
0
0
0
0
179
0
0
0
0
184
185
0
0
188
189
0
0
192
0
0
0
0
197
0
0
0
201
202
203
0
0
0
0
208
0
0
0
0
213
0
0
0
0
0
0
0
0
0
223
0
0
226
227
0
229
230
231
232
0
234
0
236
237
0
239
240
0
0
243
244
0
246
0
0
249
0
0
252
0
254
255
0
257
0
0
0
261
0
0
0
265
266
0
0
269
270
0
0
273
0
0
0
0
0
279
0
0
282
0
284
285
286
0
288
0
0
0
292
293
0
295
0
297
0
0
0
0
302
0
0
0
0
0
0
0
310
311
312
313
314
315
0
0
318
0
0
321
322
0
0
325
0
0
0
329
330
331
0
333
334
0
0
0
0
0
340
0
0
0
344
0
0
347
0
0
0
0
0
0
0
0
356
0
0
0
360
361
362
0
0
365
0
367
0
0
370
0
0
373
0
0
0
0
0
379
380
0
0
383
0
385
0
0
388
389
0
391
392
393
394
395
0
0
0
0
0
0
0
403
0
405
0
0
0
0
0
0
0
0
0
0
0
0
0
419
0
421
0
0
0
425
426
0
0
429
430
431
0
433
434
0
436
0
0
439
440
441
0
0
444
0
446
447
448
449
0
0
452
0
0
455
456
457
0
0
0
0
0
0
0
0
466
0
468
0
0
471
0
0
0
0
476
477
0
0
0
481
482
483
484
485
0
0
0
0
0
491
0
0
0
0
0
497
0
499
0
0
0
0
0
505
506
0
508
0
510
511
0
513
0
515
0
0
0
519
0
0
0
0
0
0
526
0
528
529
530
531
532
533
0
0
536
0
0
539
540
0
0
543
0
0
0
547
0
549
550
551
0
0
0
0
0
557
0
559
560
0
562
0
0
565
0
0
568
0
0
0
0
573
0
575
0
0
0
0
0
581
0
0
0
585
586
0
0
0
0
0
0
0
0
0
0
0
0
0
600
0
602
603
0
0
0
0
0
0
0
611
0
0
614
0
0
0
0
619
0
621
622
0
0
0
626
627
0
0
630
0
632
0
634
635
636
637
0
0
0
0
0
0
644
0
646
0
0
0
650
0
652
0
654
655
0
0
658
0
660
661
662
663
664
0
0
667
0
0
0
0
672
0
0
0
0
0
678
0
0
0
682
0
0
0
686
0
0
689
690
0
0
693
694
0
0
697
698
0
0
0
0
0
704
705
0
707
0
0
0
0
712
0
0
715
0
0
0
0
0
721
0
723
724
725
726
0
0
0
730
731
732
733
734
735
736
0
0
0
740
0
0
0
744
0
0
0
748
0
0
751
752
0
0
0
0
0
758
0
760
0
0
0
0
765
766
0
768
769
770
771
772
0
774
0
0
0
0
0
780
0
0
0
0
0
786
0
0
0
790
0
0
0
794
795
0
797
0
799
800
0
0
803
0
0
806
0
0
809
810
811
812
0
0
815
0
0
818
819
0
0
822
823
824
0
0
827
0
0
0
831
0
0
0
835
836
0
0
839
0
841
0
0
0
0
846
847
0
0
0
0
0
853
0
0
0
0
0
859
0
0
0
863
864
865
0
0
0
869
0
0
872
0
0
0
0
0
0
879
880
0
0
883
0
885
0
887
0
0
890
0
0
893
894
0
896
897
0
899
900
901
0
0
0
0
906
0
0
909
910
911
912
0
914
915
916
917
918
919
920
0
0
923
924
0
0
927
0
929
0
931
0
933
934
0
0
937
0
0
0
0
0
0
0
0
946
947
948
0
0
951
0
0
954
0
0
0
0
0
960
0
0
0
0
0
0
0
968
0
970
0
0
0
0
975
0
977
0
979
980
0
0
983
0
985
0
987
988
0
990
0
0
0
0
0
996
997
0
0
0
2
3
0
0
6
0
0
9
0
11
0
0
0
15
16
0
0
19
0
0
22
0
24
0
0
0
0
29
0
31
32
0
34
0
0
0
0
0
40
41
42
0
44
45
0
0
0
49
0
0
52
53
54
0
0
57
0
59
0
0
0
63
64
0
66
67
0
69
0
71
0
73
0
0
76
0
0
79
0
0
0
83
0
0
86
87
88
89
0
0
92
93
0
0
96
0
98
0
0
0
102
0
0
0
0
0
0
109
0
0
0
0
0
0
116
0
118
0
0
0
122
0
124
0
0
127
0
129
0
131
0
0
0
135
0
0
138
139
140
0
142
0
144
0
0
0
0
0
0
151
0
0
0
0
156
0
0
159
0
161
0
163
164
165
0
167
168
0
170
0
0
173
0
175
0
0
0
179
0
181
0
183
0
0
0
0
0
0
0
0
192
193
194
0
0
197
198
199
200
201
0
203
0
205
0
207
208
0
210
0
0
0
214
0
216
0
0
0
0
221
0
0
0
0
0
227
0
229
230
0
0
0
234
235
0
237
0
239
240
241
242
0
244
0
0
0
0
249
0
251
252
0
254
255
0
0
0
0
0
0
0
0
0
0
0
0
268
0
270
271
272
0
0
275
0
277
278
279
280
0
0
283
0
285
0
0
288
289
0
291
0
0
0
0
296
0
0
0
0
0
302
0
304
305
0
0
0
0
310
311
0
0
0
315
0
0
318
319
0
0
0
0
0
325
326
0
0
0
330
331
0
333
0
0
0
0
338
0
340
341
342
343
0
345
0
347
348
0
0
0
0
353
354
0
0
0
358
0
360
0
362
0
0
365
0
0
368
0
0
371
0
0
0
375
0
0
0
379
380
0
0
383
0
0
0
0
388
0
0
0
0
393
394
395
0
397
0
0
0
0
402
0
0
0
0
0
408
0
0
0
412
413
0
415
0
417
418
419
0
421
0
423
424
0
0
0
0
0
0
431
0
0
434
435
436
0
0
439
0
0
442
443
444
0
446
447
0
449
0
0
452
453
454
455
0
0
0
459
460
0
0
0
0
0
0
0
468
469
470
471
472
0
0
475
476
0
0
479
0
481
482
0
484
0
486
487
488
0
490
0
0
493
0
0
0
0
498
499
500
0
0
0
504
505
506
0
508
509
510
511
0
513
0
0
0
517
0
519
0
0
522
0
0
0
526
527
528
0
530
0
0
0
0
0
0
0
0
0
0
541
0
0
0
545
0
547
0
549
550
551
552
0
0
0
0
557
0
0
560
0
0
563
564
0
0
0
0
569
0
0
572
573
574
575
0
577
0
0
0
0
0
0
584
0
586
0
0
589
0
0
0
0
594
0
0
0
0
0
600
0
602
603
604
0
0
607
0
609
0
0
0
0
0
0
0
0
618
0
620
0
0
0
0
0
626
627
628
0
0
0
0
0
634
635
636
637
0
639
0
0
642
643
0
0
0
0
648
0
0
0
652
0
0
0
0
0
658
0
0
661
662
0
664
0
0
667
0
669
0
671
672
0
674
0
0
0
0
0
680
0
682
0
684
0
686
0
0
0
690
0
692
0
694
695
0
697
0
699
0
0
0
0
704
705
0
0
708
709
710
711
712
713
714
715
0
717
0
0
720
721
722
0
0
725
0
0
0
0
0
0
0
733
734
735
736
737
0
739
0
0
0
0
0
0
0
747
748
0
750
0
0
753
0
755
0
0
758
0
760
761
762
0
0
0
0
0
0
769
770
0
772
0
0
775
0
0
778
0
0
0
0
0
0
0
0
0
0
789
0
0
0
0
0
0
0
0
0
0
800
0
0
0
0
0
806
0
0
0
0
811
0
813
0
815
816
0
0
0
820
0
0
823
824
825
0
0
828
0
830
0
832
0
0
835
0
0
838
0
0
841
0
0
0
0
846
0
0
849
850
0
852
0
854
0
856
0
0
0
860
0
0
0
864
865
0
0
868
869
870
0
872
873
0
0
876
877
0
879
880
0
882
0
0
0
0
887
888
889
890
0
0
893
894
0
896
897
0
899
900
901
902
903
0
0
906
907
0
909
0
911
0
0
914
915
0
917
0
919
920
0
922
0
0
0
0
0
0
0
0
931
0
0
0
0
0
937
0
939
0
0
0
943
0
0
946
0
948
0
950
951
952
0
954
0
956
957
958
0
960
0
962
0
0
0
0
0
0
0
970
0
0
0
0
0
976
0
978
979
980
0
0
983
0
985
0
0
988
0
990
991
992
993
0
0
0
997
0
0
0
2
3
4
0
6
7
0
9
0
11
0
0
14
0
16
0
18
19
0
0
0
0
24
25
26
0
0
29
0
31
0
0
34
35
36
0
0
0
40
41
42
0
44
0
0
0
0
49
50
0
0
53
0
0
56
57
0
59
0
61
0
0
0
65
0
67
0
0
0
71
0
73
74
0
76
0
0
79
0
0
0
0
84
0
0
87
0
89
0
0
92
0
94
0
96
0
0
0
0
101
102
0
0
0
0
0
0
109
110
0
0
113
0
0
0
0
0
119
120
121
122
123
0
0
126
0
128
0
0
0
132
0
0
0
0
0
0
0
140
0
0
0
144
0
146
0
148
0
0
151
0
0
0
0
0
0
0
159
0
0
0
163
0
165
166
167
0
169
0
171
172
0
174
0
176
0
0
179
0
181
0
183
184
0
0
187
188
0
0
0
192
0
194
0
0
0
0
0
200
201
202
0
0
0
206
207
208
209
210
211
0
0
0
0
0
0
218
0
0
0
0
0
0
0
0
0
0
229
230
0
0
233
234
0
0
0
0
0
240
241
242
0
0
0
0
247
0
249
0
251
252
0
254
255
256
0
0
0
0
0
0
263
264
265
0
0
0
269
270
0
272
0
0
0
0
0
0
279
0
0
282
0
0
285
0
0
288
0
0
291
292
0
0
0
0
297
0
0
0
0
302
303
0
0
0
0
0
309
310
0
312
313
0
0
316
0
0
0
0
321
0
323
0
325
0
327
0
329
330
331
332
333
0
0
0
337
338
339
340
0
342
343
344
345
346
347
0
0
0
351
0
0
0
0
356
0
358
0
360
0
0
0
364
365
366
0
0
0
0
371
0
0
374
0
0
0
0
0
380
381
0
0
384
0
0
387
0
0
0
0
392
0
0
395
0
397
0
0
0
0
402
403
404
0
0
0
408
0
0
0
412
0
414
415
0
0
0
419
420
0
0
423
0
0
0
0
0
429
0
431
0
0
0
0
0
0
0
0
0
441
442
0
444
0
0
447
0
449
450
451
452
453
454
0
456
457
0
0
0
461
0
463
464
0
466
0
468
469
0
0
0
473
474
0
0
0
478
479
480
481
0
0
0
0
0
0
0
0
0
0
0
0
0
495
496
497
498
499
500
0
0
503
0
505
0
0
508
509
510
511
0
0
0
0
0
517
0
0
520
0
522
523
0
525
0
0
0
0
530
0
0
533
0
0
0
0
0
539
0
0
0
0
0
545
0
0
548
0
0
551
0
0
554
0
556
557
0
559
0
561
0
0
0
0
0
567
0
569
570
0
0
573
0
575
0
577
578
0
0
0
0
0
0
0
0
0
588
0
590
591
0
593
594
0
0
0
0
0
600
0
602
603
0
0
606
607
608
0
0
0
0
613
614
615
0
0
0
0
620
0
0
0
0
0
626
0
628
0
0
0
632
0
634
635
636
637
0
0
0
0
642
0
0
0
0
0
0
0
650
0
652
0
654
0
0
0
658
0
660
0
662
0
664
0
666
0
0
0
0
671
672
0
674
0
0
0
678
679
0
0
0
0
684
0
686
687
0
689
690
691
692
0
694
695
696
697
698
0
0
0
0
0
704
705
0
0
0
709
0
0
0
0
0
715
716
717
0
719
0
0
0
723
0
0
0
727
0
0
730
731
0
0
734
0
736
0
738
739
0
0
742
0
744
0
0
0
0
0
750
751
752
0
0
0
756
0
758
0
760
761
762
763
0
0
0
767
768
769
770
771
0
0
0
0
0
777
0
0
0
0
0
783
784
0
0
0
0
789
0
0
0
793
794
795
796
0
0
0
800
0
0
803
0
805
806
0
0
0
810
811
0
0
814
815
816
0
0
0
820
821
0
823
0
0
0
0
0
0
830
0
832
833
0
835
836
0
838
839
0
841
0
0
0
845
846
0
0
0
850
0
0
853
854
0
0
0
0
0
860
0
0
863
864
865
866
0
868
0
0
871
872
0
0
875
876
0
0
0
880
0
0
0
0
0
0
887
888
0
0
0
0
893
894
0
0
0
0
899
900
0
902
903
0
905
906
907
0
0
0
0
912
0
914
0
0
917
918
919
0
0
922
923
924
0
0
0
0
929
930
0
0
933
934
0
0
0
0
0
0
0
0
0
944
0
0
0
0
0
0
0
0
953
0
0
0
0
958
959
960
0
962
963
0
0
0
0
0
969
0
0
0
973
0
975
0
0
978
979
0
0
0
0
0
985
0
987
0
989
990
991
992
993
994
995
0
0
998
999
0
0
0
0
0
0
0
0
0
0
11
12
0
0
15
16
0
18
19
20
0
0
0
24
25
0
27
0
29
30
0
0
0
34
35
0
0
0
0
40
0
0
0
44
45
0
47
0
49
0
0
0
0
54
55
0
57
0
59
0
0
0
0
0
0
66
67
68
69
0
0
0
73
0
75
76
0
0
0
0
0
0
0
84
0
0
0
0
89
90
0
0
0
94
95
96
0
0
0
100
0
102
103
0
0
0
0
0
109
110
111
0
0
0
0
116
0
118
119
0
121
0
0
0
0
126
0
0
0
130
0
132
133
0
0
0
137
0
139
140
0
0
0
0
0
0
0
0
0
0
151
152
0
0
155
0
0
0
159
160
0
0
0
0
0
166
167
0
0
0
0
172
173
174
175
0
177
0
0
0
181
182
0
0
0
0
0
0
0
0
191
192
0
194
0
0
197
0
0
200
201
202
203
0
0
0
207
208
0
0
211
0
0
0
0
216
0
218
0
0
221
0
223
0
225
0
0
0
229
0
0
232
0
0
235
0
237
238
0
240
0
0
0
244
0
246
247
0
249
0
0
0
0
254
255
256
0
258
0
0
0
0
263
0
0
0
267
268
0
0
271
0
273
274
275
276
0
0
279
280
281
0
0
0
0
286
0
288
289
0
291
0
293
294
295
0
0
298
0
300
0
302
303
0
305
0
307
0
0
310
0
312
0
0
0
0
317
0
319
0
321
322
0
0
325
326
327
0
329
0
331
0
0
0
0
0
0
338
0
340
341
0
343
0
345
0
0
0
349
0
351
352
0
354
0
356
0
0
359
360
0
362
0
364
0
0
0
368
369
0
0
0
373
0
375
0
0
0
0
0
0
0
0
0
0
386
0
388
0
0
0
0
0
0
0
0
0
0
0
0
401
402
0
404
405
0
407
0
409
0
0
0
0
414
0
0
417
418
419
420
421
0
423
0
425
0
0
0
0
430
431
0
0
0
0
0
0
438
439
0
0
442
0
0
445
446
0
448
0
450
0
0
0
0
0
0
457
0
0
0
0
462
463
0
465
466
0
468
0
0
471
472
0
0
0
0
477
0
0
480
481
0
483
0
0
0
487
0
489
0
0
492
0
0
0
0
497
0
0
0
501
502
503
504
505
506
0
508
509
0
511
0
513
0
515
0
0
518
0
0
0
0
0
0
0
526
0
528
0
0
0
0
0
0
0
0
0
0
539
0
0
0
543
0
545
0
0
0
549
0
551
0
0
0
0
0
0
558
559
0
0
562
563
0
0
0
567
568
569
0
571
572
0
574
0
0
0
578
0
580
0
0
583
584
585
586
0
588
0
590
0
0
0
0
0
0
0
0
0
0
0
0
0
0
605
606
607
608
0
0
0
0
0
614
0
0
0
0
0
620
0
0
0
0
0
0
0
628
629
630
631
0
0
0
635
636
0
638
0
0
0
0
0
0
0
0
647
0
0
650
651
0
0
654
0
656
0
658
659
0
0
662
663
664
0
666
0
0
669
670
671
672
0
674
0
676
0
0
0
0
0
682
0
0
0
686
0
0
0
690
691
692
0
694
0
0
0
0
0
700
0
702
703
704
705
0
707
0
0
710
0
0
0
714
0
0
0
0
719
0
0
722
0
724
725
0
0
728
729
730
0
732
0
734
0
736
0
0
0
0
0
0
0
744
0
746
747
748
0
0
751
752
0
754
0
0
0
0
0
760
761
762
763
0
0
766
0
768
0
770
771
772
773
0
0
776
0
778
0
0
0
0
0
0
0
0
0
0
789
790
791
792
793
0
795
0
0
0
0
800
0
802
0
804
0
806
0
0
809
810
811
812
0
814
815
0
817
818
0
820
0
0
0
0
825
0
827
828
829
0
0
0
0
0
835
836
837
838
839
0
0
842
0
0
0
0
0
0
0
850
0
0
0
854
0
856
0
0
859
860
0
0
0
0
865
0
0
0
869
870
0
0
873
0
0
876
877
0
879
0
0
0
0
0
885
0
887
888
889
0
891
0
893
894
0
0
0
898
899
900
901
902
903
0
0
0
0
0
0
910
911
0
0
914
0
0
917
0
0
920
921
0
923
0
0
926
0
0
0
0
0
0
0
934
0
0
0
938
939
0
0
0
0
0
0
946
0
948
0
0
951
952
0
0
955
0
0
958
0
0
0
962
963
964
0
966
0
0
969
0
0
972
0
0
975
0
977
0
979
980
0
0
983
984
0
0
0
0
0
0
991
992
993
994
0
996
997
0
999
0
0
0
0
5
6
7
8
0
10
11
0
0
14
0
16
0
18
0
0
0
0
23
0
25
0
0
28
29
0
0
0
33
34
0
0
37
0
0
40
0
42
0
44
45
46
0
0
49
50
0
0
0
54
55
0
57
58
0
60
0
0
0
64
0
66
0
68
0
0
71
0
0
74
75
0
0
0
79
0
0
0
0
84
0
0
0
0
89
90
0
92
0
0
95
96
0
98
0
100
0
0
0
0
105
0
107
0
109
110
111
112
0
0
0
0
0
0
119
120
121
122
0
0
0
126
0
128
0
130
0
0
0
0
135
0
137
0
0
140
0
0
0
144
0
146
0
0
0
150
151
152
0
0
155
156
0
0
0
160
0
162
163
0
0
0
167
0
0
0
0
172
0
0
0
176
0
0
179
0
0
0
183
184
185
0
187
0
0
0
0
192
193
194
195
196
197
0
0
200
0
202
0
0
0
0
207
208
209
0
0
0
0
214
0
0
0
0
0
220
221
0
0
224
225
0
0
0
229
0
0
0
0
234
235
0
237
0
239
240
241
242
0
0
0
0
247
0
249
0
0
0
0
254
255
256
0
258
0
0
261
0
263
0
265
0
0
0
0
0
271
0
273
0
0
0
277
278
279
0
281
282
0
0
0
286
287
288
289
0
291
0
293
0
295
0
0
0
0
0
0
0
303
0
305
0
0
0
309
310
311
312
313
314
0
316
317
0
0
0
0
0
0
0
325
326
327
0
329
330
331
332
333
334
335
0
0
0
0
340
0
0
0
0
345
346
347
0
349
0
351
352
0
0
0
0
357
0
0
360
361
362
363
364
365
0
367
368
369
370
371
372
373
0
0
0
0
0
0
380
381
0
383
0
0
0
0
0
0
0
0
0
0
394
395
0
397
398
0
400
401
402
403
0
405
0
407
0
0
0
0
0
0
0
0
0
0
0
0
0
421
0
423
424
0
0
0
0
0
0
431
0
0
434
0
0
437
0
439
0
441
0
0
0
0
446
0
0
449
450
451
0
0
0
0
0
0
458
0
460
0
0
0
464
0
466
0
0
469
470
0
0
0
474
475
476
0
478
479
480
0
0
0
0
0
0
0
0
489
0
491
492
493
494
0
0
0
498
499
0
0
502
0
504
505
0
0
508
509
510
511
0
0
0
0
0
517
0
0
0
0
0
0
0
525
526
0
528
0
0
0
0
0
0
0
0
0
0
0
0
0
542
0
0
0
0
0
0
549
0
551
552
553
0
0
0
557
0
559
560
0
0
0
0
0
0
567
0
0
0
571
0
0
574
575
0
577
0
0
0
0
0
0
584
585
0
0
588
589
590
591
592
0
594
0
0
0
598
0
600
0
602
0
0
605
606
0
0
0
0
611
0
613
614
0
0
0
0
0
0
621
622
623
0
0
626
0
0
629
0
0
632
633
634
635
0
0
0
0
0
0
0
0
0
0
0
647
648
0
0
0
652
653
0
0
0
0
0
0
660
661
0
0
0
0
666
0
0
669
0
671
672
0
0
0
676
0
678
0
680
681
682
0
684
0
686
0
0
689
0
691
0
693
694
0
0
697
698
699
0
0
0
0
704
0
706
0
0
0
0
0
0
0
714
0
716
0
0
719
720
0
722
0
0
725
0
0
0
0
0
731
0
0
734
0
0
0
738
0
0
0
0
0
744
0
746
747
748
749
0
751
752
753
754
0
0
0
0
0
760
0
762
763
0
0
0
767
768
769
770
0
772
773
0
0
776
777
0
779
0
0
0
0
0
0
786
787
0
0
0
0
0
793
0
0
0
0
0
799
800
0
802
803
0
805
806
807
808
809
0
811
812
0
814
815
0
0
818
0
0
0
0
823
0
0
0
0
828
0
0
0
832
0
0
835
836
837
838
0
0
841
0
843
0
0
846
0
0
0
850
851
0
0
854
0
856
0
858
859
0
861
862
863
864
865
0
867
0
0
0
0
0
0
874
0
876
877
878
0
0
0
0
0
0
0
0
0
888
889
890
891
0
893
894
895
896
0
0
899
900
0
0
0
0
0
0
907
908
909
0
911
0
0
914
915
0
0
0
919
920
0
922
0
924
925
0
0
0
0
0
0
0
933
0
0
0
0
938
939
0
0
0
0
0
0
0
947
0
0
950
951
0
0
954
0
0
0
958
0
0
0
962
0
964
0
966
0
0
969
970
0
972
973
0
975
976
977
0
979
980
0
0
983
984
985
0
987
0
0
990
991
992
0
994
0
0
997
0
0
1000
EOF
