DIMENSION : 1000
NUMBER OF ITEMS : 999

TOUR_SECTION
1
817
728
324
300
77
971
757
385
524
534
136
85
615
372
967
348
521
633
196
608
624
250
21
871
659
422
248
825
892
538
830
180
829
662
896
997
373
666
64
43
930
299
532
145
747
953
406
438
259
555
32
798
857
494
687
656
213
138
350
411
965
99
740
677
995
944
83
743
904
612
695
868
114
940
51
257
269
226
149
855
391
821
974
819
796
711
428
155
641
681
141
688
280
651
152
260
601
884
620
797
952
292
858
561
610
512
727
190
150
544
514
655
256
562
386
741
266
882
679
842
182
964
387
640
718
625
767
154
238
339
862
648
541
649
729
644
484
219
384
435
392
708
459
317
97
745
143
355
416
488
571
749
780
916
550
417
74
774
253
169
852
467
495
959
629
205
787
378
623
703
243
547
112
878
396
117
657
576
287
886
236
604
314
826
398
822
755
178
591
80
52
937
275
409
320
702
262
942
296
776
533
585
986
228
874
153
824
98
30
420
268
104
738
290
125
907
781
245
603
455
433
448
988
332
773
759
366
443
542
407
157
492
536
565
335
898
48
446
284
501
27
8
834
319
81
108
277
627
960
543
15
426
807
123
520
697
698
810
546
673
957
784
26
548
37
177
381
981
382
206
771
224
515
598
645
346
393
949
188
235
424
766
423
792
306
518
342
764
713
304
82
146
779
597
264
768
194
712
945
685
583
523
232
638
75
477
301
161
667
783
214
853
794
707
973
222
972
963
38
265
91
454
578
101
131
436
60
607
363
918
913
765
552
742
95
891
946
564
465
56
93
311
230
596
352
353
861
191
812
739
147
132
706
961
895
507
450
276
215
430
432
223
795
586
866
580
647
675
105
246
128
668
820
843
473
554
537
189
13
873
761
7
267
790
212
927
911
881
589
482
410
573
622
867
752
274
525
437
456
359
33
175
928
39
278
975
837
616
218
670
932
413
721
361
201
801
630
22
298
313
785
198
700
590
457
753
869
63
969
848
103
870
369
926
412
496
778
530
733
308
399
17
639
849
408
225
481
719
354
10
160
939
833
737
984
129
429
872
216
490
295
69
113
802
451
663
283
611
203
485
14
231
856
168
404
595
844
593
493
486
535
908
400
115
472
788
592
885
47
756
680
935
619
556
579
376
336
531
990
570
186
390
540
582
527
111
840
566
337
170
720
646
23
989
72
427
204
925
158
217
906
905
982
62
349
281
921
28
478
605
587
134
87
943
34
696
762
563
789
302
327
588
197
118
948
581
286
102
684
362
549
841
503
725
919
462
480
938
179
163
282
498
899
517
166
471
863
692
458
351
165
294
689
831
445
401
933
461
273
322
775
90
227
839
307
41
116
418
195
732
107
293
263
660
162
309
955
84
109
50
415
529
568
909
860
923
978
137
726
124
897
674
998
504
976
584
375
20
502
464
89
261
303
705
315
805
782
88
323
343
474
754
187
5
497
545
11
851
6
558
73
367
901
954
993
444
772
135
516
371
100
383
735
941
808
233
804
574
370
476
463
272
845
816
522
358
468
171
846
403
716
181
653
36
827
875
609
500
220
53
211
460
483
46
330
922
106
347
508
572
258
606
78
68
185
234
724
9
715
559
809
344
683
676
730
889
887
333
968
643
813
12
803
883
380
613
425
799
815
133
176
924
475
377
791
318
950
156
35
489
722
365
962
654
67
341
70
126
553
242
526
665
936
1000
599
167
92
693
626
58
110
221
271
55
617
419
966
751
985
374
710
469
669
628
709
402
691
631
2
569
903
4
3
328
818
86
890
65
470
731
491
239
506
316
334
289
487
453
173
357
717
440
814
326
121
151
144
915
618
637
983
934
956
912
947
888
929
920
61
999
19
251
746
338
823
910
723
877
394
148
758
288
701
54
159
244
850
736
880
388
119
793
838
254
252
405
442
297
519
174
127
879
241
847
602
509
270
859
379
59
130
951
894
414
183
79
577
184
678
661
421
247
142
209
958
434
770
828
395
699
513
389
24
902
991
305
931
650
977
291
120
760
987
325
744
397
811
992
539
800
777
557
763
199
748
594
237
865
621
45
16
356
140
682
164
917
528
996
652
71
836
750
672
29
25
835
551
42
714
970
139
979
664
658
734
94
345
431
671
368
66
210
694
560
786
208
96
439
980
172
449
329
331
249
193
441
240
310
479
686
452
832
575
31
511
600
806
636
18
364
642
499
122
690
76
312
285
505
321
635
466
510
200
994
49
854
567
704
447
360
340
44
876
279
900
192
229
632
40
864
614
57
202
255
634
893
769
207
914

PP_SECTION
2
0
4
0
6
0
8
9
0
11
12
13
0
0
16
17
18
19
20
0
22
0
24
25
26
0
28
29
30
31
32
0
34
35
0
37
0
0
40
41
42
43
44
45
46
0
48
49
0
0
52
0
54
55
0
57
58
59
60
61
62
63
64
0
66
67
68
0
70
71
72
73
74
75
76
77
78
0
0
81
0
0
84
0
0
87
88
89
90
0
92
0
94
95
96
0
98
0
100
101
0
103
104
105
106
107
0
109
110
111
0
0
114
115
116
117
118
119
0
121
122
123
0
125
126
127
0
129
130
0
132
133
0
135
136
137
138
139
140
141
142
143
144
0
146
0
148
0
0
151
0
153
154
0
0
157
158
159
160
161
162
0
164
165
166
167
168
169
170
0
172
173
174
175
0
177
0
179
0
181
182
183
0
0
186
187
188
0
190
191
192
193
194
195
196
197
0
199
200
0
202
203
0
0
206
207
208
209
210
211
0
0
0
215
0
0
0
219
220
221
222
0
0
225
0
0
228
229
0
231
0
233
234
0
0
237
0
239
240
241
242
0
0
0
246
247
0
249
250
251
0
253
254
255
256
0
258
259
260
261
262
263
264
265
0
0
0
269
270
0
272
0
274
275
276
277
278
279
280
281
282
283
0
285
286
0
288
289
0
291
292
0
294
295
296
297
298
0
0
301
302
303
0
0
306
307
308
309
310
0
312
0
314
315
316
317
318
319
0
321
0
323
0
325
326
327
328
329
330
331
332
0
0
335
336
0
0
339
340
341
0
343
344
345
346
347
0
349
350
351
0
0
354
0
356
357
358
359
360
361
362
363
364
0
366
367
368
369
370
371
372
373
374
375
376
377
378
379
380
381
382
383
384
0
0
387
388
389
390
391
0
0
394
0
396
397
398
0
400
401
402
0
404
0
0
407
408
409
410
411
412
413
414
415
0
417
418
419
420
0
422
0
424
0
0
427
428
429
430
431
432
433
434
435
0
0
438
439
0
441
442
443
0
445
0
447
448
449
450
451
452
453
454
0
0
457
458
459
460
461
462
463
464
465
466
467
0
0
470
471
0
473
0
475
476
477
0
479
480
481
482
483
484
485
486
487
488
489
490
491
492
493
0
495
496
497
498
499
0
501
502
503
504
505
506
507
0
509
510
511
512
513
514
515
516
0
518
0
520
0
522
523
0
525
526
527
528
529
0
531
532
0
534
0
0
537
538
539
540
541
542
543
544
545
0
547
548
549
550
551
552
553
0
555
0
557
558
559
560
0
562
563
564
0
566
567
0
569
570
571
572
573
0
575
576
577
0
579
580
581
582
583
584
0
586
587
588
589
0
0
592
593
594
595
0
0
598
599
600
0
602
603
604
605
606
0
0
609
610
0
0
613
614
615
616
0
618
0
620
621
622
0
624
0
626
0
628
629
0
631
632
633
634
635
0
0
0
0
640
0
642
643
644
645
0
647
648
0
0
0
652
653
0
0
0
657
658
659
660
661
0
0
664
665
666
0
668
669
670
671
672
0
674
675
676
677
678
0
680
681
682
683
684
685
0
0
0
689
690
691
692
0
694
695
696
0
698
699
700
701
702
0
704
705
706
707
708
709
710
711
0
713
714
715
716
717
718
719
720
0
722
723
724
0
0
0
0
0
730
731
732
0
734
735
0
737
738
0
0
741
742
743
744
745
746
747
748
749
750
0
0
753
754
755
0
757
758
0
760
761
762
763
764
765
766
767
768
769
0
771
772
773
0
775
776
0
778
779
780
0
782
0
784
785
0
787
788
789
0
791
792
793
0
795
796
0
0
799
0
801
0
0
804
805
806
807
808
0
0
811
812
0
814
0
816
0
818
0
0
0
822
0
0
0
826
0
828
829
830
831
832
833
0
835
836
837
838
0
840
841
842
0
844
845
846
847
848
849
850
851
0
853
854
855
0
857
0
859
860
861
862
863
864
865
866
867
0
0
0
0
0
873
874
875
876
877
0
0
880
881
882
883
884
885
886
887
888
0
890
891
0
893
894
895
0
0
898
0
900
901
902
903
0
905
906
907
908
0
910
0
0
0
914
915
916
0
0
919
920
921
922
923
924
925
926
0
928
929
930
931
932
933
934
935
936
0
938
939
0
941
0
0
944
945
946
947
948
0
950
951
952
953
0
0
956
957
958
959
0
961
962
0
0
965
966
0
968
969
0
0
972
0
0
975
0
977
0
979
980
981
0
983
984
0
986
987
988
989
0
991
992
993
994
0
996
997
998
999
1000
EOF
