DIMENSION : 1000
NUMBER OF ITEMS : 9990

TOUR_SECTION
1
817
728
324
300
77
971
757
385
524
534
136
85
615
372
967
348
521
633
196
608
624
250
21
871
659
422
248
825
892
538
830
829
180
299
930
43
532
145
747
953
406
438
259
555
32
798
857
494
687
656
213
138
350
411
965
99
740
677
995
944
83
743
904
612
695
868
114
940
51
257
269
149
226
935
680
170
720
756
47
885
72
989
427
204
925
158
217
906
905
23
646
982
62
337
566
840
111
619
556
579
376
336
531
990
570
186
390
540
582
527
605
587
943
87
134
478
28
921
281
349
404
595
844
593
493
486
535
908
400
115
472
788
592
391
855
821
974
819
796
711
428
155
641
681
141
688
280
651
152
260
601
884
620
797
952
292
858
561
610
512
727
190
150
544
514
655
256
562
386
741
266
882
679
842
182
964
387
640
718
625
767
154
238
339
862
648
541
219
649
729
644
484
708
392
435
384
205
623
378
787
629
959
495
467
852
169
253
774
74
417
550
916
780
749
571
488
416
355
143
459
317
97
745
759
366
443
542
773
332
988
448
433
603
245
781
907
125
290
738
703
243
547
112
878
396
117
657
576
287
886
236
604
314
826
398
822
755
178
591
80
52
937
275
409
320
702
262
942
776
296
420
268
104
30
98
153
824
986
585
533
228
874
455
407
157
492
536
565
335
898
48
446
284
501
27
8
834
319
81
108
277
627
960
543
15
426
807
123
520
697
698
810
546
673
957
784
26
548
37
177
381
981
382
206
771
224
515
598
645
346
393
949
188
235
424
766
423
792
306
518
342
764
713
304
82
146
779
597
264
768
194
712
945
685
583
523
232
638
75
477
301
161
667
783
214
853
794
707
973
222
972
963
38
265
91
454
578
101
131
436
60
607
363
918
913
765
552
742
95
891
946
564
465
56
93
311
230
596
352
353
861
191
812
739
147
132
706
961
895
507
450
276
215
430
432
223
795
586
866
580
647
675
105
246
128
668
820
843
473
554
537
189
13
873
761
7
267
790
212
927
911
881
589
482
410
573
622
867
752
274
525
437
456
359
33
175
928
39
278
975
837
616
218
670
932
413
721
361
201
801
630
22
298
313
785
198
700
590
457
753
869
63
969
848
103
870
369
926
412
496
778
530
733
308
399
17
639
849
408
225
481
719
354
10
160
939
833
737
984
129
429
872
216
490
295
69
113
802
451
663
283
611
203
485
14
231
856
168
909
860
568
923
978
137
726
124
897
674
998
504
976
584
375
20
502
464
89
261
303
705
315
805
782
88
323
343
474
754
187
5
497
545
11
851
6
558
73
367
901
954
993
444
772
135
516
371
100
383
735
941
808
233
804
574
370
476
463
272
845
816
522
358
468
171
846
403
716
181
653
36
827
875
609
500
220
53
211
460
483
46
330
922
106
347
508
572
258
606
78
68
185
234
724
9
715
559
809
344
683
676
730
889
887
333
968
643
883
803
12
813
133
176
924
475
377
791
318
950
156
35
489
722
365
962
654
67
341
70
126
553
242
526
936
1000
665
58
626
693
92
599
167
815
799
425
613
380
374
985
710
469
669
628
709
402
691
631
2
569
903
4
3
328
818
334
316
289
487
453
506
239
491
86
890
65
470
731
723
877
394
148
746
338
823
910
440
814
717
357
173
326
121
151
144
915
618
637
983
934
956
912
947
888
929
920
61
999
19
251
966
751
419
271
221
110
55
617
758
288
701
54
159
244
850
736
880
388
119
793
838
254
252
405
442
519
297
282
498
899
517
166
471
863
692
458
351
165
294
689
831
445
401
933
461
273
322
775
90
227
839
307
41
116
418
195
732
107
293
263
660
162
309
955
84
109
50
415
529
919
725
503
362
549
841
696
34
762
563
789
302
327
588
197
118
948
581
286
102
684
462
480
938
179
163
174
127
879
241
847
602
509
270
859
379
59
130
951
894
414
183
79
577
184
678
661
421
247
142
209
958
434
770
828
395
699
513
389
24
902
991
305
931
650
977
291
120
760
987
325
744
397
811
992
539
800
777
557
763
199
748
594
237
865
621
45
996
652
71
750
672
836
528
917
164
664
979
139
970
714
42
551
835
29
25
786
560
694
210
66
96
208
439
980
172
449
329
331
249
193
441
240
671
368
431
310
479
345
94
734
658
682
140
356
16
686
452
832
575
31
511
600
806
636
18
364
642
499
122
690
76
64
662
896
997
666
373
285
505
321
312
466
510
200
994
49
854
567
704
635
447
360
340
44
876
279
900
192
229
632
40
864
614
57
202
255
634
893
769
207
914

PP_SECTION
2
0
4
0
0
0
8
0
0
0
0
13
0
0
16
0
18
19
0
0
0
0
24
0
0
0
0
0
0
31
0
0
34
0
0
37
0
0
0
0
42
0
0
0
0
0
0
49
0
0
52
0
54
55
0
0
0
0
0
0
0
0
64
0
66
0
0
0
0
0
0
0
0
75
76
0
78
0
0
0
0
0
84
0
0
0
88
89
0
0
0
0
0
0
0
0
0
0
0
0
0
103
0
0
0
0
0
109
0
111
0
0
0
0
0
0
118
0
0
0
0
0
0
0
126
127
0
0
0
0
0
0
0
0
0
0
0
139
0
0
0
0
0
0
0
0
0
0
0
0
0
153
0
0
0
0
0
0
0
161
162
0
0
165
0
0
0
0
0
0
172
0
174
0
0
0
0
0
0
0
0
183
0
0
0
187
0
0
0
0
0
193
0
0
0
0
0
199
200
0
0
0
0
0
0
207
0
209
210
0
0
0
0
0
0
0
0
219
0
0
0
0
0
225
0
0
228
0
0
0
0
233
0
0
0
0
0
0
0
0
0
0
0
0
0
247
0
0
0
251
0
0
0
255
256
0
0
0
0
0
262
263
0
0
0
0
0
0
0
0
0
0
0
0
276
277
0
0
0
0
0
0
0
285
286
0
0
0
0
291
0
0
294
0
0
0
298
0
0
0
0
0
0
0
306
307
0
0
310
0
312
0
0
0
316
317
0
319
0
0
0
0
0
0
0
0
0
0
0
331
0
0
0
0
336
0
0
339
340
0
0
0
0
345
0
0
0
0
0
351
0
0
354
0
356
0
0
0
0
0
0
0
0
0
0
0
368
369
0
0
0
0
374
375
0
0
0
379
0
0
0
0
384
0
0
387
0
0
0
0
0
0
0
0
0
397
398
0
0
401
0
0
404
0
0
0
0
0
0
0
412
0
414
0
0
0
0
0
0
0
0
0
0
0
0
0
428
0
0
0
432
0
0
0
0
0
438
439
0
441
442
0
0
445
0
0
0
0
450
0
0
453
0
0
0
0
458
0
0
0
462
0
464
465
466
0
0
0
470
0
0
473
0
0
0
0
0
479
480
0
0
0
0
0
0
487
0
0
490
0
492
493
0
0
0
0
498
499
0
501
502
0
0
505
0
0
0
0
510
511
512
0
514
0
516
0
518
0
0
0
0
523
0
525
0
0
0
0
0
0
0
0
0
0
0
0
538
539
0
0
0
0
0
0
0
0
548
0
0
0
0
0
0
0
0
557
0
0
0
0
0
563
564
0
0
567
0
0
0
0
572
0
0
575
576
577
0
0
0
0
0
0
0
0
0
0
0
0
0
0
0
0
0
595
0
0
0
0
0
0
0
0
0
0
0
0
0
0
0
0
0
0
614
0
616
0
0
0
620
0
0
0
0
0
0
0
628
0
0
0
0
633
634
635
0
0
0
0
0
0
642
0
0
645
0
647
648
0
0
0
0
653
0
0
0
657
0
0
0
0
0
0
0
0
666
0
0
669
0
671
0
0
0
0
0
0
0
0
0
0
682
0
0
0
0
0
0
0
0
0
0
0
0
0
696
0
0
699
700
701
0
0
704
0
0
0
0
709
710
0
0
713
714
0
716
717
0
0
0
0
722
0
0
0
0
0
0
0
0
0
0
0
734
0
0
0
0
0
0
741
0
0
0
0
0
0
0
0
750
0
0
0
754
0
0
0
0
0
0
0
762
763
0
0
0
0
0
769
0
0
0
0
0
0
0
0
778
0
0
0
0
0
784
785
0
0
0
789
0
0
0
793
0
0
0
0
0
0
0
801
0
0
804
805
0
807
0
0
0
0
0
0
814
0
816
0
0
0
0
0
0
0
0
0
0
0
828
829
830
0
0
833
0
0
0
0
838
0
0
0
842
0
0
845
0
0
0
849
850
851
0
0
854
855
0
0
0
0
0
0
0
0
864
0
0
0
0
0
0
0
0
0
0
875
876
0
0
0
0
881
882
0
0
0
0
0
888
0
0
0
0
893
0
895
0
0
0
0
900
0
902
903
0
0
0
0
908
0
0
0
0
0
914
0
0
0
0
0
0
0
922
0
0
0
0
0
0
0
0
931
0
0
0
0
936
0
938
0
0
0
0
0
0
945
0
0
0
0
0
0
952
0
0
0
0
0
958
0
0
961
962
0
0
0
0
0
0
969
0
0
0
0
0
0
0
0
0
0
0
981
0
0
0
0
0
987
0
989
0
991
992
0
994
0
0
997
0
0
1000
0
0
0
5
0
0
0
0
0
0
0
0
0
0
0
0
18
0
0
0
0
0
0
25
0
0
28
29
0
0
0
0
0
35
36
0
38
0
40
0
42
0
0
0
0
0
48
0
50
51
0
0
0
55
0
57
0
0
0
61
0
0
0
65
0
0
68
0
0
0
0
0
0
0
0
0
0
79
0
0
0
0
84
0
0
0
0
0
0
0
0
0
94
0
0
0
0
0
100
0
0
103
0
0
0
107
0
0
110
111
0
0
114
0
0
0
0
0
120
121
122
123
0
0
126
0
128
0
0
0
0
0
0
0
0
137
0
139
0
141
0
0
0
0
0
0
148
0
0
0
0
0
0
155
0
157
0
0
160
0
162
0
0
0
166
0
0
0
0
0
172
0
0
0
176
177
178
0
0
0
0
0
184
185
0
187
0
189
190
191
192
0
0
0
0
0
0
0
200
0
202
0
204
0
0
207
0
0
0
211
212
213
0
215
0
0
0
0
0
0
0
223
0
0
0
0
0
229
0
0
232
0
0
0
0
237
0
0
240
0
0
0
0
0
0
0
248
0
0
0
0
0
0
255
0
0
258
0
0
261
0
263
0
265
0
267
0
0
0
0
0
0
274
0
0
0
0
279
0
0
282
0
0
285
286
0
0
0
0
0
0
0
294
0
0
297
0
0
0
301
0
0
0
0
0
0
308
0
0
0
312
0
314
0
0
0
0
0
0
321
0
0
0
0
0
0
328
329
0
331
0
0
334
335
0
0
0
0
0
0
0
0
0
345
0
0
0
0
0
351
0
0
0
0
356
0
0
359
360
0
0
0
364
0
0
367
0
369
370
0
0
373
374
0
376
377
0
0
0
0
0
0
0
0
0
0
0
0
0
0
0
0
0
0
0
0
0
0
0
0
0
0
0
405
406
0
0
0
410
0
0
0
414
0
0
0
0
0
420
0
0
0
0
0
0
427
0
429
0
0
0
0
0
0
0
0
0
439
440
441
0
0
0
445
0
447
0
0
0
0
0
0
0
0
0
457
458
0
0
0
462
0
0
0
466
0
0
0
0
0
0
0
474
0
0
0
0
479
0
0
0
0
0
0
0
0
0
489
0
0
0
0
0
0
0
0
0
0
0
0
502
0
0
0
0
0
0
0
0
511
0
0
514
515
0
0
518
0
520
0
0
0
0
0
0
0
0
529
0
0
532
0
0
0
0
0
538
0
0
0
0
0
0
0
0
0
548
0
0
0
0
0
0
555
0
557
558
0
0
0
562
0
0
0
566
567
0
0
0
0
0
0
0
0
0
0
0
0
0
0
0
0
0
585
0
0
588
0
0
0
0
593
0
0
0
0
0
0
0
0
0
0
0
0
0
0
0
0
610
0
0
613
614
0
0
617
0
0
0
621
622
0
0
0
0
0
0
0
0
0
632
0
634
0
636
0
0
0
0
0
0
0
644
0
0
0
0
649
0
0
0
653
0
0
0
0
658
0
660
0
662
0
0
0
666
0
668
0
0
0
0
0
0
0
0
0
0
0
0
0
682
0
0
685
0
0
0
689
0
0
0
693
0
0
696
0
0
0
0
701
0
0
704
0
706
0
0
0
0
0
0
0
0
0
716
0
0
0
0
0
0
723
0
0
0
0
0
0
730
0
0
0
0
0
0
0
0
0
0
741
742
743
0
0
746
0
0
0
750
0
0
0
754
0
0
0
0
0
760
0
0
763
764
0
0
0
0
769
0
771
0
773
0
0
0
777
0
0
0
0
782
783
0
785
786
0
0
0
790
791
0
0
0
0
796
0
0
0
0
0
0
803
0
805
0
0
0
809
0
0
0
0
814
0
0
817
0
0
0
0
0
0
0
0
0
0
0
0
0
0
832
0
0
0
836
0
0
839
0
0
0
0
0
0
0
0
0
0
0
0
0
0
0
0
0
0
858
859
0
861
0
863
864
0
0
0
0
0
0
0
0
0
874
875
876
0
0
879
0
0
0
0
0
0
0
0
0
0
0
0
0
893
0
0
0
0
0
0
900
0
0
0
0
0
0
0
0
0
910
0
912
913
914
0
0
917
0
0
0
0
0
0
924
0
0
0
0
929
0
0
932
0
0
0
0
0
938
0
0
0
942
0
0
0
0
947
0
0
0
0
0
0
0
955
0
0
0
959
0
0
0
0
0
0
966
0
968
969
970
971
0
0
974
0
0
977
0
0
0
0
0
0
984
0
0
987
0
0
0
0
0
0
994
0
996
0
998
0
0
0
0
0
0
0
0
0
0
0
0
12
0
0
0
0
0
18
0
0
0
0
23
0
25
0
0
0
0
0
31
0
33
0
0
0
0
0
39
40
0
42
0
44
45
0
0
0
49
0
51
0
0
0
55
0
57
0
0
0
0
0
0
64
0
66
0
0
69
70
71
0
0
0
0
76
0
78
0
0
81
0
0
0
0
0
0
0
0
0
91
0
0
0
0
96
0
0
0
0
0
0
0
0
0
106
107
108
0
0
0
0
0
0
0
0
0
118
0
120
0
0
0
124
125
0
127
0
0
130
131
0
0
0
0
0
137
0
139
140
141
142
0
0
145
0
0
0
0
0
0
0
0
0
0
0
0
0
0
160
161
0
0
164
0
0
0
168
0
0
0
0
173
0
175
0
177
178
0
0
0
0
0
0
0
0
0
0
0
0
0
192
193
0
195
0
0
198
0
0
0
202
0
0
205
0
207
208
0
0
0
0
213
0
0
216
0
0
0
0
221
0
0
0
225
0
227
0
229
0
231
0
0
0
0
236
237
0
0
240
0
0
0
0
0
246
0
0
0
0
0
0
0
0
255
0
257
0
259
0
0
0
0
0
0
0
267
0
0
0
271
0
0
0
0
0
0
0
279
0
0
0
283
284
285
0
0
0
289
0
0
0
0
294
0
0
0
0
0
0
0
0
0
304
305
0
0
0
0
0
0
312
0
0
0
0
0
0
319
0
321
0
0
0
0
0
0
328
329
0
0
0
0
0
0
0
0
0
0
0
0
0
0
0
345
0
0
0
0
0
0
0
0
0
0
0
357
0
359
0
361
362
0
0
0
0
0
368
0
0
0
0
373
0
0
0
0
0
379
0
0
0
383
0
385
386
0
388
389
0
0
0
0
394
0
396
0
0
0
400
0
0
0
0
405
0
0
0
0
0
0
0
413
0
0
0
417
0
0
0
0
0
0
0
425
0
0
0
0
0
431
0
0
434
0
436
0
0
439
0
441
0
0
0
0
0
0
0
0
0
0
452
0
0
0
0
0
0
0
0
0
462
0
0
0
466
0
0
0
0
0
0
0
0
0
0
0
0
479
0
0
482
0
0
485
0
0
0
0
0
0
0
0
0
0
0
0
0
499
0
0
0
0
0
505
0
507
0
0
0
0
0
513
0
0
0
0
0
0
0
0
0
0
524
0
526
527
528
0
0
0
0
0
0
535
0
0
0
0
0
0
542
0
0
0
0
0
0
549
0
0
0
0
0
0
0
0
558
0
560
0
562
0
564
0
0
0
0
0
0
0
0
0
0
575
576
0
0
0
0
581
0
583
584
0
0
587
0
0
0
0
0
0
0
0
0
0
0
0
600
601
0
0
604
0
0
0
0
609
0
611
0
0
614
0
0
617
618
0
0
621
0
623
624
625
0
627
0
0
0
631
632
633
634
635
636
0
638
639
0
0
642
0
0
0
646
647
0
0
0
0
0
0
0
0
0
657
658
0
0
661
0
0
664
665
666
0
0
669
0
0
0
673
0
0
676
677
0
0
0
0
0
683
0
0
0
0
0
0
690
0
0
693
0
0
0
0
0
699
0
0
702
0
704
0
0
0
0
0
0
0
712
713
0
0
0
0
718
0
0
0
0
0
724
725
0
0
0
729
0
0
732
733
0
735
0
737
0
0
0
0
0
0
0
0
746
747
0
749
0
0
0
753
0
755
0
0
0
0
0
0
762
0
0
0
0
0
0
769
0
0
772
0
0
0
0
777
0
0
780
0
0
0
0
0
786
787
0
0
0
791
0
0
0
0
0
0
0
799
0
0
0
0
804
0
0
0
0
809
0
0
812
0
0
0
0
817
818
0
0
0
822
0
0
0
0
0
828
0
0
831
0
0
834
0
0
0
0
0
0
0
0
0
0
0
0
0
848
0
0
851
0
0
0
0
0
0
0
0
0
0
862
0
864
0
0
867
0
0
0
0
0
0
874
0
0
0
878
879
0
881
882
0
0
0
0
0
0
889
890
891
0
893
0
0
896
0
0
0
0
0
0
0
0
0
0
0
0
909
910
0
0
913
914
0
0
0
0
0
920
0
0
0
0
925
926
0
0
0
0
931
0
0
0
0
0
0
938
0
0
0
942
0
0
0
946
0
0
0
950
0
952
0
954
955
0
0
0
0
0
0
0
0
0
0
966
0
0
0
0
0
0
0
0
0
976
977
0
979
980
0
0
983
0
0
0
0
0
0
0
0
0
0
994
0
996
997
0
0
0
2
0
4
0
6
0
0
9
0
0
0
0
0
0
16
0
18
0
0
0
0
0
0
0
0
0
0
0
0
31
0
0
34
0
0
0
0
0
40
0
42
0
0
0
46
0
0
49
50
0
0
53
0
0
0
0
0
0
0
61
0
0
64
65
0
0
0
0
70
0
0
0
0
0
0
77
78
79
0
0
82
0
0
85
86
0
88
0
0
0
92
0
0
0
0
0
98
0
0
0
0
0
0
0
106
0
0
0
0
0
0
0
0
0
0
0
0
0
0
0
122
0
0
125
0
127
128
0
0
0
0
0
0
135
0
0
0
139
140
0
0
0
0
0
146
0
0
0
0
0
0
153
0
0
0
0
158
0
0
161
162
0
164
165
0
0
0
169
0
171
0
0
0
0
0
0
0
0
0
0
0
0
0
0
0
0
0
189
190
0
192
193
0
0
0
0
198
199
200
0
202
0
0
0
0
207
208
209
210
0
0
0
0
0
0
0
0
0
220
0
0
0
0
0
0
227
0
0
230
0
0
233
234
0
0
0
0
239
0
241
0
0
0
0
0
0
0
0
0
251
252
0
0
255
0
0
0
259
260
0
262
0
0
0
0
0
0
0
270
0
0
0
0
0
0
0
278
279
0
0
0
0
284
285
0
0
0
0
0
291
0
0
0
0
0
297
0
0
0
301
0
0
0
0
0
0
0
309
0
311
312
0
0
0
316
0
0
0
0
321
0
0
0
0
0
0
0
0
330
0
332
0
334
0
0
337
0
0
340
0
0
0
344
0
0
347
0
0
0
0
0
353
0
0
356
0
0
0
0
361
0
0
0
365
0
367
0
0
0
0
0
0
0
0
0
0
0
379
380
381
0
383
0
0
0
0
0
389
0
391
0
0
0
395
0
397
0
0
0
0
0
0
0
0
0
0
0
0
0
0
0
0
0
415
416
0
0
0
0
0
0
0
0
0
0
0
0
429
0
0
0
0
0
0
436
0
0
439
440
441
0
443
0
0
0
447
0
449
0
451
452
453
0
0
0
0
0
0
0
0
0
0
0
0
466
0
0
469
0
0
0
0
474
0
476
0
0
479
0
0
0
0
484
0
0
0
0
0
0
491
0
0
0
0
496
0
498
0
500
0
0
0
0
505
0
0
0
509
510
0
0
0
514
0
0
517
0
0
0
521
0
0
0
0
0
0
0
529
530
531
0
533
0
0
0
0
0
0
0
0
0
0
0
0
546
0
0
0
0
0
0
0
0
0
0
557
0
0
560
0
0
0
0
0
566
0
0
0
0
0
0
0
0
575
0
0
0
0
0
581
0
0
0
0
0
0
0
0
0
0
0
0
594
0
0
597
0
599
600
0
0
603
0
0
0
0
0
0
0
0
612
0
0
615
0
617
0
0
0
0
0
0
0
0
0
0
0
0
0
0
632
0
634
0
0
637
0
0
0
0
642
0
0
0
0
0
648
649
0
0
652
653
0
0
0
0
0
0
660
661
662
0
0
0
0
0
0
0
0
0
672
0
0
0
0
0
0
0
680
0
0
0
684
0
0
0
0
689
0
0
0
693
0
0
696
0
0
699
0
0
0
0
0
0
0
0
708
709
0
0
0
0
714
0
0
0
0
0
0
721
0
723
0
0
0
0
0
0
0
0
0
0
734
0
0
737
0
0
0
0
742
0
744
0
0
0
0
0
750
0
0
753
0
0
0
0
0
0
760
0
0
763
764
0
0
767
0
769
0
0
0
0
0
775
0
0
0
779
0
0
0
0
784
785
786
0
0
0
0
0
0
0
794
0
0
797
0
799
0
801
0
0
0
805
806
0
0
0
0
0
0
813
0
0
0
0
0
0
0
0
0
823
0
0
0
0
0
0
0
0
832
0
0
0
0
0
0
0
0
0
0
0
0
845
846
847
0
849
0
0
852
0
0
0
0
0
0
0
0
0
0
863
864
865
866
867
0
0
0
0
0
0
0
0
876
0
878
0
0
0
0
0
0
0
0
0
0
0
0
0
0
893
0
0
0
0
0
0
0
0
0
0
0
0
0
0
0
909
0
0
912
913
914
915
0
0
0
0
0
0
922
0
0
0
0
0
0
929
930
931
0
933
0
0
0
937
0
0
0
0
0
943
0
945
0
947
0
0
950
0
0
0
954
0
956
957
0
0
960
0
0
0
0
0
0
0
0
0
970
0
0
0
0
0
0
0
978
0
0
981
0
0
0
0
0
987
0
989
0
0
0
0
994
0
996
0
0
0
1000
0
3
4
0
0
0
0
0
0
0
0
0
0
0
0
0
0
19
20
21
22
0
0
0
0
0
0
0
0
0
0
0
0
35
36
0
38
0
0
41
0
0
44
0
0
47
0
0
50
51
0
0
0
55
56
57
0
0
0
61
0
0
64
0
0
0
0
0
0
0
72
0
0
0
76
77
78
0
0
0
0
0
0
85
0
0
0
0
0
0
0
93
94
0
0
97
0
0
0
101
102
0
104
0
0
0
0
0
0
0
0
0
0
115
116
0
118
0
0
0
122
123
0
0
0
127
0
0
0
0
0
133
0
0
0
0
0
139
0
141
0
0
0
0
0
0
148
0
0
0
0
0
0
0
0
0
158
159
0
0
0
0
0
165
0
0
0
0
0
0
172
0
0
0
0
0
0
179
0
181
0
0
0
0
186
0
0
0
0
0
192
193
0
0
0
0
0
199
0
0
0
203
0
0
0
207
208
0
0
211
0
0
0
0
216
0
0
0
0
0
0
223
0
0
226
227
0
0
230
0
0
0
0
0
0
237
0
0
0
0
0
0
0
0
246
0
0
0
0
251
0
0
0
0
0
257
0
0
260
0
0
0
0
0
0
0
0
0
270
0
272
0
0
275
0
0
0
279
0
0
0
283
0
285
0
0
0
0
0
0
0
0
0
0
296
0
0
0
0
0
0
0
0
0
0
307
308
0
0
0
0
0
0
315
0
0
0
0
0
321
322
323
324
325
0
0
328
329
0
331
0
0
0
0
0
0
0
339
0
0
342
0
0
0
0
0
0
0
0
0
0
0
0
0
356
0
358
0
360
0
0
0
364
0
0
0
0
0
0
0
0
0
374
0
0
0
0
379
0
0
0
0
0
0
0
0
0
389
0
0
392
0
0
0
0
0
0
0
0
0
0
0
404
0
0
0
0
0
0
0
412
0
414
415
0
417
418
419
0
0
0
0
0
425
0
0
428
0
0
431
432
0
0
0
0
0
0
439
440
0
0
443
0
445
0
447
0
0
0
0
452
0
0
0
0
0
0
0
0
461
462
0
0
0
466
467
0
0
0
0
0
0
0
0
0
0
0
0
0
0
0
483
0
0
0
0
0
0
490
0
0
0
0
0
0
0
0
0
500
0
0
503
0
0
506
0
0
0
0
511
0
513
0
0
0
0
0
519
520
0
0
0
0
0
0
0
0
529
530
0
0
533
534
0
0
0
0
539
540
0
0
543
544
0
0
0
0
0
0
0
0
0
0
555
0
0
0
0
0
0
0
563
564
0
566
0
0
0
0
0
0
0
0
0
576
0
0
0
580
0
0
0
0
0
0
0
0
0
0
0
0
0
594
0
596
0
0
0
0
0
0
0
604
0
0
607
0
0
0
0
612
0
614
0
0
0
0
0
0
0
0
0
0
0
0
627
628
0
0
631
632
0
634
0
636
0
0
0
0
641
642
643
0
0
0
0
0
0
650
651
652
0
654
0
0
0
658
659
0
0
662
0
664
665
0
667
668
0
0
0
0
0
0
0
0
0
0
679
0
0
682
683
0
0
686
0
0
0
690
0
692
0
0
0
0
0
0
0
700
701
0
0
0
0
0
707
0
0
710
0
712
0
714
0
0
0
0
0
0
0
0
723
0
0
0
727
728
0
0
0
732
0
734
0
736
0
0
0
0
0
0
0
0
0
0
0
0
0
750
0
0
0
0
0
0
0
0
0
0
0
0
0
0
0
0
0
0
0
770
0
0
0
0
775
0
0
0
0
0
0
0
0
0
785
0
0
0
789
0
0
0
0
0
0
0
0
0
0
0
0
0
0
804
0
0
0
0
0
810
0
0
813
0
0
816
0
0
0
820
0
0
0
0
0
0
0
828
0
0
0
832
0
0
0
0
0
0
839
0
0
842
0
0
845
0
847
0
0
0
0
852
0
854
0
0
857
0
0
0
0
0
0
864
865
866
0
0
0
870
0
0
0
0
0
876
0
0
0
880
0
0
883
0
0
0
0
0
0
0
0
0
893
0
0
896
0
0
0
900
0
902
0
904
0
0
0
0
0
0
0
912
0
914
0
0
917
0
0
0
0
0
0
0
0
0
0
0
0
0
931
0
0
0
0
0
0
0
0
0
941
0
0
944
0
0
0
948
949
0
0
0
953
0
0
956
957
0
0
0
961
0
0
0
0
0
0
0
0
0
0
0
0
0
0
0
0
978
979
0
0
0
0
0
0
986
987
0
0
0
0
0
0
0
0
0
997
0
999
0
0
0
4
5
0
0
8
0
0
0
0
0
0
0
0
0
0
0
0
0
0
23
24
0
0
0
0
0
0
31
0
0
0
35
0
0
38
0
0
41
42
0
44
0
0
0
0
49
0
0
0
0
54
55
0
57
0
0
0
0
0
63
64
65
0
67
0
0
0
0
0
0
0
75
0
0
0
79
0
0
0
0
0
85
0
87
0
89
0
0
0
0
94
95
96
0
0
99
0
0
0
0
0
0
0
0
0
0
110
111
0
0
0
0
0
0
118
0
0
121
122
0
124
0
0
127
0
0
0
0
0
0
0
0
0
0
0
139
140
0
0
0
0
0
0
0
148
0
0
0
0
0
0
0
0
0
0
159
0
0
0
0
164
0
0
0
0
0
0
0
0
0
0
0
0
0
0
0
0
0
0
0
0
185
0
0
0
0
0
0
192
0
0
0
0
0
0
0
0
201
202
0
0
0
206
207
0
0
210
211
0
0
0
0
0
0
0
0
0
0
0
0
0
225
226
0
0
0
0
0
0
0
234
0
0
237
0
239
0
0
0
0
244
0
0
0
248
0
0
0
252
253
254
0
0
0
0
0
0
0
0
263
0
0
266
0
0
0
270
0
0
0
0
275
0
0
0
279
0
0
0
0
0
0
286
0
0
0
0
291
0
0
0
0
0
0
298
0
300
0
302
0
0
305
306
0
0
0
0
0
312
0
0
315
316
0
0
319
0
321
322
0
0
0
0
327
0
329
0
331
0
0
0
335
0
0
338
0
0
0
0
0
0
0
0
0
0
0
0
0
0
353
0
0
356
0
0
359
360
0
362
0
0
0
0
0
0
0
0
0
0
373
0
0
0
0
0
0
0
381
0
0
0
385
0
387
0
0
0
0
0
0
0
0
0
0
0
0
0
0
0
0
0
0
0
0
0
0
0
411
412
0
414
0
0
0
0
419
0
0
0
423
0
0
0
0
0
0
0
0
432
0
434
0
0
0
0
439
0
0
442
0
0
0
446
0
0
0
0
0
452
0
0
0
0
457
458
0
0
0
0
0
464
0
0
0
0
0
0
471
0
0
0
475
476
0
0
0
480
481
0
0
0
0
0
0
0
489
0
0
0
0
0
495
0
0
0
499
0
501
0
0
504
0
506
507
0
0
510
0
0
513
0
0
0
517
0
0
0
0
0
523
0
525
0
0
0
529
0
531
0
0
0
0
0
0
538
539
0
0
0
0
0
0
546
0
548
0
0
0
0
553
0
0
0
0
0
0
0
561
0
563
564
0
0
0
568
569
0
0
0
0
0
575
0
0
0
0
0
0
582
0
0
585
586
0
0
0
0
0
0
0
0
0
0
0
598
0
0
0
0
0
0
0
0
0
0
0
0
0
0
0
614
0
616
0
618
619
0
0
0
0
624
0
0
0
0
629
0
0
632
0
0
635
0
637
0
0
0
0
642
0
0
0
0
0
0
649
0
0
652
0
0
0
0
0
658
0
660
0
0
663
664
0
666
0
0
0
0
671
0
0
674
0
0
0
0
0
0
681
682
0
0
0
686
0
0
0
0
691
0
0
0
0
0
0
0
0
0
0
0
0
0
705
0
707
708
709
710
0
0
0
0
715
716
0
0
0
0
0
722
0
0
725
0
727
0
0
730
0
0
0
734
0
0
0
0
739
0
0
0
0
0
0
746
0
0
0
0
0
0
0
0
0
0
0
0
0
760
0
762
0
0
0
0
0
0
769
0
0
0
0
0
0
0
0
778
0
780
781
0
0
0
785
786
0
0
0
0
0
0
0
0
0
0
0
0
0
800
0
0
0
0
0
0
0
0
809
0
0
0
0
0
0
0
817
818
0
820
0
822
0
0
0
0
827
0
0
0
0
0
0
0
0
0
0
0
0
0
0
0
0
0
0
0
847
0
0
0
0
0
0
0
0
856
0
0
0
0
861
0
0
0
0
0
0
0
869
0
0
0
0
0
0
876
0
0
0
880
881
0
883
0
0
0
0
0
0
890
0
0
893
0
0
896
897
0
899
900
901
0
903
0
0
0
0
0
0
0
0
912
913
914
0
0
917
918
0
0
921
0
0
0
0
0
0
0
0
0
931
0
0
0
0
0
0
0
0
0
941
0
0
0
0
0
0
948
0
0
0
0
0
0
0
956
0
0
0
0
0
0
0
0
0
0
0
0
969
0
0
0
0
0
0
0
0
978
0
0
0
0
0
0
0
0
0
0
989
0
0
0
0
0
0
0
997
998
0
0
2
0
0
5
0
0
0
0
0
11
12
0
14
15
0
0
0
0
0
0
0
0
24
25
0
27
0
29
0
31
0
0
0
0
0
0
0
0
0
0
42
0
44
0
0
0
0
0
0
0
0
53
0
55
0
0
0
0
60
61
0
0
0
0
66
67
0
0
0
71
0
0
0
0
0
0
78
79
0
0
0
0
84
0
86
0
0
0
90
91
0
0
0
0
0
0
0
0
0
0
102
0
0
0
0
0
0
0
0
111
0
0
0
0
116
0
0
0
0
0
0
123
124
0
0
0
0
129
130
131
0
0
0
0
0
0
0
139
0
0
142
143
0
0
0
0
0
149
0
151
0
0
154
0
0
0
0
159
0
0
0
0
0
0
0
0
0
0
0
171
0
0
0
0
0
0
178
0
0
0
182
0
0
0
0
0
0
189
0
0
192
0
0
0
0
0
0
0
200
0
202
203
204
0
206
207
0
209
210
0
0
0
0
0
0
0
0
0
0
0
0
223
0
0
0
0
0
0
0
0
0
0
234
235
0
0
238
0
0
241
0
0
0
0
0
0
0
249
0
0
252
0
254
0
0
0
258
0
0
0
0
0
0
265
0
0
0
0
0
0
0
0
274
0
0
0
278
279
280
0
282
283
0
285
0
0
0
0
0
291
0
0
0
0
296
0
0
0
0
0
0
0
0
0
0
0
0
0
0
311
312
0
0
0
316
0
0
0
0
0
0
323
0
0
0
0
0
0
330
331
0
0
334
0
0
0
0
0
0
0
0
0
0
345
0
0
0
0
0
0
0
0
0
0
356
357
358
0
0
0
0
0
0
0
0
0
368
0
0
0
0
0
374
0
0
0
378
379
0
0
0
383
0
0
0
0
0
0
0
0
0
0
0
0
0
0
0
0
0
401
402
403
0
405
0
407
0
0
0
411
0
0
414
0
416
0
0
0
420
421
422
0
0
0
0
427
0
429
0
431
0
0
0
0
0
0
0
439
0
441
0
0
0
0
0
0
0
0
0
0
452
0
0
0
0
0
0
0
0
0
0
0
0
0
0
0
468
0
0
0
472
0
0
0
0
0
0
479
0
0
0
0
0
0
0
487
0
0
0
491
0
493
0
0
0
0
498
499
500
0
0
503
0
505
506
0
0
0
0
511
0
513
0
515
0
0
0
519
0
0
0
0
0
0
0
0
0
529
0
531
0
0
0
0
0
537
0
0
0
0
0
543
0
545
546
547
548
0
0
551
0
0
0
0
0
557
0
0
0
0
0
563
0
0
0
567
0
0
0
0
0
0
574
575
576
0
0
0
0
0
0
0
584
585
0
0
588
0
590
0
0
0
0
0
0
0
0
0
600
0
0
0
0
0
0
0
608
0
0
0
612
613
614
0
0
0
0
619
620
0
0
0
0
0
0
0
0
0
630
631
632
0
0
635
636
0
638
0
0
0
0
643
644
645
0
0
0
649
0
0
0
0
0
0
0
0
658
0
660
0
662
0
664
0
666
0
0
0
0
0
0
0
674
0
0
0
678
0
0
0
0
0
0
0
0
0
688
689
690
0
0
693
0
695
0
0
0
0
0
0
0
0
704
0
706
0
0
0
0
711
0
0
0
715
0
0
0
0
720
721
0
723
724
0
726
0
0
0
730
0
732
0
734
0
0
737
0
0
0
0
742
0
744
0
0
0
748
749
750
0
0
0
0
0
0
0
758
759
760
761
762
0
0
0
0
0
0
769
0
0
0
0
0
775
0
0
778
0
0
0
0
0
0
0
786
0
0
0
790
0
0
0
0
0
0
0
0
0
800
0
0
0
804
0
0
0
0
0
0
0
0
0
0
0
0
0
818
0
0
0
0
823
0
0
0
0
0
0
0
0
832
0
0
0
0
0
0
0
0
841
0
843
0
0
0
0
0
0
0
851
0
0
0
0
0
0
0
0
0
0
0
0
864
0
0
0
0
0
0
0
0
873
0
0
0
877
0
0
880
0
0
0
0
0
0
0
0
0
0
891
892
893
0
895
0
0
0
0
900
0
0
0
0
0
0
0
0
0
0
0
912
0
914
0
916
917
0
0
0
0
0
0
0
0
0
0
0
0
0
0
0
0
0
0
0
0
938
0
0
0
0
0
0
0
0
0
0
0
0
0
0
953
0
0
0
0
958
0
0
0
0
0
0
0
966
0
0
0
0
0
0
0
0
0
0
0
0
0
980
0
0
0
0
985
986
0
0
0
0
0
992
0
994
0
0
0
0
0
0
0
0
0
0
0
0
0
0
0
11
0
0
0
0
16
0
18
0
0
21
0
0
0
25
0
0
28
29
0
0
0
0
0
0
0
0
0
0
0
41
0
0
0
0
0
0
48
0
0
0
0
0
0
0
0
0
0
0
0
0
0
63
64
0
66
0
68
0
0
71
0
0
0
0
76
0
0
0
0
0
0
0
84
0
0
0
88
0
0
91
0
0
94
0
96
0
0
0
0
0
102
103
0
105
0
0
0
0
110
0
0
0
114
0
0
0
118
119
120
0
0
123
0
0
0
0
0
0
0
0
0
0
0
0
0
137
138
139
140
0
142
0
0
0
0
0
148
0
0
0
0
0
0
0
0
0
0
0
0
0
0
0
0
0
0
0
168
169
0
171
0
173
174
0
0
0
178
0
0
0
182
183
184
0
0
0
0
0
0
191
192
193
194
0
0
0
0
199
0
201
202
0
0
0
0
207
208
0
0
211
0
0
0
0
216
217
0
0
220
221
0
0
224
0
0
227
0
0
0
0
232
0
0
235
0
237
238
0
240
241
0
0
0
0
0
0
0
0
0
0
0
0
0
255
0
0
258
0
0
0
0
0
0
265
0
0
0
0
270
0
0
273
274
0
0
0
0
0
280
0
0
283
0
285
0
0
0
0
0
291
0
0
0
0
0
0
0
0
0
0
0
0
0
0
0
0
0
0
310
311
0
313
0
0
316
0
0
0
320
0
322
0
0
0
326
0
0
0
0
0
0
0
0
0
0
337
0
0
0
0
0
0
0
345
346
0
0
0
0
0
352
0
354
355
0
357
0
0
360
361
362
0
364
0
0
0
0
369
370
0
0
0
0
0
0
0
0
0
0
0
0
0
384
0
0
0
388
0
0
0
0
0
0
0
0
0
0
0
0
0
0
0
0
0
0
0
0
0
0
0
412
0
0
415
0
0
0
0
0
0
0
0
0
425
0
0
0
0
0
0
432
0
0
0
436
0
0
439
440
0
0
443
0
445
0
0
0
449
0
0
0
0
0
0
0
457
0
0
460
461
462
0
0
0
466
0
0
0
0
0
0
0
0
475
0
0
0
479
480
0
482
0
0
0
0
0
0
0
0
0
0
0
0
0
0
497
0
0
0
0
0
503
0
505
506
0
0
0
0
511
0
513
514
0
0
0
518
519
0
521
0
0
0
525
526
0
528
0
530
0
0
533
0
0
0
537
0
0
0
0
0
0
544
0
0
0
0
549
0
0
552
553
0
0
0
0
0
0
0
0
0
0
564
565
0
0
0
0
0
0
572
0
0
0
0
0
0
579
0
0
0
0
0
0
0
0
588
0
0
0
0
0
0
0
0
0
0
0
600
0
0
0
0
0
0
0
0
0
610
0
0
0
614
0
0
617
0
0
0
0
0
0
0
0
0
627
0
0
0
631
632
0
634
0
0
637
0
0
0
0
642
0
0
0
0
0
0
0
650
0
0
0
0
0
0
0
658
0
0
0
0
663
664
0
666
0
0
0
0
671
0
0
0
0
676
677
0
0
0
0
682
0
684
685
686
0
0
0
690
0
0
693
694
0
0
0
698
699
0
0
0
703
0
0
0
707
708
0
0
0
0
0
714
0
716
0
0
0
0
0
722
723
0
0
726
727
0
0
0
0
0
733
0
735
0
737
0
0
740
0
0
743
0
0
746
0
748
0
0
0
0
0
0
0
0
0
0
0
760
0
762
0
764
0
0
0
0
769
0
0
0
773
0
775
776
0
0
0
0
0
0
0
0
0
0
787
0
789
0
0
792
793
0
0
0
0
0
0
800
801
0
0
0
0
806
0
808
0
0
811
0
0
814
0
816
0
0
0
820
821
0
0
0
0
826
0
828
0
0
831
0
0
0
0
0
0
0
839
0
0
0
0
0
845
0
847
848
0
0
0
0
853
854
0
0
0
0
859
860
0
0
863
864
865
0
0
0
0
0
0
0
0
0
0
876
0
878
0
0
0
0
883
0
0
0
0
0
889
890
891
892
893
0
0
896
0
0
0
900
0
902
0
0
905
0
0
0
909
0
911
0
0
914
0
0
0
0
0
0
921
922
0
924
925
0
927
0
929
0
931
0
0
934
0
0
0
0
0
0
0
0
0
944
0
0
947
0
0
950
0
0
0
0
0
0
0
0
959
0
0
962
963
0
0
0
0
0
0
970
0
0
0
0
975
0
977
978
0
980
0
0
0
984
0
0
0
988
0
0
991
0
0
0
0
996
0
0
999
0
2
0
0
5
0
0
0
9
0
11
0
0
14
0
16
0
18
0
20
0
22
0
24
25
0
0
0
0
0
0
0
0
34
0
0
0
0
0
0
41
42
0
0
0
0
0
0
0
0
0
0
0
0
0
0
0
0
0
0
0
0
0
0
65
0
0
0
0
0
71
72
0
0
0
0
0
0
0
0
0
82
0
0
0
0
0
88
89
0
0
92
0
94
0
0
0
0
0
0
0
0
0
0
0
0
0
0
109
0
111
0
0
0
0
0
0
118
0
120
0
122
0
0
0
126
0
0
129
0
131
0
0
0
0
0
0
0
0
0
0
0
0
0
0
0
0
0
0
0
0
0
0
0
0
0
0
158
0
0
161
162
0
0
0
0
167
0
0
0
0
172
173
174
0
0
0
0
0
0
181
0
0
184
0
0
0
0
0
0
0
192
0
0
0
0
197
0
0
0
0
202
0
0
0
0
207
0
0
210
0
0
213
0
0
0
0
0
0
0
0
0
0
0
0
0
0
0
229
0
0
0
0
234
0
236
0
0
239
0
0
0
0
0
0
246
0
248
0
0
0
252
0
0
255
0
0
0
259
0
0
0
0
0
0
0
0
0
0
270
271
0
0
0
0
0
0
0
279
0
0
282
0
284
0
0
0
0
289
0
0
0
0
0
0
0
0
0
0
0
0
0
0
0
0
0
307
0
309
310
0
312
0
0
0
316
0
318
319
0
321
322
0
0
0
0
327
0
0
0
331
0
333
0
0
0
0
0
339
0
341
0
0
0
345
0
0
0
0
0
0
0
0
0
0
0
0
0
0
0
0
0
0
364
365
0
0
368
0
370
371
0
373
374
0
0
377
0
0
0
0
0
0
0
0
0
0
388
0
390
391
0
0
0
395
0
0
0
0
0
0
0
403
0
0
0
0
0
0
0
0
0
413
0
415
0
0
418
0
0
0
0
0
424
425
0
0
0
0
0
431
0
0
0
0
0
0
0
0
0
0
0
0
444
0
0
447
0
449
0
0
452
453
0
455
0
0
458
0
460
0
0
0
0
465
0
467
0
0
0
0
0
0
0
0
476
0
0
479
0
0
0
0
0
0
0
0
0
0
0
0
492
0
0
0
496
0
0
499
500
0
0
503
0
505
0
507
0
0
510
0
0
0
0
0
516
517
0
519
0
0
0
0
0
525
0
527
528
0
530
0
532
0
0
0
0
0
0
539
0
0
0
0
0
545
546
0
0
549
0
551
0
0
0
0
556
0
558
0
560
0
0
563
0
0
0
0
0
0
0
0
0
0
0
0
0
577
0
0
0
581
0
0
0
0
0
0
0
589
0
0
0
0
594
0
0
0
598
0
600
0
602
603
0
0
0
0
0
0
0
0
0
0
614
0
0
0
0
0
0
621
0
0
0
0
626
627
628
0
630
631
632
0
634
0
0
637
0
639
0
0
0
643
0
0
0
0
0
0
0
0
652
0
0
0
656
0
658
0
0
0
662
663
664
665
666
0
0
0
0
0
0
0
0
675
0
0
0
0
0
0
0
0
0
0
686
0
0
689
0
0
692
0
0
0
0
0
0
0
0
0
702
0
704
0
0
0
708
709
0
711
712
0
0
0
0
717
0
719
0
0
0
723
0
0
726
0
728
729
0
731
0
0
0
735
0
0
0
0
0
0
742
0
0
0
0
0
748
0
0
0
752
0
0
0
0
0
0
0
0
761
0
0
0
0
766
0
0
769
0
0
0
0
0
0
776
777
0
0
780
0
782
0
784
0
0
0
788
0
0
0
0
793
0
0
0
797
0
0
0
0
0
0
0
0
0
0
0
0
0
0
0
0
0
0
816
0
818
0
0
0
0
0
824
0
0
0
0
0
0
831
832
0
0
835
0
0
0
0
0
841
0
0
0
0
0
0
0
0
850
0
0
0
0
0
0
0
0
0
0
0
0
0
864
0
0
0
0
0
0
0
872
873
0
875
876
0
878
0
880
881
0
0
0
0
0
0
0
889
0
0
0
893
0
0
896
0
0
0
0
0
902
0
904
0
0
0
908
909
910
911
0
0
914
915
0
917
0
0
0
0
0
0
0
0
0
0
0
0
0
931
0
0
934
0
936
0
0
0
0
941
0
0
0
0
0
0
0
0
0
0
0
0
0
0
0
0
0
959
0
0
0
0
0
0
0
0
0
0
0
0
0
0
974
0
0
977
0
0
980
0
0
0
0
0
0
0
0
0
990
991
992
0
994
0
996
997
0
0
0
0
3
0
0
0
7
0
0
0
0
0
0
0
0
16
0
18
19
0
0
0
0
24
0
0
0
0
29
0
31
0
0
0
0
36
0
0
0
0
0
42
0
44
45
0
0
0
0
0
0
0
53
54
0
56
57
0
59
0
0
0
0
64
0
66
0
0
0
0
0
0
73
0
75
76
0
0
79
80
0
0
0
0
0
86
0
0
0
0
0
92
0
94
95
0
0
98
0
0
0
0
0
0
0
0
0
0
0
0
0
0
0
0
0
0
0
0
119
120
121
122
0
124
125
0
0
0
0
0
131
0
0
0
0
136
137
0
139
0
0
0
0
0
0
0
0
0
0
0
151
0
0
0
0
0
0
0
0
0
0
162
0
164
0
0
0
168
169
0
171
0
173
0
0
0
0
0
0
0
0
182
0
0
0
0
0
0
0
0
0
192
193
0
0
0
0
0
0
200
201
202
0
204
0
0
207
0
0
210
211
0
0
0
0
216
0
0
219
0
0
0
0
0
0
0
0
0
229
0
231
0
233
0
0
0
237
0
0
240
0
0
0
0
0
0
247
0
0
0
0
0
0
0
255
256
0
0
0
0
0
0
0
0
0
0
0
0
0
0
271
0
0
0
275
0
0
0
279
0
0
0
0
0
285
0
0
0
0
0
291
0
0
0
0
0
0
0
0
0
0
0
303
0
0
0
307
0
0
310
311
312
313
0
315
0
0
318
0
320
321
0
323
0
325
0
0
0
0
0
331
0
333
334
0
0
0
0
0
340
0
0
0
344
0
0
0
0
0
0
0
352
0
354
0
356
0
0
0
360
0
362
0
364
0
0
367
0
0
0
0
0
373
0
375
0
377
0
379
0
0
0
0
0
0
0
0
0
389
0
0
0
0
394
395
0
0
398
0
0
0
0
0
0
405
0
0
408
409
410
0
0
0
0
0
0
417
418
419
0
0
0
0
0
0
426
427
0
0
430
431
432
0
0
0
0
0
0
439
0
441
0
0
444
0
0
447
0
0
0
451
0
0
0
0
0
0
0
0
460
0
0
0
464
465
466
0
0
0
0
0
0
0
474
0
0
0
0
0
0
0
0
483
484
0
0
0
488
489
0
491
0
0
0
0
0
0
0
499
500
501
0
0
0
505
506
507
0
0
0
511
512
0
0
0
0
0
0
0
520
0
0
0
0
525
0
0
528
529
0
0
0
0
0
0
0
0
0
0
0
0
0
543
0
0
0
0
0
0
0
0
0
553
0
0
0
0
0
559
0
0
562
0
0
0
566
0
0
0
570
0
0
0
0
575
0
0
578
0
0
0
0
0
0
0
0
0
0
589
0
0
0
0
0
0
0
0
598
0
600
0
602
0
0
0
0
0
0
0
0
0
0
0
614
0
0
0
0
0
620
621
0
0
0
0
0
0
0
629
630
0
632
0
634
0
0
0
638
0
0
641
642
0
644
0
0
647
0
0
650
0
0
0
0
0
0
0
658
0
660
661
662
663
0
0
666
0
0
669
0
0
672
0
0
0
0
0
0
0
0
0
682
0
0
0
0
687
0
0
690
0
0
0
694
695
696
697
0
0
700
0
0
703
0
705
0
707
0
0
0
711
0
0
0
715
0
0
0
0
720
0
722
723
0
725
0
727
0
0
0
0
0
733
0
0
0
0
0
0
0
741
0
0
0
0
0
747
0
0
0
0
0
0
0
0
756
0
758
759
0
761
0
763
0
0
0
767
0
769
770
0
0
0
0
775
776
0
0
0
0
0
0
0
0
0
786
0
0
0
790
0
0
0
0
0
0
0
0
0
800
0
0
803
0
0
806
0
808
809
0
0
0
813
0
0
816
0
0
0
820
0
822
0
0
0
826
0
0
0
0
0
0
833
0
835
0
0
0
0
0
0
0
0
0
0
0
0
0
0
0
0
0
0
854
0
0
857
0
859
860
0
0
863
0
865
0
0
0
0
870
871
0
0
0
0
0
877
0
0
880
0
0
0
0
0
0
0
0
0
0
0
0
893
0
0
896
0
0
0
0
0
902
0
904
0
0
0
0
0
0
0
0
0
914
0
0
0
0
0
0
0
0
923
0
0
0
0
928
0
0
0
0
0
0
0
0
0
0
939
0
0
0
0
0
0
0
0
948
949
950
0
0
0
954
0
0
0
958
0
0
0
0
0
0
0
0
0
968
0
970
0
0
0
0
0
0
0
0
0
980
0
0
0
0
985
0
0
0
0
0
0
0
0
994
0
0
0
0
0
0
EOF
