DIMENSION : 1000
NUMBER OF ITEMS : 4995

TOUR_SECTION
1
914
207
769
893
634
255
202
57
614
864
40
632
229
192
900
279
876
44
340
360
240
441
193
249
331
329
449
172
980
439
96
208
786
560
694
210
66
368
671
431
310
479
345
94
734
658
664
979
139
970
714
42
551
835
25
29
672
750
836
71
652
996
528
917
164
682
140
356
16
45
621
865
237
594
748
199
31
575
832
686
452
854
49
567
704
447
635
321
505
285
312
466
510
200
994
600
511
806
636
18
364
642
499
122
690
76
64
666
373
997
896
662
829
180
830
538
825
892
299
930
43
532
145
747
953
406
438
259
555
32
798
857
494
687
656
213
138
350
411
397
744
325
811
992
539
800
777
557
763
987
760
120
291
977
650
931
305
991
513
699
395
828
770
434
958
209
142
247
421
661
130
951
894
414
183
79
577
184
678
389
24
902
99
740
965
677
995
944
83
743
904
612
695
868
114
940
51
257
269
579
376
336
531
990
570
186
390
540
582
527
556
619
111
840
566
337
170
720
646
23
989
72
427
204
925
158
217
906
905
982
62
349
281
921
28
478
605
587
134
87
943
34
696
762
563
789
302
327
588
197
118
948
581
286
102
684
362
549
841
503
725
919
462
480
938
179
163
174
127
879
241
59
379
859
270
602
847
509
119
793
838
254
252
405
442
519
297
517
899
282
498
109
50
415
529
568
860
909
726
137
923
978
84
955
309
162
660
263
293
107
732
195
418
116
41
307
839
227
90
775
322
273
461
933
401
166
471
863
445
831
689
294
165
351
458
692
880
388
736
850
244
159
54
701
288
758
617
55
110
221
271
419
751
966
251
19
999
61
920
929
888
947
912
956
934
983
637
618
915
144
151
121
326
173
357
717
814
440
910
823
338
746
148
394
877
723
731
470
65
890
86
491
239
506
453
487
289
316
334
818
328
3
4
903
569
2
631
691
402
709
628
669
469
710
985
374
380
613
425
799
815
167
599
92
693
626
58
665
1000
936
526
242
553
126
70
341
67
654
962
365
722
489
35
156
950
318
791
377
475
924
176
133
813
12
803
883
643
968
333
887
889
730
676
683
344
809
559
715
9
724
234
185
68
78
606
258
572
508
347
106
922
330
46
483
460
211
53
220
500
609
875
827
36
653
181
716
403
846
171
468
358
522
816
845
272
463
476
370
574
804
233
808
941
735
383
100
371
516
135
772
444
993
954
901
367
73
558
6
851
11
545
497
5
187
754
474
343
323
88
782
805
315
705
303
261
89
464
502
20
375
584
674
124
897
998
504
976
412
926
496
778
530
733
308
399
17
639
849
408
225
481
719
969
848
103
870
369
622
867
63
869
753
457
590
700
198
785
313
298
22
630
801
201
361
721
413
932
670
218
616
837
975
278
39
928
175
33
359
456
437
525
274
752
573
410
482
589
881
911
927
212
790
267
7
761
873
13
189
537
554
473
843
820
668
128
246
105
675
647
580
866
586
795
223
432
430
215
276
450
507
895
961
706
132
147
739
812
191
861
353
352
596
230
311
93
56
465
564
946
891
95
742
552
765
913
918
363
607
60
436
131
101
578
454
91
265
38
963
972
222
973
707
794
853
214
783
667
161
301
477
75
638
232
523
583
685
945
712
194
768
264
597
779
146
82
304
177
37
548
26
784
957
673
546
810
698
697
520
123
807
426
15
543
960
627
277
108
81
319
834
8
27
501
284
446
898
48
407
157
492
536
335
565
771
206
382
981
381
224
515
598
645
346
713
764
393
949
188
766
424
235
342
518
306
792
423
802
113
69
295
490
216
872
429
129
354
10
160
939
984
737
833
451
663
283
611
203
485
14
231
856
168
404
595
844
593
493
486
535
908
400
115
472
788
592
885
47
756
680
935
226
149
855
391
821
974
819
796
711
428
155
641
681
141
688
280
651
152
260
601
884
248
422
659
871
21
250
624
608
196
633
348
521
858
292
620
797
952
561
610
512
727
190
150
544
514
655
256
562
386
741
266
882
679
320
409
275
937
52
80
591
178
822
755
702
262
942
776
296
420
268
104
30
98
153
824
986
585
533
228
874
455
433
448
988
332
773
542
443
366
759
745
97
317
143
355
416
74
774
417
550
916
780
749
571
488
459
708
392
435
384
219
484
644
729
649
541
205
623
378
787
629
959
495
467
253
169
852
603
245
781
907
125
290
738
703
243
547
112
878
396
117
657
576
287
826
398
314
604
236
886
648
862
339
238
154
767
625
718
640
842
182
964
387
372
967
615
85
136
534
524
385
757
971
77
300
324
728
817

PP_SECTION
2
3
4
5
6
7
8
9
10
11
12
13
14
15
0
17
0
19
20
21
22
23
0
0
26
27
28
0
30
0
0
33
34
35
36
37
38
39
0
0
0
0
44
45
46
47
48
49
50
51
52
53
54
55
56
57
58
59
60
61
62
63
64
65
66
67
68
69
70
0
0
73
74
75
0
77
78
0
80
81
82
0
0
85
86
87
88
89
90
91
92
93
0
95
0
97
98
0
100
101
102
103
104
105
106
107
108
109
110
0
112
113
0
115
0
117
118
119
120
121
0
123
124
125
126
127
128
129
0
131
132
133
134
135
136
0
0
0
140
141
142
143
144
145
146
147
0
149
150
151
152
153
154
155
156
157
158
159
160
161
162
0
0
165
166
167
168
169
0
171
0
173
0
175
176
177
178
0
0
181
182
183
0
185
0
187
188
189
190
191
0
0
194
0
196
0
198
0
0
201
0
203
0
205
206
0
0
209
0
211
212
213
214
215
216
217
218
219
220
221
222
223
224
225
226
0
228
0
230
231
232
233
234
235
236
0
238
0
0
0
242
243
244
245
246
0
248
0
250
251
0
253
0
0
256
257
258
0
260
261
262
0
264
265
266
267
268
0
0
0
272
0
274
275
276
277
278
0
280
281
282
283
284
0
0
287
0
289
290
291
292
293
294
295
296
297
298
0
300
301
302
303
304
305
306
307
308
0
0
311
312
313
314
315
316
317
318
319
320
321
322
323
324
0
0
327
328
0
330
331
332
333
334
335
336
337
338
339
0
341
342
343
344
0
346
347
348
0
0
0
352
353
354
355
0
357
358
359
0
361
0
363
0
365
366
367
368
369
370
371
372
0
374
375
0
377
378
0
380
381
382
383
384
385
386
387
0
0
0
391
392
393
394
0
396
397
398
399
400
401
402
403
404
0
0
407
408
409
410
0
412
413
414
415
416
417
418
419
420
0
422
423
424
425
426
427
428
429
430
0
432
433
434
435
436
437
438
439
440
441
0
443
444
0
446
0
448
0
450
451
0
453
454
455
456
457
0
459
460
461
462
463
464
465
466
467
468
469
470
0
472
473
474
475
476
477
0
0
480
481
482
483
484
485
486
487
488
489
490
491
492
493
0
495
496
497
498
0
500
501
502
503
504
505
506
507
508
509
510
511
512
513
514
515
516
517
518
0
520
521
522
523
524
525
526
527
528
529
530
531
0
533
534
535
536
537
538
539
540
541
542
543
544
545
546
547
548
0
550
0
552
553
554
0
0
0
558
559
0
561
562
563
564
565
0
0
568
569
570
571
572
573
574
0
576
0
578
579
580
581
582
583
584
585
586
0
0
589
590
591
592
593
0
595
596
597
598
599
600
601
602
603
604
0
606
607
608
609
610
611
612
613
0
615
616
0
0
0
620
0
622
623
624
625
626
627
628
629
630
631
0
633
0
635
636
637
638
639
640
641
642
643
644
645
646
647
648
649
0
651
652
653
654
655
0
657
0
659
0
0
662
663
0
665
666
667
668
669
670
0
0
673
674
675
676
677
678
679
680
681
0
683
0
685
0
687
688
689
0
691
692
693
0
0
0
697
698
699
700
701
702
703
0
705
706
707
708
709
710
711
712
713
0
715
716
0
718
719
0
721
722
723
724
725
726
727
728
729
730
731
732
733
734
735
736
737
738
739
740
741
742
743
744
745
746
0
748
749
750
0
752
753
754
755
756
757
0
759
0
761
0
0
764
765
766
767
768
0
0
771
772
773
774
0
776
0
778
779
780
781
782
783
784
785
0
787
788
789
790
791
792
793
794
795
796
797
0
0
0
801
802
803
804
805
0
807
808
809
810
811
812
813
0
0
816
817
818
819
820
821
822
823
824
825
826
827
0
829
0
0
0
833
834
0
0
837
0
0
0
0
842
843
844
845
846
847
848
849
850
851
852
853
854
855
856
0
858
859
860
861
862
863
864
865
866
867
868
869
870
871
872
873
874
875
0
877
878
879
880
881
882
883
884
885
886
887
888
889
0
891
0
0
0
895
0
897
898
899
0
901
902
903
904
905
0
907
908
909
910
911
912
913
0
915
916
917
918
919
920
921
922
923
924
0
926
927
928
929
930
931
932
933
934
935
936
937
0
939
0
941
942
943
944
945
946
947
0
949
950
0
952
953
954
955
956
957
958
959
960
961
962
963
964
965
966
967
968
969
0
971
972
973
974
975
976
0
978
0
0
981
0
0
984
985
986
987
988
989
0
0
0
993
0
0
0
0
998
999
1000
2
3
4
5
6
7
8
9
10
11
12
13
14
15
16
17
0
19
20
21
22
23
24
25
26
27
28
29
30
0
0
33
0
35
36
37
38
39
40
41
42
0
0
0
46
47
48
0
0
51
52
53
54
55
56
57
58
0
60
0
62
63
64
65
66
67
68
69
70
0
72
73
74
75
76
77
78
79
80
81
82
0
84
85
86
87
88
89
0
91
92
93
94
95
96
97
98
0
100
101
102
103
104
105
106
0
108
109
110
111
112
113
0
115
116
117
118
119
0
121
0
123
124
125
126
0
128
129
0
131
132
133
0
135
136
0
0
0
0
141
142
143
144
145
146
147
148
149
150
151
152
153
154
155
156
157
158
159
160
161
0
0
164
165
0
167
168
169
170
171
0
173
174
175
176
177
178
179
180
181
182
183
184
185
186
187
188
189
190
191
0
0
194
195
196
197
198
199
200
201
0
203
0
205
206
0
208
209
0
211
212
0
214
215
216
217
218
219
220
221
222
223
224
225
226
0
228
0
230
231
232
233
234
235
236
237
238
0
0
0
242
243
244
245
246
247
248
0
250
0
0
253
254
0
256
257
258
0
260
261
262
263
264
265
266
267
268
0
270
271
272
0
274
275
276
277
278
279
280
281
282
283
284
0
286
287
288
289
290
0
292
0
0
295
296
0
298
0
300
301
0
303
304
305
306
307
308
309
310
311
0
313
314
315
0
317
318
319
320
0
0
323
324
325
326
0
328
0
330
331
332
333
334
335
336
337
338
339
340
341
342
343
344
345
346
347
348
349
0
0
352
353
354
355
0
357
358
359
0
361
362
363
364
365
366
367
0
369
370
371
372
0
374
375
376
377
378
379
380
381
382
383
384
385
386
387
388
389
390
391
392
393
394
0
396
0
398
399
400
0
402
403
404
0
0
407
408
409
410
0
412
413
0
0
416
417
418
419
420
421
422
423
424
425
426
0
428
429
430
431
432
433
0
435
436
437
438
439
440
441
442
443
444
0
446
0
448
449
450
451
0
453
454
455
456
457
458
459
460
461
462
463
464
465
466
467
468
469
470
471
472
473
474
475
476
477
0
0
0
481
482
483
484
485
486
487
488
489
490
491
492
493
0
495
496
497
498
499
500
501
502
503
504
505
506
507
508
0
510
511
512
0
514
515
516
517
518
519
520
521
522
523
524
525
526
0
528
529
530
531
0
533
534
535
536
537
0
0
0
541
542
543
544
545
546
547
548
0
550
0
552
553
554
0
0
0
558
559
0
561
562
563
564
565
566
0
568
569
570
571
572
573
574
575
576
577
578
0
580
581
582
583
584
585
586
587
0
589
590
591
592
593
0
595
596
597
598
599
0
601
0
603
604
605
606
607
608
609
610
611
612
613
614
615
616
617
618
619
620
621
622
623
624
625
626
627
628
629
630
631
0
633
0
0
0
637
638
639
640
641
0
643
644
645
0
647
648
649
650
651
0
653
654
655
656
657
0
659
0
661
662
663
664
665
666
667
668
669
670
671
672
673
674
675
676
0
0
679
680
681
0
683
684
685
0
0
688
0
0
0
0
0
694
695
696
697
698
699
700
701
702
703
704
705
706
707
708
709
710
711
712
713
714
715
716
717
718
719
720
721
722
723
724
0
0
727
728
729
730
731
732
733
734
735
736
737
738
739
0
741
742
0
0
745
0
0
0
749
0
751
752
753
754
755
756
757
758
759
0
761
762
763
764
765
766
767
768
0
0
771
772
773
774
0
776
777
778
779
780
781
782
783
784
785
786
787
788
789
790
791
792
793
794
795
796
797
798
799
800
801
802
803
804
805
0
807
808
809
810
811
812
813
814
815
816
817
0
819
820
821
822
823
824
825
826
827
0
0
0
0
0
833
834
0
0
837
838
839
840
841
842
843
844
845
846
0
848
849
0
851
852
853
0
855
856
0
858
859
860
861
862
863
864
865
866
867
868
869
870
871
872
873
874
875
0
0
878
879
880
881
882
883
884
885
886
887
0
889
890
891
0
893
894
895
0
897
898
0
0
901
0
903
0
905
906
907
908
0
910
911
912
913
0
915
916
0
918
919
920
0
922
0
924
0
926
927
928
929
0
931
932
0
0
935
936
937
938
939
940
941
942
943
944
945
946
947
0
949
950
0
952
953
954
955
956
957
958
959
960
961
962
963
964
0
0
967
968
969
0
971
972
973
974
975
976
0
0
979
980
981
982
983
984
985
986
0
988
0
0
0
0
993
0
0
0
0
998
999
1000
2
3
4
5
6
7
8
9
10
11
12
13
14
15
0
17
0
19
20
21
22
0
0
0
26
27
0
0
30
31
32
33
34
35
36
37
38
39
40
41
42
43
0
0
46
47
48
0
50
51
52
53
0
55
56
57
58
59
60
61
62
63
0
0
0
67
68
69
70
71
72
73
74
75
0
77
78
79
80
81
82
83
84
85
86
87
88
89
90
91
92
93
0
95
0
97
98
99
100
101
102
103
104
105
106
0
108
0
0
0
112
113
114
115
116
117
0
0
0
121
0
123
124
125
126
0
128
129
130
131
132
133
134
135
136
137
138
139
140
141
0
143
144
145
146
147
148
149
150
151
152
153
154
155
156
157
158
159
160
161
162
163
164
165
166
167
168
169
0
171
0
173
174
175
176
177
178
0
0
181
182
0
184
185
186
187
188
189
190
191
0
0
194
195
196
197
198
0
0
201
0
203
0
205
206
207
208
209
210
211
212
213
214
215
216
0
218
219
220
221
222
223
224
225
226
0
228
0
230
231
232
233
234
235
236
0
238
0
0
0
242
243
244
245
246
247
248
0
250
251
252
253
254
255
256
257
258
259
260
261
262
0
264
265
266
267
268
0
0
271
272
273
274
275
276
277
278
0
280
0
282
283
284
285
286
287
288
289
290
0
292
293
294
295
296
0
298
0
300
301
0
303
304
0
306
0
308
309
310
311
0
313
314
315
316
317
318
319
320
321
322
323
324
0
326
0
0
0
330
0
332
333
334
335
336
337
338
339
0
341
342
343
344
0
346
347
348
0
0
0
352
353
354
355
0
0
358
359
0
361
362
363
364
365
366
367
0
369
370
371
372
0
374
375
0
377
378
0
380
381
382
383
384
385
386
387
0
0
0
391
392
393
0
395
396
0
398
399
400
0
402
403
404
405
406
407
408
409
410
411
412
413
0
0
416
417
418
419
420
421
422
423
424
425
426
0
428
429
430
0
432
433
434
435
436
437
0
439
440
441
442
443
444
445
446
0
448
449
450
451
452
453
454
455
456
457
458
459
460
461
462
463
464
465
466
467
468
469
470
471
472
473
474
475
476
477
0
479
480
481
482
483
484
485
486
487
488
489
490
491
492
493
0
495
496
497
498
499
500
501
502
503
504
505
506
507
508
509
510
0
512
0
514
515
516
0
518
519
520
521
522
523
524
525
0
527
528
529
530
0
0
533
534
535
536
537
538
539
540
541
542
543
544
545
546
547
548
0
550
0
552
553
554
555
556
557
558
559
0
561
562
563
564
565
0
0
568
569
570
571
572
573
574
575
576
577
578
0
580
581
582
583
584
585
586
587
588
589
590
591
592
593
594
595
596
597
598
599
0
601
602
603
604
0
606
607
608
609
610
611
612
613
614
615
616
617
618
0
620
0
622
623
624
625
0
627
628
629
630
631
0
633
0
0
0
637
638
639
640
641
0
643
644
645
0
647
648
649
650
651
0
653
654
655
0
657
0
659
660
0
0
663
0
665
0
667
668
669
670
0
0
673
674
675
676
0
0
679
680
681
682
683
684
685
686
687
688
0
0
691
692
693
694
0
0
697
698
699
700
701
702
703
0
705
706
707
708
709
710
711
712
713
0
715
716
717
718
719
0
721
722
723
724
725
726
727
728
729
730
0
732
733
734
735
0
737
738
739
0
741
742
743
744
745
746
0
0
749
0
751
752
753
754
755
756
757
758
759
0
761
762
0
764
765
766
767
768
0
0
771
772
773
774
775
776
777
778
779
780
781
782
783
784
785
0
787
788
789
790
791
792
793
794
795
796
797
0
799
0
801
802
803
804
805
806
807
808
809
810
0
812
813
814
815
816
817
0
819
820
821
822
823
824
825
826
827
828
829
0
0
0
833
834
0
0
837
0
839
840
0
842
843
844
845
846
847
848
849
850
851
852
853
0
855
856
857
858
0
0
861
862
863
864
865
866
867
0
869
870
871
872
873
874
875
0
0
878
879
880
881
882
883
884
885
886
887
888
889
890
891
0
0
894
895
896
897
898
899
900
901
0
903
904
905
906
907
908
0
910
911
912
913
914
915
916
0
918
0
920
921
922
923
924
0
926
927
928
929
930
0
932
0
934
935
936
937
938
939
940
941
942
0
0
945
946
0
0
949
950
951
952
953
954
955
956
957
0
959
960
961
962
963
964
0
0
967
968
969
0
971
972
973
974
975
976
977
978
979
0
981
982
983
984
985
986
0
988
0
0
0
0
993
0
0
0
0
998
999
1000
2
3
4
5
6
7
8
9
10
11
12
13
14
15
0
17
0
19
20
21
22
23
24
0
26
27
28
29
30
0
0
33
34
35
36
37
38
39
0
41
42
43
0
0
46
47
48
49
50
51
52
53
54
0
56
57
58
59
60
61
0
63
0
65
0
67
68
69
70
0
72
73
74
75
0
77
78
0
80
81
82
83
84
85
0
0
88
89
90
91
92
93
0
95
0
97
98
0
100
101
102
103
104
105
106
0
108
0
110
0
112
113
0
115
116
117
118
119
120
121
0
123
124
125
126
127
128
129
130
131
132
133
0
135
136
0
138
0
0
141
0
143
0
0
146
147
0
149
150
0
152
153
154
155
156
157
158
0
160
161
0
0
164
165
166
167
168
169
0
171
172
173
0
175
176
177
178
179
180
181
182
183
184
185
186
187
188
189
190
191
192
193
194
0
196
197
198
199
200
201
202
203
204
205
206
0
0
0
0
211
212
213
214
215
216
0
218
219
220
221
222
223
224
225
226
0
228
0
230
231
232
233
234
235
236
237
238
239
240
241
242
243
244
245
246
247
248
249
250
0
0
253
0
0
256
257
258
259
260
261
262
0
264
265
266
267
268
0
270
271
272
0
274
275
276
277
278
0
280
281
282
283
284
0
0
287
0
0
290
0
292
0
294
295
296
297
298
0
300
301
0
303
304
0
306
0
308
309
310
311
0
313
314
315
316
317
318
319
320
321
322
323
324
0
326
0
328
329
330
331
332
333
334
335
0
0
0
339
0
341
342
343
344
0
346
347
348
349
0
0
352
353
354
355
356
357
358
359
0
361
362
363
0
365
366
367
368
369
370
371
372
0
0
375
0
377
378
379
380
381
382
383
384
385
386
387
0
0
0
391
392
393
0
0
396
0
398
399
400
0
402
403
404
0
0
407
408
409
410
411
412
413
414
415
416
417
418
419
420
421
422
423
424
425
426
427
428
429
430
0
432
433
434
435
436
437
438
439
440
0
0
443
444
0
446
0
448
449
450
451
452
453
454
455
456
457
458
459
460
461
0
463
464
465
0
467
468
469
470
471
472
473
474
475
476
477
478
479
0
481
482
483
484
485
486
487
488
489
490
491
492
493
0
495
496
497
0
0
500
501
502
503
504
0
506
507
508
0
0
511
512
513
514
515
516
0
518
519
520
521
522
523
524
525
526
527
528
0
530
531
532
533
534
535
536
537
538
539
0
541
542
543
544
545
546
547
548
549
550
0
552
553
554
555
556
557
558
559
0
561
562
0
564
565
0
0
568
569
570
571
572
573
574
0
576
0
578
579
580
581
582
583
584
585
586
587
588
589
590
591
592
593
594
595
596
597
598
599
600
601
0
603
604
605
606
607
608
609
610
611
0
613
0
615
616
617
0
0
620
621
622
623
624
625
626
627
628
629
630
631
632
633
0
635
636
637
638
639
640
641
0
643
644
645
0
647
648
649
0
651
0
653
654
655
0
657
0
659
660
661
662
663
0
665
0
667
668
669
670
671
672
673
674
675
676
0
678
679
680
681
0
683
0
685
686
0
688
689
690
691
692
693
0
0
0
697
698
0
700
701
702
703
704
705
706
707
708
709
710
711
712
713
0
715
716
717
718
719
0
721
722
0
724
0
0
727
728
729
730
0
0
733
0
735
0
737
738
739
740
741
742
743
744
745
746
0
0
749
0
751
752
753
754
755
756
757
758
759
0
761
0
0
764
765
766
767
768
769
770
771
772
773
774
775
776
0
778
779
780
781
782
783
784
785
786
787
788
0
790
791
792
793
794
795
796
797
0
799
0
801
802
803
804
805
806
807
808
809
810
811
812
813
814
815
816
817
818
819
820
821
822
823
824
825
826
827
0
0
0
831
832
833
834
0
0
837
0
0
0
0
842
843
844
845
846
847
848
849
850
851
852
853
854
855
856
0
858
0
0
861
862
0
0
0
866
867
868
869
870
871
872
873
874
875
0
877
878
879
880
881
882
883
884
885
886
887
888
889
890
891
892
893
894
895
896
897
898
899
0
901
0
903
0
0
0
907
908
0
910
911
912
913
914
915
916
917
918
919
920
921
922
0
924
0
926
927
928
929
0
0
932
0
934
935
936
937
938
939
940
941
942
0
0
945
946
947
0
949
950
951
952
953
954
955
956
957
0
959
960
961
962
963
964
0
966
967
968
969
0
971
972
973
974
975
976
977
978
979
0
981
0
983
984
985
986
987
988
989
990
0
992
993
994
995
996
997
998
0
1000
0
3
4
5
6
7
8
9
10
11
12
13
14
15
0
17
18
19
20
21
22
0
0
0
26
27
0
0
30
0
0
33
0
35
36
37
38
39
40
0
0
0
0
0
46
47
48
0
0
0
52
53
54
55
56
57
58
59
60
61
0
63
0
0
0
67
68
69
70
0
72
73
74
75
0
77
78
0
80
81
82
83
84
85
86
87
88
89
90
91
92
93
94
95
0
97
98
99
100
101
102
103
104
105
106
0
108
0
0
0
112
113
0
115
116
117
0
0
0
121
0
123
124
125
126
0
128
129
0
131
132
133
0
135
136
137
0
0
0
141
0
143
144
0
146
147
148
149
150
0
152
153
154
155
156
157
158
159
160
161
0
0
164
165
166
167
168
169
0
171
0
173
174
175
176
177
178
0
0
181
182
0
0
185
186
187
188
189
190
191
0
193
194
195
196
197
198
0
0
201
0
203
0
205
206
207
208
209
210
211
212
0
214
215
216
0
218
219
220
221
222
223
224
225
226
227
228
0
230
231
232
233
234
235
236
237
238
239
240
241
242
243
244
245
246
0
248
0
250
251
252
253
254
255
256
0
258
0
260
261
262
263
264
265
266
267
268
269
270
271
272
0
274
275
276
277
278
0
280
0
0
283
284
0
286
287
288
0
290
0
292
293
294
295
296
0
298
299
300
301
302
303
304
0
306
0
308
309
0
311
0
313
314
315
316
317
318
319
320
0
322
323
324
0
326
327
328
0
330
0
332
333
334
335
0
0
0
339
0
341
342
343
344
0
346
347
348
349
350
0
352
353
354
355
0
0
358
359
0
361
0
363
364
365
366
367
368
369
370
371
372
0
374
375
0
377
378
0
380
381
382
383
384
385
386
387
0
0
0
391
392
393
394
395
396
397
398
399
400
401
402
403
404
405
0
407
408
409
410
0
412
413
414
415
416
417
418
0
420
0
422
423
424
425
426
427
428
429
430
0
432
433
0
435
436
437
0
0
440
441
442
443
444
0
446
447
448
0
450
451
452
453
454
455
456
457
458
459
460
461
462
463
464
465
466
467
468
469
0
0
472
473
474
475
476
477
478
0
0
481
482
483
484
485
486
0
488
489
490
0
492
493
0
495
496
497
0
0
500
501
502
503
504
0
506
507
508
509
510
0
512
0
514
515
516
517
518
519
520
521
522
523
524
525
526
527
528
529
530
0
0
533
534
535
536
537
538
539
540
541
542
543
544
545
546
547
548
0
550
0
552
553
554
0
556
0
558
559
0
561
562
0
564
565
0
0
0
569
0
571
572
573
574
0
576
577
578
579
580
581
582
583
584
585
586
0
588
589
590
591
592
593
0
595
596
597
598
599
0
601
0
603
604
605
606
607
608
609
610
611
0
613
614
615
616
617
618
0
620
0
622
623
624
625
626
627
628
629
630
631
0
633
0
0
636
637
638
639
640
641
642
643
644
645
0
647
648
649
0
651
0
653
654
655
0
657
658
659
0
0
0
663
0
665
0
667
668
669
670
0
0
673
674
675
676
677
678
679
680
681
682
683
684
685
0
0
688
689
690
691
692
693
0
695
0
697
698
0
700
0
702
703
704
705
706
707
708
709
710
711
712
713
0
715
716
0
718
719
0
721
722
723
724
725
726
727
728
729
730
731
732
733
734
735
736
737
738
739
740
741
742
0
0
745
746
0
0
749
0
751
752
753
754
755
756
757
758
759
760
761
762
763
764
765
766
767
768
769
770
771
772
773
774
775
776
777
778
779
780
781
782
783
784
785
786
787
788
0
790
791
792
793
794
795
796
797
798
799
800
801
802
803
804
805
806
807
808
809
810
811
812
813
0
0
816
817
818
819
820
821
822
823
824
0
826
827
0
0
0
831
0
833
834
835
0
837
838
839
840
841
842
843
844
845
846
0
848
849
850
851
852
853
0
855
856
0
858
0
860
861
862
863
864
865
866
867
868
869
870
871
872
873
874
875
0
877
878
879
880
881
882
883
884
885
886
887
888
889
890
891
0
0
894
895
896
897
898
0
0
901
0
903
904
905
906
907
908
909
910
911
912
913
0
0
916
917
918
919
0
0
922
0
924
0
926
927
928
929
930
931
932
0
934
935
936
937
938
939
940
941
942
0
944
945
946
947
0
949
950
0
952
0
954
955
0
957
0
959
960
961
962
963
964
0
0
967
968
969
0
971
972
973
974
975
976
977
978
979
0
981
0
983
984
985
986
0
988
0
0
0
0
993
0
0
996
997
998
999
1000
EOF
