DIMENSION : 1000
NUMBER OF ITEMS : 9990

TOUR_SECTION
1
914
207
769
893
634
255
202
57
614
864
40
632
229
192
900
279
876
44
340
360
447
635
704
567
854
49
994
200
510
466
312
321
505
285
373
666
997
896
662
64
76
690
122
499
642
364
18
636
806
600
511
31
575
832
452
686
16
356
140
682
658
734
94
345
479
310
431
368
671
240
441
193
249
331
329
449
172
980
439
208
96
66
210
694
560
786
25
29
835
551
42
714
970
139
979
664
164
917
528
836
672
750
71
652
996
45
621
865
237
594
748
199
763
557
777
800
539
992
811
397
744
325
987
760
120
291
977
650
931
305
991
902
24
389
513
699
395
828
770
434
958
209
142
247
421
661
678
184
577
79
183
414
894
951
130
59
379
859
270
509
602
847
241
879
127
174
163
179
938
480
462
415
50
109
84
955
309
162
660
263
293
107
732
195
418
116
41
307
839
227
90
775
322
273
461
933
401
445
831
689
294
165
351
458
692
863
471
166
517
899
498
282
297
519
442
405
252
254
838
793
119
388
880
736
850
244
159
54
701
288
758
617
55
110
221
271
419
751
966
251
19
999
61
920
929
888
947
912
956
934
983
637
618
915
144
151
121
326
173
357
717
814
440
910
823
338
746
148
394
877
723
731
470
65
890
86
491
239
506
453
487
289
316
334
818
328
3
4
903
569
2
631
691
402
709
628
669
469
710
985
374
380
613
425
799
815
167
599
92
693
626
58
665
1000
936
526
242
553
126
70
341
67
654
962
365
722
489
35
156
950
318
791
377
475
924
176
133
813
12
803
883
643
968
333
887
889
730
676
683
344
809
559
715
9
724
234
185
68
78
606
258
572
508
347
106
922
330
46
483
460
211
53
220
500
609
875
827
36
653
181
716
403
846
171
468
358
522
816
845
272
463
476
370
574
804
233
808
941
735
383
100
371
516
135
772
444
993
954
901
367
73
558
6
851
11
545
497
5
187
754
474
343
323
88
782
805
315
705
303
261
89
464
502
20
375
584
976
504
998
674
897
124
726
137
978
923
860
909
568
529
919
725
503
841
549
362
684
102
286
581
948
118
197
588
327
302
789
563
762
696
34
943
87
134
587
605
478
28
921
281
349
62
982
646
23
905
906
217
158
925
204
427
989
72
47
885
592
788
472
115
400
908
535
486
493
593
844
595
404
168
856
231
14
485
203
611
283
663
451
802
113
69
295
490
216
872
429
129
984
737
833
939
160
10
354
719
481
225
408
849
639
17
399
308
733
530
778
496
412
926
369
870
103
848
969
63
869
753
457
590
700
198
785
313
298
22
630
801
201
361
721
413
932
670
218
616
837
975
278
39
928
175
33
359
456
437
525
274
752
867
622
573
410
482
589
881
911
927
212
790
267
7
761
873
13
189
537
554
473
843
820
668
128
246
105
675
647
580
866
586
795
223
432
430
215
276
450
507
895
961
706
132
147
739
812
191
861
353
352
596
230
311
93
56
465
564
946
891
95
742
552
765
913
918
363
607
60
436
131
101
578
454
91
265
38
963
972
222
973
707
794
853
214
783
667
161
301
477
75
638
232
523
583
685
945
712
194
768
264
597
779
146
82
304
713
764
342
518
306
792
423
766
424
235
188
949
393
346
645
598
515
224
771
206
382
981
381
177
37
548
26
784
957
673
546
810
698
697
520
123
807
426
15
543
960
627
277
108
81
319
834
8
27
501
284
446
48
898
335
565
536
492
157
407
228
874
455
433
448
988
332
773
542
443
366
759
745
97
317
143
355
416
74
774
417
550
916
780
749
571
488
459
708
392
435
384
219
484
644
729
649
541
205
623
378
787
629
959
495
467
253
169
852
603
245
781
907
125
290
98
153
824
986
585
533
776
942
262
702
320
409
275
937
52
80
591
178
822
755
296
268
420
30
104
738
703
243
547
112
878
396
117
657
576
287
826
398
314
604
236
886
648
862
339
238
154
767
625
718
640
387
964
182
842
679
882
266
741
386
562
256
655
514
544
150
190
727
512
610
561
858
292
952
797
620
884
601
260
152
651
280
688
141
681
641
155
428
711
796
819
974
821
391
855
149
226
935
680
756
720
170
337
566
840
111
619
556
527
582
540
390
186
570
990
531
336
376
579
269
257
51
940
114
868
695
612
904
743
83
944
995
677
740
99
965
411
350
138
213
656
687
494
857
798
32
555
259
438
406
953
747
145
532
43
930
299
180
829
830
538
892
825
248
422
659
871
21
250
624
608
196
633
521
348
967
372
615
85
136
534
524
385
757
971
77
300
324
728
817

PP_SECTION
0
3
0
5
6
7
0
9
10
11
12
13
14
15
0
17
0
0
20
21
0
0
0
25
26
27
28
29
0
0
32
33
0
0
36
0
38
39
0
41
0
43
44
0
46
47
48
0
0
51
52
53
0
0
56
57
0
59
60
61
62
63
0
65
0
67
68
69
70
71
72
73
74
0
0
77
0
0
80
81
82
83
84
85
0
87
0
0
90
91
92
93
94
95
96
97
98
99
100
0
102
0
104
0
0
0
108
0
0
111
112
113
114
0
0
117
0
119
120
121
122
123
124
125
0
0
128
129
130
131
132
0
134
135
136
0
138
0
140
141
142
143
0
145
146
147
148
149
150
0
152
0
154
155
156
157
158
159
160
0
0
163
164
0
166
0
168
169
170
171
0
173
0
175
0
0
178
0
180
181
0
0
184
185
0
0
188
189
190
191
192
0
194
195
0
197
198
0
0
201
202
203
204
205
206
0
208
0
0
0
212
213
214
215
216
217
218
0
0
0
222
223
224
0
226
227
0
0
230
231
232
0
234
235
236
0
238
239
240
0
0
243
244
245
246
0
248
249
250
0
252
0
0
0
256
257
0
259
260
261
0
0
264
265
266
267
268
269
270
0
0
273
0
275
0
0
278
279
280
0
282
0
284
0
286
287
288
0
290
0
292
293
294
295
296
297
0
299
300
0
302
0
304
0
0
0
308
309
310
311
0
313
314
315
0
0
318
0
320
321
322
0
324
325
0
0
0
329
330
0
332
333
334
335
336
337
0
0
340
341
342
343
344
0
346
347
348
349
350
0
352
353
0
355
0
0
0
0
360
361
362
363
0
365
366
367
0
0
370
0
372
373
0
0
376
0
378
379
380
381
382
383
0
385
386
387
388
0
390
391
392
393
394
395
0
0
0
0
0
0
0
403
0
405
406
407
408
0
0
411
0
413
0
0
416
417
0
419
420
421
422
423
424
425
426
427
428
429
430
431
0
433
0
435
436
437
0
439
440
441
0
443
444
0
446
447
448
449
0
0
0
0
454
455
456
457
0
459
0
0
0
0
0
0
466
467
468
0
0
471
472
0
474
0
476
477
0
0
0
481
482
483
484
485
486
0
488
489
0
491
0
0
494
495
0
497
0
499
500
0
0
0
0
0
506
507
508
0
0
511
0
513
514
515
0
0
518
519
520
521
522
0
524
0
526
527
528
529
530
531
532
533
534
535
536
537
0
0
540
541
542
543
544
0
546
547
0
549
550
551
552
0
554
555
556
0
0
559
0
561
562
0
0
565
566
0
568
569
570
571
0
573
0
575
0
0
0
579
580
581
582
583
0
585
586
0
0
589
0
591
0
593
0
0
596
597
598
0
600
601
0
603
604
605
0
607
608
0
610
611
612
0
0
615
0
0
0
619
0
621
622
623
624
625
626
627
0
629
630
631
0
0
0
635
636
637
638
639
640
641
0
0
644
0
646
0
0
649
650
651
0
0
654
655
656
0
658
659
660
661
662
663
664
0
0
667
0
0
0
0
672
673
674
0
0
677
678
679
680
681
682
0
0
685
686
687
688
689
690
0
0
693
694
695
0
697
698
0
0
0
0
703
704
705
706
707
708
0
0
711
712
0
0
715
0
0
718
719
720
721
0
723
724
725
726
727
728
729
730
731
732
733
0
735
736
0
0
739
740
0
742
743
744
745
0
747
748
749
0
751
752
0
0
755
756
757
758
759
760
0
0
0
764
765
766
0
768
769
770
771
772
773
774
0
776
0
0
779
780
781
782
783
0
0
786
0
0
0
790
0
792
0
794
795
796
797
798
799
800
0
802
803
0
0
806
0
808
809
810
811
812
813
0
815
0
817
818
819
820
821
822
823
824
825
826
827
0
0
830
831
0
0
834
835
836
0
0
839
840
841
0
843
0
0
846
0
0
0
0
0
852
853
0
855
856
857
858
859
0
0
862
863
0
865
866
867
868
869
0
871
872
0
874
0
0
0
878
879
880
0
882
883
0
885
886
887
0
889
890
891
892
0
894
0
896
897
898
899
900
901
0
0
904
905
906
907
0
909
910
911
912
913
0
915
916
0
918
919
920
921
0
923
924
0
926
927
0
929
930
0
932
933
934
935
0
937
0
0
940
941
942
943
944
945
946
947
948
949
950
951
0
953
954
0
0
957
0
959
960
0
0
963
964
965
0
967
968
0
970
971
972
0
974
975
976
977
978
979
0
0
982
983
0
985
986
0
988
0
990
0
0
0
0
995
0
0
0
0
0
2
3
0
0
6
0
8
9
10
11
0
0
0
15
16
17
0
19
20
21
22
23
24
0
26
27
0
29
30
31
32
33
34
0
0
37
0
39
40
41
0
43
0
45
0
47
0
0
0
51
52
53
54
0
56
57
58
0
60
0
62
63
64
0
66
67
0
69
70
71
72
73
74
75
76
77
0
0
80
81
82
83
0
85
86
87
88
89
0
91
92
93
0
0
96
0
98
99
0
101
102
0
104
0
0
0
108
109
0
111
112
113
114
115
116
117
118
0
0
0
0
0
124
125
0
127
0
129
0
131
132
0
134
135
136
0
138
139
140
141
142
143
144
145
146
147
0
149
150
151
152
153
154
155
156
0
0
159
0
161
0
0
164
165
0
167
168
169
170
171
0
173
0
175
0
0
178
179
180
181
182
183
0
0
186
0
188
0
0
0
0
193
194
0
196
197
198
0
200
201
0
203
0
205
206
0
208
0
210
0
0
0
214
0
216
0
218
219
0
221
222
0
224
0
226
227
228
229
230
0
0
0
234
235
236
0
0
239
0
241
242
243
244
0
246
0
248
0
250
251
252
253
254
255
256
257
0
259
260
0
0
0
264
0
266
0
268
269
270
271
272
0
0
275
0
277
278
279
280
281
0
283
284
0
0
287
288
289
290
0
292
293
0
295
296
0
298
299
300
0
302
303
304
305
306
0
0
309
0
311
0
313
0
315
0
317
318
319
320
0
0
0
324
325
326
0
0
0
330
0
332
333
0
0
336
337
338
339
340
341
342
343
0
0
346
347
348
349
350
0
0
353
354
355
0
0
358
0
360
361
362
363
0
365
366
0
0
0
0
371
372
0
0
375
376
0
378
379
380
381
382
383
384
385
386
387
388
0
0
391
392
393
394
0
396
397
398
399
400
0
402
403
0
0
406
407
408
409
0
411
412
413
0
415
416
417
418
419
0
421
422
423
424
0
426
0
428
0
0
431
432
433
434
435
436
0
438
439
0
0
442
443
444
0
446
447
448
449
450
451
452
453
454
455
0
0
0
459
460
461
0
463
0
0
0
467
468
469
470
471
472
473
0
475
476
477
478
0
0
481
482
0
484
0
486
487
488
0
490
0
492
493
494
495
0
0
498
499
500
501
0
0
504
505
506
507
508
509
510
511
512
513
514
0
516
517
0
519
0
521
522
0
524
525
526
527
0
0
530
531
0
533
534
0
536
537
0
0
540
541
542
0
544
545
546
547
0
549
550
551
552
0
554
0
556
0
0
0
560
561
0
563
564
0
0
0
568
569
570
571
572
573
574
575
576
577
578
579
0
581
582
583
584
0
586
587
0
589
590
591
592
0
594
0
596
597
0
0
600
601
602
603
604
605
0
607
608
609
610
611
612
0
0
615
0
0
618
619
620
0
0
0
624
625
626
627
628
629
630
0
0
633
0
635
0
637
638
639
640
641
0
643
0
645
646
0
648
0
0
651
652
0
0
655
656
0
658
659
0
661
662
663
664
0
0
667
0
669
0
671
672
673
674
675
0
677
0
679
680
681
0
0
684
0
686
687
688
0
690
0
692
0
694
695
0
697
698
699
700
0
702
0
0
705
0
707
708
709
710
711
712
713
714
715
0
717
0
719
720
721
722
0
724
725
726
727
728
729
0
731
0
733
734
735
736
737
738
739
740
0
0
743
0
745
0
747
748
749
0
0
0
753
0
755
756
757
758
759
0
761
762
0
0
765
766
767
768
0
0
0
772
0
774
775
776
0
778
779
780
781
0
0
0
0
0
787
788
789
0
0
792
0
794
795
0
797
798
0
800
801
0
0
0
0
806
807
0
0
810
811
812
813
0
815
816
817
0
819
820
821
822
823
824
825
826
827
828
829
830
831
0
833
0
835
0
837
838
0
840
841
842
843
844
845
846
0
848
849
850
0
852
853
854
0
856
0
0
0
860
0
862
0
0
865
866
867
868
869
870
871
872
873
0
0
876
877
878
0
880
881
882
0
884
885
886
887
888
889
890
891
892
893
894
895
896
897
898
899
0
901
902
903
904
905
906
907
908
909
0
911
0
0
914
915
916
0
918
919
920
921
922
0
0
925
926
927
928
0
930
0
0
0
0
935
0
937
0
939
940
0
0
943
944
0
946
0
948
949
950
951
952
953
954
955
956
957
958
0
960
961
962
963
964
965
0
967
0
0
970
971
972
973
974
975
976
0
978
979
0
981
982
983
0
985
986
0
988
989
990
0
992
993
0
995
0
0
0
0
0
2
3
4
5
6
7
8
9
10
11
0
13
14
15
0
0
18
19
20
21
22
0
24
25
26
27
28
29
30
0
32
0
34
35
36
37
38
0
0
41
0
43
0
0
0
47
48
0
50
0
52
53
0
0
56
0
0
0
60
61
0
63
0
65
0
67
68
0
0
0
72
73
74
75
0
77
0
79
80
0
0
83
84
85
86
87
88
89
0
0
92
93
94
95
96
97
98
99
0
101
102
103
104
105
0
0
0
109
110
111
112
113
114
115
116
117
0
119
0
121
122
123
0
0
126
0
128
129
0
0
132
0
0
0
136
0
138
0
140
141
0
143
144
0
146
0
148
149
150
151
152
0
154
155
0
157
0
159
0
0
0
163
0
165
166
167
0
169
170
171
0
0
174
0
176
0
0
179
180
181
182
183
184
0
186
187
188
189
190
0
0
0
194
0
196
0
0
0
200
201
0
0
204
0
206
0
0
209
210
211
212
213
0
215
0
0
218
219
0
0
222
223
224
0
226
0
228
229
230
0
232
233
234
235
0
0
238
0
240
241
242
243
0
245
0
247
248
249
250
251
252
253
254
0
256
257
0
0
260
0
262
263
264
265
266
0
268
269
270
0
272
0
0
275
0
277
0
0
280
0
282
0
0
0
0
287
288
0
290
291
292
0
0
0
296
297
298
299
300
301
302
303
0
0
306
0
308
309
0
311
0
313
314
0
316
317
318
0
320
321
322
323
324
325
0
327
0
0
330
0
332
333
0
335
336
337
338
339
340
341
342
343
344
345
346
347
348
349
350
351
352
353
354
0
356
0
358
0
360
0
0
363
364
365
366
367
0
369
0
371
372
0
374
375
376
0
378
0
380
381
382
0
384
385
386
387
0
0
390
391
392
393
0
0
0
397
398
0
0
0
402
403
404
0
406
407
408
409
410
411
412
0
414
415
416
0
418
419
420
0
422
423
424
0
426
427
428
429
430
0
432
433
0
435
0
437
438
0
0
0
442
443
444
445
446
447
448
0
450
451
452
453
454
455
456
457
0
459
460
461
0
463
464
0
0
0
468
469
0
471
0
473
474
0
0
477
478
0
480
481
0
0
484
0
0
0
488
489
0
0
0
0
494
495
496
497
498
0
500
501
0
503
504
0
506
0
508
509
0
511
512
0
514
0
516
517
518
0
520
521
522
523
524
525
0
0
0
529
530
531
532
533
534
0
536
537
538
539
540
0
0
543
544
545
546
547
548
0
550
551
552
553
554
555
556
557
0
559
0
561
562
563
0
565
566
567
568
569
570
571
0
573
574
575
0
577
578
579
580
0
582
0
0
0
586
0
588
589
590
591
592
593
594
595
0
597
598
0
600
0
602
603
604
605
606
607
608
0
610
0
612
613
0
615
616
0
0
619
620
0
622
0
624
0
626
0
628
629
630
0
0
633
0
635
636
637
0
0
640
641
0
0
644
0
0
0
648
649
650
651
652
653
654
655
656
0
658
659
660
0
662
663
664
0
666
667
668
0
0
671
0
0
674
675
0
677
678
679
0
681
0
0
684
0
0
687
688
689
0
691
692
0
694
695
696
697
698
0
700
0
0
703
704
705
706
707
708
709
0
711
0
0
0
715
716
717
0
719
720
0
722
723
0
0
726
727
728
0
730
731
0
0
734
0
0
0
738
739
740
741
742
743
744
745
0
0
0
0
750
751
752
0
0
0
756
757
758
759
760
761
762
763
764
765
0
767
768
769
770
771
0
773
774
0
776
0
0
779
0
781
782
783
784
785
0
0
0
789
790
0
792
793
794
795
796
797
798
0
800
801
802
803
0
805
806
807
0
0
810
811
0
813
814
815
816
817
0
819
820
821
0
823
824
825
826
0
0
829
830
0
832
833
0
835
0
837
838
839
840
841
842
843
0
845
846
0
0
849
850
0
852
853
854
855
856
857
858
0
860
861
0
863
864
0
866
0
868
869
870
871
872
0
0
875
876
0
0
0
880
0
0
0
884
0
886
887
888
0
0
0
892
893
894
895
0
897
898
899
900
901
902
903
904
905
906
907
0
0
0
911
912
0
914
0
916
0
918
919
0
921
922
923
924
0
0
927
928
929
930
0
932
933
934
935
0
937
0
939
940
0
942
943
944
945
0
0
0
949
0
0
0
953
0
0
0
957
958
959
960
0
962
963
964
965
0
967
0
969
0
971
972
973
974
975
0
0
978
0
0
981
982
0
984
985
986
987
988
989
990
0
992
993
0
995
0
0
998
999
0
0
0
0
5
0
7
8
0
10
11
12
13
14
15
0
0
0
19
20
21
0
0
0
25
26
27
28
29
30
0
32
33
34
35
0
0
38
0
0
41
0
43
0
45
0
47
48
0
0
51
52
0
54
55
56
57
0
59
60
0
0
63
0
0
66
67
68
69
0
0
72
73
0
75
76
77
0
0
80
81
0
83
0
0
0
87
0
89
90
0
0
93
0
95
96
97
0
99
100
101
102
103
104
105
0
0
0
109
110
111
112
0
114
115
116
117
118
119
0
121
0
123
124
0
126
0
0
129
130
131
132
133
134
0
136
137
138
0
0
141
0
143
0
145
0
147
0
149
150
151
152
0
0
155
156
157
0
159
160
0
0
0
0
0
166
167
0
0
170
0
172
173
174
175
0
177
178
0
180
181
182
0
0
0
186
0
188
0
0
191
0
0
194
0
196
197
0
0
0
201
0
203
204
205
0
207
0
0
0
211
0
213
214
215
216
217
218
219
0
221
222
223
224
225
226
0
228
229
0
231
232
0
0
235
236
237
238
0
240
0
242
243
244
245
246
247
248
0
250
0
0
253
254
255
256
257
258
0
0
261
0
263
264
265
266
267
268
269
0
271
0
273
274
275
276
277
0
0
280
281
0
283
0
0
286
287
288
289
290
291
292
293
294
295
296
0
298
299
300
0
302
303
304
0
306
307
0
0
310
0
312
313
314
0
0
317
0
319
320
321
322
323
324
0
326
327
0
329
0
331
0
0
0
335
336
0
338
339
0
341
342
343
0
345
346
0
348
349
350
0
352
0
354
355
0
0
0
359
360
0
362
363
364
0
366
0
0
369
0
371
372
373
0
375
376
377
378
0
0
381
382
0
384
385
386
387
388
0
390
0
392
0
0
0
396
0
398
0
0
401
402
0
404
405
406
407
0
409
410
411
412
0
414
0
0
417
418
419
420
421
422
423
424
425
426
427
428
0
430
431
432
433
0
435
436
437
438
0
0
0
442
0
444
445
446
0
448
0
450
0
0
0
454
0
0
457
0
459
0
461
462
463
464
465
466
467
468
0
0
471
472
473
0
0
0
477
478
0
480
481
482
483
484
485
486
487
488
489
490
0
492
493
494
495
0
497
0
0
0
501
502
503
504
0
506
0
508
509
0
511
512
513
0
515
0
0
518
0
520
0
522
523
524
0
526
527
528
0
0
0
532
0
534
535
536
537
538
539
540
541
542
543
544
545
0
547
548
549
0
551
552
0
554
555
556
0
558
559
0
561
562
563
564
565
566
567
568
569
0
571
572
573
574
0
576
0
578
579
580
0
582
583
584
585
586
587
588
0
590
591
592
0
0
595
0
0
598
0
0
601
0
0
604
605
606
607
608
609
610
611
0
0
0
0
0
0
0
619
620
0
622
623
624
625
0
627
628
629
630
631
0
633
0
635
636
0
638
639
640
641
0
643
644
645
0
647
0
0
650
651
0
0
654
655
656
657
658
659
0
0
0
663
664
0
666
667
0
669
670
671
672
673
674
675
676
677
0
679
680
681
682
0
0
685
686
687
688
0
690
691
692
0
694
695
0
697
698
0
700
0
702
703
704
705
706
707
0
0
710
711
712
713
714
0
0
0
718
719
720
0
722
0
724
725
726
727
728
729
730
0
732
0
734
735
736
0
738
739
740
741
0
743
0
745
746
747
748
749
0
751
752
0
754
0
756
757
0
759
0
761
762
0
0
765
766
0
768
0
770
771
772
773
774
0
776
0
778
0
780
781
782
0
0
0
0
787
788
789
790
791
792
793
0
795
796
0
798
0
0
0
802
0
804
0
806
0
0
809
810
0
812
0
814
815
816
817
818
819
820
821
822
0
824
825
826
827
0
829
830
831
0
833
834
0
836
837
838
839
840
0
842
0
844
0
0
0
848
0
850
851
0
0
854
855
856
857
858
859
860
861
862
0
0
0
0
0
868
869
870
871
872
873
874
875
0
877
878
879
0
0
882
883
884
885
886
887
888
889
0
891
892
893
894
895
0
897
898
899
900
901
902
903
904
0
906
907
908
0
910
911
0
0
914
0
916
0
918
0
920
921
0
923
924
925
926
0
928
0
930
0
932
0
934
935
0
0
938
939
940
941
942
0
944
0
946
0
948
949
0
951
952
953
0
955
0
0
958
959
0
961
962
963
964
965
966
967
0
969
0
971
972
973
974
975
0
977
0
0
0
0
982
983
984
0
986
0
988
0
990
991
992
993
0
995
0
997
0
999
0
0
0
0
5
6
7
8
0
10
11
0
0
14
15
16
0
18
0
0
21
0
23
0
25
26
27
28
0
30
0
32
33
34
0
0
37
0
39
40
0
42
43
44
45
46
0
48
49
0
0
0
0
54
55
0
57
58
0
60
0
0
63
64
0
66
0
68
69
0
71
0
0
74
75
0
77
0
79
80
81
82
83
84
0
0
87
88
89
90
91
92
0
0
95
96
0
98
99
100
0
0
0
0
105
0
107
108
109
110
111
112
113
114
0
0
117
0
119
0
121
0
0
0
125
126
0
128
0
0
131
132
0
134
135
136
137
138
0
140
0
0
143
144
145
146
147
0
149
150
151
152
153
154
155
156
157
0
0
160
161
162
163
0
0
0
167
168
169
170
171
0
0
0
175
176
177
178
179
180
0
182
183
184
185
0
187
188
189
190
191
0
0
194
195
196
197
0
0
200
0
0
0
0
205
206
0
0
0
0
0
212
213
214
215
0
0
218
219
220
221
222
0
224
225
226
0
228
0
0
231
232
0
234
235
236
0
0
239
0
241
242
243
0
245
0
0
248
249
250
0
0
253
254
0
256
257
258
259
0
261
262
263
264
265
266
0
0
269
0
271
0
273
274
0
276
277
278
279
280
281
282
0
284
0
286
287
288
289
290
291
292
293
0
295
296
0
298
299
300
301
0
303
304
0
306
0
0
309
310
311
312
313
314
0
316
317
318
319
320
0
0
0
324
325
326
327
0
0
330
0
332
333
334
335
336
337
0
339
0
0
0
0
0
345
346
347
348
349
350
351
352
353
0
0
0
357
0
359
0
361
362
363
364
365
366
367
368
369
370
371
372
373
0
375
376
0
0
0
380
381
382
383
384
385
386
387
0
0
390
391
392
393
394
395
396
397
398
0
400
401
402
403
0
405
406
407
0
409
410
411
0
413
0
0
0
0
0
0
420
0
422
423
424
0
426
427
0
0
430
431
0
433
434
435
436
437
438
0
0
441
0
0
0
0
446
0
448
449
450
451
0
0
0
455
456
0
458
459
460
0
0
0
464
0
466
0
468
469
470
0
472
473
474
475
476
477
478
479
0
481
482
0
484
485
0
0
488
489
0
491
492
493
494
495
496
0
498
499
0
501
502
0
504
505
0
507
508
509
510
511
512
0
514
515
0
517
518
0
0
521
522
523
524
525
526
527
528
0
0
531
532
0
534
535
536
537
538
0
540
541
542
0
544
545
546
547
548
549
550
0
552
553
554
0
556
557
0
559
560
561
562
0
0
565
0
567
568
0
570
571
0
573
574
575
0
577
578
579
0
0
582
583
584
585
0
0
588
589
590
591
592
0
0
595
0
597
598
0
600
601
602
0
0
605
606
0
608
0
610
611
0
613
0
615
0
0
0
619
620
621
622
623
624
625
626
0
0
629
0
0
0
633
0
635
0
637
638
639
640
0
0
0
644
645
646
647
648
649
0
0
0
653
0
655
656
657
0
0
660
661
0
663
0
0
0
0
0
669
0
671
672
673
674
675
676
677
678
0
680
681
0
0
684
685
0
687
688
689
0
691
0
693
694
695
0
697
698
699
0
0
702
703
704
705
706
0
708
0
0
711
0
713
714
0
716
0
718
719
720
721
722
0
724
725
0
0
728
729
0
731
0
733
0
0
0
0
738
0
740
741
742
743
744
745
746
747
748
749
0
751
752
753
754
755
756
757
0
0
760
0
762
763
0
765
0
767
768
0
770
771
772
773
774
0
776
777
0
779
780
781
782
783
784
0
786
787
788
0
790
0
792
793
794
795
796
797
798
799
800
801
802
803
0
805
806
807
808
809
0
0
812
0
814
815
0
817
818
819
0
821
822
823
824
0
826
0
828
829
830
0
832
833
834
0
836
837
838
0
840
841
0
843
844
0
846
0
848
849
850
851
0
853
0
855
856
857
858
859
0
861
862
863
864
0
0
867
868
0
0
871
872
0
874
0
0
877
878
0
0
881
882
0
884
0
886
887
888
889
890
891
892
893
894
895
0
897
898
899
900
901
0
0
0
905
906
907
908
909
910
911
0
913
0
915
916
0
918
919
920
0
922
923
924
925
926
927
928
0
930
0
0
933
0
935
0
937
938
939
940
0
942
943
0
945
946
947
0
0
950
951
952
0
954
955
0
0
958
959
960
0
962
963
964
965
966
967
968
969
970
971
972
973
974
975
976
977
0
0
980
981
0
983
984
985
0
0
988
989
990
0
992
993
994
995
0
0
998
0
1000
2
3
0
0
0
7
0
0
10
11
12
13
14
15
16
17
0
0
20
21
22
0
0
0
26
27
0
29
30
0
32
33
0
0
36
37
0
39
40
0
0
43
0
0
0
47
48
0
50
51
52
0
0
0
56
0
58
59
60
61
62
0
0
0
66
0
0
69
70
71
72
73
0
0
0
77
0
0
0
81
82
83
84
0
86
0
88
0
90
91
92
93
0
0
0
97
98
99
100
101
102
103
104
105
0
107
108
109
0
111
112
113
114
115
0
117
0
0
120
0
122
123
0
125
126
0
128
129
130
0
132
133
134
135
136
137
138
0
0
141
142
143
144
145
146
147
0
149
150
151
152
153
154
155
156
157
0
0
160
161
0
163
0
0
166
167
168
0
170
171
172
173
0
175
176
177
178
179
180
181
0
0
184
0
186
187
188
0
190
191
0
0
194
195
196
0
0
0
200
0
202
203
0
205
0
207
208
209
0
0
212
213
214
215
216
0
218
219
220
221
222
223
224
0
226
227
228
0
0
231
232
0
0
235
236
0
238
0
240
241
242
0
0
245
246
247
0
249
250
0
0
0
0
255
0
257
258
259
260
0
262
0
264
265
0
267
268
269
0
271
272
0
274
0
276
277
278
0
280
281
282
0
284
0
0
287
288
289
290
0
292
0
0
0
296
297
0
299
300
301
0
303
0
0
0
307
308
309
310
311
0
0
314
0
0
317
0
0
320
0
0
323
324
325
0
0
328
329
330
0
332
333
0
0
336
337
0
339
0
341
342
343
344
0
346
347
348
349
350
351
352
353
354
355
356
357
358
0
360
361
0
363
364
365
366
367
0
369
0
371
372
373
374
0
376
0
378
379
0
0
382
383
384
385
386
0
388
389
390
391
392
393
394
395
396
397
398
399
0
401
402
403
404
0
406
0
408
409
410
411
0
413
0
415
0
417
418
0
420
421
422
0
424
425
0
0
428
429
430
431
0
433
434
435
436
437
438
439
0
441
0
443
444
445
0
447
448
449
450
0
0
453
454
455
0
0
0
459
460
461
462
463
0
465
466
467
468
469
0
0
472
473
474
0
0
0
478
479
0
0
482
0
484
485
0
487
488
0
490
0
0
493
494
0
496
497
498
0
0
0
502
503
0
505
0
0
508
509
510
0
512
0
514
515
516
0
518
519
520
521
522
0
524
0
526
527
528
0
530
0
532
533
534
0
536
537
538
0
540
541
542
543
544
545
0
547
0
0
550
551
552
0
554
555
556
557
0
559
0
0
562
0
0
565
566
567
0
0
570
571
572
573
0
575
576
577
0
579
580
581
0
583
584
585
0
587
588
0
0
591
592
593
594
595
596
597
0
0
0
601
602
603
604
605
0
607
608
609
610
611
612
613
0
615
0
617
0
0
620
621
622
623
0
625
626
627
628
0
630
631
0
633
634
0
0
0
638
639
640
641
0
643
644
645
646
647
648
0
650
651
0
653
654
655
656
657
0
659
0
661
662
0
0
665
0
667
668
669
670
0
0
673
0
675
676
677
678
679
0
0
682
0
0
685
0
687
688
689
690
0
0
0
694
0
0
697
698
699
700
0
702
703
704
0
706
0
708
0
0
711
712
713
0
0
0
0
718
719
720
721
0
723
724
0
726
0
728
729
0
731
0
733
734
0
736
737
738
0
740
741
742
743
744
745
0
747
748
749
750
751
752
753
0
755
756
757
0
759
0
761
0
763
764
765
0
767
768
0
770
771
0
773
0
775
776
0
778
779
780
0
782
783
784
0
0
787
788
789
790
0
792
0
794
795
0
797
798
799
0
801
802
803
804
805
806
807
808
0
810
0
812
813
814
815
816
817
0
819
0
821
0
0
824
825
826
0
0
829
830
0
832
833
834
835
836
0
838
839
840
841
842
843
844
845
846
0
848
0
850
851
852
853
854
855
0
857
858
859
0
0
862
863
0
865
866
867
868
0
870
871
872
873
874
0
876
0
878
879
0
0
882
0
884
0
886
0
0
889
0
891
892
0
0
895
896
0
898
0
0
0
902
0
904
905
906
907
908
909
0
0
0
0
914
915
916
0
0
919
920
0
922
923
0
925
926
927
0
929
930
0
932
933
934
935
0
937
938
939
940
0
942
943
944
945
946
947
948
949
950
951
952
953
954
955
0
957
958
959
960
0
0
963
964
965
966
967
968
0
970
971
972
0
974
0
976
0
0
979
980
0
0
983
984
985
986
0
988
0
990
991
992
993
994
995
0
997
0
999
0
0
3
0
0
0
7
8
0
10
0
0
13
0
0
0
17
18
19
20
21
22
23
0
0
26
27
28
0
30
0
32
33
34
35
0
37
38
39
40
41
0
43
0
0
46
47
0
49
50
51
52
0
0
0
0
57
58
59
0
0
62
63
64
0
0
0
68
0
70
0
0
73
0
75
0
77
0
0
80
81
82
83
0
85
0
87
88
89
0
0
92
93
0
95
96
97
98
99
100
101
0
0
104
105
0
107
108
109
110
111
112
113
114
115
0
117
118
119
0
121
0
0
0
125
126
127
0
0
0
0
132
133
134
135
136
137
138
0
140
141
0
0
144
145
146
147
0
0
150
0
152
153
0
155
156
157
158
0
160
161
0
163
164
165
166
167
168
169
170
0
172
0
174
0
176
177
0
179
180
181
182
0
184
185
186
187
188
189
190
191
0
193
194
195
196
197
198
199
0
201
0
0
0
205
0
0
208
0
0
211
212
213
214
215
216
217
0
219
220
0
222
0
224
225
226
0
228
229
230
231
232
0
0
0
0
237
0
239
240
0
242
243
244
245
246
247
248
0
250
251
0
253
0
0
256
257
0
259
260
0
262
263
264
0
0
267
268
269
270
271
272
0
0
275
0
277
0
0
0
281
0
0
284
0
0
287
288
0
290
0
292
293
0
0
0
297
298
299
300
301
302
303
304
305
306
307
308
0
310
0
0
313
314
315
0
317
0
319
320
321
0
0
324
325
326
0
0
329
0
0
332
333
0
335
336
337
338
339
340
341
342
343
344
0
346
347
348
349
350
351
352
353
354
355
0
0
0
359
360
0
362
0
364
365
366
0
0
369
0
371
372
373
0
375
376
377
378
0
0
381
382
0
384
385
0
387
388
389
390
391
0
393
0
395
396
397
398
0
400
0
0
0
404
0
406
0
408
409
410
0
412
413
0
415
0
417
418
419
0
0
422
423
424
425
426
0
428
0
430
0
432
433
434
435
0
437
438
439
0
0
0
443
444
0
446
447
448
449
450
0
452
0
0
0
0
0
458
459
460
461
462
463
464
465
466
467
0
0
470
0
0
473
0
475
476
477
478
479
480
481
482
483
484
485
486
0
488
489
490
0
492
0
494
495
496
497
0
0
0
501
502
0
504
0
0
507
0
509
510
0
512
0
514
0
516
517
518
0
520
521
522
523
524
525
526
527
528
0
530
0
532
533
534
535
536
0
538
539
540
541
542
0
544
0
0
0
0
549
550
0
552
553
554
555
556
0
558
0
560
561
562
0
564
565
566
567
0
569
0
571
572
0
0
0
0
577
578
579
580
581
582
583
0
0
586
587
0
589
0
591
592
593
594
595
596
597
598
0
0
601
602
603
604
0
606
0
608
609
610
611
0
0
0
615
616
617
0
0
620
621
622
623
624
625
626
627
628
629
0
0
632
633
634
0
0
0
0
639
640
641
642
0
0
0
646
647
648
649
650
651
652
653
0
655
656
657
0
659
0
661
0
0
664
0
666
667
668
0
670
671
0
673
0
675
676
677
0
679
680
681
682
0
684
685
686
687
688
0
0
0
692
0
694
695
696
697
698
699
700
701
702
703
0
705
0
707
708
709
710
711
712
713
0
0
716
717
718
719
720
0
722
0
0
0
0
727
728
0
0
731
0
733
0
735
0
0
738
739
740
741
0
743
0
745
746
747
0
0
0
751
752
753
754
755
756
757
0
759
0
0
762
763
0
765
766
767
768
0
770
771
772
773
774
0
776
777
0
779
780
781
0
783
784
785
0
787
0
0
0
0
792
0
794
795
796
797
798
799
0
0
802
803
0
805
0
807
808
0
810
811
812
813
814
815
816
817
0
819
820
821
822
0
824
825
826
827
0
829
830
831
832
833
834
835
0
837
0
839
840
841
842
0
844
845
0
0
0
849
850
0
852
853
0
855
856
857
858
0
0
0
0
863
864
865
866
867
868
869
870
871
872
0
874
0
876
0
878
0
0
881
882
0
884
885
886
887
888
889
0
0
892
0
894
0
0
897
898
899
900
901
902
903
904
905
906
907
908
909
910
911
0
913
0
915
0
0
918
919
920
921
0
923
924
925
926
0
928
929
930
0
932
0
934
935
936
937
0
939
940
941
942
943
944
945
946
947
948
949
0
951
952
953
954
0
956
957
0
959
960
0
0
963
964
965
0
967
968
969
970
971
0
973
974
975
976
0
978
979
0
981
982
983
984
0
0
987
988
989
990
991
0
993
994
0
996
997
998
0
1000
2
3
4
5
0
0
8
9
0
0
12
13
14
15
0
17
0
19
0
0
0
23
24
0
26
27
0
0
30
31
32
33
0
0
36
37
38
0
0
0
42
43
44
45
46
47
0
49
0
51
52
53
54
55
56
57
0
59
60
0
62
0
0
65
66
67
0
69
70
0
72
73
74
75
0
77
0
79
80
81
82
83
0
85
86
87
0
89
0
0
92
0
94
95
0
97
98
99
0
101
0
0
104
0
106
0
108
0
0
111
112
113
0
0
116
0
0
0
0
0
122
0
124
125
126
127
128
129
0
131
0
133
134
135
136
0
0
0
0
141
0
143
144
145
146
147
0
149
150
151
152
153
154
155
156
157
158
159
160
161
162
163
0
165
166
0
0
0
170
0
172
0
0
175
0
177
0
179
180
181
0
183
0
185
186
187
188
0
190
0
192
0
0
195
196
197
0
0
0
0
202
0
204
205
206
0
0
0
0
0
212
213
214
0
0
0
218
219
0
0
222
223
0
225
226
0
228
229
230
231
0
233
0
0
236
0
0
239
240
0
242
243
244
245
246
247
248
0
250
0
0
253
254
0
256
257
0
259
260
261
262
263
264
0
266
267
268
269
0
0
272
0
0
275
276
277
278
0
0
281
282
0
284
0
286
287
0
0
290
0
292
0
294
295
296
0
298
299
300
301
302
303
304
0
306
307
308
0
0
0
312
0
314
315
0
317
0
319
320
0
0
323
324
325
0
327
328
329
330
331
332
333
334
335
336
337
0
339
340
0
342
343
344
0
0
347
348
349
350
351
0
353
0
0
356
0
0
0
360
0
0
363
0
365
366
367
368
0
0
0
372
373
374
375
376
377
378
379
380
381
382
0
0
385
386
387
0
0
390
391
392
393
394
395
396
0
398
0
400
0
402
0
0
405
406
407
0
409
410
411
0
413
0
0
416
417
418
419
420
421
422
423
424
0
426
427
428
429
430
431
0
0
434
435
0
437
438
0
0
441
0
0
444
0
446
447
448
0
450
451
0
453
0
0
456
0
458
459
0
0
0
0
464
465
0
467
0
0
470
471
0
473
474
0
476
477
478
0
0
481
0
483
484
485
486
0
488
489
490
491
492
493
494
495
496
0
498
499
500
501
502
0
504
505
0
507
508
509
510
0
512
0
0
515
0
517
0
0
520
521
522
523
524
0
0
527
0
529
0
531
532
0
534
535
0
0
538
0
0
541
542
543
0
545
546
547
548
0
550
551
0
0
554
555
556
557
558
559
0
561
562
563
0
0
566
0
568
569
570
571
0
573
574
575
576
0
578
0
580
581
582
0
584
0
0
587
0
0
590
591
0
593
594
595
596
597
598
0
0
601
602
603
604
605
0
607
608
609
610
611
612
0
0
615
616
0
0
619
620
0
622
623
624
625
626
0
628
629
630
0
0
633
634
0
636
0
638
639
640
641
0
643
644
645
646
0
648
649
0
651
0
653
654
655
656
657
0
659
0
661
0
0
0
665
0
667
668
669
670
0
672
673
674
675
0
677
678
679
680
681
0
683
684
0
686
687
688
689
0
0
692
0
0
695
696
697
0
0
700
701
702
0
704
705
706
0
0
709
0
711
712
713
0
715
0
717
718
719
720
721
0
0
724
725
0
727
728
729
730
731
732
0
0
0
736
0
738
739
740
741
742
743
0
745
0
747
0
749
0
751
0
753
0
755
756
757
758
759
0
761
0
763
0
765
766
767
768
0
770
771
772
0
774
0
776
0
778
779
780
781
0
783
784
785
786
0
0
0
0
791
0
0
0
0
0
797
798
799
0
0
0
803
0
805
0
807
0
809
810
0
812
813
0
0
0
817
818
819
0
0
822
823
824
825
0
0
0
829
830
0
832
833
834
835
836
837
838
0
840
841
842
843
844
0
846
0
0
849
850
0
852
0
854
855
856
857
858
0
0
861
862
0
0
865
866
0
868
0
870
871
872
873
874
875
0
877
0
879
880
0
882
0
884
885
886
887
888
0
0
0
0
0
894
895
0
897
898
0
900
901
0
903
904
0
906
907
0
0
910
0
912
913
914
0
0
917
918
919
920
0
0
923
0
0
926
0
928
0
930
0
932
933
0
935
0
937
938
939
940
941
0
0
944
945
946
0
948
949
0
0
952
953
0
955
956
957
958
0
960
961
0
0
964
965
966
967
968
969
0
971
972
973
974
0
976
0
0
0
980
981
982
983
0
0
986
987
0
989
990
0
992
993
994
995
0
997
0
0
0
0
3
0
0
6
7
8
0
10
0
0
13
0
15
16
0
18
0
0
21
0
0
0
0
26
27
0
29
30
31
32
33
34
35
0
37
38
0
40
0
0
43
0
45
46
47
48
0
50
51
52
0
0
55
56
57
58
59
60
61
62
0
64
0
66
67
68
0
70
0
0
73
74
0
76
77
78
79
80
81
0
83
84
85
86
87
0
0
90
91
0
93
94
95
96
97
98
99
100
101
102
0
104
105
106
107
108
0
0
111
112
113
114
115
116
117
0
119
0
121
0
123
124
125
0
127
0
0
130
0
132
0
134
135
136
137
138
139
0
141
0
143
144
145
146
147
0
149
150
0
152
153
154
155
156
157
0
0
160
0
0
163
0
165
166
0
168
169
170
0
0
0
0
175
176
177
178
0
180
0
182
183
0
185
186
0
188
189
190
191
192
193
194
195
196
0
198
199
200
201
202
203
204
205
206
207
208
209
0
0
212
0
0
0
216
217
218
219
220
221
222
223
0
225
226
227
228
229
230
231
232
233
0
235
0
237
238
0
240
241
242
243
244
245
0
0
248
249
250
0
0
253
254
255
256
257
0
259
260
261
262
263
264
265
266
267
268
269
0
0
272
273
274
275
276
277
278
279
280
281
0
283
0
285
286
287
288
0
290
291
292
0
294
295
296
297
298
299
300
301
302
303
304
305
306
0
0
0
0
311
0
313
314
315
0
317
0
0
320
0
0
323
324
325
0
0
328
0
330
0
332
0
334
335
336
337
0
0
340
0
342
343
0
0
346
0
348
349
350
0
352
353
354
355
356
357
0
359
360
361
362
0
0
0
366
0
0
369
0
0
372
0
0
0
376
0
0
0
380
381
382
383
0
385
386
387
0
389
0
0
392
393
0
0
396
397
398
399
400
401
402
0
0
0
406
0
0
409
0
411
412
0
414
0
416
417
0
419
420
0
422
423
424
0
426
0
428
429
430
0
432
433
434
435
0
437
438
439
440
0
442
443
0
0
446
0
448
0
0
451
0
0
454
0
456
457
0
459
0
461
462
463
0
0
466
467
468
469
0
471
472
473
474
0
0
477
478
0
480
481
0
0
484
485
486
487
488
0
490
0
0
493
494
0
0
497
498
0
0
501
502
0
504
0
506
0
508
0
0
511
512
513
514
515
0
0
518
0
520
521
522
523
524
0
526
0
0
0
0
531
532
533
534
535
536
537
538
0
540
541
542
543
544
0
0
547
548
0
550
0
552
553
554
555
0
557
0
559
0
561
562
0
564
565
566
567
568
569
570
571
572
573
574
575
576
0
578
579
580
581
582
583
584
585
586
587
588
0
590
591
0
593
0
595
596
597
0
599
0
601
0
0
604
605
606
607
608
609
610
611
612
0
0
615
616
617
618
619
0
0
622
623
624
625
0
0
0
629
0
0
632
633
634
635
0
0
638
0
640
641
642
0
644
645
646
647
648
649
650
651
0
653
654
655
656
657
0
659
0
661
662
0
0
0
0
667
0
0
670
0
0
673
674
0
0
677
678
679
680
681
0
0
684
685
0
687
688
0
690
691
0
0
694
695
696
697
698
699
0
701
0
0
0
0
706
707
0
0
710
0
0
713
0
715
0
0
718
0
720
0
722
0
724
725
0
727
728
0
730
0
732
733
734
0
736
737
738
739
740
741
0
743
744
745
0
747
0
749
750
751
0
0
0
755
756
757
0
759
0
0
0
763
764
765
0
767
0
0
0
771
772
773
774
775
0
0
778
779
0
781
0
783
0
785
786
787
0
789
790
0
0
0
794
0
796
0
798
799
800
801
0
803
804
805
806
0
0
0
810
811
0
0
814
815
0
817
0
819
820
821
822
823
0
825
826
0
828
829
830
0
0
0
834
0
0
837
838
839
840
0
842
843
0
0
0
0
848
849
0
0
852
853
854
855
856
857
858
859
860
861
862
863
864
865
866
867
868
869
0
871
0
0
874
0
0
877
0
0
0
0
882
883
884
885
886
887
888
0
890
891
892
893
894
895
0
0
898
899
900
0
0
903
904
905
906
907
0
0
0
0
912
913
914
0
916
917
918
919
920
921
922
923
924
925
0
927
928
929
930
0
932
0
0
935
0
937
938
939
940
0
942
0
944
945
0
947
948
0
950
0
952
953
954
955
0
957
958
0
960
961
0
963
964
965
966
967
968
969
970
971
972
973
974
0
976
0
0
979
0
981
0
983
984
985
986
987
0
989
0
0
0
993
0
995
996
0
0
999
1000
0
0
4
0
6
0
8
9
10
0
12
13
14
15
0
17
18
0
20
21
22
23
0
25
26
27
0
29
30
31
32
33
34
35
0
37
38
39
0
41
0
43
0
45
46
0
48
49
50
51
52
0
0
55
0
57
58
0
60
0
62
0
64
65
0
0
0
0
70
0
72
0
74
0
0
77
78
0
80
81
0
83
84
85
0
0
88
89
90
0
0
93
0
0
96
97
0
99
0
101
102
103
104
105
106
107
108
109
110
111
112
0
114
115
0
117
118
0
0
0
122
0
0
0
126
0
128
129
130
0
132
133
0
135
136
0
138
0
0
141
142
143
144
145
146
147
148
149
150
0
152
153
154
155
156
157
158
159
160
0
0
163
0
0
166
0
0
0
170
0
0
0
0
175
176
177
178
179
180
181
182
183
0
0
186
0
0
189
190
191
0
0
194
195
196
197
0
0
200
0
0
203
0
205
206
207
208
209
0
0
212
213
214
215
0
217
218
0
220
221
222
223
0
0
226
227
228
0
0
0
232
0
234
235
236
0
238
239
0
241
242
243
244
245
246
0
248
249
250
251
252
253
254
0
0
257
0
259
260
0
262
263
0
265
266
267
268
269
270
0
272
273
274
0
276
277
0
279
280
281
282
283
284
0
286
287
0
289
290
0
292
293
294
0
296
0
298
299
300
301
302
0
304
305
306
0
308
309
0
0
312
0
314
0
316
317
0
319
0
321
322
0
324
0
326
327
328
329
330
0
332
0
0
0
336
337
338
0
0
341
342
343
0
345
346
347
348
0
350
351
0
353
0
355
0
357
358
0
360
361
0
363
0
365
0
0
368
0
370
371
372
0
374
0
376
0
378
0
380
0
382
0
384
385
386
387
388
0
0
391
392
393
0
0
0
397
0
399
0
401
402
403
404
0
406
407
0
0
0
411
412
413
414
415
416
0
0
0
420
421
0
423
424
0
0
0
428
429
0
0
0
0
0
435
436
437
438
0
440
0
0
443
0
445
446
447
448
449
450
0
452
0
454
455
456
457
458
459
0
0
462
463
0
0
0
467
468
469
0
0
0
473
0
475
0
477
478
479
480
481
0
0
0
485
486
487
0
0
490
0
492
493
494
495
496
497
498
0
0
0
502
0
0
505
0
0
508
509
510
0
0
513
0
515
516
517
518
519
0
521
522
523
524
0
526
527
0
0
530
531
532
533
534
535
536
537
538
539
540
541
542
0
544
545
546
547
548
549
550
0
552
0
554
555
556
557
558
0
560
561
0
563
564
565
0
567
568
0
570
571
572
573
0
575
576
577
0
579
0
0
582
583
0
585
586
0
588
0
590
591
0
593
594
595
596
597
0
0
0
601
0
603
604
605
606
607
608
609
610
611
612
613
614
615
616
617
618
619
0
0
622
623
624
625
626
627
628
0
0
631
632
633
634
635
636
637
0
639
0
0
0
643
0
0
646
0
648
649
0
651
652
0
654
655
656
657
0
659
0
0
662
0
664
665
666
0
668
0
670
671
0
673
674
675
676
677
678
679
680
681
0
683
684
685
686
0
688
0
690
691
692
0
0
0
0
0
0
0
0
701
702
0
704
0
706
0
708
0
0
0
712
713
0
0
716
0
718
719
0
721
0
0
724
0
726
727
728
729
730
0
0
0
734
735
736
737
738
739
740
741
742
743
0
745
0
747
748
749
750
751
752
753
754
755
0
757
0
0
760
0
762
0
764
765
766
0
768
0
0
771
772
773
774
0
776
0
778
779
780
781
782
783
784
0
0
787
0
789
0
0
792
0
794
795
796
797
798
799
800
801
802
0
804
805
806
0
0
0
0
0
812
0
0
815
0
817
818
819
0
821
0
823
824
825
826
827
828
829
830
831
832
0
834
835
836
837
838
839
840
841
842
843
844
0
846
0
848
849
850
851
852
853
854
855
856
857
858
0
0
861
862
0
864
0
866
867
868
869
0
871
872
873
874
875
876
877
878
879
0
881
882
883
884
885
886
0
0
0
890
891
892
893
894
0
0
0
898
0
900
901
0
903
904
905
906
907
908
909
910
911
912
913
914
0
916
917
0
919
920
0
922
0
924
925
926
927
0
929
930
0
932
0
934
935
936
937
938
0
940
941
942
943
944
945
946
0
0
0
0
951
952
953
0
0
956
957
0
959
960
961
962
963
964
965
0
967
0
969
0
971
972
973
974
975
0
0
978
979
0
981
982
0
984
0
986
987
988
0
990
991
0
0
0
995
996
997
998
999
1000
EOF
