DIMENSION : 1000
NUMBER OF ITEMS : 999

TOUR_SECTION
1
914
207
373
666
997
896
662
64
76
690
122
499
642
364
18
636
806
600
511
31
575
832
686
452
994
200
49
854
567
704
447
635
466
510
312
321
505
285
632
229
192
40
769
893
634
255
202
57
614
864
900
279
876
44
340
360
240
441
193
249
331
329
449
172
980
439
96
208
786
560
694
210
66
368
671
431
310
479
345
94
734
658
664
979
139
970
714
42
551
835
25
29
672
750
836
71
652
996
528
917
164
682
140
356
16
45
621
865
237
594
748
199
763
557
777
800
539
992
811
397
744
325
987
760
120
291
977
650
931
305
991
902
24
389
513
699
395
828
770
434
958
209
142
247
421
661
678
184
577
79
183
414
894
951
130
59
379
859
270
509
602
847
241
879
127
174
519
297
442
405
252
254
838
793
119
388
880
736
850
244
159
54
701
288
758
148
394
877
723
731
470
65
890
86
491
239
506
453
487
289
316
334
818
328
3
4
903
569
2
631
402
709
691
956
934
983
637
618
915
144
151
121
326
173
357
717
814
440
910
823
338
746
251
19
999
61
920
929
888
947
912
628
669
469
710
374
985
751
966
419
617
55
271
221
110
58
626
693
92
167
599
1000
936
665
526
242
553
126
70
341
67
654
962
365
722
489
35
156
950
318
791
377
475
924
176
133
815
799
425
613
380
883
803
12
813
643
968
333
887
889
730
676
683
344
809
559
715
9
724
234
185
68
78
606
258
572
508
347
106
922
330
46
483
460
211
53
220
500
609
875
827
36
653
181
716
403
846
171
468
358
522
816
845
272
463
476
370
574
804
233
808
941
735
383
100
371
516
135
772
444
993
954
901
367
73
558
6
851
11
545
497
5
187
754
474
343
323
88
782
805
315
705
303
261
89
464
502
20
375
584
976
504
998
674
897
124
726
137
978
923
860
909
568
529
415
50
109
84
955
309
162
660
263
293
107
732
195
418
116
41
307
839
227
90
775
322
273
461
933
401
445
831
689
294
165
351
458
692
863
471
166
517
899
498
282
163
179
938
480
462
919
725
503
841
549
362
684
102
286
581
948
118
197
588
327
302
789
563
762
696
34
943
87
134
587
605
478
28
921
281
349
62
982
905
906
217
158
925
204
427
72
989
23
646
720
170
337
566
840
111
527
582
540
390
186
570
990
531
336
376
579
556
619
935
680
756
47
885
592
788
472
115
400
908
535
486
493
593
844
595
404
168
856
231
14
485
203
611
283
663
451
802
113
69
295
490
216
872
429
129
984
737
833
939
160
10
354
719
481
225
408
849
639
17
399
308
733
530
778
496
412
926
369
870
103
848
969
63
869
753
457
590
700
198
785
313
298
22
630
801
201
361
721
413
932
670
218
616
837
975
278
39
928
175
33
359
456
437
525
274
752
867
622
573
410
482
589
881
911
927
212
790
267
7
761
873
13
189
537
554
473
843
820
668
128
246
105
675
647
580
866
586
795
223
432
430
215
276
450
507
895
961
706
132
147
739
812
191
861
353
352
596
230
311
93
56
465
564
946
891
95
742
552
765
913
918
363
607
101
578
131
60
436
91
454
972
963
265
38
638
232
523
583
945
712
194
685
75
477
301
161
264
768
792
423
766
424
235
342
518
306
597
779
783
667
794
707
973
222
546
673
957
853
214
82
146
304
177
37
548
26
784
810
698
697
520
123
807
426
15
543
960
627
277
108
81
319
834
8
27
501
284
446
898
48
407
157
492
536
335
565
771
206
382
981
381
224
515
598
645
346
713
764
393
949
188
228
874
455
433
448
988
332
773
542
443
366
759
745
97
317
143
355
416
74
774
417
550
916
780
749
571
488
459
708
392
435
384
219
484
644
729
649
541
648
862
339
238
154
767
236
886
604
314
398
826
287
576
657
117
396
878
112
547
243
703
623
378
787
205
629
959
495
467
253
169
852
603
245
781
907
125
290
738
104
268
420
30
98
153
824
986
585
533
776
296
942
262
702
755
822
178
591
80
52
937
275
409
320
679
882
266
741
386
562
256
655
514
544
150
190
727
512
610
561
858
292
952
797
620
884
601
260
152
651
280
688
141
681
641
155
428
711
796
819
974
821
391
855
149
226
269
257
51
940
114
868
695
612
904
743
83
944
995
677
740
99
965
411
350
138
213
656
687
494
857
798
32
555
259
438
406
953
747
145
532
43
930
299
180
829
830
538
892
825
248
422
659
871
21
250
624
608
196
633
521
348
967
372
615
387
964
182
842
640
718
625
85
136
534
524
385
757
971
77
300
324
728
817

PP_SECTION
2
3
4
5
0
0
8
0
10
0
0
0
0
15
0
0
0
19
20
21
22
0
0
0
26
27
0
0
30
0
32
33
34
0
36
37
38
0
0
0
0
43
44
0
46
47
48
0
50
51
52
0
0
0
56
57
58
59
60
61
62
63
64
65
66
67
68
69
0
0
0
0
74
75
0
77
0
0
80
81
82
83
0
85
86
87
88
89
90
91
92
93
0
95
0
97
98
99
100
101
102
103
104
105
0
107
108
109
0
0
112
0
114
0
0
117
118
0
0
0
0
123
0
125
126
127
128
129
0
131
132
0
0
0
136
0
138
0
0
141
0
143
0
145
146
0
0
149
150
151
152
153
154
155
0
157
158
159
160
161
162
0
0
0
0
167
168
169
0
0
0
0
0
0
0
177
178
0
180
0
182
183
0
0
0
0
188
0
190
0
0
0
194
0
196
0
0
0
0
0
0
0
0
205
206
0
0
0
0
211
212
213
214
215
216
217
0
219
0
221
222
223
224
225
226
0
228
0
230
0
232
0
0
235
236
0
238
0
0
0
0
243
0
245
246
0
248
0
250
0
0
253
0
0
256
257
258
259
260
0
262
0
264
265
266
0
268
269
0
0
0
0
274
275
276
277
0
0
280
281
282
0
284
0
0
287
0
289
290
291
292
0
0
0
296
297
298
299
300
301
302
303
304
305
306
307
0
0
0
0
0
313
314
315
316
317
318
319
320
321
322
323
324
0
0
0
0
0
330
331
332
333
0
335
336
337
0
339
0
341
342
343
0
0
346
0
348
0
350
0
352
353
0
355
0
0
0
0
0
0
0
363
0
0
366
367
368
369
370
0
372
0
0
0
0
0
378
0
0
381
382
0
384
385
386
387
0
0
0
391
392
393
0
0
396
0
398
399
400
401
402
403
404
0
406
407
408
409
410
411
412
413
414
415
416
417
418
0
420
0
422
423
424
0
426
427
428
429
430
0
432
433
0
435
436
437
438
0
0
0
0
443
0
0
446
0
448
0
450
0
0
0
454
455
456
457
0
459
0
461
462
463
464
465
466
467
0
0
0
0
0
0
474
475
476
477
0
0
480
0
0
0
484
485
486
0
488
0
0
0
492
0
494
495
496
497
498
0
0
501
0
503
504
505
0
507
508
509
510
511
512
513
514
515
0
0
518
0
520
521
0
523
524
525
0
527
528
529
530
531
532
533
534
0
536
0
538
539
540
541
542
543
544
0
546
547
548
0
550
0
552
0
0
555
0
0
0
0
0
561
562
563
564
565
0
0
0
0
570
571
572
0
0
0
576
0
578
579
580
581
582
583
0
585
586
0
0
589
0
591
0
0
0
0
596
597
598
0
0
601
602
603
604
0
0
607
608
609
610
611
612
0
0
615
0
0
0
0
620
0
622
623
624
625
0
627
0
629
0
0
0
633
0
635
636
637
638
639
640
641
0
0
644
645
646
647
648
649
0
651
0
653
654
655
656
657
0
659
0
0
662
663
0
0
0
667
0
0
0
0
0
673
0
0
676
677
678
679
680
681
0
0
0
685
0
687
688
0
0
0
0
0
0
695
0
697
698
0
700
0
702
703
0
0
0
707
708
0
0
711
712
713
0
0
0
0
718
0
0
721
0
0
724
725
726
727
728
729
730
0
0
733
734
735
736
737
738
739
740
741
742
743
744
745
0
747
0
749
0
0
0
753
754
755
756
757
0
759
0
0
0
0
764
0
766
767
768
0
0
771
0
773
774
0
776
0
0
779
780
781
782
783
784
0
0
787
788
789
790
791
792
793
794
795
796
797
798
0
0
801
802
0
0
0
0
807
0
809
810
0
0
0
0
0
816
817
818
819
820
821
822
0
824
825
826
0
0
829
830
0
0
0
834
0
0
837
0
0
0
0
842
843
0
0
0
0
848
849
0
0
852
853
854
855
856
857
858
0
860
861
862
0
0
0
866
867
868
869
870
871
0
873
874
0
0
0
878
0
0
881
882
0
884
0
886
0
0
0
0
0
892
0
0
0
0
897
898
899
0
0
902
903
904
905
0
907
0
0
0
911
0
913
0
0
916
0
918
0
0
0
0
0
0
0
926
927
928
929
930
931
932
933
934
935
936
937
0
0
940
0
942
943
944
945
946
0
0
949
0
0
952
953
954
955
956
957
958
959
960
961
0
963
964
965
0
967
968
0
0
971
972
973
974
975
0
0
0
0
0
981
0
0
0
985
986
0
988
989
0
0
0
0
0
995
0
0
0
0
0
EOF
