DIMENSION : 1000
NUMBER OF ITEMS : 999

TOUR_SECTION
1
914
324
300
77
971
757
385
524
534
202
57
614
255
864
634
893
769
207
40
632
229
192
900
279
876
44
340
360
447
635
321
505
285
312
466
510
200
49
567
704
854
994
600
511
31
575
832
452
686
16
356
140
682
658
734
94
345
479
310
431
368
671
240
441
193
249
331
329
449
172
980
439
208
96
66
210
694
560
786
25
29
835
551
42
714
970
139
979
664
164
917
528
836
672
750
71
652
996
45
621
865
237
594
748
199
806
636
18
364
642
499
122
690
76
64
666
373
997
896
662
829
180
830
538
422
248
825
892
299
930
43
532
145
747
953
406
438
259
555
32
798
681
641
155
428
711
796
819
974
821
855
391
592
788
472
115
400
908
535
486
493
593
844
595
404
349
281
921
28
478
134
87
943
587
605
527
582
540
390
186
570
990
531
336
376
579
556
619
111
840
566
337
62
982
646
23
905
906
217
158
925
204
427
989
72
885
47
756
720
170
680
935
226
149
269
257
51
940
904
612
695
114
868
857
494
687
656
213
743
83
944
995
677
740
99
965
138
350
411
397
744
325
811
992
539
800
777
557
763
987
760
120
291
977
650
931
305
991
902
24
389
513
699
395
828
770
434
958
209
142
247
421
661
678
184
577
79
183
414
894
951
130
59
379
859
270
509
602
847
241
879
127
174
163
179
938
480
462
684
102
286
581
948
118
197
588
327
302
789
563
762
34
696
841
549
362
503
725
919
529
415
50
109
84
955
309
162
660
263
293
107
732
195
418
116
41
307
839
227
90
775
322
273
461
933
401
445
831
689
294
165
351
458
692
863
471
166
517
899
498
282
297
519
442
405
252
254
838
793
119
388
880
736
850
244
159
54
701
288
758
617
55
110
221
271
419
751
966
251
19
999
61
920
929
888
947
912
956
934
983
637
618
915
144
151
121
326
173
357
717
814
440
910
823
338
746
148
394
877
723
731
470
65
890
86
491
239
506
453
487
289
316
334
818
328
3
4
903
569
2
631
691
402
709
628
669
469
710
985
374
380
613
425
799
815
167
599
92
693
626
58
665
1000
936
526
242
553
126
70
341
67
654
962
365
722
489
35
156
950
318
791
377
475
924
176
133
813
12
803
883
643
968
333
887
889
730
676
683
344
809
559
715
9
724
234
185
68
78
606
258
572
508
347
106
922
330
46
483
460
211
53
220
500
609
875
827
36
653
181
716
403
846
171
468
358
522
816
845
272
463
476
370
574
804
233
808
941
735
383
100
371
516
135
772
444
993
954
901
367
73
558
6
851
11
545
497
5
187
754
474
343
323
88
782
805
315
705
303
261
89
464
502
20
375
584
976
504
998
674
897
124
726
137
978
923
568
860
909
168
856
231
14
485
203
611
283
663
451
802
113
69
295
490
216
872
429
129
984
737
833
939
160
10
354
719
481
225
408
849
639
17
399
308
733
530
778
496
412
926
369
870
103
848
969
63
869
753
457
590
700
198
785
313
298
22
630
801
201
361
721
413
932
670
218
616
837
975
278
39
928
175
33
359
456
437
525
274
752
867
622
573
410
482
589
881
911
927
212
790
267
7
761
873
13
189
537
554
473
843
820
668
128
246
105
675
647
580
866
586
795
223
432
430
215
276
450
507
895
961
706
132
147
739
812
191
861
353
352
596
230
311
93
56
465
564
946
891
95
742
552
765
913
918
363
607
60
436
131
101
578
454
91
265
38
963
972
222
973
707
794
853
214
783
667
161
301
477
75
638
232
523
583
685
945
712
194
768
264
597
779
146
82
304
713
764
342
518
306
792
423
766
424
235
188
949
393
346
645
598
515
224
771
206
382
981
381
177
37
548
26
784
957
673
546
810
698
697
520
123
807
426
15
543
960
627
277
108
81
319
834
8
27
501
284
446
48
898
335
565
536
492
157
407
228
874
455
433
448
988
332
773
542
443
366
759
745
97
317
143
355
416
74
774
417
550
916
780
749
571
488
459
708
392
435
384
219
484
644
729
649
541
648
862
339
238
154
767
236
886
604
314
398
826
287
576
657
117
396
878
112
547
243
703
623
378
787
205
629
959
495
467
253
169
852
603
245
781
907
125
290
738
104
268
420
30
98
153
824
986
585
533
776
296
942
262
702
755
822
178
591
80
52
937
275
409
320
679
882
266
741
386
688
141
280
651
152
260
601
884
620
797
952
292
858
561
610
512
727
150
544
514
562
256
655
190
387
964
182
842
640
718
625
136
85
615
372
967
348
521
633
196
608
624
250
21
659
871
728
817

PP_SECTION
2
0
4
0
0
0
8
0
0
0
0
13
0
0
16
0
18
19
0
0
22
0
24
0
0
0
0
0
0
31
0
0
34
0
0
37
0
0
0
0
42
0
0
0
0
0
0
49
0
0
52
0
54
55
0
0
0
0
60
0
0
0
64
0
0
0
0
0
0
0
0
0
0
75
76
0
78
0
0
0
0
0
0
0
0
0
88
89
0
0
0
0
0
0
0
0
0
0
0
0
0
103
0
0
0
0
0
109
0
111
0
0
0
115
0
0
118
0
0
0
0
0
0
0
126
127
0
0
0
0
0
133
0
0
0
137
0
0
0
141
0
0
0
0
0
0
0
0
0
0
0
153
154
0
0
0
0
0
0
161
162
0
0
165
0
167
0
169
0
0
172
0
174
0
0
0
0
0
0
0
182
0
0
0
0
187
0
0
0
0
0
193
0
0
0
0
0
0
200
0
0
0
0
0
206
207
0
209
210
0
0
0
0
0
0
0
0
219
0
0
0
0
0
225
0
0
228
0
0
0
0
233
0
0
0
0
0
0
0
0
242
0
0
0
0
247
0
0
0
251
0
253
0
0
256
0
0
0
0
0
262
263
0
0
0
0
0
0
0
0
0
0
274
0
276
277
0
0
280
281
0
0
0
0
0
0
0
0
0
291
0
0
0
0
0
0
298
0
0
301
0
0
0
0
306
307
0
0
0
0
0
0
0
0
316
317
0
319
0
0
0
323
0
0
0
0
0
0
0
331
0
0
0
335
336
0
0
339
0
0
0
0
0
345
346
0
0
0
0
351
0
0
354
0
0
0
358
0
0
0
0
363
0
0
0
0
368
369
0
0
372
0
374
375
0
0
0
0
0
381
0
0
384
0
0
387
0
0
0
0
0
0
0
0
396
397
398
0
0
401
0
0
404
0
0
0
0
0
0
411
412
0
0
0
0
0
0
0
0
0
0
0
424
0
0
0
428
0
0
0
432
0
0
0
0
0
438
0
0
0
442
0
0
445
0
0
0
0
450
0
0
453
0
0
0
0
458
0
0
0
462
0
464
465
0
0
0
0
470
0
0
473
0
475
0
0
0
479
480
0
0
0
0
0
0
487
0
0
490
0
492
493
0
0
0
0
498
0
0
501
502
0
504
505
0
0
0
0
0
0
512
0
514
0
516
0
518
0
520
0
522
523
0
525
0
527
0
0
0
0
0
0
0
0
0
0
538
0
0
0
542
0
544
0
0
0
548
0
0
0
552
0
0
0
0
0
558
0
0
0
0
563
564
0
0
0
0
0
0
571
572
0
0
0
576
577
0
579
580
0
0
0
584
0
0
587
0
589
0
0
0
0
0
595
0
0
598
0
0
0
0
0
0
0
0
0
0
0
0
0
0
0
0
615
616
0
0
0
620
0
0
0
624
0
0
0
628
0
0
0
0
633
0
0
0
0
0
0
0
0
0
0
0
645
0
647
648
0
0
0
0
653
0
0
0
657
0
659
0
0
0
0
0
0
0
0
0
669
0
671
0
0
0
675
0
677
0
0
0
0
0
0
0
0
0
0
0
0
0
0
0
0
0
0
696
0
0
699
700
701
702
0
0
0
706
0
0
709
710
0
0
713
714
0
716
717
718
0
0
0
722
0
0
0
0
0
0
0
0
0
0
0
734
0
0
0
738
0
0
741
742
743
0
0
0
0
0
0
0
0
0
0
754
755
0
757
0
0
0
0
762
763
0
0
0
767
0
0
0
0
0
0
0
0
0
0
778
779
0
0
0
0
784
785
0
787
0
0
0
0
0
793
0
0
796
0
0
0
0
801
0
0
804
805
0
807
0
0
0
0
0
0
814
0
816
817
0
0
0
0
0
0
0
0
0
0
828
829
830
0
0
833
0
0
0
837
838
0
0
0
842
0
0
845
0
0
0
849
850
851
0
0
854
855
0
0
0
0
0
0
862
0
0
0
0
0
0
0
0
0
0
0
0
875
876
0
0
0
0
881
882
0
884
0
886
0
888
0
0
891
0
0
0
895
0
0
898
0
0
0
902
903
0
0
0
0
908
0
0
0
0
0
0
0
0
0
0
0
0
0
922
0
0
0
926
0
0
0
0
0
0
0
0
0
936
0
938
939
0
0
0
0
0
945
0
0
0
0
0
0
952
0
0
0
0
957
958
0
0
961
962
0
0
0
0
0
0
969
0
0
0
0
0
0
0
0
0
0
0
981
0
0
984
0
0
0
0
989
0
991
992
0
994
0
0
997
998
0
1000
EOF
