DIMENSION : 1000
NUMBER OF ITEMS : 4995

TOUR_SECTION
1
817
728
324
300
77
971
757
385
524
534
136
85
615
372
967
348
521
633
196
608
624
250
21
871
659
422
248
825
892
538
830
829
180
299
930
43
532
145
747
953
406
438
259
555
32
798
857
494
687
656
213
138
350
411
965
99
740
677
995
944
83
743
904
612
695
868
114
940
51
257
269
226
149
855
391
821
974
819
796
711
428
155
641
681
141
688
280
651
152
260
601
884
620
797
952
292
858
561
610
512
727
190
150
544
514
655
256
562
386
741
266
882
679
842
182
964
387
640
718
625
767
154
238
339
862
648
886
236
604
314
398
826
287
576
657
117
396
878
112
547
243
703
738
104
30
420
268
296
755
822
178
591
80
52
937
275
409
320
702
262
942
776
533
585
986
824
153
98
290
125
907
781
245
603
852
169
253
467
495
959
629
787
378
623
205
541
649
729
644
484
219
384
435
392
708
459
488
571
749
780
916
550
417
774
74
416
355
143
317
97
745
759
366
443
542
773
332
988
448
433
455
874
228
407
157
492
536
565
335
898
48
446
284
501
27
8
834
319
81
108
277
627
543
960
123
520
697
698
810
784
26
548
37
177
381
981
382
206
771
224
515
598
645
346
393
949
188
235
424
766
423
792
306
518
342
764
713
304
82
146
779
597
264
768
301
161
477
75
685
194
712
945
583
523
232
638
38
265
963
972
222
973
707
794
667
783
214
853
957
673
546
807
15
426
578
454
91
436
60
131
101
607
363
918
913
765
552
742
95
891
946
564
465
56
93
311
230
596
352
353
861
191
812
739
147
132
706
961
895
507
450
276
215
430
432
223
795
586
866
580
647
675
105
246
128
668
820
843
473
554
537
189
13
873
761
7
267
790
212
927
911
881
589
482
410
573
622
867
752
274
525
437
456
359
33
175
928
39
278
975
837
616
218
670
932
413
721
361
201
801
630
22
298
313
785
198
700
590
457
753
869
63
969
848
103
870
369
926
412
496
778
530
733
308
399
17
639
849
408
225
481
719
354
10
160
939
833
737
984
129
429
872
216
490
295
69
113
802
451
663
283
611
203
485
14
231
856
168
404
595
844
593
493
486
535
908
400
115
472
788
592
885
47
756
680
935
619
556
579
376
336
531
990
570
186
390
540
582
527
111
840
566
337
170
720
646
23
989
72
427
204
925
158
217
906
905
982
62
349
281
921
28
478
605
587
134
87
943
34
696
762
563
789
302
327
588
197
118
948
581
286
102
684
362
549
841
503
725
919
462
480
938
179
163
282
498
899
517
166
471
863
692
458
351
165
294
689
831
445
401
933
461
273
322
775
90
227
839
307
41
116
418
195
732
107
293
263
660
162
309
955
84
109
50
415
529
568
909
860
923
978
137
726
124
897
674
998
504
976
584
375
20
502
464
89
261
303
705
315
805
782
88
323
343
474
754
187
5
497
545
11
851
6
558
73
367
901
954
993
444
772
135
516
371
100
383
735
941
808
233
804
574
370
476
463
272
845
816
522
358
468
171
846
403
716
181
653
36
827
875
609
500
220
53
211
460
483
46
330
922
106
347
508
572
258
606
78
68
185
234
724
9
715
559
809
344
683
676
730
889
887
333
968
643
813
12
803
883
380
613
425
799
815
133
176
924
475
377
791
318
950
156
35
489
722
365
962
654
67
341
70
126
553
242
526
665
936
1000
599
167
92
693
626
58
110
221
271
55
617
419
966
751
985
374
710
469
669
628
912
947
888
929
920
61
999
19
251
746
338
823
910
440
814
717
357
173
326
121
151
144
915
618
637
983
934
956
691
709
402
631
2
569
903
4
3
328
818
334
316
289
487
453
506
239
491
86
890
65
470
731
723
877
394
148
758
288
701
54
159
244
850
736
880
388
119
793
838
254
252
405
442
297
519
174
127
879
241
847
602
509
270
859
379
59
130
951
894
414
183
79
577
184
678
661
421
247
142
209
958
434
770
828
395
699
513
389
24
902
991
305
931
650
977
291
120
760
987
325
744
397
811
992
539
800
777
557
763
199
748
594
237
865
621
45
16
356
140
682
164
917
528
996
652
71
836
750
672
29
25
835
551
42
714
970
139
979
664
658
734
94
345
431
671
368
66
210
694
560
786
208
96
439
980
172
449
329
331
249
193
441
240
310
479
686
452
832
575
31
511
600
806
636
18
364
642
499
122
690
76
64
662
896
997
666
373
285
505
321
312
466
510
200
994
49
854
567
704
635
447
360
340
44
876
279
900
192
229
632
40
864
614
57
202
255
634
893
769
207
914

PP_SECTION
2
3
4
5
0
0
0
0
0
0
0
0
0
0
0
0
18
19
20
0
22
0
0
0
0
0
0
0
0
31
0
0
0
0
0
0
0
0
40
0
0
0
44
0
0
0
0
49
50
51
52
0
0
0
0
57
0
59
0
0
0
0
64
65
66
67
68
69
0
0
0
0
0
0
76
0
0
0
0
0
0
0
0
85
86
87
88
0
0
0
0
0
0
0
0
0
0
0
0
0
0
0
0
0
0
107
108
109
0
0
0
0
0
0
0
0
0
0
0
0
122
0
0
0
126
127
0
0
0
0
0
0
0
0
0
0
0
0
0
0
0
0
0
0
0
0
0
0
0
151
0
0
0
0
0
0
0
159
0
0
0
0
0
0
0
167
168
0
0
0
172
0
0
0
0
0
0
0
0
0
182
183
0
0
0
0
0
0
0
0
192
0
0
0
0
0
0
0
200
0
202
0
0
0
0
207
208
0
210
211
0
0
214
215
216
217
0
0
0
221
222
0
0
0
0
0
0
229
0
0
0
0
0
0
0
0
0
0
0
0
0
0
0
0
0
0
0
249
0
0
0
0
0
255
0
0
258
0
0
0
0
0
0
0
0
0
0
0
0
0
0
0
0
0
0
0
0
279
0
0
0
0
0
285
0
0
0
289
0
291
0
0
0
0
296
297
0
0
300
301
0
0
0
305
0
307
0
0
0
0
312
0
0
0
0
0
318
0
0
321
0
0
0
0
0
0
0
329
330
331
332
333
0
0
0
0
0
0
340
341
342
343
0
0
0
0
0
0
0
0
0
0
0
0
0
0
0
0
360
0
0
0
364
0
0
0
368
369
370
0
0
373
0
0
0
0
0
0
0
0
0
0
0
0
0
0
0
0
0
0
0
0
0
0
0
397
0
0
0
0
402
403
0
0
0
0
408
0
0
0
0
0
414
0
0
0
0
0
0
0
0
0
0
0
0
0
0
0
0
431
0
0
0
435
436
437
438
439
0
441
0
0
0
0
0
447
0
449
0
0
452
0
0
0
0
0
0
0
0
461
462
463
464
465
466
467
0
0
0
0
0
0
474
475
476
0
0
479
0
0
0
0
0
0
0
0
0
0
0
0
0
0
0
495
496
497
498
499
0
0
0
503
504
505
0
507
508
509
510
511
0
513
0
0
0
0
0
0
0
0
0
0
0
0
0
527
528
529
0
0
0
0
0
0
0
0
538
539
0
0
0
0
0
0
0
0
0
0
0
0
0
0
0
0
0
0
0
0
0
0
562
563
564
0
0
567
0
0
570
571
572
0
0
575
0
0
0
0
580
581
582
0
0
0
0
0
0
0
0
0
0
0
0
0
0
0
0
0
600
601
602
603
604
0
0
0
0
0
610
611
0
0
614
0
0
0
0
0
0
0
0
0
0
0
0
0
0
0
0
0
632
0
634
635
636
637
638
0
0
0
642
0
0
0
0
0
0
0
0
0
652
653
654
0
0
0
0
0
0
0
662
663
664
0
666
0
0
0
0
0
0
0
0
0
0
0
678
0
0
0
0
0
0
0
686
0
0
0
690
0
0
0
0
0
0
0
0
0
0
0
0
0
704
0
0
0
0
0
0
0
0
0
714
0
0
0
0
0
0
0
0
0
724
725
726
0
0
0
730
0
0
0
734
735
736
737
0
0
0
0
0
0
744
0
0
0
748
0
750
0
0
753
754
755
756
757
0
0
0
0
0
0
0
0
0
0
0
769
0
0
0
0
0
0
0
0
0
0
0
0
0
0
0
0
0
0
788
789
790
791
0
0
794
795
796
0
0
0
0
0
0
0
0
0
0
0
0
0
0
811
0
0
0
0
0
0
818
0
0
0
0
0
0
0
0
0
0
829
0
0
0
0
0
0
0
0
0
0
0
0
0
0
0
0
0
0
0
0
0
0
0
0
854
0
0
0
0
0
0
0
0
0
864
865
0
867
0
0
0
0
0
0
0
0
876
0
0
0
0
0
0
0
0
0
0
0
0
0
0
0
0
893
0
0
896
0
0
0
900
0
902
903
904
905
0
0
0
0
0
0
0
0
914
0
0
917
0
0
0
0
0
0
0
0
0
927
928
929
930
931
0
933
934
935
936
0
0
0
0
0
0
0
0
0
0
0
0
0
0
0
0
0
0
0
0
0
958
0
0
0
0
0
0
0
0
0
968
0
0
0
0
0
0
0
0
0
0
0
0
0
0
0
0
985
0
0
0
0
0
0
0
0
994
0
0
997
0
0
0
0
3
4
5
6
0
0
0
0
0
0
0
14
15
16
17
18
0
0
0
0
0
0
25
0
27
0
29
0
0
0
0
0
0
0
0
0
0
40
0
42
0
44
0
0
0
0
49
0
51
52
53
54
55
56
57
58
0
0
0
0
0
64
65
66
67
0
0
0
0
0
0
0
0
76
0
0
0
0
0
0
0
0
0
0
0
0
0
0
0
0
0
94
0
96
0
0
0
0
0
0
0
0
0
0
0
0
0
0
0
0
0
0
0
0
0
0
0
0
0
122
0
0
0
0
0
0
0
0
0
0
0
0
0
0
0
0
0
0
0
142
0
144
145
146
147
148
0
0
151
0
0
0
0
156
0
0
159
160
0
0
0
164
165
0
0
0
0
0
0
0
0
0
0
0
0
0
179
0
181
0
183
184
185
186
187
188
189
190
191
192
193
0
0
0
0
0
199
200
0
202
0
0
0
0
207
208
0
0
0
0
0
0
0
0
0
0
0
0
0
0
0
0
0
0
0
0
229
0
0
0
0
0
0
0
237
0
0
0
0
0
0
0
0
0
247
0
0
0
0
0
0
0
255
0
0
0
0
0
0
0
0
0
265
266
267
0
0
0
0
0
0
0
0
0
0
278
279
280
281
0
0
0
285
286
287
288
289
0
0
0
0
0
0
0
0
0
0
0
0
0
303
304
305
0
0
0
0
310
0
312
0
0
0
0
0
0
0
0
321
0
0
0
325
0
0
0
329
0
331
0
333
334
0
0
0
0
0
340
0
0
343
344
345
346
347
348
349
0
0
0
0
0
0
0
0
0
0
360
0
0
0
364
0
0
0
0
0
0
0
0
373
374
375
376
0
0
0
0
0
0
0
0
0
0
0
0
389
0
391
0
0
0
0
0
0
0
0
0
0
0
0
0
0
0
0
0
0
0
0
0
0
0
0
0
0
0
0
0
421
422
423
0
0
0
0
0
429
430
431
432
0
0
0
0
0
0
439
0
441
442
0
0
0
0
447
448
449
450
0
452
0
0
0
0
0
0
0
0
461
462
463
0
0
466
0
0
0
0
0
0
0
0
0
0
0
0
479
0
0
0
0
0
0
0
0
0
0
0
0
0
493
0
0
0
0
498
499
0
501
502
0
0
505
0
0
0
0
510
511
0
0
0
0
0
517
518
519
0
0
522
523
0
0
0
0
528
0
0
0
0
0
0
0
0
0
0
0
0
0
0
0
0
0
0
0
0
0
0
0
0
0
0
0
0
0
0
0
0
0
0
0
0
565
566
567
0
0
0
0
0
0
0
575
0
0
0
0
0
0
0
0
0
0
0
0
0
0
590
591
592
593
0
0
0
0
0
0
0
0
0
0
0
0
0
0
0
0
0
0
0
0
614
0
0
0
0
0
0
621
0
0
0
0
626
627
628
0
630
0
632
0
634
635
636
637
0
0
0
0
642
0
0
0
0
0
0
0
0
0
0
0
0
0
0
0
0
0
0
661
662
663
664
665
666
667
0
0
0
671
672
0
0
0
0
0
0
0
0
0
0
0
0
0
0
0
0
0
690
0
0
0
694
0
0
0
698
699
700
701
0
0
704
705
0
0
0
709
710
711
712
713
714
0
0
0
0
0
720
721
722
0
0
0
0
0
0
0
0
0
0
0
734
0
736
0
0
0
0
0
0
0
0
0
0
0
0
0
0
0
0
0
0
0
0
0
0
0
0
0
0
0
0
0
0
0
0
769
0
0
0
0
0
0
0
777
0
0
0
0
782
0
0
785
786
787
788
0
0
0
0
0
0
0
0
0
798
799
800
801
0
0
0
0
806
0
0
0
0
0
0
0
0
0
0
0
0
0
0
0
0
823
824
825
826
0
0
0
0
0
0
0
0
0
0
0
0
0
840
841
842
843
0
0
0
0
0
0
0
0
0
0
854
0
0
0
0
0
0
0
0
0
864
0
0
0
0
0
0
0
0
0
0
0
876
0
878
879
880
881
882
0
0
0
0
0
0
0
0
0
0
893
894
0
896
0
0
0
900
0
0
0
0
905
906
0
0
0
0
0
0
0
914
0
0
0
0
0
0
0
0
0
0
0
0
0
0
0
0
0
932
0
0
0
0
0
938
939
0
0
0
0
944
945
946
0
0
0
0
0
0
0
0
0
0
957
958
0
960
0
0
0
0
0
0
0
0
0
0
0
0
0
0
0
0
0
0
979
980
981
0
0
0
0
0
0
0
0
0
0
0
0
994
0
0
997
0
0
0
0
0
0
0
0
0
0
0
0
0
0
0
0
0
0
0
18
0
0
0
0
0
0
0
0
0
0
0
0
31
32
33
34
35
36
37
38
39
40
41
42
0
44
0
0
0
0
49
0
0
0
0
0
0
0
57
58
0
0
0
0
0
64
0
0
0
0
69
70
71
72
73
74
75
76
0
0
79
0
81
82
83
0
0
0
0
0
0
0
0
0
0
0
0
0
0
0
99
100
0
0
0
0
0
0
0
0
0
0
0
0
0
0
0
0
0
0
0
0
0
122
0
0
0
0
0
0
0
0
0
0
0
134
135
136
137
138
139
140
0
0
0
144
145
146
0
0
0
0
151
0
153
0
0
0
0
0
0
0
0
0
0
164
0
0
0
0
0
0
0
0
173
174
175
176
0
0
0
0
0
0
0
0
0
0
0
188
0
0
0
192
193
0
0
0
0
0
0
200
0
202
0
0
0
0
207
208
209
210
0
0
0
0
0
0
0
0
0
220
221
222
0
0
0
0
0
0
229
0
0
0
0
0
0
0
0
0
0
0
0
0
0
0
0
0
0
0
249
0
0
252
253
254
255
0
0
0
0
0
0
0
0
0
0
0
0
0
0
0
0
0
0
0
0
0
0
0
279
0
0
282
283
284
285
0
0
288
0
0
0
0
0
0
0
0
0
0
0
0
0
0
0
0
0
0
0
0
0
310
0
312
0
0
0
0
0
0
0
0
321
0
0
0
0
0
0
0
0
0
0
332
333
334
0
0
0
0
0
340
341
342
343
0
0
0
0
0
0
0
0
0
0
0
0
0
0
0
0
360
0
0
0
364
0
0
0
0
0
370
0
0
373
0
0
0
0
0
0
0
0
0
0
0
0
0
0
0
0
0
0
0
0
0
0
0
0
0
0
0
0
0
0
404
405
0
407
408
409
410
411
412
0
0
0
0
0
0
419
0
421
0
0
0
0
0
0
0
0
0
0
0
0
434
435
436
437
0
439
440
441
0
0
444
445
0
447
0
449
0
0
452
0
0
0
0
0
0
0
0
0
0
0
0
0
466
0
0
0
0
471
472
473
0
0
0
0
0
479
480
0
0
483
0
0
0
0
0
0
0
0
0
0
0
0
0
0
0
499
0
0
0
0
0
505
0
0
0
0
510
0
0
0
0
0
0
0
0
0
0
0
0
0
0
0
0
0
528
0
0
0
0
0
534
535
536
537
538
539
540
541
0
0
0
0
0
0
0
0
0
0
0
0
554
0
0
557
0
0
0
561
562
563
0
0
0
567
0
0
0
0
0
0
574
575
576
577
0
0
0
0
0
0
0
0
0
0
0
0
0
0
0
593
594
0
0
0
0
0
600
0
0
0
0
0
0
0
0
0
0
0
0
613
614
0
0
0
0
0
0
0
0
0
0
0
0
0
0
629
630
631
632
0
634
635
636
0
0
0
0
0
0
0
0
0
0
0
0
0
0
0
0
0
0
0
0
0
0
0
0
0
662
0
0
0
666
0
0
0
0
0
0
0
0
0
0
0
0
0
0
0
682
0
0
0
686
0
0
0
690
0
692
693
694
0
0
0
0
0
0
0
0
0
704
0
0
0
0
0
0
0
0
0
0
0
0
0
0
0
0
0
0
0
0
0
0
0
0
0
0
0
0
0
734
0
0
0
0
0
0
0
0
0
744
0
0
0
0
0
0
0
0
0
0
0
0
0
0
0
0
0
0
0
764
765
766
0
0
769
0
771
772
0
0
0
0
0
0
0
0
0
0
0
0
0
0
787
788
789
790
791
792
793
0
0
0
0
0
0
0
0
0
0
0
0
806
0
0
0
0
0
0
813
814
815
0
0
0
0
0
0
0
0
0
0
0
0
828
0
0
0
0
0
0
0
0
0
0
0
0
0
0
0
0
0
0
847
0
0
0
0
0
0
854
0
0
0
0
0
0
0
0
0
864
865
0
0
0
0
0
0
0
873
874
0
876
0
878
879
880
0
0
0
884
885
886
887
0
0
0
0
0
893
0
0
896
0
0
0
900
0
0
0
0
0
0
0
0
0
0
0
0
0
914
0
916
0
0
0
920
921
922
923
0
0
0
0
0
0
0
0
0
0
0
0
0
0
0
0
0
0
0
0
0
0
0
0
0
0
0
0
0
0
0
0
0
0
0
0
0
0
0
0
0
0
0
0
0
0
0
0
0
973
974
0
0
0
978
979
0
0
0
0
0
0
0
0
0
0
0
0
0
0
994
0
0
997
998
999
1000
2
3
0
0
0
0
0
9
0
0
0
0
0
0
0
0
18
0
0
0
0
0
0
0
0
0
0
29
0
0
0
0
0
0
0
0
0
0
40
41
42
43
44
0
0
0
48
49
50
51
0
0
0
0
0
57
58
0
0
0
0
0
64
0
66
0
0
0
0
0
72
73
0
0
76
0
0
0
0
0
0
0
0
0
0
0
0
0
90
91
0
0
0
0
0
0
0
0
0
0
0
0
0
0
0
0
0
0
0
0
0
0
0
0
0
0
0
0
0
0
122
0
0
0
0
0
0
0
0
0
0
0
0
0
0
0
0
0
0
0
0
0
0
0
0
0
0
0
0
0
0
0
0
0
0
0
0
0
0
0
0
0
164
0
0
0
0
0
0
0
172
173
0
0
0
0
0
0
180
181
182
183
0
0
0
0
0
0
0
0
192
193
0
0
0
0
0
199
200
0
202
203
204
205
0
207
208
0
0
0
0
0
0
0
0
0
0
0
220
221
0
0
0
0
0
0
0
229
0
0
0
0
0
0
0
237
0
0
240
241
242
243
0
0
0
247
248
249
250
0
0
0
0
255
0
0
258
259
260
0
0
0
0
0
0
0
0
0
0
0
0
0
0
0
0
0
0
279
0
0
0
0
0
285
0
0
0
0
0
0
0
0
0
0
0
297
0
0
0
0
0
0
0
0
0
0
0
0
310
0
312
0
0
0
0
0
0
0
0
321
0
0
0
0
0
0
0
329
0
331
332
0
0
0
0
0
0
0
340
0
0
0
0
0
0
0
0
0
0
0
352
353
354
0
356
0
0
0
360
0
0
0
0
0
0
0
368
0
0
0
0
373
0
0
0
0
0
379
0
0
0
0
0
0
0
0
0
0
0
0
0
0
0
0
0
0
0
0
0
0
0
0
0
0
0
0
408
409
410
411
412
0
414
0
0
0
0
0
0
421
0
0
0
0
0
0
0
0
0
0
0
0
434
435
436
437
438
439
0
0
0
0
444
0
0
447
0
449
450
451
452
453
454
455
456
457
458
0
0
0
0
0
0
0
466
0
0
469
470
471
472
0
0
0
0
0
0
479
0
0
0
0
0
0
0
0
488
489
490
491
0
0
0
495
496
497
0
499
0
0
0
0
0
505
0
0
0
0
510
511
512
513
0
0
0
0
0
519
0
0
522
0
0
525
526
527
528
0
0
531
532
533
0
0
0
0
0
539
0
0
0
0
0
0
0
0
0
0
0
0
0
0
0
0
556
557
558
559
0
0
0
0
0
0
0
567
0
0
0
0
0
0
0
0
0
0
0
0
0
0
582
583
584
585
0
0
0
0
0
0
0
0
594
0
0
0
598
599
600
0
0
0
0
0
0
0
0
0
0
0
0
0
614
0
0
0
0
0
0
621
0
0
0
0
626
0
628
629
630
631
632
0
634
635
636
0
0
0
0
0
642
0
0
0
0
0
0
0
0
0
0
0
0
0
0
0
0
0
0
661
662
0
664
0
666
0
0
0
0
671
672
673
0
0
0
0
678
0
0
0
0
0
0
685
686
0
0
0
690
691
0
0
0
0
0
0
0
0
0
0
0
0
704
705
0
0
0
0
710
0
0
0
0
0
0
0
0
0
0
0
0
0
0
0
0
0
0
0
0
0
0
0
0
0
0
0
0
0
0
0
0
0
0
0
0
0
0
0
0
0
0
0
0
0
0
0
0
0
0
0
0
0
0
0
0
0
768
769
770
771
0
0
0
775
0
0
0
0
0
0
0
0
784
785
786
787
0
0
0
0
0
0
0
0
0
0
0
0
0
0
0
0
0
0
806
0
808
809
810
811
0
0
0
0
0
0
0
0
0
0
822
0
0
825
826
827
0
0
0
0
832
0
0
0
0
0
0
0
0
0
0
0
0
0
0
0
0
0
0
0
0
0
854
0
0
0
0
0
0
0
0
0
864
0
0
0
0
0
870
871
872
873
874
875
876
0
0
0
0
0
0
0
0
0
886
887
888
889
890
891
892
893
0
0
896
0
0
0
900
0
0
0
0
0
0
0
0
0
0
0
0
0
914
915
0
917
0
0
0
0
0
0
0
0
0
0
0
0
0
0
0
0
0
0
0
0
0
0
0
0
0
0
0
0
0
0
0
0
950
951
0
0
0
0
0
0
0
0
0
0
0
0
0
0
0
0
0
0
0
0
0
0
0
0
0
977
0
979
0
0
0
0
0
0
0
987
0
0
0
0
992
993
994
0
996
997
0
0
0
0
3
4
5
6
7
8
9
10
11
12
13
0
0
0
0
18
19
20
0
0
0
0
0
0
0
0
0
0
31
0
0
0
0
0
0
0
0
40
0
0
0
44
0
0
0
0
49
0
0
0
0
0
0
0
57
58
59
60
0
0
0
64
0
0
0
0
0
0
0
0
0
0
0
76
0
0
0
0
0
82
83
0
0
0
0
0
0
0
0
0
0
94
95
0
0
0
0
0
0
0
0
0
0
0
0
0
0
0
0
0
0
0
115
116
117
0
0
0
0
122
0
0
0
0
0
0
0
0
0
0
0
0
135
136
137
0
0
0
0
0
0
0
0
0
0
0
0
0
0
0
0
0
0
156
157
158
159
0
0
0
0
164
165
0
167
0
0
0
0
172
0
0
0
0
0
0
0
0
0
0
0
0
0
0
0
0
0
0
0
192
193
0
0
0
0
0
0
200
0
202
0
0
0
0
207
208
209
210
0
0
0
0
0
0
0
0
0
0
0
0
0
0
0
0
0
0
229
0
0
0
0
0
0
0
237
0
239
240
241
242
243
0
0
0
0
0
0
0
0
0
0
0
255
0
0
0
0
0
261
0
0
0
0
0
0
0
0
0
0
0
0
0
0
0
0
0
279
0
0
0
0
0
285
0
0
0
0
0
0
0
0
0
0
0
0
0
0
0
0
0
0
0
0
0
0
0
0
0
0
312
0
0
0
0
0
0
0
0
321
0
0
0
0
326
327
328
0
0
0
0
333
334
335
0
0
0
0
340
0
0
0
0
0
0
0
0
0
0
0
0
0
0
0
0
0
0
0
360
0
0
363
364
365
0
367
368
0
0
0
0
373
0
0
0
0
0
0
0
0
0
0
0
0
0
0
0
0
0
0
0
0
0
395
0
397
0
399
0
0
0
0
0
0
0
407
408
409
0
0
0
413
414
0
0
0
0
0
0
0
0
0
0
0
0
0
0
0
0
0
0
0
0
0
0
0
0
439
440
441
442
0
0
0
0
447
0
0
0
0
452
0
0
0
0
0
0
0
0
461
462
463
464
465
466
0
0
0
0
0
0
0
0
475
0
0
0
0
0
0
0
0
0
0
0
0
488
0
0
0
0
0
0
0
0
0
0
499
0
0
0
0
0
505
0
507
508
509
510
511
0
0
0
0
0
0
0
519
0
0
0
0
0
0
526
527
528
529
0
0
0
0
0
535
0
537
0
539
540
541
542
543
544
545
0
0
0
0
0
0
0
0
0
0
0
0
0
0
0
0
0
0
0
0
0
567
0
0
0
0
0
0
0
575
0
577
0
0
580
581
582
0
0
0
0
0
0
0
0
0
0
0
0
0
596
597
598
599
600
0
0
0
0
0
0
0
0
0
0
0
0
0
614
0
0
0
0
0
0
0
622
0
0
0
0
0
0
0
0
0
632
0
634
635
636
0
0
0
0
0
642
643
0
0
0
0
0
0
0
0
0
0
0
0
0
0
658
0
0
0
662
0
0
0
666
0
0
0
0
0
0
0
0
0
0
0
678
679
680
681
682
683
684
685
686
0
0
0
690
691
0
0
694
0
0
0
0
0
0
0
702
703
704
0
0
0
0
0
0
0
0
0
0
0
0
0
0
0
0
0
0
0
0
0
0
0
0
0
0
731
732
733
734
735
0
0
0
0
0
0
0
0
0
0
0
0
0
0
0
0
0
0
0
0
0
0
0
0
0
0
0
0
0
0
0
0
0
769
770
0
0
0
0
0
0
777
0
0
0
0
782
783
0
0
786
0
0
0
0
0
792
793
794
0
0
0
0
0
0
0
0
0
804
805
806
0
0
0
0
811
0
813
0
0
0
0
0
0
0
0
0
0
0
0
0
0
0
0
0
0
832
833
834
835
0
837
838
839
840
0
0
0
0
0
0
0
0
0
0
0
0
0
854
0
0
0
0
0
860
0
0
863
864
865
0
0
0
0
0
0
0
0
0
0
876
0
0
0
0
0
0
0
0
0
0
0
0
0
890
0
0
893
894
0
896
0
0
0
900
0
0
0
0
0
0
0
0
0
0
0
0
0
914
0
0
917
918
919
0
0
0
0
0
0
0
0
0
0
0
0
0
0
934
935
936
937
0
0
0
0
0
0
944
945
946
0
0
0
0
0
0
0
0
0
0
0
0
0
0
0
0
0
0
0
0
0
0
0
0
0
0
0
0
0
0
977
978
979
0
0
0
0
0
0
0
0
0
0
0
0
0
0
994
0
996
997
998
999
0
EOF
