DIMENSION : 1000
NUMBER OF ITEMS : 4995

TOUR_SECTION
1
914
207
769
893
634
255
202
57
614
864
40
632
229
192
900
279
876
44
340
360
447
635
704
567
854
49
994
200
510
466
312
321
505
285
373
666
997
896
662
64
76
690
122
499
642
364
18
636
806
600
511
31
575
832
452
686
16
356
140
682
658
734
94
345
479
310
431
368
671
240
441
193
249
331
329
449
172
980
439
208
96
66
210
694
560
786
25
29
835
551
42
714
970
139
979
664
164
917
528
836
672
750
71
652
996
45
621
865
237
594
748
199
763
557
777
800
539
992
811
397
744
325
987
760
120
291
977
650
931
305
991
902
24
389
513
699
395
828
770
434
958
209
142
247
421
661
678
184
577
79
183
414
894
951
130
59
379
859
270
509
602
847
241
879
127
174
163
179
938
480
462
684
102
286
581
948
118
197
588
327
302
789
563
762
34
696
841
549
362
503
725
919
529
415
50
109
84
498
282
899
517
297
519
442
405
252
254
838
793
119
288
758
148
394
877
723
910
823
338
746
251
19
999
61
920
929
888
947
912
628
709
402
691
956
934
983
637
618
915
144
151
121
326
814
440
717
357
173
453
487
289
334
316
506
239
491
731
470
65
890
86
818
328
3
631
2
569
903
4
730
676
889
887
333
683
344
809
559
715
9
724
234
185
68
78
606
258
572
508
347
106
922
46
330
463
476
370
574
804
233
808
941
735
187
754
782
805
315
88
323
474
343
901
367
954
73
558
6
851
545
11
5
497
383
100
371
516
135
772
993
444
272
845
816
522
358
827
460
211
483
220
53
500
609
875
36
653
181
716
403
468
171
846
643
968
883
803
12
813
133
176
924
475
377
791
318
950
156
35
489
722
365
962
654
67
341
70
126
553
242
526
936
1000
665
58
626
693
92
599
167
815
799
425
613
380
469
669
710
374
985
751
966
419
271
221
110
55
617
159
701
54
244
850
736
388
880
692
458
351
165
294
689
831
445
863
471
166
401
933
90
775
322
461
273
195
732
418
116
41
307
839
227
309
955
162
660
263
293
107
726
137
978
923
568
860
909
976
504
998
897
124
674
584
375
20
502
464
89
261
303
705
412
926
496
530
778
168
856
231
14
485
203
611
283
663
451
802
113
69
295
490
216
872
429
129
984
737
833
939
160
10
354
719
481
225
408
849
639
17
399
308
733
369
870
103
848
969
63
869
753
457
590
700
198
785
313
298
22
630
801
201
361
721
413
932
670
218
616
837
975
278
39
928
175
33
359
456
437
525
274
752
867
622
573
410
482
589
881
911
927
212
790
267
7
761
873
13
189
537
554
473
843
820
668
128
246
105
675
647
580
866
586
795
223
432
430
215
276
450
507
895
961
706
132
147
739
812
191
861
353
352
596
230
311
93
56
465
564
946
891
95
742
552
765
913
918
363
607
101
131
60
436
91
454
578
426
15
807
546
673
957
853
214
783
667
794
707
973
222
972
963
265
38
638
232
523
583
945
712
194
685
75
477
301
161
264
768
792
423
766
424
235
342
518
306
597
779
146
82
304
177
37
548
26
784
810
698
697
520
123
960
543
627
277
108
81
319
834
8
27
501
284
446
898
48
407
157
492
536
335
565
771
206
382
981
381
224
515
598
645
346
713
764
393
949
188
228
874
455
433
448
988
332
773
542
443
366
759
745
97
317
143
355
416
74
774
417
550
916
780
749
571
488
459
708
392
435
384
219
484
644
729
649
541
205
623
378
787
629
959
495
467
253
169
852
603
245
781
907
125
290
98
153
824
986
585
533
776
942
262
702
320
409
275
937
52
80
591
178
822
755
296
268
420
30
104
738
703
243
547
112
878
396
117
657
576
287
826
398
314
604
236
886
648
862
339
238
154
767
625
718
640
387
964
182
842
679
882
266
741
386
562
256
655
514
544
150
190
727
512
610
561
858
292
952
797
620
884
601
260
152
651
280
688
141
681
641
155
428
711
796
819
974
821
855
391
592
788
472
115
400
908
535
486
493
593
844
595
404
349
281
921
28
478
134
87
943
587
605
527
582
540
390
186
570
990
531
336
376
579
556
619
111
840
566
337
62
982
646
23
905
906
217
158
925
204
427
989
72
885
47
756
720
170
680
935
226
149
269
257
51
940
114
868
695
612
904
743
83
944
995
677
740
99
965
411
350
138
213
656
687
494
857
798
32
555
259
438
406
953
747
145
532
43
930
299
180
829
830
538
892
825
248
422
659
871
21
250
624
608
196
633
521
348
967
372
615
85
136
534
524
385
757
971
77
300
324
728
817

PP_SECTION
2
3
4
5
0
7
8
9
10
11
12
13
14
15
0
17
0
19
20
21
22
23
0
0
26
27
28
0
30
0
32
33
34
35
36
37
38
39
0
41
0
43
44
45
46
47
48
49
50
51
52
53
54
55
56
57
58
59
60
61
62
63
64
65
66
67
68
69
70
0
72
0
74
75
0
77
78
0
80
81
82
83
0
85
86
87
88
89
90
91
92
93
0
95
0
97
98
99
100
101
102
103
104
105
0
107
108
109
110
111
112
113
114
115
116
117
118
119
120
0
0
123
124
125
126
127
128
129
0
131
132
133
134
135
136
137
138
0
0
141
142
143
144
145
146
147
0
149
150
151
152
153
154
155
156
157
158
159
160
161
162
0
0
165
166
167
168
169
170
0
0
173
0
175
176
177
178
0
180
0
182
183
0
0
186
187
188
189
190
191
0
0
194
195
196
0
198
0
0
201
0
203
204
205
206
0
0
209
0
211
212
213
214
215
216
217
218
219
220
221
222
223
224
225
226
227
228
0
230
231
232
0
0
235
236
0
238
0
0
0
242
243
244
245
246
0
248
249
250
251
0
253
0
0
256
257
258
259
260
261
262
263
264
265
266
267
268
269
0
271
0
273
274
275
276
277
278
0
280
281
282
283
284
0
0
287
0
289
290
291
292
293
294
295
296
297
298
299
300
301
302
303
304
305
306
307
308
309
0
311
312
313
314
315
316
317
318
319
320
321
322
323
324
0
0
0
328
0
330
331
332
333
334
335
336
337
0
339
0
341
342
343
0
0
346
0
348
349
350
351
352
353
354
355
0
0
0
359
0
361
0
363
0
365
366
367
368
369
370
371
372
0
374
375
376
377
378
0
380
381
382
383
384
385
386
387
388
0
390
391
392
393
0
0
396
397
398
399
400
401
402
403
404
0
406
407
408
409
410
411
412
413
414
415
416
417
418
419
420
0
422
423
424
425
426
427
428
429
430
0
432
433
434
435
436
437
438
439
440
441
0
443
0
445
446
0
448
0
450
451
0
0
454
455
456
457
458
459
0
461
462
463
464
465
466
467
468
469
0
471
472
473
474
475
476
477
478
0
480
481
482
483
484
485
486
487
488
489
490
0
492
493
494
495
496
497
498
0
500
501
502
503
504
505
0
507
508
509
510
511
512
513
514
515
516
517
518
0
520
521
522
523
524
525
526
527
528
529
530
531
532
533
534
535
536
537
538
539
540
541
542
543
544
0
546
547
548
0
550
0
552
553
554
555
556
0
558
559
0
561
562
563
564
565
566
0
568
0
570
571
572
573
0
0
576
0
578
579
580
581
582
583
584
585
586
587
0
589
590
591
592
593
0
595
596
597
598
599
600
601
602
603
604
605
0
607
608
609
610
611
612
613
0
615
616
617
0
619
620
0
622
623
624
625
626
627
628
629
630
0
0
633
0
635
636
637
638
639
640
641
0
643
644
645
646
647
648
649
0
651
652
653
654
655
656
657
0
659
660
0
662
663
0
665
0
667
668
669
670
0
0
673
674
675
676
677
678
679
680
681
0
0
0
685
0
687
688
689
0
0
692
693
0
695
0
697
698
699
700
701
702
703
0
705
706
707
708
0
710
711
712
713
0
715
716
0
718
719
720
721
722
723
724
725
726
727
728
729
730
731
732
733
734
735
736
737
738
739
740
741
742
743
744
745
0
747
748
749
750
751
752
753
754
755
756
757
0
759
0
761
0
0
764
765
766
767
768
0
0
771
772
773
774
775
776
0
778
779
780
781
782
783
784
785
0
787
788
789
790
791
792
793
794
795
796
797
798
799
0
801
802
803
804
805
0
807
0
809
810
811
812
0
0
815
816
817
818
819
820
821
822
0
824
825
826
827
0
829
830
831
0
833
834
0
0
837
0
839
840
0
842
843
844
845
846
0
848
849
850
851
852
853
854
855
856
857
858
859
860
861
862
863
864
865
866
867
868
869
870
871
872
873
874
875
0
0
878
0
880
881
882
0
884
885
886
887
888
889
0
891
892
0
0
895
0
897
898
899
0
0
902
903
904
905
906
907
908
909
0
911
0
913
0
0
916
917
918
0
920
921
922
923
924
925
926
927
928
929
930
931
932
933
934
935
936
937
0
939
940
0
942
943
944
945
946
0
0
949
950
0
952
953
954
955
956
957
958
959
960
961
962
963
964
965
966
967
968
969
0
971
972
973
974
975
976
0
978
0
0
981
982
0
984
985
986
0
988
989
990
0
0
993
0
995
0
0
998
0
1000
0
3
4
5
6
7
8
0
10
11
12
13
14
15
16
17
0
0
20
21
22
23
24
25
26
27
28
29
30
0
32
33
0
35
0
37
38
39
40
41
42
43
0
45
46
47
48
0
0
51
52
53
54
55
56
57
58
0
60
0
62
63
64
65
66
67
0
69
70
0
72
73
74
75
76
77
0
79
80
81
82
83
0
85
86
87
88
89
90
91
92
93
94
95
96
97
98
99
100
101
102
103
104
105
0
107
108
109
110
111
112
113
114
115
116
117
0
119
0
121
0
123
124
125
126
0
128
129
0
131
132
0
134
0
136
137
138
0
0
141
142
143
144
145
146
147
148
149
150
151
152
153
154
155
156
157
158
159
160
161
162
0
164
165
166
167
168
169
170
171
0
0
0
175
176
177
178
179
180
181
182
183
184
185
186
187
188
189
190
191
0
0
194
195
196
197
198
199
200
201
0
203
204
205
206
0
208
209
0
0
212
213
214
215
216
217
218
219
220
221
222
223
224
225
226
227
228
0
230
231
232
0
0
235
236
237
238
0
0
0
242
243
244
245
246
247
248
0
250
0
0
253
0
0
256
257
258
259
260
261
262
263
264
265
266
267
268
269
0
271
272
273
274
275
276
277
278
279
280
281
0
283
284
0
286
287
288
289
290
0
292
293
294
295
296
0
298
299
300
301
0
303
304
305
306
307
308
309
310
311
0
313
314
0
0
317
0
319
320
0
322
0
324
325
326
0
328
0
330
331
332
333
334
335
336
337
338
339
340
341
342
343
344
345
346
347
348
349
350
351
352
353
354
355
0
0
358
359
0
361
362
363
364
365
366
367
0
369
0
371
372
0
374
375
376
377
378
0
380
381
382
383
384
385
386
387
388
389
390
391
392
393
0
0
396
0
398
399
400
401
0
403
404
0
406
407
408
409
410
411
412
413
0
0
416
417
418
419
420
421
422
423
424
425
426
427
428
429
430
431
432
433
0
435
436
437
438
439
440
441
442
443
444
445
446
0
448
449
450
451
0
0
454
455
456
457
458
459
460
461
462
463
464
465
466
467
468
469
470
471
472
473
474
475
0
477
478
0
0
481
482
483
484
485
486
487
488
489
490
491
492
493
494
495
496
0
498
499
0
501
502
503
504
505
506
507
0
0
510
511
512
0
514
515
516
517
518
519
520
521
522
523
524
525
526
527
528
529
530
531
532
533
534
535
536
537
538
0
540
541
542
543
544
0
546
547
548
0
550
0
552
553
554
555
556
0
0
0
0
561
562
0
564
565
566
0
568
569
570
571
0
573
574
575
576
577
578
579
580
581
582
583
584
585
586
587
0
589
590
591
592
593
0
595
596
597
598
599
0
601
0
603
604
605
606
607
608
609
610
611
612
613
614
615
616
617
0
619
620
621
622
623
624
625
626
627
628
629
630
0
0
633
0
0
0
637
638
639
640
641
0
643
644
645
646
647
648
649
650
651
0
0
654
655
656
657
0
659
660
661
662
663
664
665
666
667
668
669
670
671
672
673
674
675
0
677
0
679
680
681
0
683
684
685
0
687
688
689
0
0
692
693
694
695
696
697
698
699
700
701
702
703
704
705
706
707
708
709
710
711
712
713
714
715
716
717
718
719
720
721
722
0
0
0
726
727
728
729
0
731
732
733
734
735
736
737
738
739
740
741
742
743
0
745
0
747
0
749
0
751
752
753
754
755
756
757
0
759
0
761
762
763
764
765
766
767
768
0
0
771
772
773
774
775
776
777
778
779
780
781
782
783
784
785
786
787
788
789
790
791
792
793
794
795
796
797
798
799
800
801
802
0
0
0
0
807
808
809
810
0
812
813
814
815
816
817
0
819
820
821
822
823
824
825
826
827
0
829
830
831
0
833
834
0
0
837
838
839
840
841
842
843
844
845
846
0
848
849
850
851
852
853
0
855
856
857
858
859
860
861
862
863
864
865
866
867
868
869
870
871
872
873
874
0
0
0
878
879
880
881
882
883
884
885
886
0
0
0
0
891
892
893
894
895
0
897
898
0
0
0
0
0
904
905
906
907
908
909
0
911
912
913
0
0
916
0
918
0
0
921
0
923
924
925
926
927
928
929
930
0
932
933
0
935
936
937
938
939
940
941
942
943
944
945
946
0
0
949
950
0
952
953
954
955
956
957
958
959
960
961
962
963
964
965
966
967
968
969
0
971
972
973
974
975
976
0
978
979
980
981
982
983
984
985
986
0
988
989
990
0
0
0
0
995
0
0
998
0
1000
0
0
4
5
6
7
8
9
10
0
12
13
14
15
0
17
0
19
20
21
22
23
0
0
26
27
28
0
30
31
32
33
34
35
36
37
38
39
40
41
42
43
0
0
46
47
48
0
50
51
52
53
54
55
56
57
58
59
60
61
62
63
0
0
0
67
0
69
70
71
72
73
74
75
0
77
0
79
80
81
82
83
84
85
86
87
88
89
90
91
92
93
0
95
0
97
98
99
100
101
0
103
104
105
106
107
108
0
110
111
112
113
114
115
116
117
0
0
0
0
0
123
124
125
126
0
128
129
130
131
132
133
134
135
136
137
138
139
140
141
0
143
144
145
146
147
148
149
150
151
152
153
154
155
156
157
158
159
160
161
162
163
164
165
166
167
168
169
170
171
0
173
174
175
176
177
178
0
180
0
182
0
184
185
186
187
188
189
190
191
0
0
194
195
196
197
198
0
0
201
0
203
204
205
206
207
208
209
210
211
212
213
214
215
216
217
218
219
220
221
222
223
224
225
226
227
228
0
230
231
232
233
234
235
236
237
238
0
0
0
242
243
244
245
246
247
248
0
250
251
252
253
254
255
256
257
258
259
260
261
262
263
264
265
266
267
268
269
0
271
272
273
274
275
276
277
278
0
280
281
282
283
284
285
286
287
288
289
290
0
292
293
294
295
296
0
298
299
300
301
0
303
304
0
306
307
308
309
310
311
0
313
314
315
0
317
318
319
320
321
322
323
324
0
0
0
0
0
0
0
332
333
334
335
336
337
0
339
0
341
342
343
344
0
346
0
348
349
350
351
352
353
354
355
0
0
0
359
0
361
0
363
0
365
366
0
0
369
370
371
372
0
374
375
376
377
378
0
380
381
382
383
384
385
386
387
388
0
390
391
392
393
0
395
396
0
398
399
400
401
0
0
404
405
406
407
408
409
410
411
412
413
0
0
416
417
418
419
420
421
422
423
424
425
426
427
428
429
430
0
432
433
434
435
436
437
438
439
440
441
0
443
444
445
446
0
448
449
450
451
452
453
454
455
456
457
458
459
460
461
462
463
464
465
466
467
468
469
470
471
472
473
474
475
0
477
478
479
480
481
482
483
484
485
486
487
488
489
490
0
492
493
494
495
496
497
498
499
500
501
502
503
504
505
0
507
508
0
510
0
512
0
514
515
0
0
518
519
520
521
522
523
524
525
0
527
528
529
530
531
532
533
534
535
536
537
538
539
540
541
542
543
544
545
546
547
548
0
550
0
552
553
554
555
556
557
558
0
0
561
562
563
564
565
566
0
568
569
570
571
0
573
574
575
576
577
578
579
580
581
582
583
584
585
586
587
588
589
590
591
592
593
594
595
596
597
598
599
0
601
602
603
604
605
606
607
608
609
610
611
612
613
614
615
616
617
0
619
620
0
622
623
624
625
0
627
0
629
630
631
0
633
0
0
0
0
638
639
640
641
0
0
644
645
646
647
648
649
0
651
0
653
654
655
656
657
0
659
660
0
0
663
0
665
0
667
668
669
670
0
0
673
674
675
676
677
0
679
680
681
682
683
684
685
686
687
688
689
0
0
692
693
694
695
0
697
698
699
700
701
702
703
0
705
706
707
708
0
710
711
712
713
0
715
716
717
718
719
720
721
722
723
724
725
726
727
728
729
0
0
732
733
734
735
736
737
738
739
740
741
742
743
744
745
746
747
0
749
0
751
752
753
0
755
756
757
0
759
0
761
0
0
764
765
766
767
768
0
0
771
772
773
774
775
776
777
778
779
780
781
782
783
784
785
0
787
788
789
790
791
792
793
794
795
796
797
798
799
0
801
802
803
804
805
806
807
0
0
810
0
812
813
814
815
0
817
0
819
820
821
822
823
824
825
826
827
828
829
830
831
0
833
834
0
0
837
0
839
840
0
842
843
844
845
846
847
848
849
850
851
852
853
0
855
856
857
858
0
860
861
862
863
864
865
866
867
868
869
870
871
872
873
874
0
0
0
878
879
880
881
882
883
884
885
886
887
0
889
0
891
892
0
0
895
896
897
898
899
900
901
0
903
904
905
906
907
908
909
0
911
912
913
914
915
916
0
918
0
920
921
922
923
924
925
926
927
928
929
930
0
932
933
934
935
936
937
938
939
940
941
942
943
944
945
946
0
0
949
950
951
952
953
954
955
956
957
0
959
960
961
962
963
964
965
966
967
968
969
0
971
972
973
974
975
976
0
978
979
0
981
982
983
984
985
986
0
988
989
990
0
0
993
0
995
0
0
998
999
1000
2
3
4
5
6
7
8
9
10
11
12
13
14
15
0
17
0
0
20
21
22
23
0
0
26
27
28
29
30
0
32
33
34
35
36
37
38
39
0
41
42
43
0
0
46
47
48
49
50
51
52
0
54
55
56
57
58
59
60
0
62
63
0
65
0
67
68
69
70
0
72
73
74
75
0
77
0
0
80
81
82
83
84
85
0
87
88
89
90
91
92
93
0
95
0
97
98
99
0
101
0
103
104
105
0
107
108
0
110
111
112
113
114
115
116
117
118
119
120
121
0
123
124
125
126
0
128
129
130
131
132
133
134
0
136
137
138
0
0
141
0
143
0
145
146
147
0
149
150
0
152
153
154
155
156
157
158
159
160
161
162
0
164
165
166
167
168
169
170
171
172
173
0
175
0
177
178
179
180
181
182
183
184
185
186
187
188
189
190
191
192
193
194
195
196
197
198
199
200
201
202
203
204
205
206
0
0
0
0
211
212
213
214
215
216
217
218
219
220
221
222
223
224
225
226
227
228
0
230
231
232
0
0
235
236
237
238
239
240
241
242
243
244
245
246
247
248
249
250
0
0
253
0
0
256
257
258
259
260
261
262
263
264
265
266
267
268
269
270
271
272
273
274
275
276
277
278
0
280
281
282
283
284
0
0
287
0
0
290
0
292
293
294
295
296
297
298
299
300
301
0
303
304
0
306
307
308
309
310
311
0
313
314
315
0
317
318
319
320
0
322
323
324
0
0
0
328
329
330
331
332
333
0
335
336
337
0
339
0
341
342
0
344
0
346
347
348
349
350
351
352
353
354
355
356
357
358
359
0
361
362
363
0
0
366
367
368
369
370
0
372
0
374
375
376
377
378
379
380
381
382
0
384
385
386
387
388
0
390
391
392
393
0
0
396
0
398
399
400
401
0
403
404
0
406
407
408
409
410
411
412
413
414
415
416
417
418
419
420
421
422
423
424
425
426
427
428
429
430
0
432
433
434
435
436
437
438
439
0
0
0
443
444
445
446
0
448
449
450
451
452
453
454
455
456
457
458
459
460
461
0
0
464
465
0
467
468
469
470
471
472
473
0
475
0
477
478
479
0
481
482
483
484
485
486
0
488
489
490
491
492
493
494
495
496
497
0
0
500
501
502
503
504
0
506
507
0
0
0
511
512
513
514
515
516
0
518
519
520
521
522
523
524
525
526
527
528
0
530
531
532
533
534
535
536
537
538
539
540
541
542
543
544
0
546
547
548
549
550
0
552
553
554
555
556
557
558
559
0
561
562
0
564
565
566
0
568
0
570
571
572
573
574
0
576
0
578
579
580
581
582
583
584
585
586
587
588
589
590
591
592
593
594
595
596
597
598
599
600
601
0
603
604
605
606
607
608
609
610
611
612
613
0
615
616
617
0
619
620
621
622
623
624
625
626
627
628
629
630
631
632
633
0
0
0
637
638
639
640
641
0
643
644
645
646
647
648
649
0
651
0
653
654
655
656
657
0
659
660
661
0
663
0
665
0
667
668
669
670
671
672
673
674
675
676
677
678
679
680
681
0
0
0
685
686
687
688
689
690
691
692
693
0
695
0
697
698
0
700
701
702
703
704
705
706
707
708
0
710
711
712
713
0
0
716
0
718
719
720
721
722
0
0
0
726
727
728
729
0
0
732
733
0
0
736
737
738
739
740
741
742
743
744
745
0
747
0
749
0
751
752
753
754
755
756
757
758
759
0
761
0
0
764
765
766
767
768
769
770
771
772
773
774
775
776
0
778
779
780
781
782
783
784
785
786
787
788
0
790
791
792
0
794
795
796
797
798
799
0
801
802
803
804
805
806
807
808
809
810
811
812
813
0
815
816
817
818
819
820
821
822
823
824
825
826
827
0
829
830
831
832
833
834
0
0
837
0
839
840
0
842
843
844
845
846
0
848
849
850
851
852
853
854
855
856
857
858
0
860
861
862
863
0
0
866
867
868
869
870
871
872
873
874
875
0
0
878
879
880
881
882
883
884
885
886
887
888
889
890
891
892
893
894
895
0
897
898
0
0
0
0
0
904
905
906
907
908
909
0
911
0
913
914
915
916
917
918
919
920
921
922
923
924
925
926
927
928
929
930
0
932
933
0
935
936
937
938
939
940
941
942
943
944
945
946
0
0
949
950
951
952
953
954
955
956
957
0
959
960
961
962
963
964
965
966
967
968
969
0
971
972
973
974
975
976
977
978
979
0
981
982
983
984
985
986
987
988
989
990
0
992
993
994
995
996
997
998
0
1000
0
3
4
5
6
7
8
9
10
11
12
13
14
15
0
17
18
19
20
21
22
23
0
0
26
27
28
0
30
0
32
33
0
35
36
37
38
39
40
41
0
43
0
0
46
47
48
0
0
51
52
53
54
55
56
57
58
59
60
61
62
63
0
0
0
67
0
69
70
0
72
73
74
75
0
77
0
0
80
81
82
83
0
85
86
87
88
89
90
91
92
93
94
95
0
97
98
99
100
101
102
103
104
105
0
107
108
0
110
111
112
113
114
115
116
117
0
0
0
0
0
123
124
125
126
0
128
129
0
131
132
133
134
135
136
137
138
0
0
141
0
143
144
145
146
147
0
149
150
0
152
153
154
155
156
157
158
159
160
161
162
0
164
165
166
167
168
169
170
171
0
173
174
175
176
177
178
0
180
0
182
0
0
0
186
187
188
189
190
191
0
193
194
195
196
197
198
0
0
201
0
203
204
205
206
207
208
209
210
0
212
213
214
215
216
217
218
219
220
221
222
223
224
225
226
227
228
0
230
231
232
0
0
235
236
237
238
239
240
241
242
243
244
245
246
0
248
0
250
251
0
253
254
255
256
257
258
259
260
261
262
263
264
265
266
267
268
269
270
271
272
273
274
275
276
277
278
0
280
281
0
283
284
0
286
287
288
0
290
0
292
293
294
295
296
0
298
299
300
301
302
303
304
0
306
307
308
309
0
311
0
313
314
315
316
317
0
319
320
0
322
0
324
0
326
327
328
0
0
0
332
333
334
335
336
337
0
339
0
341
342
0
0
0
346
347
348
349
350
351
352
353
354
355
0
0
0
359
0
361
0
363
364
365
366
367
368
369
0
0
372
0
374
375
376
377
378
0
380
381
382
0
384
385
386
387
388
0
390
391
392
393
0
395
396
397
398
399
400
401
402
403
404
0
406
407
408
409
410
411
412
413
414
415
416
417
418
419
420
0
422
423
424
425
426
427
428
429
430
0
432
433
0
435
436
437
438
0
440
441
442
443
0
445
446
447
448
0
450
451
452
453
454
455
456
457
458
459
460
461
462
463
464
465
466
467
0
469
0
471
472
473
474
475
476
477
478
0
0
481
482
483
484
485
486
0
488
0
490
0
492
493
494
495
496
0
0
0
0
501
502
503
504
0
506
507
508
509
510
0
512
0
514
515
516
517
518
519
520
521
0
523
524
525
526
527
528
529
530
531
532
533
534
535
536
537
538
539
540
541
542
543
544
545
546
547
548
0
550
0
552
553
554
555
556
0
0
0
0
561
562
0
564
565
566
0
568
0
570
571
0
573
0
0
576
577
578
579
580
581
582
583
584
585
586
587
588
589
590
591
592
593
0
595
596
597
598
599
0
601
0
603
604
605
606
607
608
0
610
611
612
613
614
615
616
617
0
619
620
0
622
623
624
625
626
627
628
629
630
631
0
633
0
0
636
637
638
639
640
641
642
643
644
645
646
647
648
649
0
651
0
0
654
655
656
657
658
659
660
0
0
663
0
665
0
667
668
669
670
0
0
673
674
675
676
677
678
679
680
681
682
683
684
685
0
687
688
689
690
691
692
693
0
695
0
697
698
0
700
701
702
703
704
705
706
707
708
709
710
711
712
713
0
715
716
0
718
719
720
721
722
0
724
725
726
727
728
729
730
731
732
733
734
735
736
737
738
739
740
741
742
743
0
745
746
747
0
749
0
751
752
753
754
755
756
757
758
759
0
761
762
763
764
765
766
767
768
769
770
771
772
773
774
775
776
777
778
779
780
781
782
783
784
785
786
787
788
0
790
0
792
793
794
795
796
797
798
799
0
801
802
803
804
805
806
807
0
0
810
811
812
813
0
815
0
817
0
819
820
821
822
0
824
825
826
0
0
829
830
831
0
833
834
835
0
837
838
839
840
0
842
843
844
845
0
0
848
849
850
851
852
853
0
855
856
857
858
0
860
861
862
863
864
865
866
867
868
869
870
871
872
873
874
0
0
0
878
0
880
881
882
883
884
885
886
887
0
0
890
891
892
0
894
895
896
897
898
0
0
0
0
903
904
905
906
907
908
909
910
911
0
913
0
0
916
917
918
919
0
921
0
923
924
925
926
927
928
929
930
931
932
933
934
935
936
937
938
939
940
0
942
943
944
945
946
947
0
949
0
0
952
953
954
955
0
957
0
959
960
961
962
963
964
965
966
967
968
969
0
971
972
973
974
975
976
977
978
979
0
981
982
0
984
985
986
0
988
989
990
0
0
993
0
995
996
997
998
999
1000
EOF
