DIMENSION : 1000
NUMBER OF ITEMS : 9990

TOUR_SECTION
1
817
728
324
300
77
971
757
385
524
534
136
85
615
372
967
348
521
633
196
608
624
250
21
871
659
422
248
825
892
538
830
829
180
299
930
43
532
145
747
953
406
438
259
555
32
798
857
494
687
656
213
138
350
411
965
99
740
677
995
944
83
743
904
612
695
868
114
940
51
257
269
226
149
855
391
821
974
819
796
711
428
155
641
681
141
688
280
651
152
260
601
884
620
797
952
292
858
561
610
512
727
190
150
544
514
655
256
562
386
741
266
882
679
842
182
964
387
640
718
625
767
154
238
339
862
648
886
236
604
314
398
826
287
576
657
117
396
878
112
547
243
703
738
104
30
420
268
296
755
822
178
591
80
52
937
275
409
320
702
262
942
776
533
585
986
824
153
98
290
125
907
781
245
603
852
169
253
467
495
959
629
787
378
623
205
541
649
729
644
484
219
384
435
392
708
459
488
571
749
780
916
550
417
774
74
416
355
143
317
97
745
759
366
443
542
773
332
988
448
433
455
874
228
188
949
393
764
713
346
645
598
515
224
381
981
382
206
771
565
335
536
492
157
407
48
898
446
284
501
27
8
834
319
81
108
277
627
960
543
15
426
807
123
520
697
698
810
784
26
548
37
177
304
146
82
214
853
957
673
546
222
973
707
794
667
783
779
597
306
518
342
235
424
766
423
792
768
264
161
301
477
75
685
194
712
945
583
523
232
638
38
265
963
972
454
91
436
60
131
578
101
607
363
918
913
765
552
742
95
891
946
564
465
56
93
311
230
596
352
353
861
191
812
739
147
132
706
961
895
507
450
276
215
430
432
223
795
586
866
580
647
675
105
246
128
668
820
843
473
554
537
189
13
873
761
7
267
790
212
927
911
881
589
482
410
573
622
867
752
274
525
437
456
359
33
175
928
39
278
975
837
616
218
670
932
413
721
361
201
801
630
22
298
313
785
198
700
590
457
753
869
63
969
848
103
870
369
926
412
496
778
530
733
308
399
17
639
849
408
225
481
719
354
10
160
939
833
737
984
129
429
872
216
490
295
69
113
802
451
663
283
611
203
485
14
231
856
168
404
595
844
593
493
486
535
908
400
115
472
788
592
885
47
756
680
935
619
556
579
376
336
531
990
570
186
390
540
582
527
111
840
566
337
170
720
646
23
989
72
427
204
925
158
217
906
905
982
62
349
281
921
28
478
605
587
134
87
943
34
696
762
563
789
302
327
588
197
118
948
581
286
102
684
362
549
841
503
725
919
529
568
860
909
726
137
923
978
660
162
955
309
227
166
471
863
692
458
351
165
294
689
831
445
401
933
90
775
322
461
273
195
732
418
116
41
839
307
263
293
107
124
897
674
998
504
976
584
375
20
502
464
89
261
303
705
315
805
782
88
323
343
474
754
187
5
497
545
11
851
6
558
73
367
901
954
993
444
772
135
516
371
100
383
735
941
808
233
804
574
370
476
463
272
845
816
522
358
468
171
846
403
716
181
653
36
827
875
609
500
220
53
211
460
483
46
330
922
106
347
508
572
258
606
78
68
185
234
724
9
715
559
809
344
683
676
730
889
887
333
968
643
883
803
12
813
133
176
924
475
377
791
318
950
156
35
489
722
365
962
654
67
341
70
126
553
242
526
936
1000
665
58
626
693
92
599
167
815
799
425
613
380
374
985
710
469
669
628
709
402
691
631
2
569
903
4
3
328
818
334
316
289
487
453
506
239
491
86
890
65
470
731
723
877
394
148
746
338
823
910
440
814
717
357
173
326
121
151
144
915
618
637
983
934
956
912
947
888
929
920
61
999
19
251
966
751
419
271
221
110
55
617
758
288
701
54
159
244
850
736
880
388
119
793
838
254
252
405
442
519
297
517
899
282
498
84
109
50
415
462
480
938
179
163
174
127
879
241
847
602
509
270
859
379
59
130
951
894
414
183
79
577
184
678
661
421
247
142
209
958
434
770
828
395
699
513
389
24
902
991
305
931
650
977
291
120
760
987
325
744
397
811
992
539
800
777
557
763
199
748
594
237
865
621
45
996
652
71
750
672
836
528
917
164
664
979
139
970
714
42
551
835
29
25
786
560
694
210
66
96
208
439
980
172
449
329
331
249
193
441
240
671
368
431
310
479
345
94
734
658
682
140
356
16
686
452
832
575
31
511
600
806
636
18
364
642
499
122
690
76
64
662
896
997
666
373
285
505
321
312
466
510
200
994
49
854
567
704
635
447
360
340
44
876
279
900
192
229
632
40
864
614
57
202
255
634
893
769
207
914

PP_SECTION
2
3
4
5
6
7
0
9
10
11
12
13
14
15
16
17
18
19
20
21
22
23
24
25
0
0
28
29
0
31
0
33
34
35
36
37
0
39
40
41
42
0
44
45
46
47
48
49
50
51
52
53
54
55
56
57
58
59
60
61
62
63
64
65
66
67
68
69
70
71
72
73
0
0
76
0
78
79
0
0
0
0
84
85
86
87
88
89
90
91
92
93
94
95
96
0
0
0
100
101
102
103
104
105
106
107
108
109
110
111
0
113
0
115
116
117
118
119
120
121
122
123
124
125
126
127
128
129
130
131
132
133
134
135
0
137
0
139
140
141
142
143
144
145
0
0
148
0
150
151
152
153
0
0
156
0
158
159
160
161
162
163
164
165
166
167
168
0
170
171
172
173
174
175
176
0
0
179
0
181
182
183
184
185
186
187
0
189
0
0
192
193
0
195
0
197
198
199
200
201
202
203
204
205
206
207
208
209
210
211
212
213
214
215
216
217
218
0
220
221
222
223
224
225
226
227
0
229
230
231
0
233
234
235
0
237
0
239
240
241
242
0
244
0
246
247
0
249
250
251
252
0
254
255
256
257
258
0
0
261
0
263
264
265
0
267
0
0
270
271
272
273
274
0
276
0
278
279
280
281
282
283
0
285
286
0
288
289
290
291
292
293
294
295
296
297
298
0
300
301
302
303
304
305
306
307
308
309
310
0
312
313
314
315
316
317
318
319
320
321
322
323
324
325
326
327
328
329
330
331
332
333
334
335
336
337
338
0
340
341
342
343
344
345
0
347
0
349
0
351
352
353
354
0
356
357
358
359
360
361
362
363
364
365
366
367
368
369
370
371
0
373
374
375
376
377
0
379
380
0
0
383
0
385
386
387
388
389
390
0
0
0
394
395
396
397
398
399
400
401
402
403
404
405
0
407
408
0
410
0
412
413
414
415
416
417
418
419
0
421
0
423
0
425
0
427
428
429
430
431
432
433
434
435
436
437
438
439
440
441
442
0
444
445
0
447
448
449
450
451
452
453
454
455
456
457
458
0
460
461
462
463
464
465
466
467
468
469
470
471
472
473
474
475
476
477
478
479
480
481
482
483
484
485
486
487
0
489
490
491
0
493
0
495
496
497
498
499
500
0
502
503
504
505
506
507
508
509
510
511
512
513
514
515
516
517
518
519
0
0
522
523
0
525
526
527
528
529
530
531
0
0
0
535
0
537
538
539
540
541
0
0
0
545
0
0
0
549
0
551
0
553
554
0
556
557
558
559
560
0
562
563
564
565
566
567
568
569
570
571
572
573
574
575
0
577
578
579
580
581
582
0
584
0
586
587
588
589
590
0
592
593
594
595
596
597
598
599
600
601
602
603
604
605
606
607
608
609
610
611
612
613
614
0
616
617
618
619
0
621
622
0
0
625
626
627
628
0
630
631
632
0
634
635
636
637
638
639
640
641
642
643
644
645
646
647
0
0
650
0
652
653
654
655
0
0
658
0
660
661
662
663
664
665
666
667
668
669
670
671
672
0
674
0
676
677
678
0
680
681
682
683
684
685
686
0
0
689
690
691
692
693
694
0
696
0
0
699
700
701
702
0
704
705
0
0
708
709
710
711
712
713
714
715
716
717
0
719
720
721
722
723
724
725
726
0
728
729
730
731
732
733
734
735
736
737
738
739
740
0
742
743
744
745
746
0
748
749
750
751
752
753
754
755
756
757
758
0
760
761
762
763
0
0
766
0
768
769
770
0
772
0
0
775
0
777
778
0
780
781
782
783
0
785
786
0
788
789
790
791
792
793
794
795
796
0
0
799
800
801
802
803
804
805
806
0
808
809
810
811
0
813
814
815
816
817
818
0
820
0
0
823
0
825
826
827
828
829
0
831
832
833
0
835
836
837
838
839
840
841
0
843
844
845
846
847
848
849
850
851
0
853
854
855
856
0
0
859
860
861
862
863
864
865
866
867
868
869
870
871
872
873
0
875
876
877
0
879
880
881
0
883
0
885
0
887
888
889
890
0
0
893
894
895
896
897
898
899
900
901
902
903
904
905
906
0
908
909
910
911
912
913
914
915
0
917
918
919
920
921
922
923
924
925
926
927
928
929
930
931
932
933
934
935
936
0
938
939
0
941
0
943
944
945
946
947
948
0
950
951
952
953
954
955
956
957
958
959
0
961
962
963
964
965
966
967
968
969
970
0
972
973
0
975
976
977
978
979
980
981
982
983
984
985
986
987
988
989
990
991
992
993
994
0
996
997
998
999
1000
2
3
4
5
6
7
0
9
10
11
12
13
14
15
16
17
18
19
20
21
22
23
24
25
26
27
28
29
30
31
0
33
34
35
36
0
38
39
40
41
42
0
44
45
46
47
0
49
50
51
52
53
54
55
56
57
58
59
0
61
62
63
64
65
66
67
68
69
70
71
72
73
74
75
76
0
78
79
80
81
82
0
84
0
86
87
88
89
90
91
92
93
94
95
96
0
0
0
100
101
102
103
104
0
106
107
108
109
110
111
112
113
0
115
116
0
118
119
120
121
122
0
124
0
126
127
0
129
130
0
0
133
134
135
0
137
0
139
140
141
142
143
144
145
146
147
148
149
150
151
152
153
154
155
156
157
158
159
160
0
162
163
164
165
166
167
168
169
170
171
172
173
174
175
176
177
178
179
180
181
182
183
184
185
186
187
188
189
190
191
192
193
194
195
196
197
198
199
200
201
202
203
204
0
0
207
208
209
210
211
212
0
0
215
216
217
218
219
220
221
222
223
224
225
226
227
0
229
0
231
0
233
234
235
236
237
0
239
240
241
242
0
244
0
246
247
248
249
0
251
252
0
254
255
0
0
258
0
0
261
0
263
264
265
266
267
0
0
270
271
272
273
274
0
276
277
278
279
280
281
282
283
0
285
286
287
288
289
0
291
0
293
294
295
0
297
298
0
0
0
302
303
304
305
306
307
308
309
310
311
312
313
0
315
316
0
318
0
0
321
322
323
0
325
326
327
328
329
330
331
332
333
334
335
336
337
338
339
340
341
342
343
344
345
346
347
348
349
0
351
0
353
354
355
356
357
358
359
360
361
362
363
364
365
366
367
368
369
370
371
0
373
374
375
376
377
378
379
380
381
382
383
0
0
0
0
388
389
390
391
392
393
394
395
0
397
0
399
400
401
402
403
404
405
0
0
408
0
410
0
412
413
414
415
0
417
418
419
0
421
422
423
0
425
0
427
428
429
430
431
432
0
434
0
0
437
438
439
440
441
442
443
444
445
0
447
448
449
450
451
452
453
454
455
456
457
458
459
460
461
462
463
464
465
466
467
468
469
470
471
472
473
474
475
476
0
478
479
480
481
482
483
484
485
486
487
488
489
490
491
492
493
0
0
496
497
498
499
500
501
502
503
504
505
506
507
508
509
510
511
512
513
0
515
516
517
518
519
520
521
522
523
0
525
526
527
528
529
530
531
0
0
0
535
0
537
0
539
540
0
0
0
0
545
0
0
0
549
0
551
552
553
554
0
556
557
558
559
560
0
0
563
564
565
566
567
568
569
570
0
572
573
574
575
576
577
578
579
580
581
582
583
584
585
586
587
588
589
590
591
592
593
594
595
596
0
0
599
600
0
602
603
604
605
606
607
0
609
0
611
612
613
614
0
616
617
618
619
620
621
622
623
0
0
626
627
628
629
630
631
632
0
634
635
636
637
0
639
0
0
642
643
644
0
646
647
648
649
650
651
652
653
654
0
656
657
658
0
660
661
662
663
664
665
666
667
668
669
670
671
672
673
674
675
676
0
678
0
680
0
682
683
684
685
686
0
0
689
690
691
692
693
694
695
696
697
698
699
700
701
702
703
704
705
706
707
708
709
710
711
712
713
714
715
716
717
718
719
720
721
722
723
724
725
726
0
0
0
730
731
732
733
734
735
736
737
0
739
0
0
742
0
744
0
746
0
748
749
750
751
752
753
754
755
756
0
758
0
760
761
762
763
764
765
0
0
0
769
770
0
772
0
0
775
776
777
778
779
780
781
782
783
784
785
786
787
788
789
790
791
792
793
794
795
0
0
798
799
800
801
802
803
804
805
806
0
808
809
810
811
812
813
814
815
816
0
818
0
820
0
0
823
824
825
826
827
828
0
0
831
832
833
0
835
836
837
838
839
840
841
842
843
844
845
846
847
848
849
850
851
852
853
854
0
856
0
858
859
860
861
862
863
864
865
866
867
868
869
870
0
872
873
874
875
876
877
878
879
880
881
882
883
0
885
0
887
888
889
890
891
0
893
894
895
896
897
0
899
900
901
902
903
0
905
906
907
908
909
910
911
912
913
914
915
0
917
918
919
920
921
922
923
924
925
926
927
928
929
0
931
932
933
934
935
936
937
938
939
940
941
942
943
944
945
946
947
948
949
950
951
0
953
954
955
956
957
958
959
960
961
962
963
0
0
966
0
968
969
970
0
972
0
0
975
976
977
978
979
980
981
982
983
984
985
0
987
0
989
990
991
992
993
994
0
996
997
998
999
1000
2
3
4
5
6
7
8
9
10
11
12
13
14
0
16
17
18
19
20
21
22
23
24
25
0
0
28
29
30
31
32
33
34
35
36
37
38
39
40
41
42
43
44
45
46
47
0
49
50
51
52
53
54
55
56
57
58
59
60
61
62
63
64
65
66
67
68
69
70
71
72
73
74
75
76
0
78
79
80
81
82
83
84
85
86
87
88
89
90
91
92
93
94
0
96
0
0
99
100
101
102
103
0
105
106
107
0
109
110
111
112
113
114
115
116
0
118
119
120
121
122
0
124
0
126
127
128
129
130
0
132
133
134
135
136
137
138
139
140
0
142
0
144
145
146
147
148
149
150
151
152
153
0
0
156
157
158
159
160
161
162
163
164
165
166
167
168
0
170
171
172
173
174
175
176
177
0
179
0
181
0
183
184
185
186
187
188
189
190
191
192
193
194
195
196
197
198
199
200
201
202
203
204
0
0
207
208
209
210
211
212
213
214
215
216
217
218
0
220
221
222
223
0
225
0
227
0
229
0
231
0
233
234
235
236
237
238
239
240
241
242
243
244
245
246
247
0
249
250
251
252
253
254
255
256
257
258
259
0
261
0
263
264
265
0
267
0
0
270
271
272
273
274
275
276
277
278
279
0
281
282
283
284
285
286
287
288
289
0
291
0
293
294
295
0
297
298
0
300
301
302
303
0
305
0
307
308
309
310
0
312
313
0
315
316
0
318
0
0
321
322
323
324
325
326
327
328
329
330
331
332
333
334
335
336
337
338
0
340
341
342
343
344
345
346
347
0
349
0
351
0
353
354
0
356
357
358
359
360
361
362
363
364
365
0
367
368
369
370
371
0
373
374
375
376
377
0
379
380
0
0
383
0
0
0
0
388
389
390
0
0
0
394
395
396
397
398
399
400
401
402
403
404
405
406
407
408
409
410
411
412
413
414
415
416
417
418
419
420
421
0
423
424
425
0
427
0
429
430
431
432
433
434
435
436
437
0
439
440
441
442
0
444
445
446
447
448
449
450
451
452
453
454
0
456
457
458
459
460
461
462
463
464
465
466
467
468
469
470
471
472
473
474
475
476
0
478
479
480
481
482
483
484
485
486
487
0
489
490
491
0
493
0
0
496
497
498
499
500
501
502
503
504
505
506
507
508
509
510
511
0
513
0
0
516
517
518
519
520
0
522
0
0
525
526
527
528
529
530
531
0
0
534
535
536
537
538
539
540
541
542
543
544
545
546
547
0
549
0
551
552
553
554
555
556
557
558
559
560
561
562
563
0
0
566
567
568
569
570
0
572
573
574
575
576
577
578
579
580
581
582
583
584
0
586
587
588
589
590
0
592
593
594
595
596
0
0
599
600
0
602
0
0
605
606
607
0
609
0
611
612
613
614
615
616
617
618
619
0
621
622
0
0
0
626
0
628
629
630
631
632
0
634
635
636
637
638
639
0
0
642
643
0
0
646
647
0
649
650
0
652
653
654
0
0
657
658
0
660
661
662
663
664
665
666
0
668
669
670
671
672
673
674
675
676
0
678
0
680
681
682
683
684
685
686
687
0
689
690
691
692
693
694
0
696
0
698
699
700
701
702
703
704
705
706
0
0
709
710
0
0
0
714
715
716
717
718
719
720
721
722
723
724
725
726
727
0
0
730
731
732
733
734
735
736
737
0
739
0
0
742
743
744
745
746
0
748
0
750
751
752
753
754
0
756
0
758
0
760
761
762
763
764
765
766
767
0
769
770
771
772
773
774
775
776
777
778
779
780
0
782
0
0
785
786
787
788
789
790
791
792
793
794
795
0
0
0
799
800
801
802
803
804
805
806
807
808
809
0
811
812
813
814
815
816
0
818
0
820
0
0
823
824
825
826
827
828
829
0
831
832
833
834
835
836
837
838
839
840
841
842
843
844
845
846
847
848
849
850
851
0
853
854
855
856
857
858
859
860
0
0
863
864
865
866
867
0
869
870
0
872
873
874
875
876
877
878
879
880
881
882
883
884
885
886
887
888
889
890
891
0
893
894
895
896
897
898
899
900
901
902
903
0
905
906
907
908
909
910
911
912
913
914
915
916
917
918
919
920
921
922
923
924
925
926
927
928
929
930
931
932
933
934
935
936
937
938
939
940
941
942
943
0
0
0
947
948
949
950
951
952
953
954
955
956
957
958
0
960
961
962
963
0
0
966
0
968
969
970
0
0
973
974
975
976
977
978
979
980
981
982
983
984
985
0
987
0
989
990
991
992
993
994
0
996
997
998
999
1000
2
3
4
5
6
7
8
9
10
11
12
13
14
0
16
17
18
19
20
0
22
23
24
25
26
27
28
29
30
31
0
33
34
35
36
37
38
39
40
41
42
43
44
45
46
47
48
49
50
51
0
53
54
55
56
57
58
59
60
61
62
63
64
65
66
67
68
69
70
71
72
73
74
75
76
0
78
79
0
0
82
83
84
85
86
87
88
89
90
91
92
93
94
95
96
97
0
0
100
101
102
103
0
105
106
107
0
109
110
111
0
113
0
115
116
117
118
119
120
121
122
123
124
125
126
127
128
129
130
131
132
133
134
135
0
137
138
139
140
0
142
0
144
0
0
147
148
0
0
151
0
153
154
155
156
157
158
159
160
0
162
163
164
165
166
167
168
0
170
171
172
173
174
175
176
177
178
179
180
181
182
183
184
185
186
187
0
189
190
191
192
193
0
195
196
197
198
199
200
201
202
203
204
205
206
207
208
209
210
211
212
213
214
215
216
217
218
219
220
221
222
223
224
225
0
227
0
229
230
231
232
233
234
0
236
237
238
239
240
241
242
243
244
245
246
247
248
249
250
251
252
0
254
255
256
0
258
259
260
261
0
263
264
265
266
267
0
0
270
271
272
273
274
0
276
277
278
279
0
281
282
283
0
285
286
0
288
289
0
291
0
293
294
295
296
297
298
0
0
301
302
303
304
305
0
307
308
309
310
311
312
313
0
315
316
0
318
319
0
321
322
323
0
325
326
327
328
329
330
331
332
333
334
0
336
337
338
0
340
341
0
343
344
345
346
347
348
349
0
351
352
353
354
355
356
357
358
359
360
361
362
363
364
365
366
367
368
369
370
371
0
373
374
375
376
377
378
379
380
381
0
383
0
0
0
0
388
389
390
0
0
393
394
395
0
397
0
399
400
401
402
403
404
405
0
0
408
409
410
411
412
413
414
415
416
0
418
419
0
421
422
423
424
425
0
427
428
429
430
431
432
0
434
435
436
437
438
439
440
441
442
443
444
445
0
447
0
449
450
451
452
453
454
455
456
457
458
459
460
461
462
463
464
0
466
467
468
469
470
471
472
473
474
475
476
477
478
479
480
481
482
483
0
485
486
487
488
489
490
491
0
493
0
495
496
497
498
499
500
501
502
503
504
505
506
507
508
509
510
511
512
513
0
0
516
517
518
519
520
521
522
523
524
525
526
527
528
529
530
531
532
533
0
535
0
537
538
539
540
0
542
0
0
545
0
547
548
549
0
551
552
553
554
555
556
557
558
559
560
0
0
563
564
565
566
567
568
569
570
571
572
573
574
575
0
577
578
579
580
581
582
583
584
585
586
587
588
589
590
0
592
593
594
595
596
597
598
599
600
0
602
0
0
605
606
607
0
609
0
611
0
613
614
0
616
617
618
619
0
621
622
623
0
625
626
627
628
629
630
631
632
633
634
635
636
637
0
639
0
0
642
643
0
0
646
647
0
0
650
0
652
653
654
0
0
0
658
659
660
661
662
663
664
665
666
0
668
669
670
671
672
673
674
675
676
0
678
679
680
681
682
683
684
685
686
0
0
689
690
691
692
693
694
0
696
0
0
699
700
701
702
703
704
705
0
0
0
709
710
711
712
713
714
715
716
717
0
719
720
721
722
723
724
725
726
727
728
729
730
731
732
733
734
735
736
737
738
739
740
741
742
743
744
0
746
0
748
0
750
751
752
753
754
0
756
0
758
759
760
761
762
763
764
765
766
0
768
769
770
771
772
773
0
775
0
777
778
0
780
781
782
783
784
785
786
787
788
789
790
791
792
793
794
0
0
0
0
799
800
801
802
803
804
805
806
807
808
809
810
811
812
813
814
815
816
817
818
0
820
0
822
823
824
825
826
827
828
0
0
831
832
833
834
835
836
837
838
839
840
841
0
843
844
845
846
847
848
849
850
851
852
853
854
855
856
0
0
859
860
0
0
863
864
865
0
867
868
869
870
871
872
873
874
875
876
877
0
879
880
881
0
883
0
885
886
887
888
889
890
891
892
893
894
895
896
897
898
899
900
901
902
903
0
905
906
0
908
909
910
911
912
913
914
915
916
917
918
919
920
921
922
923
924
925
926
927
928
929
0
931
932
933
934
935
936
937
938
939
940
941
0
943
0
0
0
947
948
0
950
951
952
953
954
955
956
957
958
959
960
961
962
963
0
0
966
0
968
969
970
0
972
973
974
975
976
977
978
979
980
0
982
983
984
985
986
987
988
989
990
991
992
993
994
995
996
997
998
999
1000
2
3
4
5
6
7
8
9
10
11
12
13
14
0
16
17
18
19
20
0
22
23
24
25
0
0
28
29
0
31
0
33
34
35
36
37
38
39
40
41
42
0
44
45
46
47
48
49
50
0
0
53
54
55
56
57
58
59
60
61
62
63
64
65
66
67
68
69
70
71
72
73
74
75
76
0
78
79
80
81
82
83
84
0
86
87
88
89
90
91
92
93
94
95
96
0
0
99
100
101
102
103
104
105
106
107
0
109
110
111
0
113
0
115
116
117
118
119
120
121
122
123
124
0
126
127
128
129
130
131
132
133
134
135
136
137
0
139
140
0
142
143
144
0
0
147
148
0
0
151
0
153
154
155
156
157
158
159
160
0
162
163
164
165
166
167
168
0
170
171
172
173
174
175
176
177
0
179
0
181
0
183
184
185
186
187
188
189
0
191
192
193
194
195
196
197
198
199
200
201
202
203
204
0
0
207
208
209
210
211
212
0
0
215
216
217
218
0
220
221
222
223
224
225
0
227
0
229
230
231
0
233
234
0
0
237
238
239
240
241
242
243
244
0
246
247
0
249
0
251
252
0
254
255
0
0
258
0
260
261
262
263
264
265
266
267
268
269
270
271
272
273
274
0
276
277
278
279
0
281
282
283
284
285
286
287
288
289
0
291
0
293
294
295
0
297
298
299
300
301
302
303
304
305
0
307
308
309
310
0
312
313
314
315
316
0
318
319
0
321
322
323
0
325
326
327
328
329
330
331
0
333
334
335
336
337
338
0
340
341
342
343
344
345
0
347
348
349
350
351
0
0
354
0
356
357
358
359
360
361
362
363
364
365
366
367
368
369
370
371
0
373
374
375
376
377
0
379
380
0
0
383
0
0
0
0
388
389
390
0
0
0
394
395
396
397
398
399
400
401
402
403
404
405
0
407
408
409
410
0
412
413
414
415
416
417
418
419
0
421
0
423
424
425
426
427
428
429
430
431
432
0
434
0
0
437
0
439
440
441
442
0
444
445
0
447
0
449
450
451
452
453
454
0
456
457
458
459
460
461
462
463
464
465
466
0
468
469
470
471
472
473
474
475
476
477
478
479
480
481
482
483
0
485
486
487
488
489
490
491
0
493
0
0
496
497
498
499
500
501
502
503
504
505
506
507
508
509
510
511
0
513
0
515
516
517
518
519
520
0
522
523
524
525
526
527
528
529
530
531
0
0
0
535
536
537
538
539
540
541
542
543
544
545
546
0
548
549
0
551
552
553
554
0
556
557
558
559
560
0
0
563
564
0
566
567
568
569
570
0
572
573
574
575
0
577
578
579
580
581
582
583
584
585
586
587
588
589
590
591
592
593
594
595
596
597
598
599
600
0
602
0
604
605
606
607
0
609
0
611
0
613
614
615
616
617
618
619
0
621
622
623
0
0
626
0
628
629
630
631
632
0
634
635
636
637
638
639
640
641
642
643
644
645
646
647
648
649
650
0
652
653
654
0
0
0
658
659
660
661
662
663
664
665
666
667
668
669
670
671
672
673
674
675
676
677
678
679
680
681
682
683
684
685
686
0
0
689
690
691
692
693
694
0
696
0
0
699
700
701
702
703
704
705
706
707
708
709
710
711
712
713
714
715
716
717
0
719
720
721
722
723
724
725
726
0
0
729
730
731
732
733
734
735
736
737
738
739
740
741
742
0
744
0
746
0
748
749
750
751
752
753
754
755
756
757
758
759
760
761
762
763
764
765
0
0
768
769
770
0
772
0
0
775
0
777
778
0
0
0
782
783
784
785
786
787
788
789
790
791
792
793
794
795
796
797
0
799
800
801
802
803
804
805
806
0
808
809
0
811
812
813
814
815
816
0
818
0
820
0
0
823
0
0
0
827
828
0
0
831
832
833
834
835
836
837
838
839
840
841
0
843
844
845
846
847
848
849
850
851
0
0
854
0
856
0
0
859
860
861
862
863
864
865
866
867
868
869
870
0
872
873
0
875
876
877
0
879
880
881
882
883
884
885
886
887
888
889
890
891
0
893
894
895
896
897
898
899
900
901
902
903
904
905
906
0
908
909
910
911
912
913
914
915
0
917
918
919
920
921
922
923
924
925
926
927
928
929
0
931
932
933
934
935
936
937
938
939
940
941
0
943
944
945
946
947
948
0
950
951
0
0
954
955
956
0
958
0
0
961
962
0
0
0
966
0
968
969
970
0
972
973
0
975
976
977
978
979
980
981
982
983
984
985
0
987
0
989
990
991
992
993
994
0
996
997
998
999
1000
2
3
4
5
6
7
8
9
10
11
12
13
14
15
16
17
18
19
20
21
22
23
24
25
0
0
28
29
0
31
0
33
34
35
36
0
0
39
40
41
42
0
44
45
46
47
0
49
50
51
52
53
54
55
56
57
58
59
60
61
62
63
64
65
66
67
68
69
70
71
72
73
0
75
76
77
78
79
80
81
82
83
84
85
86
87
88
89
90
91
92
93
94
0
96
0
0
0
100
0
102
103
0
105
106
107
108
109
110
111
0
113
0
115
116
117
118
119
120
121
122
123
124
0
126
127
128
129
130
131
132
133
134
135
0
137
0
139
140
141
142
0
144
0
146
147
148
149
150
151
0
0
0
0
156
157
158
159
160
0
162
163
164
165
166
167
168
169
170
171
172
173
174
175
176
177
178
179
180
181
182
183
184
185
186
187
188
189
0
191
192
193
194
195
196
197
198
199
200
201
202
203
204
205
206
207
208
209
210
211
212
213
214
215
216
217
218
219
220
221
0
223
224
225
226
227
228
229
230
231
232
233
234
235
236
237
0
239
240
241
242
0
244
245
246
247
248
249
250
251
252
253
254
255
0
257
258
259
260
261
262
263
264
265
0
267
0
0
270
271
272
273
274
0
276
0
278
279
0
281
282
283
0
285
286
0
288
289
0
291
0
293
294
295
296
297
298
0
0
0
302
303
304
305
306
307
308
309
310
311
312
313
314
315
316
0
318
319
320
321
322
323
0
325
326
327
328
329
330
331
0
333
334
335
336
337
338
0
340
341
342
343
344
345
346
347
0
349
0
351
352
353
354
355
356
357
358
359
360
361
362
0
364
365
0
367
368
369
370
371
0
373
374
375
376
377
378
379
380
381
0
383
0
385
386
387
388
389
390
391
392
393
394
395
0
397
398
399
400
401
402
403
404
405
406
407
408
0
410
0
412
413
414
415
0
0
418
419
0
421
0
423
424
425
426
427
0
429
430
431
0
433
434
435
436
437
438
439
440
441
442
0
444
445
446
447
448
449
450
451
452
453
0
0
456
457
458
459
460
461
462
463
464
465
466
0
468
469
470
471
472
473
474
475
476
477
478
479
480
481
482
483
484
485
486
487
0
489
490
491
0
493
0
0
496
497
498
499
500
0
502
503
504
505
506
507
508
509
510
511
0
513
0
0
516
517
0
519
0
521
522
523
524
525
526
527
528
529
530
531
0
0
0
535
0
537
0
539
540
541
542
0
0
545
546
547
548
549
550
551
0
553
554
0
556
557
558
559
560
561
562
563
564
0
566
567
568
569
570
0
572
573
574
575
0
577
578
579
580
581
582
583
584
0
586
587
588
589
590
591
592
593
594
595
596
597
598
599
600
0
602
603
604
605
606
607
608
609
610
611
612
613
614
615
616
617
618
619
0
621
622
623
0
0
626
627
628
0
630
631
632
633
634
635
636
637
0
639
640
641
642
643
644
645
646
647
0
649
650
651
652
653
654
655
656
657
658
0
660
661
662
663
664
665
666
667
668
669
670
671
672
0
674
675
676
0
678
0
680
0
682
683
684
685
686
0
0
689
690
691
692
693
694
0
696
0
0
699
700
701
702
703
704
705
706
707
708
709
710
711
712
713
714
715
716
717
718
719
720
721
722
723
724
725
726
727
0
0
730
731
732
733
734
735
736
737
738
739
740
741
742
0
744
0
746
747
748
749
750
751
752
753
754
0
756
0
758
759
760
761
762
763
0
765
766
0
0
769
770
771
772
773
0
775
0
777
778
779
0
0
782
0
784
785
786
787
788
789
790
791
792
793
794
795
796
797
0
799
800
801
802
803
804
805
806
0
808
809
0
811
812
813
814
815
816
0
818
0
820
0
0
823
0
0
826
827
828
829
0
831
832
833
0
835
836
837
838
839
840
841
842
843
844
845
846
847
848
849
850
851
0
0
854
0
856
857
858
859
860
861
0
863
864
865
866
867
0
869
870
0
872
873
874
875
876
877
0
879
880
881
882
883
884
885
886
887
888
889
890
0
0
893
894
895
896
897
898
899
900
901
902
903
0
905
906
0
908
909
910
911
912
913
914
915
916
917
918
919
920
921
922
923
924
925
926
927
928
929
0
931
932
933
934
935
936
0
938
939
940
941
942
943
944
945
946
947
948
0
950
951
952
953
954
955
956
0
958
959
960
961
962
963
0
965
966
0
968
969
970
971
972
973
0
975
976
977
978
979
980
0
982
983
984
985
0
987
0
989
990
991
992
993
994
0
996
997
998
999
1000
2
3
4
5
6
7
8
9
10
11
12
13
14
15
16
17
18
19
20
0
22
23
24
25
0
0
28
29
30
31
0
33
34
35
36
37
38
39
40
41
42
0
44
45
46
47
0
49
50
0
0
53
54
55
56
57
58
59
0
61
62
63
64
65
66
67
68
69
70
71
72
73
0
75
76
77
78
79
80
81
82
83
84
85
86
87
88
89
90
91
92
93
94
95
96
0
0
99
100
101
102
103
0
105
106
107
108
109
110
111
112
113
114
115
116
117
118
119
120
121
122
123
124
0
126
127
128
129
130
131
132
133
134
135
136
137
0
139
140
141
142
143
144
0
146
147
148
149
150
151
152
153
154
155
156
0
158
159
160
161
162
163
164
165
166
167
168
0
170
171
172
173
174
175
176
177
0
179
0
181
182
183
184
185
186
187
188
189
190
191
192
193
194
195
0
197
198
199
200
201
202
203
204
0
206
207
208
209
210
211
212
0
0
215
216
217
218
219
220
221
0
223
224
225
226
227
228
229
230
231
232
233
234
0
0
237
238
239
240
241
242
243
244
245
246
247
0
249
0
251
252
253
254
255
0
0
258
0
0
261
262
263
0
0
0
267
268
269
270
271
272
273
274
275
276
277
278
279
0
281
282
283
0
285
286
287
288
289
290
291
292
293
294
295
0
297
298
0
0
0
302
303
304
305
0
307
308
309
310
0
312
313
314
315
316
317
318
319
0
321
322
323
0
325
326
327
328
329
330
331
332
333
334
335
336
337
338
339
340
341
0
343
344
345
346
347
348
349
350
351
352
353
354
0
356
357
358
359
360
361
362
363
364
365
0
367
368
369
370
371
0
373
374
375
376
377
0
379
380
0
382
383
0
0
386
387
388
389
390
391
392
0
394
395
0
397
398
399
400
401
402
403
404
405
0
0
408
409
410
411
412
413
414
415
416
417
418
419
420
421
422
423
424
425
426
427
428
429
430
431
432
0
434
0
0
437
438
439
440
441
442
0
444
445
0
447
0
449
450
451
452
453
454
455
456
457
458
459
460
461
462
463
464
0
466
0
468
469
470
471
472
473
474
475
476
477
478
479
480
481
482
483
0
485
486
487
0
489
490
491
492
493
494
0
496
497
498
499
500
501
502
503
504
505
506
0
508
509
510
511
512
513
0
515
516
517
518
519
520
521
522
523
0
525
526
527
528
529
530
531
0
0
0
535
0
537
0
539
540
0
0
543
544
545
546
547
548
549
550
551
0
553
554
0
556
557
558
559
560
0
0
563
564
565
566
567
568
569
570
0
572
573
574
575
576
577
578
579
580
581
582
583
584
0
586
587
588
589
590
0
592
593
594
595
596
597
598
599
600
0
602
0
0
605
606
0
608
609
0
611
0
613
614
0
616
617
618
619
620
621
622
623
624
625
626
627
628
629
630
631
632
0
634
635
636
637
638
639
640
0
642
643
644
645
646
647
648
0
650
0
652
653
654
655
656
657
658
659
660
661
662
663
664
665
666
0
668
669
670
671
672
673
674
675
676
0
678
0
680
0
682
683
684
685
686
0
0
689
690
691
692
693
694
0
696
697
698
699
700
701
0
0
704
705
706
707
0
709
710
711
712
713
714
715
716
717
718
719
720
721
722
723
724
725
726
727
0
729
730
731
732
733
734
735
736
737
0
739
0
0
742
0
744
745
746
747
748
749
750
751
752
753
754
0
756
0
758
0
760
761
762
763
0
0
0
0
768
769
770
0
772
0
0
775
0
777
778
779
0
0
782
0
0
785
786
0
788
789
790
791
792
793
794
795
0
0
0
799
800
801
802
803
804
805
806
807
808
809
0
811
0
813
814
815
816
817
818
819
820
0
0
823
824
825
826
827
828
829
830
831
832
833
0
835
836
837
838
839
840
841
842
843
844
845
846
847
848
849
850
851
0
853
854
855
856
857
858
859
860
861
0
863
864
865
866
867
0
869
870
871
872
873
0
875
876
877
878
879
880
881
0
883
0
885
0
887
888
889
890
0
0
893
894
895
896
897
898
899
900
901
902
903
904
905
906
907
908
909
910
911
912
913
914
915
0
917
918
919
920
921
922
923
924
925
926
927
928
929
930
931
932
933
934
935
936
937
938
939
940
941
942
943
944
0
0
947
948
0
950
951
0
0
954
955
956
0
958
959
0
0
962
0
0
0
966
967
968
969
970
0
0
0
0
975
976
977
978
979
980
981
982
983
984
985
986
987
988
989
990
991
992
993
994
0
996
997
998
999
1000
2
3
4
5
6
7
0
9
10
11
12
13
14
15
16
17
18
19
20
0
22
23
24
25
26
27
28
29
30
31
32
33
34
35
36
37
38
39
40
41
42
43
44
45
46
47
0
49
50
51
52
53
54
55
56
57
58
59
60
61
62
63
64
65
66
67
68
69
70
71
72
73
0
75
76
0
78
79
80
81
82
0
84
0
86
87
88
89
90
0
92
93
94
0
96
97
0
0
100
0
102
103
0
105
106
107
108
109
110
111
0
113
0
115
116
0
118
119
120
121
122
0
124
0
126
127
128
129
130
131
132
133
134
135
0
137
138
139
140
0
142
0
144
0
0
0
148
0
150
151
0
0
154
155
156
157
158
159
160
0
162
163
164
165
166
167
168
169
170
171
172
173
174
175
176
177
0
179
0
181
182
183
184
185
186
187
188
189
190
191
192
193
194
195
196
197
198
199
200
201
202
203
204
205
206
207
208
209
210
211
212
213
214
215
216
217
218
0
220
221
0
0
0
225
0
227
228
229
230
231
0
233
234
235
236
237
238
239
240
241
242
243
244
245
246
247
0
249
250
251
252
0
254
255
0
0
258
0
0
261
262
263
264
265
266
267
268
269
270
271
272
273
274
0
276
0
278
279
0
281
282
283
284
285
286
0
288
289
290
291
292
293
294
295
0
297
298
299
300
301
302
303
0
305
306
307
308
309
310
311
312
313
314
315
316
0
318
0
0
321
322
323
0
325
326
327
328
329
330
331
332
333
334
335
336
337
338
339
340
341
342
343
344
345
0
347
0
349
0
351
352
353
354
355
356
357
358
359
360
361
362
0
364
365
366
367
368
369
370
371
372
373
374
375
376
377
378
379
380
381
0
383
0
0
386
387
388
389
390
0
0
393
394
395
0
397
398
399
400
401
402
403
404
405
406
407
408
409
410
411
412
413
414
415
0
0
418
419
0
421
0
0
0
425
426
427
0
429
430
431
432
433
434
435
0
437
0
439
440
441
442
443
444
445
0
447
0
449
450
451
452
453
454
455
456
457
458
459
460
461
462
463
464
465
466
467
468
469
470
471
472
473
474
475
476
477
478
479
480
481
482
483
0
485
486
487
0
489
490
491
0
493
0
0
496
497
498
499
500
0
502
503
504
505
506
507
508
509
510
511
512
513
514
515
516
517
0
519
520
0
522
0
0
525
526
527
528
529
530
531
0
0
0
535
0
537
538
539
540
541
542
543
544
545
546
547
548
549
550
551
552
553
554
555
556
557
558
559
560
561
562
563
564
565
566
567
568
569
570
0
572
573
574
575
0
577
578
579
580
581
582
583
584
585
586
587
588
589
590
591
592
593
594
595
596
597
598
599
600
0
602
0
0
605
606
607
608
609
610
611
612
613
614
615
616
617
618
619
0
621
622
0
0
625
626
627
628
629
630
631
632
0
634
635
636
637
638
639
0
0
642
643
644
645
646
647
648
649
650
651
652
653
654
0
0
0
658
0
660
661
662
663
664
665
666
0
668
669
670
671
672
673
674
675
676
0
678
0
680
681
682
683
684
0
686
687
688
689
690
691
692
693
694
695
696
0
0
699
700
701
0
0
704
705
706
707
708
709
710
0
0
0
714
715
716
717
718
719
720
721
722
723
724
725
726
727
728
729
730
731
732
733
734
735
736
737
738
739
0
0
742
743
744
745
746
747
748
0
750
751
752
753
754
0
756
0
758
0
760
761
762
763
764
765
0
0
768
769
770
0
772
0
0
775
0
777
778
0
0
0
782
783
784
785
786
0
788
789
790
791
792
793
794
795
796
797
0
799
800
801
802
803
804
805
806
807
808
809
810
811
812
813
814
815
816
0
818
819
820
0
0
823
824
825
826
827
828
829
830
831
832
833
0
835
836
837
838
839
840
841
842
843
844
845
846
847
848
849
850
851
0
0
854
855
856
857
858
859
860
861
0
863
864
865
866
867
868
869
870
0
872
873
0
875
876
877
878
879
880
881
882
883
0
885
886
887
888
889
890
891
892
893
894
895
896
897
0
899
900
901
902
903
904
905
906
0
908
909
910
911
912
913
914
915
916
917
918
919
920
921
922
923
924
925
926
927
928
929
0
931
932
933
934
935
936
937
938
939
940
941
942
943
0
0
0
947
948
949
950
951
0
0
954
955
956
957
958
0
0
961
962
963
0
0
966
0
968
969
970
0
972
973
0
975
976
977
978
979
980
0
982
983
984
985
0
987
0
989
990
991
992
993
994
995
996
997
998
999
1000
2
3
4
5
6
7
8
9
10
11
12
13
14
15
16
17
18
19
20
0
22
23
24
25
0
0
28
29
0
31
32
33
34
35
36
37
0
39
40
41
42
43
44
45
46
47
0
49
50
0
0
53
54
55
0
57
58
59
60
61
62
63
64
65
66
67
68
69
70
71
72
73
0
0
76
77
78
79
0
0
0
0
84
0
86
87
88
89
90
91
92
93
94
95
96
0
0
0
100
0
102
103
0
105
106
107
108
109
110
111
0
113
0
115
116
117
118
119
120
121
122
0
124
0
126
127
128
129
130
0
132
133
134
135
136
137
138
139
140
0
142
143
144
0
146
147
148
149
150
151
152
153
0
0
156
157
158
159
160
0
162
163
164
165
166
167
168
0
170
171
172
173
174
175
176
177
178
179
0
181
0
183
184
185
186
187
188
189
0
0
192
193
0
195
196
197
198
199
200
201
202
203
204
205
206
207
208
209
210
211
212
0
0
0
216
217
218
0
220
221
222
0
0
225
0
227
0
229
230
231
232
233
234
235
0
237
0
239
240
241
242
243
244
245
246
247
0
249
0
251
252
253
254
255
0
0
258
0
0
261
262
263
0
0
266
267
0
0
270
271
272
273
274
0
276
0
278
279
280
281
282
283
0
285
286
0
288
289
0
291
292
293
294
295
296
297
298
0
0
301
302
303
304
305
306
307
308
309
310
311
312
313
0
315
316
0
318
0
320
321
322
323
324
325
326
327
328
329
330
331
0
333
334
0
336
337
338
0
340
341
342
343
344
345
346
347
0
349
0
351
352
353
354
0
356
357
358
359
360
361
362
0
364
365
0
367
368
369
370
371
372
373
374
375
376
377
378
379
380
381
382
383
0
0
0
387
388
389
390
0
392
393
394
395
396
397
0
399
400
401
402
403
404
405
0
0
408
409
410
411
412
413
414
415
0
0
418
419
0
421
0
0
424
425
426
427
428
429
430
431
432
433
434
0
436
437
0
439
440
441
442
0
444
445
446
447
0
449
450
451
452
453
454
455
456
457
458
459
460
461
462
463
464
465
466
467
468
469
470
471
472
473
474
475
476
0
478
479
480
481
482
483
484
485
486
487
488
489
490
491
0
493
494
495
496
497
498
499
500
0
502
503
504
505
506
507
508
509
510
511
512
513
0
515
516
517
0
519
0
0
522
0
0
525
526
527
528
529
530
531
0
0
0
535
536
537
538
539
540
541
542
543
544
545
546
547
548
549
550
551
0
553
554
0
556
557
558
559
560
0
0
563
564
565
566
567
568
569
570
0
572
573
574
575
0
577
578
579
580
581
582
583
584
0
586
587
588
589
590
591
592
593
594
595
596
597
0
599
600
601
602
603
604
605
606
0
0
609
610
611
0
613
614
0
616
617
618
619
0
621
622
623
0
0
626
0
628
0
630
631
632
0
634
635
636
637
638
639
640
0
642
643
0
0
646
0
648
649
650
651
652
653
654
655
656
657
658
0
660
661
662
663
664
665
666
667
668
669
670
671
672
673
674
675
676
0
678
0
680
0
682
683
684
685
686
687
688
689
690
691
692
693
694
0
696
697
698
699
700
701
702
703
704
705
706
707
708
709
710
0
712
0
714
715
716
717
0
719
720
721
722
723
724
725
726
0
0
0
730
731
732
733
734
735
736
737
0
739
740
741
742
743
744
0
746
747
748
749
750
751
752
753
754
0
756
757
758
759
760
761
762
763
764
765
766
0
768
769
770
0
772
773
0
775
0
777
778
779
780
781
782
783
784
785
786
787
788
789
790
791
0
793
0
795
0
0
0
799
800
801
802
803
804
805
806
807
808
809
0
811
812
813
814
815
816
817
818
819
820
821
822
823
824
825
826
827
828
0
0
831
832
833
0
835
836
837
838
839
840
841
842
843
844
845
846
847
848
849
850
851
852
0
854
0
856
0
0
859
860
861
862
863
864
865
866
867
868
869
870
0
872
873
874
875
876
877
0
879
880
881
882
883
884
885
0
887
888
889
890
0
0
893
894
0
896
897
898
899
900
901
902
903
904
905
906
907
908
909
910
911
912
0
914
915
0
917
918
919
920
921
922
923
924
925
926
927
928
929
0
931
932
933
934
935
936
0
938
939
0
941
942
943
944
945
946
947
948
949
950
951
0
0
954
955
956
0
958
0
0
961
962
963
964
965
966
967
968
969
970
0
972
0
0
975
976
977
978
979
980
981
982
983
984
985
986
987
0
989
990
991
992
993
994
0
996
997
998
999
1000
2
3
4
5
6
7
8
9
10
11
12
13
14
15
16
17
18
19
20
0
22
23
24
25
0
0
28
29
0
31
0
33
34
35
36
0
0
39
40
41
42
43
44
45
46
47
48
49
50
51
0
53
54
55
56
57
58
59
60
61
62
63
64
65
66
67
68
69
70
71
72
73
0
75
76
0
78
79
0
0
0
0
84
85
86
87
88
89
90
91
92
0
94
95
96
0
0
0
100
101
102
103
0
105
106
107
108
109
110
111
112
113
114
115
116
117
118
119
120
121
122
0
124
125
126
127
128
129
130
131
132
133
134
135
136
137
0
139
140
0
142
0
144
0
0
147
148
149
0
151
0
0
0
0
156
157
158
159
160
161
162
163
164
165
166
167
168
169
170
171
172
173
174
175
176
177
178
179
0
181
0
183
184
185
186
187
188
189
190
191
192
193
194
195
196
197
198
199
200
201
202
203
204
0
0
207
208
209
210
211
212
213
214
215
216
217
218
0
220
221
222
223
224
225
0
227
0
229
230
231
232
233
234
235
0
237
0
239
240
241
242
243
244
245
246
247
0
249
0
251
252
253
254
255
0
0
258
0
0
261
0
263
0
0
0
267
268
269
270
271
272
273
274
0
0
277
278
279
0
281
282
283
0
285
286
287
288
289
290
291
292
293
294
295
296
297
298
0
0
0
302
303
0
305
306
307
308
309
310
311
312
313
0
315
316
0
318
0
0
321
322
323
324
325
326
327
328
329
330
331
0
333
334
335
336
337
338
0
340
341
0
343
344
345
0
347
348
349
350
351
352
353
354
355
356
357
358
359
360
361
362
363
364
365
0
367
368
369
370
371
372
373
374
375
376
377
0
379
380
381
382
383
0
0
0
0
388
389
390
0
0
0
394
395
0
397
0
399
400
401
402
403
404
405
0
0
408
409
410
0
412
413
414
415
0
0
418
419
0
421
0
0
0
425
426
427
0
429
430
431
432
0
434
0
0
437
0
439
440
441
442
443
444
445
446
447
0
449
450
451
452
453
454
0
456
457
458
0
460
461
462
463
464
465
466
467
468
469
470
471
472
473
474
475
476
0
478
479
480
481
482
483
0
485
486
487
0
489
490
491
0
493
494
495
496
497
498
499
500
0
502
503
504
505
506
507
508
509
510
511
0
513
0
0
516
517
518
519
0
0
522
523
524
525
526
527
528
529
530
531
532
533
534
535
536
537
0
539
540
0
0
0
0
545
546
0
548
549
0
551
552
553
554
0
556
557
558
559
560
561
562
563
564
0
566
567
568
569
570
0
572
573
574
575
0
577
578
579
580
581
582
583
584
585
586
587
588
589
590
0
592
593
594
595
596
597
598
599
600
0
602
0
604
605
606
607
608
609
610
611
0
613
614
0
616
617
618
619
620
621
622
0
0
0
626
0
628
0
630
631
632
633
634
635
636
637
0
639
0
0
642
643
644
0
646
647
648
0
650
651
652
653
654
655
656
657
658
0
660
661
662
663
664
665
666
667
668
669
670
671
672
673
674
675
676
0
678
679
680
681
682
683
684
0
686
687
688
689
690
691
692
693
694
695
696
697
698
699
700
701
0
0
704
705
706
0
0
709
710
711
712
0
714
715
716
717
0
719
720
721
722
723
724
725
726
727
728
729
730
731
732
733
734
735
736
737
738
739
740
741
742
0
744
0
746
0
748
0
750
751
752
753
754
0
756
757
758
0
760
761
762
763
764
765
766
767
768
769
770
771
772
773
0
775
0
777
778
779
780
781
782
783
784
785
786
787
788
789
790
791
792
793
0
795
0
0
0
799
800
801
802
803
804
805
806
0
808
809
0
811
812
813
814
815
816
817
818
0
820
0
0
823
0
0
0
827
828
829
830
831
832
833
834
835
836
837
838
839
840
841
0
843
844
845
846
847
848
849
850
851
0
853
854
0
856
0
0
859
860
861
0
863
864
865
866
867
0
869
870
0
872
873
0
875
876
877
878
879
880
881
0
883
0
885
886
887
888
889
890
891
892
893
894
895
896
897
0
899
900
901
902
903
0
905
906
907
908
909
910
911
912
913
914
915
0
917
918
919
920
921
922
923
924
925
926
927
928
929
930
931
932
933
934
935
936
937
938
939
940
941
942
943
944
945
946
947
948
949
950
951
952
953
954
955
956
957
958
959
960
961
962
963
0
0
966
0
968
969
970
0
0
973
0
975
976
977
978
979
980
0
982
983
984
985
986
987
988
989
990
991
992
993
994
0
996
997
998
999
1000
EOF
