DIMENSION : 1000
NUMBER OF ITEMS : 4995

TOUR_SECTION
1
817
728
250
624
21
871
659
422
248
884
601
260
152
651
280
688
141
681
641
155
428
711
796
819
974
821
855
391
592
788
472
115
400
908
535
486
493
593
844
595
404
349
281
921
28
478
134
87
943
587
605
527
582
540
390
186
570
990
531
336
376
579
556
619
111
840
566
337
62
982
646
23
905
906
217
158
925
204
427
989
72
885
47
756
720
170
680
935
226
149
269
257
51
940
114
868
695
612
904
743
83
944
995
677
740
99
965
411
350
138
213
656
687
494
857
798
32
555
259
438
406
953
747
145
532
43
930
299
892
825
538
830
180
829
662
896
997
373
666
64
76
690
122
499
642
364
18
636
806
600
511
31
575
832
686
452
994
200
49
854
567
704
447
635
466
510
312
321
505
285
632
229
192
40
207
769
893
634
255
202
57
614
864
900
279
876
44
340
360
240
441
193
249
331
329
449
172
980
439
96
208
786
560
694
210
66
368
671
431
310
479
345
94
734
658
664
979
139
970
714
42
551
835
25
29
672
750
836
71
652
996
528
917
164
682
140
356
16
45
621
865
237
594
748
199
763
557
777
800
539
992
811
397
744
325
987
760
120
291
977
650
931
305
991
902
24
389
513
699
395
828
770
434
958
209
142
247
421
661
678
184
577
79
183
414
894
951
130
59
379
859
270
509
602
847
241
879
127
174
163
179
938
480
462
684
102
286
581
948
118
197
588
327
302
789
563
762
34
696
841
549
362
503
725
919
529
415
50
109
84
498
282
899
517
297
519
442
405
252
254
838
793
119
388
880
692
458
351
165
850
736
244
159
54
701
288
758
617
55
271
221
110
58
665
936
1000
693
626
92
599
167
815
799
425
613
380
469
669
710
374
985
751
966
419
251
19
999
61
920
929
888
947
912
628
709
402
691
956
934
983
637
618
915
144
151
121
326
173
357
717
814
440
910
823
338
746
148
394
877
723
731
470
65
890
86
491
239
506
453
487
289
316
334
818
328
3
631
2
569
903
4
730
676
889
887
333
683
344
809
559
715
9
724
234
185
68
78
606
258
572
508
347
106
922
46
330
463
476
370
574
804
233
808
941
735
187
754
782
805
315
88
323
474
343
901
367
954
73
558
6
851
545
11
5
497
383
100
371
516
135
772
993
444
272
845
816
522
358
827
460
211
483
220
53
500
609
875
36
653
181
716
403
468
171
846
643
968
883
803
12
813
133
176
924
475
377
791
318
950
156
35
489
722
365
962
654
341
67
526
242
553
70
126
294
689
831
445
863
471
166
401
933
90
775
322
461
273
195
732
418
116
41
307
839
227
309
955
162
660
263
293
107
726
137
978
923
568
860
909
976
504
998
897
124
674
584
375
20
502
464
89
261
303
705
412
926
496
530
778
168
856
231
14
485
203
611
283
663
451
802
113
69
295
490
216
872
429
129
984
737
833
939
160
10
354
719
481
225
408
849
639
17
399
308
733
369
870
103
848
969
63
869
753
457
590
700
198
785
313
298
22
630
801
201
361
721
413
932
670
218
616
837
975
278
39
928
175
33
359
456
437
525
274
752
867
622
573
410
482
589
881
911
927
212
790
267
7
761
873
13
189
537
554
473
843
820
668
128
246
105
675
647
580
866
586
795
223
432
430
215
276
450
507
895
961
706
132
147
739
812
191
861
353
352
596
230
311
93
56
465
564
946
891
95
742
552
765
913
918
363
607
60
436
131
101
578
454
91
265
38
963
972
222
973
707
794
853
214
783
667
161
301
477
75
638
232
523
583
685
945
712
194
768
264
597
779
146
82
304
713
764
342
518
306
792
423
766
424
235
188
949
393
346
645
598
515
224
771
206
382
981
381
177
37
548
26
784
957
673
546
810
698
697
520
123
807
426
15
543
960
627
277
108
81
319
834
8
27
501
284
446
48
898
335
565
536
492
157
407
228
874
455
433
448
988
332
773
542
443
366
759
745
97
317
143
355
416
74
774
417
550
916
780
749
571
488
459
708
392
435
384
219
484
644
729
649
541
205
623
378
787
629
959
495
467
253
169
852
603
245
781
907
125
290
98
153
824
986
585
533
776
942
262
702
320
409
275
937
52
80
591
178
822
755
296
268
420
30
104
738
703
243
547
112
878
396
117
657
576
287
826
398
314
604
236
886
648
862
339
238
154
767
625
718
640
387
964
182
842
679
882
266
741
386
562
256
655
514
544
150
190
727
512
610
561
952
797
620
292
858
521
348
967
372
615
85
136
534
524
633
196
608
385
757
971
77
300
324
914

PP_SECTION
0
3
0
5
6
7
0
9
10
11
12
13
14
15
0
17
0
0
20
0
0
0
0
25
26
27
0
29
0
0
32
33
0
0
36
0
38
39
0
41
0
0
44
0
46
47
48
0
0
51
52
53
0
0
56
57
0
59
60
61
62
63
0
65
0
67
68
69
70
71
72
73
74
0
0
77
0
0
80
81
82
83
84
85
0
87
0
0
90
91
92
93
94
95
96
97
98
99
100
0
102
0
104
0
0
0
108
0
0
0
112
113
114
0
116
117
0
119
120
121
122
123
124
125
0
0
128
129
130
131
132
0
134
135
136
137
0
0
140
0
142
143
0
0
146
147
148
0
150
0
0
0
154
155
156
157
158
159
160
0
0
163
164
0
166
0
168
169
170
171
0
173
0
175
0
0
178
0
180
181
182
0
184
185
0
0
188
189
190
191
192
0
194
195
196
197
198
0
0
201
202
203
204
205
206
0
208
0
0
0
212
213
214
215
216
217
218
0
220
0
222
223
224
0
226
227
0
0
230
231
232
0
234
235
236
0
238
239
240
0
0
243
244
245
246
0
0
249
0
0
252
253
254
0
256
257
0
259
0
261
0
0
264
265
266
267
268
269
270
0
0
273
0
275
276
0
278
279
0
0
282
0
284
0
286
287
288
0
290
0
292
293
294
295
296
297
0
0
300
0
302
303
304
0
0
307
308
309
310
311
312
313
314
315
0
317
318
0
320
321
322
0
324
325
0
0
0
329
330
0
332
333
334
335
0
337
0
339
340
341
342
343
344
0
346
347
348
349
350
0
352
353
0
355
0
0
0
0
360
361
362
363
0
365
366
367
0
0
370
0
372
373
0
0
376
377
378
379
380
381
382
383
384
385
386
387
388
389
0
391
392
393
394
395
396
0
0
0
0
0
0
403
0
405
0
407
408
409
0
0
0
413
0
0
416
417
0
419
420
421
0
423
424
425
426
427
0
429
430
431
0
433
434
435
436
437
0
439
440
441
0
443
444
0
446
447
448
449
0
0
452
0
454
455
456
457
0
459
0
461
0
463
0
0
466
467
468
0
0
471
472
0
474
475
476
477
0
0
0
481
482
483
484
485
486
0
488
489
0
491
0
0
494
495
0
497
0
499
500
501
0
0
504
0
506
507
508
0
0
511
512
513
514
515
0
0
518
519
520
521
522
0
524
0
526
0
528
529
530
531
532
533
534
535
536
537
0
539
540
541
542
543
544
0
546
547
0
549
550
551
552
0
554
555
0
0
0
559
0
561
562
0
0
565
566
0
568
569
570
571
0
573
0
575
0
0
0
0
580
581
582
583
0
585
586
0
0
589
0
591
0
0
0
0
596
597
598
0
600
601
602
603
604
605
0
607
608
609
610
611
612
0
0
615
0
0
0
619
620
621
622
623
0
625
626
627
0
629
630
631
0
0
634
635
636
637
638
639
640
641
0
643
644
0
646
0
0
649
650
651
0
0
654
655
656
657
658
0
660
661
662
663
664
665
0
667
668
0
670
0
672
673
674
0
0
0
678
679
680
681
682
0
0
685
686
687
0
689
690
0
0
693
694
695
0
697
698
0
0
0
702
703
704
705
706
707
708
0
0
0
712
0
0
715
0
0
718
719
720
721
0
723
724
725
726
727
0
729
730
731
732
733
0
735
736
0
738
739
740
741
742
0
744
745
0
0
748
749
0
751
752
753
0
755
0
757
758
759
760
761
0
0
764
765
766
0
768
769
770
771
772
773
774
0
776
0
0
779
780
781
782
783
784
0
786
0
0
0
790
0
792
0
794
795
0
797
798
799
800
0
802
803
0
0
806
0
808
809
810
811
812
813
0
815
0
817
818
819
820
821
822
823
824
0
826
827
0
0
0
831
0
0
834
835
836
0
0
839
0
841
842
843
0
0
846
847
0
0
0
0
852
853
0
0
856
857
858
859
0
0
862
863
0
865
866
867
868
869
870
871
872
873
874
0
0
0
878
879
880
0
882
883
0
885
886
887
0
889
890
891
892
0
894
0
896
897
898
899
900
901
0
0
904
905
906
907
0
909
910
911
912
913
914
915
916
917
918
919
920
921
0
923
924
0
926
927
0
929
0
0
932
933
934
935
0
937
0
0
940
941
942
943
944
945
946
947
948
949
950
951
952
953
954
0
0
957
0
959
960
0
0
963
964
965
0
967
968
0
970
971
972
0
0
975
976
977
978
979
0
0
982
983
0
985
986
987
988
0
990
0
0
993
0
995
0
0
0
999
0
2
3
0
0
6
0
8
9
10
11
12
0
0
15
16
17
0
19
20
0
22
23
24
0
26
27
0
29
30
31
32
33
34
0
0
37
0
39
40
41
0
0
0
45
0
47
0
49
0
0
52
53
54
0
56
57
58
0
60
0
0
63
64
0
66
67
0
69
70
71
72
73
74
75
76
77
0
79
80
81
82
83
0
85
86
87
88
89
0
91
92
93
0
0
96
97
98
0
0
101
102
0
104
0
0
0
108
109
0
0
112
113
0
115
116
117
118
0
0
0
0
0
124
125
0
127
0
129
0
131
132
133
134
135
136
0
138
139
140
0
142
143
144
0
146
147
0
0
150
151
152
153
154
0
156
0
0
159
0
161
0
0
164
165
0
167
168
169
170
171
0
173
0
175
0
0
178
179
0
181
182
183
0
0
186
0
188
0
190
0
0
193
194
0
196
197
198
0
200
201
0
203
0
205
206
207
208
0
210
0
0
0
214
0
216
0
218
219
0
221
222
0
224
225
226
227
228
229
230
231
0
0
234
235
236
0
238
239
240
241
242
243
244
245
246
0
0
0
0
251
252
253
254
255
256
257
0
0
260
0
262
0
264
0
266
0
268
0
270
271
272
0
0
275
0
277
278
279
280
281
0
283
284
0
0
287
288
289
290
291
292
293
0
295
296
0
298
299
300
0
302
303
304
305
306
0
0
309
0
311
0
313
0
315
0
317
318
319
320
0
322
0
324
325
326
0
0
0
330
0
332
333
0
0
0
337
338
339
340
341
342
343
0
345
346
347
348
0
350
0
352
353
354
355
0
0
358
0
360
361
362
363
0
365
366
0
0
0
0
371
372
0
0
375
0
0
378
379
380
381
382
383
384
385
386
387
388
0
0
0
392
393
394
395
396
397
398
399
0
0
402
403
0
0
0
407
408
409
0
411
412
413
0
415
416
417
418
419
0
421
0
423
424
425
426
0
428
0
0
431
432
433
434
435
436
0
438
439
0
0
442
443
444
0
446
447
448
449
450
451
452
453
454
455
0
0
0
459
460
461
0
463
0
0
0
467
468
469
470
471
472
473
0
475
476
477
478
0
0
481
482
483
484
485
486
487
488
0
490
0
492
493
494
495
496
0
498
499
500
501
0
0
504
505
506
507
508
509
510
511
512
513
514
0
516
517
0
519
0
521
522
523
524
525
526
527
0
0
530
531
0
533
534
0
536
537
0
0
540
541
542
0
544
545
546
547
0
549
550
551
552
0
554
0
0
557
0
0
560
561
562
563
564
0
0
0
568
569
0
571
572
573
574
575
576
577
578
0
0
0
582
583
584
0
586
587
0
589
590
591
592
0
594
0
596
597
598
0
600
0
602
603
604
0
0
607
608
609
610
611
0
0
0
615
0
617
618
619
620
0
0
623
0
625
626
627
628
629
630
0
0
633
0
635
0
637
638
639
640
0
0
643
644
645
646
0
648
0
0
0
652
0
0
655
656
657
658
659
0
661
662
663
664
665
0
667
0
669
0
671
672
673
674
675
0
0
0
679
680
0
0
0
684
0
686
687
0
0
690
0
692
0
694
695
0
697
698
699
700
0
702
0
0
705
0
707
708
709
710
711
712
713
714
715
0
717
718
719
720
721
722
0
724
725
726
727
0
729
0
731
732
733
734
735
736
737
738
739
740
0
0
0
0
745
0
747
748
749
0
0
752
753
0
755
756
757
758
759
760
761
762
0
0
765
766
767
768
0
0
0
772
0
774
775
776
0
778
779
780
781
0
0
0
0
0
787
788
789
0
0
792
0
794
795
0
797
0
0
800
801
0
0
0
0
806
807
0
0
810
811
812
813
0
815
816
0
0
819
820
821
822
823
824
825
826
827
828
0
830
831
0
833
0
835
0
837
838
0
840
841
842
843
844
845
846
0
848
849
850
0
852
853
854
0
856
0
0
0
860
0
862
0
0
865
866
867
868
869
870
0
872
873
0
0
876
877
878
879
880
881
882
0
0
885
886
887
888
889
890
891
0
893
894
895
896
897
898
899
0
901
902
903
0
905
906
907
908
909
0
911
0
0
914
915
916
0
918
919
920
0
922
0
0
925
926
927
928
0
930
0
0
0
0
0
0
937
0
939
940
0
0
943
0
945
946
0
948
949
950
951
952
953
954
955
956
957
958
959
960
961
962
963
964
965
0
967
0
0
970
971
972
973
0
975
976
0
978
979
0
981
982
983
0
985
986
0
988
989
990
0
992
993
0
995
0
0
0
0
0
2
3
4
5
6
7
8
9
10
11
12
13
14
15
0
17
18
19
20
21
22
0
24
25
26
27
0
29
30
0
0
0
34
35
36
37
38
39
40
41
42
43
0
0
0
47
48
0
50
0
52
53
0
0
56
0
0
0
60
61
0
63
0
65
0
67
68
0
0
0
72
73
74
75
0
77
0
79
80
81
82
0
84
85
86
87
88
89
0
0
92
93
94
95
96
97
98
99
0
101
102
103
104
105
0
0
0
109
110
111
112
113
114
115
116
117
0
119
120
121
122
123
0
125
126
0
128
129
0
131
132
0
0
0
136
0
138
0
140
0
0
143
144
0
146
147
148
0
150
151
0
0
154
0
0
157
0
159
0
0
162
163
0
165
166
167
0
169
0
171
0
0
174
175
176
177
0
179
180
181
182
183
184
0
0
187
188
189
190
0
0
0
194
0
196
0
0
0
200
201
0
0
204
205
206
0
0
209
210
211
212
0
0
215
0
0
218
219
0
0
222
223
224
0
0
0
228
229
230
0
232
233
234
235
0
0
238
239
240
241
242
243
244
245
0
247
248
249
0
251
252
253
254
0
256
0
0
0
260
261
262
263
264
265
266
0
268
269
270
0
272
273
274
275
276
277
278
0
280
0
282
0
0
0
0
287
288
0
290
291
292
0
0
0
296
297
298
0
300
301
302
303
0
0
306
0
308
309
0
311
312
313
314
0
316
317
318
0
320
321
322
323
324
325
0
327
0
0
330
0
332
333
0
335
0
337
338
339
340
341
342
343
344
345
346
347
348
349
350
351
352
353
354
355
356
0
358
0
360
0
0
363
364
365
366
367
0
369
0
371
372
0
374
375
376
0
378
0
380
381
382
0
384
385
386
387
0
0
0
391
392
393
0
0
0
397
398
0
0
0
402
403
404
0
406
407
408
409
410
411
412
0
414
415
416
0
418
419
420
0
0
423
424
0
426
427
0
429
430
0
432
433
0
435
0
437
438
0
0
0
442
443
444
445
446
447
448
0
450
451
452
453
454
455
456
457
0
459
460
461
0
463
464
0
466
0
468
469
470
471
0
473
474
0
0
477
478
0
480
481
0
0
484
0
0
0
488
489
0
0
0
0
0
495
496
497
498
0
500
501
502
503
504
0
506
0
508
509
0
511
512
0
514
515
516
517
518
0
520
521
522
523
524
525
0
0
0
0
530
531
0
533
534
0
536
537
0
539
540
0
0
543
544
545
546
547
548
0
550
551
552
553
554
0
556
557
0
559
0
561
562
0
0
565
566
567
568
569
570
571
572
573
574
575
576
577
578
0
580
0
0
0
0
0
586
0
588
589
590
591
592
593
594
595
0
597
598
0
600
0
602
603
604
0
606
607
608
0
610
0
0
613
0
615
616
0
0
619
620
0
622
0
0
0
626
0
628
629
630
0
0
633
0
635
636
637
0
0
640
641
0
643
644
645
0
0
648
649
650
651
652
653
654
655
0
0
658
0
660
0
662
663
664
0
666
667
668
0
670
671
0
0
674
675
0
0
678
679
0
681
0
0
684
0
0
687
0
689
0
691
692
0
694
695
696
697
698
0
700
0
0
703
704
705
706
707
708
709
0
711
0
0
0
715
716
717
0
719
0
0
722
723
0
0
726
727
728
0
730
731
732
0
734
0
736
0
738
739
0
741
742
743
744
745
0
0
0
0
750
751
752
0
0
0
756
757
758
759
760
761
762
763
764
765
0
767
768
769
770
771
0
773
774
0
776
0
0
779
0
781
782
783
784
785
0
0
0
789
790
0
792
793
794
795
796
797
798
0
800
801
802
803
0
805
806
807
0
0
810
811
0
813
814
815
816
0
0
819
820
821
0
823
824
825
826
0
0
829
830
831
832
833
0
835
836
837
838
839
0
841
842
843
0
845
846
0
0
849
850
0
852
853
854
855
856
857
858
0
860
861
0
863
864
865
866
0
868
869
870
871
872
0
0
875
876
0
0
0
880
0
882
883
0
0
886
887
888
0
0
891
892
893
894
895
0
897
898
899
900
901
902
903
904
905
906
907
0
0
0
911
912
0
914
0
916
917
918
919
0
921
922
923
924
0
0
927
928
929
930
0
932
933
934
0
0
937
0
939
0
0
942
943
944
945
0
0
0
949
0
0
952
953
0
0
956
957
958
959
960
0
962
963
964
0
0
967
0
969
0
971
972
973
974
975
976
0
978
0
0
981
982
0
984
985
986
987
988
989
990
991
992
993
0
995
0
0
998
999
0
0
3
0
5
0
7
8
0
10
11
12
13
14
15
0
0
0
19
20
21
0
0
24
25
26
27
0
29
30
0
32
33
34
35
0
0
38
0
0
41
0
0
44
45
0
47
48
49
0
0
52
0
54
55
56
57
0
59
60
0
0
63
0
0
66
67
68
69
0
0
72
73
0
75
76
77
78
0
80
81
0
83
84
0
0
87
0
89
90
0
0
93
0
95
96
97
0
99
100
101
102
103
104
105
0
0
0
109
110
111
112
113
0
115
116
117
0
119
0
121
0
123
124
0
126
0
0
129
130
131
132
133
134
0
136
137
0
0
0
141
0
143
144
0
0
147
0
149
150
151
152
0
0
155
156
157
0
159
160
0
0
0
0
0
166
167
0
0
0
0
172
173
174
175
0
177
178
0
0
181
182
0
0
0
186
0
188
0
0
191
0
0
194
195
196
197
0
0
0
201
0
203
204
205
206
207
0
0
0
211
212
213
214
215
216
217
218
219
0
221
222
223
224
225
226
0
228
229
0
231
232
0
0
235
236
237
238
0
240
0
242
243
244
245
246
247
0
0
0
0
0
253
254
255
256
0
258
0
0
261
0
263
264
265
266
267
268
0
0
271
0
273
274
275
276
277
0
0
280
281
0
283
0
0
286
287
288
289
290
291
292
293
294
295
296
0
298
299
300
0
302
303
304
305
306
307
0
0
310
0
312
313
314
0
0
317
318
319
320
321
322
323
324
0
326
327
0
329
0
331
0
0
0
335
0
0
338
339
0
341
342
343
0
345
346
0
348
349
350
351
352
0
354
355
0
0
0
359
360
0
362
363
364
0
366
0
0
369
0
371
372
373
0
375
376
377
378
0
0
381
382
0
384
385
386
387
388
0
390
0
392
393
0
0
396
0
398
0
0
401
402
403
404
405
0
407
408
409
410
411
412
0
414
0
0
417
418
419
420
421
0
423
424
425
426
427
428
0
430
431
432
433
0
435
436
437
438
0
0
0
442
0
444
445
446
0
448
0
450
0
0
0
454
0
0
457
0
459
0
461
462
463
464
465
466
467
468
0
0
471
472
473
0
0
0
477
0
0
480
481
482
483
484
485
486
487
488
489
490
0
492
493
0
495
0
497
0
0
0
501
502
503
504
0
506
507
508
509
0
511
512
513
514
515
0
0
518
0
520
0
522
523
524
0
526
0
528
0
0
0
0
0
534
0
536
537
0
539
540
541
542
543
544
545
0
547
548
549
550
551
552
0
554
555
556
0
558
559
0
561
562
563
564
565
0
567
568
569
0
571
572
573
574
0
576
0
578
0
580
0
0
583
584
585
586
0
588
589
590
591
592
0
0
595
596
0
598
0
0
0
0
0
604
605
606
607
608
609
610
611
0
0
0
0
616
0
0
0
620
0
622
623
624
625
0
627
628
629
630
631
0
633
0
635
636
0
638
639
640
641
0
643
644
645
0
647
0
0
650
651
0
0
654
655
656
657
658
659
0
0
0
663
664
0
666
667
668
669
670
671
672
673
674
675
676
0
0
679
0
0
682
0
0
685
686
0
688
0
690
691
692
0
694
695
0
697
698
0
700
0
702
703
704
705
706
707
0
0
710
0
712
713
714
715
716
0
718
719
0
0
722
0
724
725
726
727
728
729
730
0
732
0
734
735
736
0
738
739
740
741
0
0
744
745
746
747
748
749
0
751
752
0
754
0
756
757
0
759
0
761
762
0
764
765
766
767
768
0
770
771
772
773
774
0
776
0
778
0
780
781
782
0
0
0
0
787
0
789
790
791
792
793
0
795
796
797
798
0
800
0
802
0
804
0
806
0
0
809
810
811
812
0
814
815
816
817
818
0
820
0
822
0
824
825
826
827
0
829
0
831
0
833
834
0
836
837
838
839
840
0
842
0
844
0
0
0
848
0
850
851
0
0
854
0
856
857
858
859
860
861
862
863
0
0
0
0
0
869
870
871
872
873
874
875
0
877
878
879
0
881
882
883
884
885
886
887
888
889
0
891
892
893
894
895
0
897
898
899
900
901
902
903
0
0
906
907
908
0
910
911
0
0
914
0
916
0
918
0
920
921
0
923
924
0
926
0
928
0
0
0
932
0
934
935
0
0
938
939
940
941
942
0
0
945
946
0
948
949
950
951
952
0
0
955
0
0
958
959
0
961
962
963
964
0
966
967
968
969
0
971
972
973
0
975
0
977
0
0
980
0
0
983
984
985
986
0
988
0
0
991
992
993
0
995
0
997
0
999
0
0
0
0
5
6
7
8
9
10
11
0
0
14
15
16
0
18
19
0
0
0
23
0
25
26
27
28
29
30
0
32
33
34
0
0
37
0
39
40
0
42
0
44
45
46
0
48
49
50
0
0
0
54
55
0
57
58
0
60
0
0
63
64
0
66
0
68
69
0
71
0
0
74
75
0
77
0
79
80
81
82
83
84
0
0
0
88
89
90
91
92
0
0
95
96
0
98
99
100
0
0
0
0
105
0
107
108
109
110
111
112
113
0
0
0
117
0
119
0
121
0
0
0
125
126
0
128
0
130
131
132
0
134
135
136
137
0
0
140
0
0
143
144
0
146
147
0
0
150
151
152
153
154
155
156
157
0
0
160
161
162
163
0
0
166
167
168
169
0
171
0
173
0
175
176
177
178
179
0
0
182
183
184
185
0
187
188
189
190
191
0
0
194
195
196
197
0
0
200
201
202
0
0
205
206
0
0
209
0
0
212
213
214
215
0
0
218
219
220
221
222
0
224
225
0
0
228
0
0
231
232
0
234
235
236
0
238
239
0
241
242
243
0
245
0
0
248
249
0
0
0
253
254
0
256
0
258
259
0
261
262
263
264
265
266
0
0
269
0
271
0
273
274
0
276
277
278
279
0
281
282
0
284
0
286
287
288
289
290
291
292
293
0
295
296
0
298
0
300
301
0
303
304
0
306
0
0
309
310
311
312
313
314
0
316
317
318
319
320
0
0
0
324
325
326
327
0
329
330
0
332
333
334
335
336
337
0
339
0
341
0
0
0
345
346
347
348
349
350
351
352
353
0
355
0
357
0
359
0
361
362
363
364
365
366
367
368
369
370
371
372
373
0
375
376
377
0
0
380
381
382
383
384
385
386
387
0
0
0
0
392
393
394
395
396
397
398
0
400
401
402
403
0
405
406
407
0
409
410
411
0
413
0
0
416
0
0
0
420
0
0
423
424
0
426
427
0
0
430
431
0
433
434
435
436
437
438
0
0
441
0
0
444
0
446
0
448
449
450
451
0
453
0
455
456
0
458
459
460
0
0
0
464
465
466
0
468
469
470
0
472
473
474
475
476
477
478
479
0
481
482
0
484
485
0
0
488
489
0
491
492
493
494
495
496
0
498
499
0
501
502
0
504
505
0
507
508
509
510
511
512
0
514
515
0
517
518
0
0
521
522
523
524
525
526
527
528
0
530
531
0
0
534
535
536
537
0
0
0
541
542
0
544
545
546
547
548
549
550
0
552
553
554
0
0
557
0
559
560
561
562
0
0
565
0
567
568
0
0
571
0
573
574
575
576
577
578
0
0
0
582
583
584
585
586
0
588
589
590
591
592
0
0
595
0
597
598
0
600
0
602
603
0
605
606
0
608
0
610
611
0
613
0
615
616
0
0
619
620
621
622
623
624
625
626
627
0
629
0
0
0
633
0
635
0
637
638
639
640
0
0
0
644
645
646
647
648
649
0
0
0
653
0
655
656
657
0
0
660
661
0
663
0
0
0
0
0
669
0
671
672
673
674
675
676
0
678
0
680
681
0
0
684
685
686
0
0
689
0
691
0
693
694
695
0
697
698
699
0
0
702
703
704
705
706
0
708
709
0
0
0
713
714
0
716
0
718
719
720
721
722
0
724
725
0
727
0
729
0
731
0
733
0
0
0
737
738
0
0
741
742
743
744
745
746
747
748
749
0
751
752
753
754
755
756
757
0
759
760
0
762
763
0
765
766
767
768
769
770
771
772
773
774
0
776
777
778
779
780
781
782
783
784
0
786
787
0
0
790
791
792
793
794
795
0
797
0
799
800
801
802
803
0
805
806
807
808
809
810
0
812
0
814
815
0
0
818
0
0
821
822
823
824
0
826
827
828
829
830
0
832
833
834
835
836
837
838
0
0
841
842
843
844
0
846
0
848
849
850
851
0
853
0
855
856
0
858
859
860
861
862
863
864
0
0
867
868
869
0
0
872
0
874
0
0
877
878
0
0
881
882
0
884
0
886
887
888
889
890
891
0
893
894
895
0
897
898
899
900
901
0
903
0
0
906
907
908
909
910
911
0
913
914
915
916
0
918
919
920
0
922
923
924
925
926
927
928
0
930
0
0
933
0
935
0
937
938
939
0
0
942
943
0
945
946
947
0
0
950
951
952
0
954
955
0
0
958
959
960
0
962
963
964
965
966
967
968
969
970
971
972
973
0
975
976
977
0
0
980
981
0
983
984
985
986
0
988
989
990
991
992
993
994
995
0
0
998
0
1000
EOF
