DIMENSION : 1000
NUMBER OF ITEMS : 999

TOUR_SECTION
1
914
207
769
893
634
255
202
57
614
864
40
632
229
192
900
279
876
44
340
360
447
635
704
567
854
49
994
200
510
466
312
321
505
285
373
666
997
896
662
64
76
690
122
499
642
364
18
636
806
600
511
31
575
832
452
686
16
356
140
682
658
734
94
345
479
310
431
368
671
240
441
193
249
331
329
449
172
980
439
208
96
66
210
694
560
786
25
29
835
551
42
714
970
139
979
664
164
917
528
836
672
750
71
652
996
45
621
865
237
594
748
199
763
557
777
800
539
992
811
397
744
325
987
760
120
291
977
650
931
305
991
902
24
389
513
699
395
828
770
434
958
209
142
247
421
661
678
184
577
79
183
414
894
951
130
59
379
859
270
509
602
847
241
879
127
174
519
297
442
405
252
254
838
793
119
388
880
736
850
244
159
54
701
288
758
617
55
110
221
271
419
751
966
251
19
999
61
920
929
888
947
912
956
934
983
637
618
915
144
151
121
326
173
357
717
814
440
910
823
338
746
148
394
877
723
731
470
65
890
86
491
239
506
453
487
289
316
334
818
328
3
4
903
569
2
631
691
402
709
628
669
469
710
985
374
380
613
425
799
815
167
599
92
693
626
58
665
1000
936
526
242
553
126
70
341
67
654
962
365
722
489
35
156
950
318
791
377
475
924
176
133
813
12
803
883
643
968
333
887
889
730
676
683
344
809
559
715
9
724
234
185
68
78
606
258
572
508
347
106
922
330
46
483
460
211
53
220
500
609
875
827
36
653
181
716
403
846
171
468
358
522
816
845
272
463
476
370
574
804
233
808
941
735
383
100
371
516
135
772
444
993
954
901
367
73
558
6
851
11
545
497
5
187
754
474
343
323
88
782
805
315
705
303
261
89
464
502
20
375
584
976
504
998
674
897
124
726
137
978
923
860
909
568
529
415
50
109
84
955
309
162
660
263
293
107
732
195
418
116
41
307
839
227
90
775
322
273
461
933
401
445
831
689
294
165
351
458
692
863
471
166
517
899
498
282
163
179
938
480
462
919
725
503
841
549
362
684
102
286
581
948
118
197
588
327
302
789
563
762
696
34
943
87
134
587
605
478
28
921
281
349
62
982
905
906
217
158
925
204
427
72
989
23
646
720
170
337
566
840
111
527
582
540
390
186
570
990
531
336
376
579
556
619
935
680
756
47
885
592
788
472
115
400
908
535
486
493
593
844
595
404
168
856
231
14
485
203
611
283
663
451
802
113
69
295
490
216
872
429
129
984
737
833
939
160
10
354
719
481
225
408
849
639
17
399
308
733
530
778
496
412
926
369
870
103
848
969
63
869
753
457
590
700
198
785
313
298
22
630
801
201
361
721
413
932
670
218
616
837
975
278
39
928
175
33
359
456
437
525
274
752
867
622
573
410
482
589
881
911
927
212
790
267
7
761
873
13
189
537
554
473
843
820
668
128
246
105
675
647
580
866
586
795
223
432
430
215
276
450
507
895
961
706
132
147
739
812
191
861
353
352
596
230
311
93
56
465
564
946
891
95
742
552
765
913
918
363
607
101
131
60
436
91
454
578
426
15
807
546
673
957
853
214
783
667
794
707
973
222
972
963
265
38
638
232
523
583
945
712
194
685
75
477
301
161
264
768
792
423
766
424
235
342
518
306
597
779
146
82
304
177
37
548
26
784
810
698
697
520
123
960
543
627
277
108
81
319
834
8
27
501
284
446
898
48
407
157
492
536
335
565
771
206
382
981
381
224
515
598
645
346
713
764
393
949
188
228
874
455
433
448
988
332
773
542
443
366
759
745
97
317
143
355
416
74
774
417
550
916
780
749
571
488
459
708
392
435
384
219
484
644
729
649
541
205
623
378
787
629
959
495
467
253
169
852
603
245
781
907
125
290
98
153
824
986
585
533
776
942
262
702
320
409
275
937
52
80
591
178
822
755
296
268
420
30
104
738
703
243
547
112
878
396
117
657
576
287
826
398
314
604
236
886
648
862
339
238
154
767
625
718
640
387
964
182
842
679
882
266
741
386
562
256
655
514
544
150
190
727
512
610
561
858
292
952
797
620
884
601
260
152
651
280
688
141
681
641
155
428
711
796
819
974
821
391
855
149
226
269
257
51
940
114
868
695
612
904
743
83
944
995
677
740
99
965
411
350
138
213
656
687
494
857
798
32
555
259
438
406
953
747
145
532
43
930
299
180
829
830
538
892
825
248
422
659
871
21
250
624
608
196
633
521
348
967
372
615
85
136
534
524
385
757
971
77
300
324
728
817

PP_SECTION
0
0
0
0
0
0
0
0
0
0
0
0
14
0
0
0
0
0
0
0
0
0
0
0
0
0
0
0
0
0
32
0
0
0
0
0
0
0
0
0
0
0
0
0
0
0
0
0
0
51
0
0
0
0
56
0
0
0
0
0
0
63
0
0
0
0
0
0
0
0
0
0
0
0
0
77
0
0
0
0
0
83
0
0
0
0
0
0
90
0
0
93
0
0
0
0
0
99
0
0
0
0
0
0
0
0
108
0
0
0
0
0
0
0
0
0
0
0
0
0
0
0
0
0
0
0
0
0
0
0
0
0
0
0
0
0
0
0
0
0
0
0
0
0
0
0
0
0
0
0
0
0
0
155
0
0
0
0
0
0
0
0
0
0
0
0
0
0
0
0
0
0
0
0
0
0
0
0
0
0
0
0
0
0
0
0
0
0
190
0
0
0
0
0
0
0
0
0
0
0
0
0
0
0
0
0
0
0
0
0
0
213
0
0
0
0
0
0
0
0
0
223
0
0
226
0
0
0
0
0
232
0
0
0
236
0
0
0
0
0
0
243
0
0
0
0
0
0
0
0
0
0
0
0
0
257
0
259
0
0
0
0
0
0
266
0
0
269
0
0
0
0
0
0
0
0
0
0
0
0
0
0
284
0
0
0
0
0
0
0
292
0
0
0
0
0
0
0
300
0
0
0
0
0
0
0
0
0
0
0
0
313
314
0
0
0
0
0
0
0
0
0
0
0
0
0
0
0
0
0
0
0
0
0
0
0
0
0
0
0
0
0
0
0
0
0
348
0
0
0
0
0
0
0
0
0
0
0
0
0
0
0
0
0
0
0
0
0
370
0
0
0
0
0
0
0
0
0
0
0
0
0
0
385
0
0
0
0
0
391
392
393
0
0
0
0
0
0
0
0
0
0
0
0
0
0
0
0
0
0
0
0
0
0
0
0
0
0
0
0
0
0
0
0
0
0
0
0
0
0
0
0
0
0
0
0
0
0
0
0
0
0
0
0
446
0
0
0
0
0
0
0
0
455
0
0
0
0
0
0
0
0
0
0
0
0
0
0
0
0
0
0
0
0
0
0
0
0
0
0
0
0
484
485
0
0
0
0
0
0
0
0
494
0
0
0
0
0
0
0
0
0
0
0
0
0
0
0
0
0
0
0
0
515
0
0
0
0
0
521
0
0
0
0
0
0
0
0
530
531
532
533
534
0
536
0
0
0
0
0
0
543
0
0
0
0
0
0
0
0
0
0
0
0
0
0
0
0
0
0
562
0
0
0
0
0
0
0
0
0
0
0
0
0
0
0
0
0
0
0
0
0
0
585
586
0
0
0
0
0
0
0
0
0
0
0
0
0
0
0
0
603
0
0
0
0
0
0
0
611
0
0
0
0
0
0
0
0
0
0
0
0
0
0
0
627
0
0
630
0
0
0
0
0
0
0
0
0
0
0
0
0
0
0
0
0
0
0
0
0
0
0
0
655
656
0
0
0
0
0
0
0
0
0
0
667
0
0
0
0
0
0
0
0
0
0
0
0
0
681
0
0
0
0
0
687
0
0
0
0
0
0
0
0
0
697
0
0
0
0
0
0
0
0
0
0
0
0
0
0
0
0
0
0
0
0
0
0
0
0
0
0
0
725
0
0
0
0
0
0
0
0
0
0
0
0
0
0
740
0
0
0
0
0
0
0
0
0
0
0
0
0
0
0
0
0
0
0
0
0
0
0
0
765
0
0
0
0
0
771
0
0
0
0
0
0
0
0
780
0
0
0
0
0
0
0
0
0
790
0
0
0
794
0
0
797
0
0
0
0
0
0
0
0
0
0
0
0
0
0
812
0
0
0
0
817
0
819
0
0
822
0
824
0
0
0
0
0
0
831
0
0
0
0
0
0
0
0
0
0
0
0
0
0
0
0
0
0
0
0
0
853
0
0
0
0
0
0
0
0
0
0
0
0
0
0
868
0
0
0
872
0
0
0
0
0
0
0
0
0
0
0
0
885
0
0
0
0
0
0
892
0
0
0
0
0
0
0
0
0
0
0
0
0
906
0
0
0
0
911
0
0
0
0
916
0
0
0
0
0
0
0
0
0
0
0
0
0
0
0
0
0
0
0
0
937
0
0
940
0
0
0
0
0
946
0
0
0
0
0
0
953
0
0
0
0
0
0
960
0
0
0
0
0
0
967
0
0
0
971
0
0
0
0
0
0
0
0
0
0
0
0
0
0
0
0
0
0
0
0
0
0
0
0
0
0
0
0
0
EOF
