DIMENSION : 1000
NUMBER OF ITEMS : 999

TOUR_SECTION
1
817
728
324
300
77
971
757
385
524
534
136
85
615
372
967
348
521
633
196
608
624
250
21
871
659
422
248
825
892
538
830
829
180
299
930
43
532
145
747
953
406
438
259
555
32
798
857
494
687
656
213
138
350
411
965
99
740
677
995
944
83
743
904
612
695
868
114
940
51
257
269
226
149
855
391
821
974
819
796
711
428
155
641
681
141
688
280
651
152
260
601
884
620
797
952
292
858
561
610
512
727
190
150
544
514
655
256
562
386
741
266
882
679
842
182
964
387
640
718
625
767
154
238
339
862
648
886
236
604
314
398
826
287
576
657
117
396
878
112
547
243
703
738
104
30
420
268
296
755
822
178
591
80
52
937
275
409
320
702
262
942
776
533
585
986
824
153
98
290
125
907
781
245
603
852
169
253
467
495
959
629
787
378
623
205
541
649
729
644
484
219
384
435
392
708
459
488
571
749
780
916
550
417
774
74
416
355
143
317
97
745
759
366
443
542
773
332
988
448
433
455
874
228
188
949
393
764
713
346
645
598
515
224
381
981
382
206
771
565
335
536
492
157
407
48
898
446
284
501
27
8
834
319
81
108
277
627
960
543
15
426
807
123
520
697
698
810
784
26
548
37
177
304
146
82
214
853
957
673
546
222
973
707
794
667
783
779
597
306
518
342
235
424
766
423
792
768
264
161
301
477
75
685
194
712
945
583
523
232
638
38
265
963
972
454
91
436
60
131
578
101
607
363
918
913
765
552
742
95
891
946
564
465
56
93
311
230
596
352
353
861
191
812
739
147
132
706
961
895
507
450
276
215
430
432
223
795
586
866
580
647
675
105
246
128
668
820
843
473
554
537
189
13
873
761
7
267
790
212
927
911
881
589
482
410
573
622
867
752
274
525
437
456
359
33
175
928
39
278
975
837
616
218
670
932
413
721
361
201
801
630
22
298
313
785
198
700
590
457
753
869
63
969
848
103
870
369
926
412
496
778
530
733
308
399
17
639
849
408
225
481
719
354
10
160
939
833
737
984
129
429
872
216
490
295
69
113
802
451
663
283
611
203
485
14
231
856
168
404
595
844
593
493
486
535
908
400
115
472
788
592
885
47
756
680
935
619
556
579
376
336
531
990
570
186
390
540
582
527
111
840
566
337
170
720
646
23
989
72
427
204
925
158
217
906
905
982
62
349
281
921
28
478
605
587
134
87
943
34
696
762
563
789
302
327
588
197
118
948
581
286
102
684
362
549
841
503
725
919
462
480
938
179
163
282
498
899
517
166
471
863
692
458
351
165
294
689
831
445
401
933
461
273
322
775
90
227
839
307
41
116
418
195
732
107
293
263
660
162
309
955
84
109
50
415
529
568
909
860
923
978
137
726
124
897
674
998
504
976
584
375
20
502
464
89
261
303
705
315
805
782
88
323
343
474
754
187
5
497
545
11
851
6
558
73
367
901
954
993
444
772
135
516
371
100
383
735
941
808
233
804
574
370
476
463
272
845
816
522
358
468
171
846
403
716
181
653
36
827
875
609
500
220
53
211
460
483
46
330
922
106
347
508
572
258
606
78
68
185
234
724
9
715
559
809
344
683
676
730
889
887
333
968
643
883
803
12
813
133
176
924
475
377
791
318
950
156
35
489
722
365
962
654
67
341
70
126
553
242
526
936
1000
665
58
626
693
92
599
167
815
799
425
613
380
374
985
710
469
669
628
709
402
691
631
2
569
903
4
3
328
818
334
316
289
487
453
506
239
491
86
890
65
470
731
723
877
394
148
746
338
823
910
440
814
717
357
173
326
121
151
144
915
618
637
983
934
956
912
947
888
929
920
61
999
19
251
966
751
419
271
221
110
55
617
758
288
701
54
159
244
850
736
880
388
119
793
838
254
252
405
442
297
519
174
127
879
241
847
602
509
270
859
379
59
130
951
894
414
183
79
577
184
678
661
421
247
142
209
958
434
770
828
395
699
513
389
24
902
991
305
931
650
977
291
120
760
987
325
744
397
811
992
539
800
777
557
763
199
748
594
237
865
621
45
996
652
71
750
672
836
528
917
164
664
979
139
970
714
42
551
835
29
25
786
560
694
210
66
96
208
439
980
172
449
329
331
249
193
441
240
671
368
431
310
479
345
94
734
658
682
140
356
16
686
452
832
575
31
511
600
806
636
18
364
642
499
122
690
76
64
662
896
997
666
373
285
505
321
312
466
510
200
994
49
854
567
704
635
447
360
340
44
876
279
900
192
229
632
40
864
614
57
202
255
634
893
769
207
914

PP_SECTION
0
3
0
5
6
7
0
0
10
0
12
0
14
0
0
0
18
0
20
0
0
0
0
25
0
0
0
29
0
31
0
0
0
0
36
0
0
39
40
41
42
0
44
0
0
47
0
49
0
0
0
53
0
0
56
57
0
59
0
61
62
63
0
65
66
67
68
69
70
71
0
0
0
0
0
0
0
0
0
0
0
0
0
0
0
87
0
0
90
0
92
93
94
0
96
0
0
0
100
0
0
0
0
0
0
0
108
0
0
0
0
113
0
0
0
0
0
119
120
121
122
123
124
0
0
0
0
0
130
131
0
0
134
135
0
0
0
0
140
0
142
0
0
0
0
0
148
0
0
0
0
0
0
155
156
0
158
159
160
0
0
163
164
0
0
0
168
0
170
171
0
173
0
0
0
0
0
0
0
0
0
0
184
185
0
0
188
189
0
0
192
0
0
0
0
197
0
0
0
201
202
0
204
0
0
0
208
0
0
0
0
0
0
0
0
217
0
0
0
0
0
223
0
0
0
227
0
229
230
231
232
0
234
0
236
237
0
239
240
0
0
243
244
0
246
0
0
249
0
0
252
0
254
255
0
0
0
0
0
261
0
0
0
265
266
0
0
269
270
0
0
273
0
0
0
0
0
279
0
0
282
0
284
285
0
0
288
0
0
0
292
293
0
295
0
297
0
0
0
0
302
0
0
0
0
0
0
0
310
311
312
313
314
315
0
0
318
0
0
321
322
0
0
325
0
0
0
329
330
331
0
333
334
0
0
0
0
0
340
0
0
0
344
0
0
347
0
0
0
0
0
0
0
0
356
0
0
0
360
361
362
0
0
365
0
367
0
0
370
0
0
373
0
0
0
0
0
379
380
0
0
383
0
385
0
0
388
389
0
391
392
393
394
395
0
0
0
0
0
0
0
403
0
405
0
0
0
0
0
0
0
0
0
0
0
0
0
419
0
421
0
0
0
425
426
427
0
429
430
431
0
433
434
0
436
0
0
439
440
441
0
0
444
0
446
447
448
449
0
0
452
0
0
455
456
457
0
0
0
0
0
0
0
0
466
0
468
0
0
471
0
0
0
0
0
0
0
0
0
0
482
483
484
485
0
0
0
0
0
491
0
0
0
0
0
497
0
499
0
0
0
0
0
505
506
0
508
0
510
511
0
513
0
515
0
0
0
519
0
0
0
0
0
0
526
0
528
529
530
531
0
533
0
535
536
0
0
539
540
0
0
543
0
0
0
0
0
0
550
551
0
0
0
0
0
557
0
559
560
0
562
0
0
565
0
0
568
0
570
0
0
573
0
575
0
0
0
0
0
581
0
0
0
585
586
0
0
0
0
0
0
0
0
0
0
0
0
0
600
0
602
603
0
0
0
0
0
0
0
611
0
0
614
0
0
0
0
619
0
621
622
0
0
0
626
627
0
0
630
0
632
0
634
635
636
637
0
0
0
0
0
0
0
0
646
0
0
0
650
0
652
0
654
655
0
0
658
0
660
661
662
663
664
0
0
667
0
0
0
0
672
0
0
0
0
0
678
0
680
0
682
0
0
0
686
0
0
0
690
0
0
693
694
0
0
697
698
0
0
0
0
0
704
705
0
0
0
0
0
0
712
0
0
715
0
0
0
0
0
721
0
723
724
725
726
0
0
0
730
731
732
0
734
735
736
0
0
0
740
0
0
0
744
0
0
0
748
0
0
751
752
0
0
0
0
0
758
0
760
0
0
0
0
765
766
0
768
769
770
771
0
0
0
0
0
0
0
0
780
0
0
0
0
0
786
0
0
0
790
0
0
0
794
795
0
797
0
799
800
0
0
803
0
0
806
0
0
809
810
811
812
0
0
815
0
0
818
0
0
0
822
823
0
0
0
827
0
0
0
831
0
0
0
835
836
0
0
839
0
0
0
0
0
0
846
847
0
0
0
0
0
853
0
0
0
0
0
859
0
0
0
863
864
865
0
0
0
869
0
0
872
0
0
0
0
0
0
879
880
0
0
883
0
885
0
887
0
0
890
0
0
893
894
0
896
897
0
899
900
901
0
0
0
905
906
0
0
909
910
911
912
0
914
915
916
917
918
919
920
0
0
923
924
0
0
927
0
929
0
931
0
933
934
0
0
937
0
0
0
0
0
943
0
0
946
947
948
0
950
951
0
0
954
0
0
0
0
0
960
0
0
0
0
0
0
0
968
0
970
0
0
0
0
975
0
977
0
979
980
0
0
983
0
985
0
987
0
0
990
0
0
0
0
0
996
997
0
999
0
EOF
