DIMENSION : 51
NUMBER OF ITEMS : 250

TOUR_SECTION
1
22
2
16
50
9
30
34
21
29
20
35
36
3
28
31
8
26
7
43
24
23
48
6
27
51
46
12
47
4
18
14
25
13
41
40
19
42
44
17
37
15
45
33
39
10
49
5
38
11
32

PP_SECTION
0
0
0
0
0
0
0
0
10
0
0
0
14
0
0
0
0
0
0
0
0
0
0
0
0
0
0
0
0
0
32
0
0
0
0
0
0
39
0
0
0
0
0
0
0
0
0
0
0
0
0
0
0
0
0
0
0
0
0
11
0
13
0
15
0
17
0
19
0
0
0
0
0
0
0
0
0
0
0
0
32
33
0
0
0
0
0
0
40
0
0
0
0
0
0
0
0
49
0
0
0
0
0
0
0
0
0
0
0
0
0
13
0
0
0
0
0
0
0
0
0
0
0
0
0
0
0
0
0
0
32
0
0
0
0
0
0
0
0
0
0
0
0
0
0
0
0
0
0
0
0
0
0
5
0
0
0
0
10
0
0
0
0
0
0
0
0
0
0
0
0
0
0
0
0
0
0
0
0
0
32
0
0
0
0
0
38
39
0
0
0
0
0
0
0
0
0
0
0
0
0
0
0
0
0
0
0
0
0
0
0
0
0
0
0
0
0
0
0
0
0
0
0
0
0
0
0
0
0
0
32
0
0
0
0
0
0
0
0
0
0
0
0
0
0
0
0
49
0
0
EOF
