DIMENSION : 51
NUMBER OF ITEMS : 50

TOUR_SECTION
1
32
11
38
5
49
10
39
33
45
15
37
17
44
42
40
19
41
13
25
14
18
4
47
12
46
51
27
6
48
23
24
43
7
26
8
31
28
3
36
35
20
29
21
34
30
9
50
16
2
22

PP_SECTION
2
3
4
5
6
7
8
9
10
11
12
13
14
0
16
0
18
19
20
21
22
23
24
25
26
27
28
29
30
31
0
0
34
35
36
37
0
0
0
0
0
43
44
45
46
47
48
49
50
51
EOF
