DIMENSION : 51
NUMBER OF ITEMS : 250

TOUR_SECTION
1
32
11
38
5
49
10
39
33
45
15
37
17
44
42
40
19
41
13
25
14
18
4
47
12
46
51
27
6
48
23
24
43
7
26
8
31
28
3
36
35
20
29
21
34
30
9
50
16
2
22

PP_SECTION
0
3
0
0
0
7
0
9
0
0
0
0
14
0
0
0
0
0
20
0
22
0
0
0
26
27
0
29
0
0
0
0
0
0
36
0
0
39
0
0
0
0
44
0
0
47
48
0
50
51
0
3
0
0
6
0
0
9
0
0
12
13
0
15
16
17
18
19
20
21
22
0
0
0
0
0
0
0
30
31
0
0
34
35
0
0
0
0
40
0
0
43
44
0
0
0
0
0
50
0
2
0
0
0
0
0
8
0
0
0
0
13
0
0
16
0
0
19
20
21
22
23
24
0
0
0
0
29
30
31
0
0
34
35
36
0
0
0
0
0
0
43
0
0
0
0
48
0
50
0
2
0
0
5
6
0
8
9
10
0
0
0
14
0
16
0
18
0
20
21
22
0
0
0
0
0
28
0
30
0
0
0
34
35
0
0
0
39
40
0
0
0
0
0
0
47
0
0
0
51
2
3
4
0
0
0
8
0
0
0
0
13
0
0
16
0
0
0
0
0
22
23
0
0
26
27
0
0
30
31
32
0
34
0
36
0
0
0
0
0
0
43
44
0
46
0
0
0
50
0
EOF
