DIMENSION : 51
NUMBER OF ITEMS : 500

TOUR_SECTION
1
32
11
38
5
49
10
39
33
45
15
37
17
44
42
19
40
41
13
25
14
18
4
47
12
46
51
27
6
48
23
24
43
7
26
8
31
28
3
36
35
20
29
21
34
30
9
50
16
2
22

PP_SECTION
2
3
4
5
0
0
0
9
0
0
0
0
0
0
16
0
0
19
20
21
22
0
0
0
0
0
0
0
0
0
0
0
34
0
0
0
0
0
0
0
0
0
44
0
0
0
0
0
50
51
2
0
0
0
0
7
0
9
0
0
0
0
0
0
16
17
18
19
0
0
22
0
0
0
0
0
0
0
0
0
0
0
0
35
36
37
38
0
0
0
0
0
0
0
0
0
0
0
50
0
2
0
0
0
0
7
8
9
0
0
0
0
0
0
0
0
0
0
0
0
22
0
0
0
26
27
28
29
0
0
0
0
0
0
0
0
0
0
0
0
0
0
0
0
0
0
0
0
50
0
2
3
0
0
0
0
0
9
0
0
0
0
0
0
16
17
18
0
0
0
22
0
0
0
0
0
0
0
0
0
32
33
0
0
0
0
0
0
0
0
0
0
0
0
0
0
0
0
0
0
2
0
0
0
0
0
0
9
0
0
12
13
14
15
16
17
0
0
0
21
22
23
24
0
26
0
0
0
0
0
0
0
0
0
0
0
0
0
0
0
0
0
0
0
0
0
0
0
50
0
2
0
0
0
0
7
8
0
0
0
0
0
0
0
16
0
0
0
0
0
22
0
0
0
0
0
0
0
30
0
0
0
0
0
0
0
0
0
0
0
0
0
0
0
46
47
0
0
50
51
2
3
4
0
6
7
0
0
0
0
0
0
0
0
16
0
0
0
20
21
22
23
24
0
0
0
0
0
30
31
32
33
0
0
0
0
0
0
0
41
42
43
0
0
0
0
0
0
0
0
2
0
0
0
0
0
0
0
0
0
0
0
0
0
16
0
18
19
20
0
22
0
0
0
0
0
0
0
0
0
0
0
0
0
0
0
0
0
0
0
0
0
0
0
0
0
0
0
50
0
2
3
0
0
0
7
8
0
0
0
0
0
0
0
16
0
0
0
0
0
22
0
0
0
0
0
0
0
0
0
0
0
0
35
36
37
38
0
0
0
0
0
0
0
0
0
0
0
50
0
2
0
0
0
0
0
0
0
0
11
12
13
14
15
16
17
0
0
0
0
22
0
24
25
26
0
0
0
30
0
0
0
34
0
0
0
0
0
0
0
0
0
0
45
46
47
48
0
0
0
EOF
