DIMENSION : 51
NUMBER OF ITEMS : 500

TOUR_SECTION
1
22
2
16
50
9
30
34
21
29
20
35
36
3
28
31
8
26
7
43
24
23
48
6
27
51
46
12
47
4
18
14
25
13
41
19
40
42
44
17
37
15
45
33
39
10
49
5
38
11
32

PP_SECTION
2
0
4
0
0
0
8
0
0
11
0
13
0
0
0
0
18
19
0
0
0
0
24
0
0
0
0
0
0
0
32
0
34
0
0
37
0
0
0
0
42
0
0
0
0
0
0
49
0
0
2
0
4
5
0
0
0
0
10
0
0
0
14
0
0
0
0
0
0
0
0
0
0
25
26
0
28
0
0
0
32
0
0
0
0
0
38
39
0
0
0
0
0
0
0
0
0
0
0
0
0
3
0
0
0
0
0
0
0
11
0
0
0
0
0
0
18
0
0
0
0
0
0
0
26
27
0
0
0
0
32
33
0
0
0
37
0
0
0
0
0
0
0
0
0
0
0
0
0
0
0
3
0
0
0
0
0
0
0
11
12
0
0
15
0
17
0
0
0
0
22
0
24
0
0
0
0
0
0
0
32
33
0
0
0
37
0
0
0
0
0
43
0
0
0
0
0
49
50
0
0
0
0
0
6
7
0
0
10
11
0
0
0
0
0
0
0
19
0
0
0
0
0
25
0
0
28
0
0
0
32
33
0
0
0
0
0
0
0
0
0
0
0
0
0
0
0
0
0
51
0
3
0
0
6
0
0
0
0
0
12
13
0
0
0
0
0
0
0
0
0
0
0
0
26
27
0
0
30
0
32
0
0
0
0
0
0
0
0
41
0
0
0
0
0
0
48
0
0
0
0
0
0
0
6
7
0
0
0
0
0
0
0
0
0
17
0
19
0
0
0
0
0
0
0
0
0
0
0
31
32
0
0
0
36
0
0
39
0
0
0
0
0
45
0
0
0
0
0
51
0
0
4
0
0
0
0
0
0
11
0
0
0
0
0
0
18
19
0
0
0
0
0
25
0
0
0
0
0
0
32
0
34
0
0
37
38
0
0
0
0
0
0
0
0
0
48
0
0
51
0
0
4
0
0
0
0
0
0
11
12
0
0
0
0
0
0
0
0
0
0
0
0
0
0
0
28
0
0
0
32
0
0
0
0
0
38
0
0
0
42
0
0
45
0
0
0
0
50
0
0
0
0
0
0
0
0
0
0
0
12
0
14
15
0
0
0
0
0
0
0
23
0
0
0
0
0
0
30
0
32
0
0
0
0
37
0
0
40
0
42
43
0
0
0
0
48
0
0
51
EOF
