DIMENSION : 51
NUMBER OF ITEMS : 50

TOUR_SECTION
1
32
11
38
5
49
10
39
33
45
15
37
17
44
42
40
19
41
13
25
14
18
4
47
12
46
51
27
6
48
23
24
43
7
26
8
31
28
3
36
35
20
29
21
34
30
9
50
16
2
22

PP_SECTION
0
3
0
0
0
7
0
9
10
0
0
0
14
0
0
0
0
0
20
0
22
0
0
0
26
27
0
29
0
0
0
0
0
0
36
0
0
39
0
0
0
0
44
0
0
47
48
0
50
51
EOF
