DIMENSION : 51
NUMBER OF ITEMS : 500

TOUR_SECTION
1
22
2
16
50
9
30
34
21
29
20
35
36
3
28
31
8
26
7
43
24
23
48
6
27
51
46
12
47
4
18
14
25
13
41
40
19
42
44
17
37
15
45
33
39
10
49
5
38
11
32

PP_SECTION
2
3
4
5
6
0
0
9
10
11
12
13
14
15
0
17
18
19
20
21
22
23
24
25
0
27
28
0
0
0
32
33
34
35
36
37
38
39
40
41
42
43
44
45
46
47
48
49
50
51
2
0
4
5
6
7
8
9
10
11
12
13
14
15
16
17
18
19
0
0
0
23
24
25
0
27
28
0
0
0
32
33
0
35
36
37
38
39
40
41
42
43
44
45
46
47
48
49
50
51
2
3
4
5
6
7
8
9
10
11
12
13
14
15
0
17
18
19
20
0
0
23
24
25
26
27
28
29
0
31
32
33
0
0
0
37
38
39
40
41
42
43
44
45
46
47
48
49
50
51
2
3
4
5
6
7
8
9
10
11
12
13
14
15
0
17
18
19
0
0
0
23
24
25
0
27
0
0
0
0
32
33
0
0
0
37
38
39
40
41
42
0
44
45
46
47
48
49
0
51
0
0
4
5
6
7
8
0
10
11
12
13
14
15
16
17
18
19
0
21
22
23
24
25
26
27
0
0
0
0
32
33
0
0
0
37
38
39
40
41
42
43
44
45
46
47
48
49
0
51
0
0
4
5
6
7
8
0
10
11
12
13
14
15
0
17
18
19
0
0
0
23
24
25
0
27
0
0
30
31
32
33
0
0
0
37
38
39
40
41
42
43
44
45
46
47
48
49
50
51
2
3
4
5
6
7
0
0
10
11
12
13
14
15
16
17
18
19
20
21
22
23
24
25
0
27
28
0
30
31
32
33
34
35
36
37
38
39
40
41
42
43
44
45
46
47
48
49
0
51
0
0
4
5
6
7
0
0
10
11
12
13
14
15
16
17
18
19
20
0
0
23
24
25
26
27
0
0
0
0
32
33
0
35
36
37
38
39
40
41
42
0
44
45
46
47
48
49
50
51
2
3
4
5
6
7
8
0
10
11
12
13
14
15
16
17
18
19
0
0
0
23
24
25
0
27
28
0
0
31
32
33
0
35
36
37
38
39
40
41
42
0
44
45
46
47
48
49
0
51
0
0
4
5
6
7
0
0
10
11
12
13
14
15
16
17
18
19
0
0
0
23
24
25
26
27
28
0
30
0
32
33
34
35
36
37
38
39
40
41
42
43
44
45
46
47
48
49
0
51
EOF
