DIMENSION : 51
NUMBER OF ITEMS : 50

TOUR_SECTION
1
22
2
16
50
9
30
34
21
29
20
35
36
3
28
31
8
26
7
43
24
23
48
6
27
51
46
12
47
4
18
14
25
13
41
40
19
42
44
17
37
15
45
33
39
10
49
5
38
11
32

PP_SECTION
0
3
0
5
0
7
0
0
10
11
0
0
14
15
0
0
0
0
0
0
0
0
0
0
0
27
0
29
0
0
32
33
0
0
0
0
38
39
0
41
0
0
44
0
0
47
48
49
0
51
EOF
