DIMENSION : 51
NUMBER OF ITEMS : 500

TOUR_SECTION
1
22
2
16
50
9
30
34
21
29
20
35
36
3
28
31
8
26
7
43
24
23
48
6
27
51
46
12
47
4
18
14
25
13
41
40
19
42
44
17
37
15
45
33
39
10
49
5
38
11
32

PP_SECTION
2
3
4
5
0
0
0
0
10
11
0
0
0
0
0
0
0
19
20
21
22
0
0
0
0
0
0
0
0
0
32
0
0
0
0
0
0
0
0
0
0
0
44
0
0
0
0
49
50
51
2
0
0
0
0
7
0
0
10
11
0
0
0
15
16
17
18
19
0
0
0
0
0
0
0
0
0
0
0
0
32
0
0
35
36
37
38
39
0
0
0
0
0
0
0
0
0
0
0
0
0
0
0
5
0
7
8
9
0
11
0
0
0
0
0
0
0
0
0
0
0
0
0
0
0
27
0
0
0
0
32
0
0
0
0
0
38
0
0
0
0
0
0
0
0
0
0
0
0
0
0
0
0
0
0
0
0
0
10
11
0
0
0
0
0
17
18
0
0
0
0
0
0
0
0
0
0
0
0
0
32
33
0
0
0
0
0
0
0
0
0
0
0
0
0
0
0
0
0
0
0
0
0
5
0
0
0
0
0
11
12
13
14
15
16
17
0
0
0
21
22
23
24
25
0
0
0
0
0
0
32
0
0
0
0
0
38
0
0
0
0
0
0
0
0
0
0
49
0
0
0
0
0
0
0
0
8
0
0
11
0
0
0
0
0
0
0
0
0
0
0
0
0
0
0
0
0
0
0
0
32
0
0
0
0
0
0
39
0
0
0
0
0
0
46
47
0
49
50
51
0
0
4
5
6
0
0
0
0
11
0
0
0
15
0
0
0
19
0
0
0
0
0
0
0
0
0
0
30
31
32
33
0
0
0
0
38
0
0
41
42
43
0
0
0
0
0
0
0
0
0
0
0
0
0
0
0
0
0
11
0
0
0
0
0
0
18
19
20
0
0
0
0
0
0
0
0
0
0
0
32
0
0
0
0
0
38
0
0
0
0
0
0
0
0
0
0
49
0
0
0
0
0
0
0
7
8
0
0
11
0
0
0
0
0
0
0
0
0
0
0
0
0
0
0
0
0
0
0
0
32
0
0
35
36
37
38
39
0
0
0
0
0
0
0
0
0
0
0
0
0
0
0
5
0
0
0
0
0
11
12
13
14
15
16
17
0
0
0
0
0
0
24
25
26
0
0
0
0
0
32
0
0
0
0
0
38
0
0
0
0
0
0
45
46
47
48
0
0
0
EOF
