DIMENSION : 51
NUMBER OF ITEMS : 50

TOUR_SECTION
1
22
2
16
50
9
30
34
21
29
20
35
36
3
28
31
8
26
7
43
24
23
48
6
27
51
46
12
47
4
18
14
25
13
41
40
19
42
44
17
37
15
45
33
39
10
49
5
38
11
32

PP_SECTION
2
0
4
0
0
0
8
9
10
11
12
13
0
15
16
17
18
19
0
0
22
0
24
25
26
0
28
0
30
31
32
0
34
35
0
37
38
39
40
41
42
43
44
45
46
0
48
49
0
0
EOF
