DIMENSION : 51
NUMBER OF ITEMS : 250

TOUR_SECTION
1
22
2
16
50
9
30
34
21
29
20
35
36
3
28
31
8
26
7
43
24
23
48
6
27
51
46
12
47
4
18
14
25
13
41
40
19
42
44
17
37
15
45
33
39
10
49
5
38
11
32

PP_SECTION
0
3
4
5
6
7
0
0
10
11
12
13
14
15
0
17
0
0
20
0
0
0
0
25
26
27
28
29
0
0
32
33
0
0
36
0
38
39
40
41
42
0
44
45
46
47
48
49
0
51
0
3
0
5
6
7
0
9
10
11
12
13
0
15
0
17
18
19
20
21
22
23
0
0
0
27
0
0
30
31
32
33
0
35
0
37
38
0
40
41
42
43
44
45
46
47
0
49
50
0
2
0
4
0
0
0
8
0
10
11
0
13
14
0
0
17
0
19
20
21
22
23
24
0
0
0
0
29
30
31
32
33
34
35
36
37
38
0
40
0
42
43
0
45
0
47
48
49
0
0
0
0
0
5
6
7
8
0
10
11
0
13
14
0
0
0
18
19
20
21
0
23
0
25
0
0
28
0
30
31
32
33
34
35
0
37
38
39
40
41
42
0
44
45
0
47
48
49
0
51
2
3
4
5
0
0
8
0
0
11
12
13
14
15
0
17
18
0
0
0
22
23
0
0
26
27
0
0
30
31
32
33
34
0
36
37
38
39
40
41
42
43
44
45
46
0
0
49
0
0
EOF
