DIMENSION : 76
NUMBER OF ITEMS : 375

TOUR_SECTION
1
73
62
22
64
42
43
41
56
23
49
24
18
50
25
55
31
10
38
65
66
11
59
14
53
7
35
8
19
54
13
57
15
5
37
20
70
60
71
69
36
47
21
61
28
74
2
30
48
29
45
27
52
46
34
67
26
76
75
4
68
6
51
17
40
12
58
72
39
9
32
44
3
16
63
33

PP_SECTION
2
3
4
5
6
0
8
9
10
11
12
13
14
15
16
17
0
19
20
21
22
0
0
0
26
27
28
29
30
0
32
33
34
35
36
37
0
39
40
0
0
0
44
45
46
47
48
49
50
51
52
53
54
0
0
57
58
59
60
61
62
63
64
65
66
67
68
69
70
71
72
0
74
75
76
2
3
4
5
6
0
0
9
10
11
12
13
14
15
16
17
0
19
20
21
0
0
0
25
26
27
28
29
30
0
32
33
34
35
36
37
0
39
40
0
0
0
44
45
46
47
48
0
50
51
52
53
54
0
56
57
58
59
60
61
0
63
0
65
66
67
68
69
70
71
72
0
74
75
76
2
3
4
5
6
7
8
9
10
11
12
13
14
15
16
17
18
19
20
21
0
0
0
0
26
27
28
29
30
0
32
33
34
0
36
37
0
39
40
0
0
0
44
45
46
47
48
0
0
51
52
53
54
55
0
57
58
59
60
61
62
63
64
65
66
67
68
69
70
71
72
73
74
75
76
2
3
4
5
6
7
8
9
0
0
12
13
0
15
16
17
0
19
20
21
0
0
24
25
26
27
28
29
30
31
32
33
34
0
36
37
0
39
40
0
0
0
44
45
46
47
48
0
0
51
52
53
54
55
56
57
58
0
60
61
0
63
64
65
66
67
68
69
70
71
72
0
74
75
76
2
3
4
5
6
7
0
9
0
0
12
13
14
15
16
17
18
19
20
21
22
23
24
0
26
27
28
29
30
31
32
33
34
35
36
37
38
39
40
41
42
43
44
45
46
47
48
0
0
51
52
53
54
0
0
57
58
0
60
61
0
63
0
65
66
67
68
69
70
71
72
0
74
75
76
EOF
