DIMENSION : 76
NUMBER OF ITEMS : 375

TOUR_SECTION
1
33
63
16
3
44
32
9
39
72
58
12
40
17
51
6
68
4
75
76
26
67
34
46
52
27
45
29
48
30
2
74
28
61
21
47
36
69
71
60
70
20
37
5
15
57
13
54
19
8
35
7
53
14
59
66
11
65
38
10
31
55
25
50
18
24
49
23
56
41
43
42
64
22
62
73

PP_SECTION
2
3
4
5
0
0
0
0
10
11
0
0
14
0
0
0
18
19
20
21
22
23
24
25
0
0
0
0
0
31
0
0
0
35
36
37
38
0
0
41
42
43
44
0
0
47
0
49
50
51
52
53
0
55
56
57
0
59
60
61
62
0
64
65
66
67
68
69
0
0
0
73
0
0
0
0
0
0
5
0
0
0
0
10
11
12
13
14
15
0
0
18
0
0
0
22
23
24
25
26
27
28
29
30
31
32
33
34
35
0
0
38
0
0
41
42
43
0
0
0
0
0
49
50
51
52
53
54
55
56
57
0
59
0
0
62
0
64
65
66
0
0
69
70
0
0
73
0
75
76
2
3
0
0
0
7
8
0
10
11
12
0
14
0
0
17
18
0
0
0
22
23
24
25
0
0
0
0
0
31
32
33
0
0
0
37
38
0
0
41
42
43
0
0
0
0
0
49
50
0
0
53
0
55
56
57
0
59
60
61
62
63
64
65
66
67
0
0
0
71
72
73
74
75
76
0
0
0
0
0
7
0
0
10
11
0
0
14
0
0
0
18
19
0
0
22
23
24
25
0
0
0
0
0
31
32
33
0
0
0
0
38
0
0
41
42
43
0
0
0
0
0
49
50
0
0
53
54
55
56
57
0
59
0
0
62
0
64
65
66
67
0
0
0
71
72
73
0
75
76
2
3
4
5
6
7
0
0
10
11
0
13
14
15
0
0
18
19
20
21
22
23
24
25
0
0
0
0
30
31
32
33
0
35
0
37
38
0
0
41
42
43
0
0
0
0
0
49
50
0
0
53
54
55
56
0
0
59
0
0
62
0
64
65
66
0
68
69
70
0
0
73
0
0
0
EOF
