DIMENSION : 100
NUMBER OF ITEMS : 99

TOUR_SECTION
1
47
93
28
67
58
61
51
87
25
81
69
64
40
54
2
44
50
73
68
85
82
95
13
76
33
37
5
52
78
96
39
30
48
100
41
71
14
3
43
46
29
34
83
55
7
9
57
20
12
27
86
35
62
60
77
23
98
91
45
32
11
15
17
59
74
21
72
10
84
36
99
38
24
18
79
53
88
16
94
22
70
66
26
65
4
97
56
80
31
89
42
8
92
75
19
90
49
6
63

PP_SECTION
2
3
4
5
6
0
0
0
0
0
0
0
0
0
0
0
0
19
20
21
22
0
0
0
0
0
0
0
0
0
0
0
0
0
0
0
0
0
0
0
0
0
44
0
0
0
0
49
50
51
52
0
0
0
0
57
0
0
0
0
0
63
0
65
66
67
68
69
0
0
0
0
0
75
0
0
0
0
0
0
0
0
0
85
86
87
88
89
90
0
92
0
0
0
0
0
0
0
0
EOF
