DIMENSION : 100
NUMBER OF ITEMS : 495

TOUR_SECTION
1
47
93
28
67
58
61
51
87
25
81
69
64
40
54
2
44
50
73
68
85
82
95
13
76
33
37
5
52
78
96
39
30
48
100
41
71
14
3
43
46
29
34
83
55
7
9
57
20
12
27
86
35
62
60
77
23
98
91
45
32
11
15
17
59
74
21
72
10
84
36
99
38
24
18
79
53
88
16
94
22
70
66
26
65
4
97
56
80
31
89
42
8
92
75
19
90
49
6
63

PP_SECTION
2
0
4
0
0
0
8
0
0
0
0
0
0
0
16
0
18
19
0
0
22
0
24
0
0
0
0
0
0
31
0
0
34
0
0
37
0
0
0
0
42
0
0
0
0
0
0
49
0
0
52
0
0
0
0
0
0
0
0
0
0
63
64
0
0
0
0
0
0
0
0
0
0
75
76
0
78
0
0
0
0
0
0
0
0
0
88
89
0
0
0
0
0
0
0
0
0
0
0
0
0
4
0
6
0
8
0
10
0
12
0
0
0
0
0
0
19
0
0
0
0
0
0
0
27
28
0
0
0
0
0
0
0
0
0
38
0
0
0
42
0
0
0
0
0
0
0
0
0
0
0
54
0
0
0
0
0
0
0
62
63
0
0
66
0
0
0
0
0
0
73
0
75
0
0
0
0
0
0
0
83
0
0
0
0
88
0
0
0
0
0
94
0
0
0
0
0
0
2
0
0
0
0
0
8
9
0
11
12
0
0
0
0
0
0
0
0
21
0
0
0
0
0
27
0
0
30
0
0
0
0
35
0
0
0
0
0
0
0
0
0
0
0
0
0
49
0
0
0
53
0
55
0
0
58
0
0
0
0
63
64
65
0
0
0
0
0
0
0
0
0
0
0
0
78
79
80
0
82
0
0
0
0
0
0
0
0
0
0
93
0
0
0
0
0
0
100
0
0
4
0
6
0
0
9
10
0
0
0
0
0
0
0
0
19
20
0
22
0
0
0
26
0
0
0
0
0
0
0
34
0
0
0
38
39
0
0
42
0
0
0
0
0
0
49
0
0
0
0
54
0
0
57
0
0
0
0
0
63
0
0
66
0
0
0
0
71
72
0
0
75
0
0
0
0
80
0
0
0
84
0
0
87
0
0
90
0
0
0
0
0
0
0
0
0
0
2
0
0
5
0
0
8
0
0
0
0
0
0
15
16
0
0
19
0
0
0
0
0
0
26
0
0
0
0
0
32
0
0
0
36
0
0
0
0
0
42
0
0
0
0
0
0
49
0
0
0
0
54
0
0
0
0
0
0
0
62
63
0
0
66
0
68
69
0
0
0
0
0
0
0
77
0
0
0
0
0
0
84
0
0
0
0
0
0
91
0
0
94
0
96
97
0
0
0
EOF
