DIMENSION : 100
NUMBER OF ITEMS : 990

TOUR_SECTION
1
47
93
28
67
58
61
51
87
25
81
69
64
40
54
2
44
50
73
68
85
82
95
13
76
33
37
5
52
78
96
39
30
48
100
41
71
14
3
43
46
29
34
83
55
7
9
57
20
12
27
86
35
62
60
77
23
98
91
45
32
11
15
17
59
74
21
72
10
84
36
99
38
24
18
79
53
88
16
94
22
70
66
26
65
4
97
56
80
31
89
42
8
92
75
19
90
49
6
63

PP_SECTION
2
3
4
5
6
7
8
9
10
11
12
0
14
15
16
17
18
19
20
21
22
23
24
0
26
27
0
29
30
31
32
33
34
35
36
37
38
0
0
41
42
43
44
45
46
47
48
49
50
51
52
53
0
55
56
57
58
59
60
61
62
63
64
65
66
67
68
69
70
71
72
0
74
75
0
77
78
79
80
0
0
83
84
85
86
87
88
89
90
91
92
0
94
0
0
97
98
99
100
2
3
4
5
6
7
8
9
10
11
12
0
14
15
16
17
18
19
20
21
22
23
24
25
26
27
28
29
30
31
32
33
34
35
36
0
38
0
0
41
42
43
44
45
46
0
0
49
0
51
52
53
54
55
56
57
0
59
60
61
62
63
0
65
66
0
68
69
70
0
72
73
74
75
0
77
0
79
80
0
0
83
84
0
86
0
88
89
90
91
92
0
94
0
0
97
98
99
100
0
3
4
5
6
7
8
9
10
11
12
13
14
15
16
17
18
19
20
21
22
23
24
25
26
27
28
29
30
31
32
0
34
35
36
0
38
39
0
41
42
43
0
45
46
0
48
49
0
51
52
53
0
55
56
57
58
59
60
0
62
63
0
65
66
0
0
0
70
0
72
0
74
75
76
77
78
79
80
0
82
83
84
0
86
0
88
89
90
91
92
93
94
95
96
97
98
99
100
2
3
4
5
6
7
8
9
10
11
12
0
14
15
16
17
18
19
20
21
22
23
24
25
26
27
0
29
30
31
32
33
34
35
36
37
38
39
40
41
42
43
44
45
46
0
48
49
0
0
0
53
0
55
56
57
0
59
60
0
62
63
0
65
66
0
68
69
70
71
72
73
74
75
76
77
78
79
80
0
0
83
84
0
86
0
88
89
90
91
92
0
94
0
0
97
98
99
100
2
3
4
5
6
7
8
9
10
11
12
0
14
15
16
17
18
19
20
21
22
23
24
0
26
27
0
29
0
31
32
33
34
35
36
37
38
39
40
41
42
43
44
45
46
0
0
49
0
0
52
53
0
55
56
57
0
59
60
0
62
63
0
65
66
67
68
69
70
71
72
0
74
75
0
77
78
79
80
0
82
83
84
0
86
0
88
89
90
91
92
0
94
0
96
97
98
99
100
2
3
4
5
6
7
8
9
10
11
12
13
14
15
16
17
18
19
20
21
22
23
24
0
26
27
0
29
30
31
32
33
34
35
36
37
38
39
0
0
42
43
44
45
46
0
0
49
0
0
0
53
0
55
56
57
0
59
60
0
62
63
0
65
66
67
68
69
70
71
72
0
74
75
76
77
0
79
80
0
0
83
84
85
86
87
88
89
90
91
92
0
94
0
96
97
98
99
100
0
3
4
5
6
7
8
9
10
11
12
13
14
15
16
17
18
19
20
21
22
23
24
0
26
27
0
29
30
31
32
33
34
35
36
0
38
39
0
41
42
43
44
45
46
0
48
49
50
0
52
53
0
55
56
57
58
59
60
61
62
63
0
65
66
0
68
69
70
71
72
73
74
75
0
77
0
79
80
0
82
83
84
0
86
87
88
89
90
91
92
0
94
95
96
97
98
99
100
0
3
4
0
6
7
8
9
10
11
12
0
14
15
16
17
18
19
20
21
22
23
24
0
26
27
0
29
30
31
32
33
34
35
36
37
38
39
40
41
42
43
44
45
46
47
0
49
50
51
52
53
0
55
56
57
0
59
60
61
62
63
64
65
66
0
0
0
70
71
72
0
74
75
0
77
0
79
80
0
0
83
84
0
86
87
88
89
90
91
92
0
94
95
96
97
98
99
100
2
3
4
5
6
7
8
9
10
11
12
13
14
15
16
17
18
19
20
21
22
23
24
25
26
27
0
29
30
31
32
33
34
35
36
37
38
0
0
41
42
43
0
45
46
0
48
49
0
0
52
53
0
55
56
57
0
59
60
0
62
63
64
65
66
67
68
69
70
71
72
73
74
75
76
77
78
79
80
0
0
83
84
0
86
0
88
89
90
91
92
0
94
95
96
97
98
99
0
0
3
4
0
6
7
8
9
10
11
12
13
14
15
16
17
18
19
20
21
22
23
24
0
26
27
0
29
30
31
32
33
34
35
36
37
38
39
40
41
42
43
44
45
46
0
0
49
0
0
52
53
54
55
56
57
0
59
60
61
62
63
64
65
66
67
68
0
70
71
72
73
74
75
76
77
0
79
80
0
82
83
84
85
86
0
88
89
90
91
92
0
94
95
96
97
98
99
100
EOF
