DIMENSION : 100
NUMBER OF ITEMS : 495

TOUR_SECTION
1
63
6
49
90
19
75
92
8
42
89
31
80
56
97
4
65
26
66
70
22
94
16
88
53
79
18
24
38
99
36
84
10
72
21
74
59
17
15
11
32
45
91
98
23
77
60
62
35
86
27
12
20
57
9
7
55
83
34
29
46
43
3
14
71
41
100
48
30
39
96
78
52
5
37
33
76
13
95
82
85
68
73
50
44
2
54
40
64
69
81
25
87
51
61
58
67
28
93
47

PP_SECTION
2
0
4
0
0
0
8
9
0
11
12
13
0
0
16
0
18
19
0
0
22
0
24
25
0
0
28
0
30
31
0
0
34
0
0
37
0
0
0
0
42
43
0
0
46
47
0
49
0
51
52
0
54
55
0
0
58
0
60
61
0
0
64
0
66
67
0
0
0
0
0
73
74
75
76
0
78
0
0
81
0
0
84
0
0
87
88
89
0
0
0
0
0
95
0
0
98
0
0
2
0
4
5
0
0
8
0
10
0
12
0
0
15
16
0
0
19
0
0
22
0
0
0
0
27
28
0
30
0
0
33
34
0
0
37
38
39
40
0
42
43
44
0
0
47
0
0
0
0
0
0
54
55
0
0
58
0
60
61
62
63
0
0
66
67
68
69
70
0
0
73
74
75
76
0
78
0
0
81
82
83
84
0
0
87
88
0
0
0
0
0
94
95
96
0
0
0
100
2
0
0
0
0
0
8
9
0
11
12
13
0
0
0
0
0
0
0
21
22
0
0
0
0
27
28
0
30
0
0
33
0
35
0
0
0
0
0
0
0
0
44
0
0
47
0
49
0
0
52
53
0
55
0
0
58
0
60
61
0
0
64
65
0
67
0
69
0
0
0
0
74
0
76
0
78
79
80
0
82
83
0
85
0
87
88
0
0
91
0
93
0
0
96
0
98
0
100
2
0
4
5
6
0
0
9
10
11
0
13
0
15
0
0
0
19
20
0
22
0
0
0
26
0
28
0
0
0
0
33
34
0
0
0
38
39
0
0
42
43
0
0
46
47
48
49
50
51
0
0
54
0
0
57
58
0
0
61
62
0
64
0
66
67
0
69
0
71
72
73
74
75
76
77
78
0
80
81
82
0
84
85
86
87
0
0
90
91
0
93
0
0
0
0
0
99
100
2
0
4
5
0
0
8
0
0
0
0
13
14
15
16
17
18
0
0
0
22
0
0
0
26
0
28
0
0
0
32
33
34
0
36
37
38
39
0
0
42
43
0
45
46
47
0
49
0
51
52
0
54
55
0
57
58
0
0
61
62
0
64
0
66
67
68
69
0
71
0
0
74
0
0
77
0
79
80
81
0
83
84
85
0
87
0
0
0
91
0
93
94
95
96
97
0
0
100
EOF
