DIMENSION : 100
NUMBER OF ITEMS : 495

TOUR_SECTION
1
63
6
49
90
19
75
92
8
42
89
31
80
56
97
4
65
26
66
70
22
94
16
88
53
79
18
24
38
99
36
84
10
72
21
74
59
17
15
11
32
45
91
98
23
77
60
62
35
86
27
12
20
57
9
7
55
83
34
29
46
43
3
14
71
41
100
48
30
39
96
78
52
5
37
33
76
13
95
82
85
68
73
50
44
2
54
40
64
69
81
25
87
51
61
58
67
28
93
47

PP_SECTION
2
3
4
5
0
7
0
9
10
11
12
13
14
15
0
0
0
19
20
21
22
23
24
25
0
27
28
29
30
0
32
33
34
35
36
37
0
39
40
41
0
43
44
45
46
47
48
49
50
51
52
0
54
55
0
57
58
59
60
61
62
63
64
65
66
67
68
69
0
71
72
73
0
0
76
77
78
79
0
81
82
83
0
85
86
87
88
89
90
91
92
93
0
95
96
0
98
99
100
2
3
4
5
6
7
8
9
10
11
12
13
14
0
0
0
18
0
20
21
0
23
24
25
26
27
28
29
30
0
32
33
34
35
0
37
0
39
40
41
42
43
44
45
46
47
48
0
50
51
52
53
54
55
0
57
58
59
60
61
62
63
64
0
0
67
68
69
0
71
0
73
74
0
76
77
78
0
0
81
82
83
84
85
86
87
88
0
0
91
0
93
0
95
96
0
98
0
100
2
3
0
5
0
7
0
9
10
11
12
13
14
15
16
17
18
19
20
21
0
23
24
25
26
27
28
29
30
0
32
33
34
35
0
37
0
39
40
41
0
43
44
45
46
47
48
0
50
51
52
53
54
55
0
57
58
59
60
61
62
0
64
0
0
67
68
69
0
71
0
73
0
0
76
77
78
0
0
81
82
83
84
85
86
87
0
0
0
91
92
93
94
95
96
0
98
99
100
2
3
4
5
6
7
8
9
10
0
12
13
14
15
16
17
18
19
20
21
22
23
24
25
26
27
28
29
30
0
32
33
34
35
36
37
38
39
40
41
0
43
44
45
46
47
48
0
50
51
52
0
54
55
0
57
58
59
60
61
62
0
64
0
0
67
68
69
70
71
72
73
74
0
76
77
78
0
0
81
82
83
0
85
86
87
88
89
90
91
0
93
0
95
96
0
98
99
100
2
3
4
5
6
7
8
9
0
11
12
13
14
15
16
17
18
19
20
21
22
23
0
25
0
27
28
29
30
31
32
33
34
35
36
37
38
39
40
41
42
43
44
45
46
47
48
0
50
51
52
53
54
55
0
57
58
59
60
61
62
0
64
65
66
67
68
69
70
71
72
73
74
0
76
77
78
79
80
81
82
83
84
85
86
87
88
89
90
91
0
93
0
95
96
0
98
99
100
EOF
