DIMENSION : 100
NUMBER OF ITEMS : 495

TOUR_SECTION
1
63
6
49
90
19
75
92
8
42
89
31
80
56
97
4
65
26
66
70
22
94
16
88
53
79
18
24
38
99
36
84
10
72
21
74
59
17
15
11
32
45
91
98
23
77
60
62
35
86
27
12
20
57
9
7
55
83
34
29
46
43
3
14
71
41
100
48
30
39
96
78
52
5
37
33
76
13
95
82
85
68
73
50
44
2
54
40
64
69
81
25
87
51
61
58
67
28
93
47

PP_SECTION
2
0
0
0
0
0
8
0
0
0
0
13
0
0
0
0
0
19
0
0
0
0
24
0
0
0
28
0
0
0
0
0
34
0
0
37
0
0
0
0
0
0
0
0
0
47
0
0
0
0
52
0
54
0
0
0
0
0
0
0
0
0
64
0
0
67
0
0
0
0
0
0
0
75
76
0
78
0
0
0
0
0
0
0
0
0
88
89
0
0
0
0
0
0
0
0
0
0
0
0
0
4
0
0
0
0
0
10
0
12
0
0
0
0
0
0
19
0
0
0
0
0
0
0
27
28
0
0
0
0
0
0
0
0
0
0
0
40
0
0
0
0
0
0
47
0
0
0
0
0
0
54
0
0
0
58
0
0
0
62
63
0
0
0
0
68
0
0
0
0
73
0
75
0
0
0
0
0
0
0
83
0
0
0
0
0
0
0
0
0
0
94
0
0
0
0
0
0
2
0
0
0
0
0
0
9
0
11
12
0
0
0
0
0
0
0
0
21
0
0
0
0
0
27
0
0
30
0
0
0
0
35
0
0
0
0
0
0
0
0
44
0
0
47
0
0
0
0
0
53
0
55
0
0
58
0
0
0
0
0
64
65
0
67
0
0
0
0
0
0
0
0
76
0
78
79
0
0
82
0
0
0
0
87
0
0
0
0
0
93
0
0
0
0
0
0
100
0
0
0
0
0
0
0
9
10
0
0
0
0
0
0
0
0
0
20
0
22
0
0
0
0
0
28
0
0
0
0
0
34
0
0
0
0
39
0
0
42
0
0
0
0
47
48
0
0
0
0
0
54
0
0
57
0
0
0
61
0
0
0
0
0
0
0
69
0
71
72
0
0
0
0
0
78
0
0
0
0
0
0
0
0
87
0
0
90
0
0
93
0
0
0
0
0
0
0
2
0
0
5
0
0
8
0
0
0
0
0
0
15
16
0
0
0
0
0
0
0
0
0
0
0
28
0
0
0
32
0
0
0
36
0
0
0
0
0
42
0
0
0
0
47
0
49
0
0
0
0
54
0
0
0
0
0
0
0
62
0
0
0
0
67
68
69
0
0
0
0
0
0
0
77
0
0
0
0
0
0
84
0
0
0
0
0
0
91
0
93
94
0
96
97
0
0
0
EOF
