DIMENSION : 100
NUMBER OF ITEMS : 99

TOUR_SECTION
1
47
93
28
67
58
61
51
87
25
81
69
64
40
54
2
44
50
73
68
85
82
95
13
76
33
37
5
52
78
96
39
30
48
100
41
71
14
3
43
46
29
34
83
55
7
9
57
20
12
27
86
35
62
60
77
23
98
91
45
32
11
15
17
59
74
21
72
10
84
36
99
38
24
18
79
53
88
16
94
22
70
66
26
65
4
97
56
80
31
89
42
8
92
75
19
90
49
6
63

PP_SECTION
0
3
4
5
6
7
0
9
10
11
12
0
14
15
0
0
18
0
20
0
0
0
0
25
26
27
0
29
0
31
32
33
0
0
36
0
38
39
0
41
42
0
44
0
46
47
48
49
0
51
0
53
0
0
56
57
0
59
0
61
62
63
0
65
66
67
68
69
70
71
72
0
74
75
0
77
0
0
80
81
82
83
84
85
0
87
0
0
90
91
92
93
94
95
96
97
0
99
100
EOF
