DIMENSION : 100
NUMBER OF ITEMS : 99

TOUR_SECTION
1
63
6
49
90
19
75
92
8
42
89
31
80
56
97
4
65
26
66
70
22
94
16
88
53
79
18
24
38
99
36
84
10
72
21
74
59
17
15
11
32
45
91
98
23
77
60
62
35
86
27
12
20
57
9
7
55
83
34
29
46
43
3
14
71
41
100
48
30
39
96
78
52
5
37
33
76
13
95
82
85
68
73
50
44
2
54
40
64
69
81
25
87
51
61
58
67
28
93
47

PP_SECTION
2
0
4
0
0
7
8
9
0
11
12
13
0
0
16
17
18
19
20
0
22
0
24
25
26
0
28
29
30
31
32
0
34
35
0
37
0
39
40
41
42
43
44
0
46
47
48
49
0
51
52
0
54
55
0
0
58
0
60
61
62
63
64
0
66
67
68
69
70
71
72
73
74
75
76
77
78
0
0
81
0
83
84
85
0
87
88
89
0
0
0
93
0
95
0
0
98
0
100
EOF
