DIMENSION : 100
NUMBER OF ITEMS : 99

TOUR_SECTION
1
47
93
28
67
58
61
51
87
25
81
69
64
40
54
2
44
50
73
68
85
82
95
13
76
33
37
5
52
78
96
39
30
48
100
41
71
14
3
43
46
29
34
83
55
7
9
57
20
12
27
86
35
62
60
77
23
98
91
45
32
11
15
17
59
74
21
72
10
84
36
99
38
24
18
79
53
88
16
94
22
70
66
26
65
4
97
56
80
31
89
42
8
92
75
19
90
49
6
63

PP_SECTION
2
0
4
0
6
0
8
9
0
11
12
13
0
0
16
17
18
19
0
0
22
0
24
0
26
0
28
0
0
31
32
0
34
35
0
37
0
0
0
0
42
43
0
0
46
0
0
49
0
0
52
0
54
55
0
0
0
0
60
0
62
63
64
0
66
0
0
0
70
0
72
0
74
75
76
77
78
0
0
0
0
0
84
0
0
0
88
89
90
0
92
0
94
0
0
97
98
0
0
EOF
