DIMENSION : 100
NUMBER OF ITEMS : 495

TOUR_SECTION
1
47
93
28
67
58
61
51
87
25
81
69
64
40
54
2
44
50
73
68
85
82
95
13
76
33
37
5
52
78
96
39
30
48
100
41
71
14
3
43
46
29
34
83
55
7
9
57
20
12
27
86
35
62
60
77
23
98
91
45
32
11
15
17
59
74
21
72
10
84
36
99
38
24
18
79
53
88
16
94
22
70
66
26
65
4
97
56
80
31
89
42
8
92
75
19
90
49
6
63

PP_SECTION
2
3
4
5
6
0
0
0
0
0
0
0
0
0
0
0
0
19
20
21
22
0
0
0
0
0
0
0
0
0
0
0
0
0
0
0
0
0
0
0
0
0
44
0
0
0
0
49
50
51
52
0
0
0
0
57
0
0
0
0
0
63
0
65
66
67
68
69
0
0
0
0
0
0
0
0
0
0
0
0
0
0
0
85
86
87
88
89
90
0
92
0
0
0
0
0
0
0
0
0
0
4
0
6
0
8
9
10
0
0
0
0
0
0
0
0
19
0
0
0
0
0
0
0
27
0
29
0
0
0
0
0
0
0
0
0
0
0
0
0
0
0
0
0
0
0
49
0
0
0
53
0
0
0
0
0
0
0
0
0
63
0
0
0
0
68
69
0
0
0
0
0
0
0
0
0
0
0
0
0
83
84
0
0
0
0
0
0
0
0
0
0
0
0
0
0
0
0
0
0
0
0
6
0
0
0
0
0
0
13
14
15
16
17
18
19
0
0
0
23
24
0
26
27
0
0
0
0
0
0
0
0
0
0
0
0
0
0
0
0
0
0
0
0
0
49
0
0
0
0
0
0
0
0
0
59
60
0
0
63
0
0
0
0
0
0
0
0
0
0
0
0
0
0
0
0
0
0
0
0
0
0
0
0
0
0
0
0
92
0
0
0
0
0
98
99
0
0
3
4
0
6
7
8
9
10
0
0
0
0
0
0
0
0
19
0
0
22
0
24
0
26
27
0
0
0
0
0
33
34
35
36
0
0
0
0
0
0
0
44
45
46
0
0
49
0
0
0
0
0
0
0
0
0
0
0
0
0
63
0
0
0
0
0
0
0
71
72
73
0
0
0
0
0
0
0
0
0
0
0
0
0
0
0
89
90
0
0
0
0
0
0
0
0
0
0
0
0
0
0
6
0
8
0
0
11
12
0
0
0
16
0
0
19
0
0
0
0
0
0
0
0
0
0
0
31
0
0
0
0
0
0
0
39
40
41
42
0
0
0
0
0
0
49
0
0
0
0
0
0
0
0
0
0
0
0
0
63
0
65
66
67
68
69
70
71
0
0
0
0
0
0
78
79
80
0
0
0
0
0
0
0
0
0
90
0
0
0
0
0
0
0
0
99
100
EOF
