DIMENSION : 100
NUMBER OF ITEMS : 99

TOUR_SECTION
1
63
6
49
90
19
75
92
8
42
89
31
80
56
97
4
65
26
66
70
22
94
16
88
53
79
18
24
38
99
36
84
10
72
21
74
59
17
15
11
32
45
91
98
23
77
60
62
35
86
27
12
20
57
9
7
55
83
34
29
46
43
3
14
71
41
100
48
30
39
96
78
52
5
37
33
76
13
95
82
85
68
73
50
44
2
54
40
64
69
81
25
87
51
61
58
67
28
93
47

PP_SECTION
0
3
0
5
6
7
0
9
10
11
12
13
14
15
0
0
0
0
20
0
0
0
0
25
26
27
28
29
0
0
32
33
0
0
36
0
38
39
40
41
0
0
44
0
46
47
48
0
50
51
0
53
54
0
56
57
58
59
0
61
62
63
0
65
0
67
68
69
70
71
72
73
0
0
0
77
0
0
80
81
82
83
84
85
0
87
0
0
90
91
92
93
94
95
96
0
0
99
100
EOF
