DIMENSION : 3038
NUMBER OF ITEMS : 30370

TOUR_SECTION
1
2
12
13
3
4
14
15
5
6
16
17
7
8
18
19
9
10
20
31
21
22
32
33
23
24
34
35
68
25
26
36
37
27
28
38
39
29
30
40
196
195
194
193
192
191
137
190
189
198
200
201
349
364
202
203
204
205
206
199
207
208
209
210
211
212
43
41
42
44
45
215
216
217
223
218
224
219
220
221
222
225
226
235
234
233
227
232
231
230
229
228
213
214
369
372
373
391
390
383
389
388
387
386
385
384
400
432
236
237
238
239
399
431
430
429
428
427
426
425
424
423
422
265
266
264
263
262
261
260
259
258
257
256
253
242
252
241
240
138
67
66
65
64
63
62
61
60
59
58
46
47
48
49
50
51
52
53
54
55
56
57
69
79
80
70
71
72
73
74
75
76
77
78
88
87
86
85
84
83
82
81
139
243
244
245
140
246
254
255
247
248
249
250
251
267
268
269
270
271
272
273
141
274
275
285
142
143
144
107
106
105
104
103
102
101
100
99
89
90
91
112
92
93
94
95
96
97
108
98
109
110
111
114
113
300
302
292
291
290
289
288
287
286
284
276
277
278
279
280
281
282
283
441
449
440
448
447
446
445
444
443
442
439
438
437
436
435
434
433
661
662
663
664
665
666
667
668
669
670
671
672
673
674
675
450
451
458
452
453
454
455
460
462
463
464
459
465
466
467
468
293
294
295
296
297
298
299
461
489
486
477
476
485
488
487
484
483
482
481
480
478
479
511
510
509
508
507
506
505
504
503
502
324
323
312
322
321
311
310
309
320
319
318
317
316
308
307
315
314
313
305
306
304
303
301
115
116
117
118
120
119
145
146
150
149
148
147
121
122
123
124
151
152
153
125
126
127
154
155
128
129
130
131
156
133
132
157
158
159
160
514
513
512
501
500
499
747
498
497
496
746
495
494
493
492
491
490
737
738
739
740
736
741
742
743
744
745
727
728
729
730
735
731
732
733
734
690
691
692
693
694
695
696
697
698
699
700
701
702
710
709
708
707
706
705
704
703
475
474
473
472
471
470
469
713
711
712
714
457
456
715
716
655
677
676
680
678
679
681
682
683
684
685
686
687
688
689
923
900
718
717
719
720
721
722
723
724
725
726
912
910
909
911
908
907
906
905
904
903
902
922
901
921
920
919
918
917
916
915
914
913
1047
1147
1146
1046
1145
1144
1143
1142
1141
1140
1045
1126
1125
1124
1123
1122
1121
1120
1119
1044
892
893
894
895
896
897
898
899
891
890
889
888
887
886
885
884
883
882
881
880
1042
1043
1030
1041
1040
1039
1038
1037
1036
1035
1034
1033
1032
1031
1023
1024
858
853
859
869
870
871
872
1025
873
874
1026
1027
875
876
877
1028
1029
878
879
868
867
866
865
864
863
862
861
860
855
854
634
635
636
637
856
638
639
640
857
641
642
643
646
645
647
649
650
648
652
651
653
654
644
656
657
658
659
660
629
630
631
632
616
617
626
618
619
620
621
622
623
624
625
627
628
604
394
401
402
403
404
405
406
407
408
409
411
410
412
413
414
415
416
417
418
419
420
421
395
393
396
397
398
392
381
380
379
382
378
377
376
375
374
370
371
573
572
365
366
367
368
357
358
359
360
361
362
363
348
346
545
350
351
352
353
565
567
566
564
563
354
355
356
560
561
562
559
552
551
550
556
555
549
548
547
558
568
569
557
543
544
546
542
541
540
778
779
780
781
782
783
784
785
786
787
570
554
553
571
574
575
576
577
578
579
580
803
802
801
800
799
798
823
820
819
818
822
817
816
815
814
813
812
811
804
805
806
810
809
808
807
584
583
582
581
587
588
589
590
591
603
602
601
600
599
598
596
597
595
594
593
592
586
585
605
606
607
608
609
610
611
612
613
614
615
633
841
842
852
838
840
839
837
836
835
834
833
832
831
830
829
843
844
1010
845
1011
846
847
848
849
850
1013
1022
1021
1020
1019
1018
1017
1012
1016
1015
1014
1674
1675
1683
1684
1676
1677
1678
1687
1724
1686
1685
1721
1718
1715
1716
1717
1719
1720
1722
1726
1725
1688
1689
1679
1251
1250
1249
1248
1241
1247
1252
1246
1253
1254
1255
1256
1242
1243
1244
1245
1240
1234
1235
1236
1237
1238
1239
1443
1442
1441
1440
1439
1438
1437
1436
1233
1232
1231
1230
1229
1228
1432
1433
1434
1430
1429
1421
1422
1423
1431
1424
1425
1426
1428
1427
1541
1540
1539
1538
1537
1536
1535
1534
1420
1419
1418
1417
1435
1415
1414
1416
1413
1412
1411
1410
1409
1408
1407
1402
1401
1393
1394
1395
1493
1396
1397
1398
1399
1400
1494
1495
1503
1502
1501
1500
1530
1531
1532
1533
1529
1528
1525
1524
1523
1522
1521
1520
1517
1519
1518
1515
1514
1513
1516
1512
1511
1510
1509
1508
1507
1506
1505
1504
1526
1527
1499
1498
1497
1496
1477
1476
1475
1474
1473
1480
1479
1478
1491
1490
1489
1488
1487
1483
1486
1492
1485
1484
1482
1468
1469
1470
1481
1471
1472
1604
1602
1601
1600
1599
1598
1597
1596
1595
1592
1593
1594
1630
1629
1628
1627
1650
1649
1648
1647
1646
1645
1644
1643
1642
1641
1655
1656
1657
1658
1659
1652
1653
1654
1640
1639
1638
1637
1636
1635
1633
1634
1651
1662
1661
1660
1663
1664
1665
1666
1667
1668
1669
1670
1672
1671
1673
1714
1713
1712
1711
1710
1709
1708
1682
1707
1706
2437
1705
1704
1703
1702
1681
1680
1701
1700
1699
1698
1697
1696
1740
1695
1694
1693
1692
1691
1690
1729
1730
1731
1733
1736
1737
1734
1732
1735
1738
1739
1777
1776
1775
1774
1773
1772
1799
1813
1814
1827
1815
1816
1828
1817
1818
1819
1820
1821
1822
1829
1834
1917
1925
1926
1918
1919
1927
1928
1835
1831
1832
1833
1830
1823
1824
1825
1826
1281
1267
1266
1265
1264
1263
1262
1261
1268
1260
1259
1258
1270
1273
1271
1272
1274
1269
1275
1276
1277
1278
1279
1280
1114
1102
1113
1112
1111
1110
1109
1108
1107
1106
1105
1101
1104
1103
1257
1798
1770
1771
1728
1727
1723
1769
1768
1797
1767
1766
1765
1099
1100
1084
1085
1086
1087
1088
1089
1090
1091
1092
1093
1094
1096
1095
1097
1098
1115
1116
1117
1118
1287
1286
1285
1284
1282
1283
1288
1289
1290
1292
1291
1293
1294
1295
1296
1297
1308
1307
1306
1305
1304
1298
1303
1302
1299
1300
1301
1132
1133
1127
1134
1128
1135
1136
1137
1129
1138
1130
1139
1131
1148
1150
1151
1152
1153
1154
1149
1155
1156
1157
1158
1159
1160
1161
1335
1334
1333
1332
1331
1330
1329
1328
1327
1326
1325
1324
1323
1321
1322
1320
1309
1310
1312
1311
1313
1314
1315
1316
1317
1318
1319
1873
1872
1871
1870
1869
1868
1867
1866
1865
1863
1852
1851
1850
1849
1848
1847
1846
1845
1844
1843
1839
1837
1838
1840
1836
1841
1842
1860
1859
1858
1857
1856
1855
1854
1853
1862
1861
1864
1970
1971
1980
1979
1982
1983
1984
1985
1981
1986
1987
1988
1989
1978
1977
1976
1975
1974
1973
1972
1886
1885
1884
1883
1882
1881
1887
1888
1880
1878
1879
1877
1876
1874
1875
1907
1908
1906
1909
1990
1991
1910
1911
1912
1913
1905
1901
1900
1891
1899
1898
1897
1896
1895
1894
1889
1890
1336
1337
1338
1339
1340
1341
1342
1347
1353
1352
1351
1361
1362
1350
1349
1363
1171
1172
1173
1174
1175
1176
1177
1167
1166
1165
1164
1163
1162
939
940
941
935
924
748
749
750
751
752
753
754
755
515
758
757
756
933
934
931
938
948
947
949
946
937
930
929
932
928
927
926
925
936
942
943
944
945
950
1168
1169
1170
1180
1179
1178
1360
1359
1358
1357
1356
1355
1354
1348
1343
1344
1345
1346
1893
1892
1902
1903
1904
1916
1915
1914
1993
1992
2000
1999
1998
1997
1996
1995
1994
2004
2007
2008
2009
2010
2011
2012
2013
2014
2005
2001
2002
2003
2006
2016
2015
2108
2109
2114
2113
2112
2107
2106
2111
2105
2110
2104
2103
2102
2101
2100
2115
2116
2117
2118
2119
2120
2121
2124
2122
2123
2125
2231
2230
2229
2228
2227
2149
2226
2225
2224
2147
2146
2148
2243
2244
2223
2245
2246
2247
2248
2249
2250
2251
2252
2259
2765
2764
2763
2767
2766
2762
2761
2760
2759
2758
2757
2756
2258
2744
2743
2742
2256
2741
2740
2739
2738
2737
2253
2736
2735
2214
2213
2212
2139
2186
2185
2184
2187
2183
2182
2188
2197
2198
2199
2191
2200
2201
2211
2210
2209
2208
2207
2206
2196
2195
2205
2204
2203
2202
2192
2193
2194
2189
2190
2179
2180
2137
2181
2138
2076
2075
2074
2073
2072
2080
2140
2081
2091
2092
2093
2094
2095
2141
2142
2096
2097
2143
2221
2220
2219
2218
2217
2216
2215
2232
2233
2234
2235
2236
2254
2255
2237
2238
2239
2240
2241
2257
2242
2222
2144
2145
2099
2098
2032
2031
2090
2089
2088
2087
2086
2085
2084
2083
2029
2028
2030
2082
2071
2070
2069
2068
2067
2066
2077
2078
2079
2063
2136
2061
2025
2064
2062
2065
2027
2026
1962
1963
1964
1961
1965
1959
1966
1967
1968
1969
1960
1958
1957
1956
1955
1954
1950
1953
1952
1951
1948
1949
2024
1947
1945
1946
1932
1931
1944
1943
1930
1929
1942
1941
1940
1939
1938
1937
1924
1923
1936
1935
1922
1921
1920
1933
1934
2019
2020
2021
2022
2023
2040
2041
2042
2043
2044
2045
2046
2060
2135
2134
2059
2058
2057
2056
2055
2054
2053
2039
2038
2052
2051
2037
2036
2035
2034
2018
2017
2033
2047
2048
2049
2050
2131
2133
2132
2130
2129
2128
2127
1807
1808
1789
1788
1749
1787
1786
1806
1805
1785
1784
1783
1804
1803
1782
1781
1802
1801
1800
1778
1779
1780
1741
1742
1743
1744
1745
1746
1747
1748
1750
1751
1752
1753
1754
1760
1761
1762
1763
1759
1758
1756
1757
1755
1791
1790
1809
1810
1792
1793
1794
1795
1796
1812
1811
2126
2150
2151
2152
2153
2154
2155
2156
2157
2158
2159
2160
2161
2162
2163
2164
2178
2177
2176
2175
2174
2173
2172
2171
2170
2169
2632
2631
2630
2168
2167
2166
2165
2628
2629
2633
2634
2635
2670
2671
2672
2673
2636
2674
2675
2637
2676
2677
2687
2688
2689
2690
2691
2681
2680
2679
2678
2640
2638
2639
2641
2642
2643
2644
2645
2646
2647
2648
2666
2665
2664
2649
2650
2663
2662
2661
2660
2659
2658
2657
2656
2655
2654
2653
2652
2651
2710
2723
2721
2719
2717
2715
2709
2708
2707
2706
2705
2712
2713
2714
2716
2718
2720
2722
2724
2726
2725
2727
2728
2730
2729
2731
2732
2734
2733
2711
2667
2781
2746
2747
2748
2749
2750
2745
2751
2752
2753
2754
2755
2770
2771
2772
2773
2774
2789
2790
2775
2776
2791
2777
2778
2779
2768
2769
2780
2793
2792
2814
2813
2812
2811
2810
2809
2808
2818
2807
2788
2806
2787
2786
2805
2816
2804
2803
2815
2802
2785
2784
2801
2800
2799
2783
2798
2797
2796
2795
2794
2782
2820
2821
2822
2827
2823
2824
2828
2829
2825
2826
2830
2831
2833
2834
2832
2817
2835
2836
2837
2838
2839
2819
2840
2841
2844
2842
2843
2845
3001
3013
3038
3037
3033
3032
3031
3012
3011
3000
2999
2998
2997
3009
3010
3029
3030
3028
3027
3008
3007
2996
2995
2994
3003
3004
3005
3006
3025
3026
3024
3023
3002
2993
2992
2991
3021
3022
3020
3018
2990
2989
2988
2987
3017
3016
2986
2985
2982
2984
2981
2983
3014
3015
3019
3036
3035
2938
2937
2915
2916
2893
2894
2869
2868
2867
2892
2891
2866
2865
2890
2913
2914
2936
2935
2956
2957
2958
2979
2978
2977
2976
2975
2974
2953
2954
2955
2934
2912
2889
2864
2863
2862
2888
2887
2910
2911
2933
2932
2931
2952
2973
2972
2951
2930
2908
2909
2886
2861
2860
2885
2884
2907
2929
2950
2971
2970
2969
2968
2967
2966
2945
2944
2965
2964
2963
2962
2961
2960
2939
2918
2896
2901
2897
2919
2940
2941
2920
2898
2899
2921
2942
2943
2922
2900
2980
2923
2924
2902
2879
2878
2877
2876
2875
2874
2873
2895
2872
2871
2870
2846
2850
2851
2847
2852
2853
2854
2855
2856
2857
2858
2880
2881
2903
2904
2926
2925
2946
2947
2948
2949
2928
2927
2905
2906
2883
2882
2849
2859
2848
2704
2703
2702
2701
2700
2699
2686
2685
2698
2697
2684
2683
2682
2696
2695
2694
2693
2692
2669
2668
2475
2495
2516
2515
2494
2474
2493
2492
2513
2514
2523
2544
2545
2546
2917
3034
2959
2625
2604
2624
2623
2603
2584
2565
2543
2542
2541
2564
2563
2540
2539
2562
2581
2583
2580
2561
2538
2537
2560
2559
2578
2579
2599
2600
2601
2582
2627
2602
2622
2621
2620
2619
2618
2598
2597
2617
2616
2596
2595
2615
2614
2594
2575
2576
2577
2558
2536
2535
2557
2556
2534
2533
2555
2574
2593
2613
2612
2592
2591
2611
2610
2590
2571
2573
2570
2589
2609
2608
2588
2569
2550
2551
2552
2553
2572
2626
2554
2532
2531
2530
2529
2528
2517
2499
2498
2497
2476
2477
2478
2470
2471
2472
2480
2479
2500
2501
2502
2481
2482
2503
2518
2504
2483
2484
2485
2506
2505
2519
2520
2521
2522
2507
2508
2509
2510
2511
2512
2491
2490
2489
2488
2487
2486
2473
2459
2460
2461
2462
2463
2464
2465
2466
2467
2468
2446
2445
1764
2444
2443
2442
2441
2440
2439
2438
2458
2457
2456
2455
2454
2453
2363
2452
2451
2450
2449
2448
2469
2447
2401
2399
2426
2427
2428
2429
2430
2431
2432
2433
2434
2435
2436
2425
2424
2423
2422
2421
2420
2419
2418
2417
2416
2397
1632
1631
1621
1622
1625
1623
1624
1620
1619
1618
1617
1616
1615
1626
1589
1588
1590
1591
1603
1605
1606
1607
1608
1609
1464
1565
1562
1561
1560
1559
1558
1557
1552
1546
1547
1548
1549
1550
1551
1564
1578
1611
1612
1614
1613
2330
2356
2357
2355
2358
2359
2360
2361
2362
2398
2400
2402
2364
2365
2366
2367
2372
2371
2368
2369
2370
2334
2337
2380
2379
2378
2377
2376
2373
2375
2374
2403
2405
2496
2408
2524
2527
2525
2526
2549
2548
2547
2566
2567
2568
2587
2607
2606
2586
2585
2605
2413
2414
2354
2353
2352
2347
2350
2351
2348
2349
2346
2345
2390
2389
2391
2392
2393
2394
2395
2396
2411
2412
2410
2409
2407
2406
2404
2388
2387
2386
2385
2384
2383
2382
2381
2341
2340
2338
2339
2344
2343
2342
2295
2306
2305
2304
2309
2308
2307
2328
2327
2324
2323
2322
2326
2321
2325
2320
2318
2317
2319
2415
2316
2315
2299
2298
2297
2300
2313
2314
2312
2301
2302
2311
2310
2303
2296
2292
2293
2294
2286
2285
2284
2283
2291
2290
2282
2281
2289
2288
2280
2287
2279
2260
2262
2263
2269
2264
2265
2266
2261
2267
2268
2278
2336
2335
2333
2332
2331
2329
2277
2276
1610
2275
2274
2273
2272
2271
2270
1566
1567
1577
1568
1569
1576
1570
1571
1572
1573
1574
1575
1579
1581
1580
1582
1583
1585
1586
1584
1587
1542
1543
1545
1544
1553
1554
1555
1556
1563
1446
1447
1448
1449
1450
1451
1460
1459
1458
1457
1456
1455
1452
1445
1444
1453
1454
1364
1365
1366
1367
1368
1369
1370
1371
1372
1374
1373
1382
1381
1380
1379
1378
1377
1385
1386
1182
1181
1191
1192
1193
1194
1195
1196
1197
1188
1189
1190
1184
1183
1387
1388
1185
1186
1187
1391
1390
1389
1383
1384
1376
1375
1463
1462
1461
1465
1466
1467
1392
1403
1406
1405
1404
1201
1204
1205
1206
1207
1202
1203
1208
1209
1210
1211
1212
1213
1214
1215
1216
1217
1218
1219
1221
1222
1223
1224
1225
1226
1227
1199
1198
1200
1065
1064
1063
1058
1057
1062
1061
1060
1059
1048
1049
961
962
1050
1052
1053
1051
1054
1055
1056
965
966
1066
1067
1076
1077
1078
1079
1080
1081
1082
1220
1083
996
997
998
999
1000
1001
1002
1003
1005
1004
1006
1007
1009
1008
994
825
826
827
828
851
824
993
992
991
990
989
995
988
987
986
985
984
983
982
797
821
980
981
978
979
796
788
795
794
793
792
789
791
790
969
970
971
972
973
975
974
976
977
1075
1074
1073
1071
1072
1070
1069
1068
967
968
953
960
959
958
952
957
964
963
956
955
954
951
770
771
772
773
768
774
775
776
777
769
767
766
765
760
764
763
762
761
759
516
517
518
519
523
520
521
522
527
528
529
530
532
533
535
534
536
537
526
524
525
538
539
325
326
327
335
334
328
329
330
531
331
332
345
347
333
338
185
340
339
341
342
343
336
337
344
183
184
173
174
175
176
179
177
181
178
182
180
186
197
188
187
172
171
170
169
168
136
167
166
135
165
164
161
163
134
162
11

PP_SECTION
2
0
0
0
0
0
8
0
0
11
0
0
0
0
0
0
0
19
0
0
0
0
24
0
0
0
0
0
0
0
0
0
34
0
0
37
0
0
0
0
0
0
0
0
0
0
0
0
0
0
52
0
0
0
0
0
0
0
0
0
0
0
64
0
0
0
0
0
0
0
0
0
0
75
76
0
78
0
0
0
0
0
0
0
0
0
88
89
0
0
0
0
0
0
0
0
0
0
0
0
0
103
0
0
0
0
0
0
0
111
0
0
0
0
0
0
118
0
0
0
0
0
0
0
126
127
0
0
0
0
0
0
134
135
136
0
0
0
0
0
0
0
0
0
0
0
0
0
0
0
0
153
0
0
0
0
0
0
0
161
162
0
164
165
166
167
168
169
170
0
172
173
174
175
0
177
0
179
180
181
182
183
0
0
186
187
188
0
0
0
0
193
0
0
0
197
0
0
200
0
0
0
0
0
0
207
0
0
210
0
0
0
0
0
0
0
0
219
0
0
0
0
0
225
0
0
228
0
0
0
0
233
0
0
0
0
0
0
0
0
0
0
0
0
0
0
0
0
0
251
0
0
0
0
256
0
0
0
0
0
262
263
0
0
0
0
0
0
0
0
0
0
0
0
0
277
0
0
280
0
0
0
0
0
0
0
0
0
0
291
0
0
0
0
0
0
298
0
0
0
0
0
0
0
306
0
0
0
0
0
0
0
0
0
0
317
0
319
0
0
0
0
0
325
0
0
328
329
330
331
332
0
0
335
336
0
0
339
340
0
0
343
344
345
0
347
0
0
0
351
0
0
354
0
0
0
0
0
0
0
0
0
0
0
0
0
368
369
0
0
0
0
0
0
0
0
0
0
0
0
0
0
384
0
0
387
0
0
0
0
0
0
0
0
0
0
398
0
0
401
0
0
404
0
0
0
0
0
0
0
412
0
0
0
0
0
0
0
0
0
0
0
0
0
0
0
428
0
0
0
432
0
0
0
0
0
438
0
0
0
0
0
0
445
0
0
0
0
450
0
0
0
0
0
0
0
0
0
0
0
0
0
464
465
0
0
0
0
0
0
0
473
0
0
0
0
0
0
480
0
0
0
0
0
0
487
0
0
490
0
492
493
0
0
0
0
498
0
0
501
502
0
0
0
0
0
0
0
0
0
512
0
514
0
516
0
518
0
520
0
522
523
524
525
526
527
0
529
0
531
532
0
534
0
0
537
538
539
0
0
0
0
0
0
0
0
548
0
0
0
0
0
0
0
0
0
0
0
0
0
0
563
564
0
0
0
0
0
0
0
0
0
0
0
576
577
0
0
0
0
0
0
0
0
0
0
0
0
0
0
0
0
0
595
0
0
0
0
0
0
0
0
0
0
0
0
0
0
0
0
0
0
0
0
616
0
0
0
620
0
0
0
0
0
0
0
628
0
0
0
0
633
0
0
0
0
0
0
0
0
0
0
0
645
0
647
648
0
0
0
0
653
0
0
0
657
0
0
0
0
0
0
0
0
0
0
0
669
0
671
0
0
0
0
0
0
0
0
0
0
0
0
0
0
0
0
0
0
0
0
0
0
0
0
0
0
0
0
700
701
0
0
0
0
0
0
0
0
0
0
0
713
714
0
0
717
0
0
0
0
722
0
0
0
0
0
0
0
0
0
0
0
0
0
0
0
0
0
0
741
0
0
0
0
0
0
0
0
0
0
0
0
754
0
0
0
0
0
0
761
762
763
764
765
0
767
0
769
0
0
772
773
0
775
776
0
778
0
0
0
0
0
784
785
0
0
788
789
0
0
0
793
0
0
796
0
0
0
0
801
0
0
0
805
0
807
0
0
0
0
0
0
0
0
816
0
0
0
0
0
0
0
0
0
0
0
828
829
830
0
0
833
0
0
0
0
838
0
0
0
842
0
0
845
0
0
0
849
0
851
0
0
854
855
0
0
0
0
0
0
862
0
0
0
0
0
0
0
0
0
0
0
0
875
876
0
0
0
0
881
882
0
0
0
0
0
888
0
0
0
0
0
0
895
0
0
0
0
0
0
902
0
0
0
0
0
908
0
0
0
0
0
0
0
0
0
0
0
0
0
0
0
0
0
0
0
0
0
0
0
0
0
0
0
936
0
0
0
0
0
0
0
0
945
0
0
0
0
0
951
952
953
0
0
956
957
958
0
0
961
962
0
0
965
966
0
968
969
0
0
972
0
0
0
0
0
0
0
0
981
0
983
984
0
986
987
0
989
0
991
992
993
994
0
0
997
998
999
1000
0
1002
1003
1004
0
1006
1007
0
1009
0
0
0
0
0
0
0
0
0
0
0
0
0
0
1024
0
0
1027
0
0
0
0
0
0
1034
1035
0
1037
0
0
0
0
0
0
0
0
0
1047
0
1049
1050
0
0
0
1054
1055
0
0
0
1059
1060
0
0
0
1064
0
0
1067
0
0
0
1071
0
0
1074
0
1076
0
1078
1079
0
0
0
1083
0
0
0
0
0
0
0
0
0
1093
1094
0
0
0
0
1099
0
0
1102
0
0
0
1106
0
0
1109
1110
0
0
1113
0
0
0
0
0
1119
0
0
1122
0
0
1125
0
1127
0
0
0
0
0
0
0
0
1136
0
0
0
1140
0
0
0
0
0
0
1147
0
0
0
0
0
0
1154
0
1156
0
0
1159
0
0
0
0
0
1165
0
0
0
0
0
1171
0
0
0
1175
1176
1177
0
0
0
0
0
1183
1184
0
1186
0
1188
1189
1190
1191
0
0
0
1195
0
0
0
0
0
1201
0
1203
0
0
0
0
0
0
1210
1211
1212
0
1214
0
0
0
0
1219
0
0
1222
0
1224
0
0
0
0
0
0
1231
0
0
0
0
0
0
0
0
0
0
0
0
0
0
0
1247
0
0
0
0
0
0
0
0
0
1257
0
0
1260
0
0
0
1264
0
1266
0
0
0
0
0
0
1273
0
0
0
0
0
0
0
1281
0
0
1284
0
0
0
0
0
0
0
0
1293
0
0
1296
0
0
1299
1300
0
0
0
0
0
0
1307
0
0
0
1311
0
1313
0
0
0
0
0
0
0
0
0
0
0
0
0
1327
1328
0
0
0
0
1333
1334
0
0
0
0
0
0
0
0
0
0
1345
0
0
0
0
1350
0
0
0
0
1355
0
0
1358
0
0
0
0
0
0
0
1366
0
1368
1369
0
1371
1372
1373
0
1375
1376
0
0
0
0
0
0
1383
0
1385
0
0
0
0
1390
0
0
0
0
0
0
0
0
0
0
0
0
0
1404
1405
1406
0
0
1409
0
0
0
1413
0
0
0
0
0
1419
0
0
0
0
0
0
1426
0
1428
0
0
0
0
0
0
0
0
0
0
1439
0
0
0
0
1444
0
0
0
0
1449
1450
0
0
0
0
1455
1456
1457
0
0
0
1461
1462
1463
1464
1465
1466
0
0
0
0
0
0
1473
0
0
0
0
0
0
0
0
0
0
0
0
0
0
1488
0
0
0
0
0
0
0
0
0
0
0
0
1501
0
0
0
0
0
0
0
0
0
0
0
1513
1514
0
0
1517
0
1519
0
0
0
0
0
0
0
0
1528
0
0
1531
0
0
1534
0
0
1537
0
0
0
0
1542
0
0
0
0
1547
0
0
0
0
0
1553
1554
1555
1556
1557
0
0
0
1561
0
0
0
1565
0
0
0
1569
1570
0
0
0
0
0
0
0
1578
0
1580
0
0
0
1584
0
0
1587
0
0
0
0
1592
0
0
0
0
0
0
0
0
0
0
0
0
0
0
1607
0
1609
0
0
1612
1613
0
1615
1616
0
0
0
1620
1621
0
0
0
0
0
0
0
0
0
1631
0
0
0
0
0
0
0
0
0
0
0
1643
0
0
0
0
1648
0
0
0
1652
0
0
0
0
0
0
1659
0
0
0
0
0
0
0
1667
0
0
0
0
0
0
0
0
0
0
0
0
0
0
0
0
1684
0
0
0
1688
0
0
0
0
0
0
1695
0
0
0
0
0
0
0
0
0
1705
0
0
0
0
0
0
0
0
0
0
0
0
0
0
0
0
1722
0
0
0
0
0
0
1729
0
0
0
0
0
0
0
0
0
0
1740
1741
1742
0
0
1745
0
0
0
1749
0
1751
0
1753
0
0
0
0
0
0
0
0
1762
1763
0
0
0
0
1768
0
1770
0
1772
0
0
0
1776
0
0
0
0
1781
1782
1783
1784
1785
0
0
0
1789
1790
0
0
0
0
1795
0
0
0
0
0
0
0
0
1804
0
0
0
1808
0
0
0
0
1813
0
0
1816
0
0
0
0
0
0
0
0
0
0
0
0
0
0
0
0
0
0
1835
0
0
1838
0
0
0
0
0
0
0
0
0
0
0
0
0
0
0
0
0
0
1857
1858
0
1860
0
0
0
0
0
0
0
0
0
0
0
0
1873
1874
0
0
0
0
0
0
0
0
0
0
0
0
0
0
0
0
0
0
0
0
0
0
0
0
0
0
0
0
1903
0
0
0
0
0
1909
0
0
1912
0
0
0
0
0
0
0
0
0
0
1923
0
0
0
0
1928
0
0
1931
0
0
0
0
0
1937
0
0
0
1941
0
0
0
0
1946
0
0
0
0
0
0
0
0
0
0
0
1958
0
0
0
0
0
0
0
0
1967
1968
0
1970
0
0
1973
0
0
1976
0
0
0
0
0
0
1983
0
0
1986
0
0
0
0
0
0
1993
0
1995
0
1997
0
0
0
0
0
0
0
0
0
0
0
0
0
0
0
0
0
0
0
0
0
0
0
2021
0
0
0
0
0
0
2028
0
2030
2031
0
0
0
0
0
2037
0
0
0
0
2042
0
0
0
0
0
0
2049
0
0
0
2053
0
0
0
0
0
0
0
0
2062
0
2064
0
0
2067
2068
0
0
0
0
0
2074
0
2076
0
0
2079
0
0
0
0
0
0
0
0
0
2089
0
0
0
0
0
0
0
0
0
0
0
0
0
0
2104
2105
2106
0
0
0
0
0
0
0
0
2115
2116
0
0
0
0
0
2122
2123
0
2125
0
0
2128
2129
0
0
0
0
0
2135
0
2137
0
2139
2140
2141
0
2143
0
0
0
0
0
0
0
0
0
0
0
0
0
0
2158
2159
0
0
2162
0
0
0
2166
0
2168
0
0
0
0
2173
0
2175
2176
0
0
0
0
0
0
0
0
0
0
0
0
2189
2190
2191
0
2193
0
0
2196
0
0
0
2200
0
0
2203
0
0
0
0
0
0
0
2211
0
0
2214
0
0
0
0
2219
0
0
2222
2223
0
2225
0
0
0
2229
0
0
0
0
2234
2235
0
0
0
0
0
0
0
0
2244
0
0
0
0
0
0
0
0
0
0
2255
0
2257
0
0
0
0
0
0
2264
2265
0
0
0
2269
0
0
2272
2273
0
2275
0
0
0
2279
0
2281
2282
0
0
0
0
2287
0
0
0
0
2292
2293
2294
0
0
2297
0
0
0
0
2302
2303
0
0
0
0
0
0
0
0
0
2313
0
0
0
2317
0
0
0
0
0
0
0
0
2326
0
0
0
0
0
2332
2333
0
0
0
0
0
0
0
0
0
2343
0
0
2346
0
0
0
0
0
0
0
0
2355
0
2357
0
2359
2360
0
0
0
0
2365
2366
2367
0
0
0
2371
0
0
0
0
0
2377
0
0
0
2381
0
2383
2384
0
2386
2387
0
2389
0
0
2392
0
2394
0
0
0
2398
0
0
0
0
2403
0
2405
0
0
2408
0
0
2411
0
0
2414
2415
0
0
0
0
2420
0
0
2423
0
0
0
0
0
2429
0
2431
2432
0
2434
0
0
0
0
2439
0
0
0
0
0
0
0
0
0
0
0
0
0
0
0
0
0
0
0
0
2460
0
0
0
0
0
0
0
0
0
0
0
0
2473
2474
2475
0
2477
0
0
2480
0
0
2483
2484
0
0
0
2488
0
2490
0
2492
0
0
0
0
0
0
0
0
0
0
2503
0
2505
0
0
0
0
0
2511
2512
0
0
0
0
0
0
0
0
0
2522
0
2524
2525
2526
0
0
0
0
0
0
2533
0
0
2536
0
0
2539
2540
2541
2542
0
2544
0
0
2547
0
0
0
0
0
0
0
0
2556
0
2558
0
2560
0
2562
0
0
0
0
0
0
0
0
0
0
0
2574
0
0
2577
0
2579
2580
2581
2582
0
2584
2585
0
0
0
0
0
0
0
0
0
0
2596
0
0
2599
0
0
2602
2603
0
0
0
2607
0
2609
0
0
2612
0
0
2615
2616
0
0
2619
0
2621
2622
2623
0
2625
0
0
0
2629
0
2631
0
0
0
0
2636
2637
2638
0
0
0
0
0
2644
2645
0
0
0
0
0
0
0
0
0
2655
0
0
0
0
0
0
0
2663
0
0
0
2667
0
0
0
2671
0
0
2674
2675
0
0
0
0
0
2681
0
0
0
0
0
0
0
0
0
2691
0
0
0
0
0
2697
0
0
2700
0
0
0
2704
0
0
0
0
0
2710
2711
0
0
0
0
2716
0
0
0
0
0
2722
2723
0
0
0
2727
0
0
0
2731
0
2733
0
2735
0
0
0
0
0
0
0
0
2744
2745
0
2747
0
0
0
2751
0
2753
0
0
0
2757
0
0
0
0
0
0
2764
0
0
0
0
0
2770
0
0
0
0
0
2776
0
2778
0
0
0
0
0
2784
2785
0
0
0
2789
0
0
0
0
0
0
0
2797
0
0
0
0
2802
0
0
0
0
2807
0
0
2810
0
0
0
0
2815
2816
0
0
0
2820
0
2822
0
0
0
2826
0
0
2829
0
0
2832
0
0
0
0
0
0
0
0
0
0
0
0
0
2846
0
0
2849
0
0
0
0
0
0
2856
0
0
0
2860
0
0
0
0
2865
0
0
0
0
0
2871
2872
0
0
0
2876
2877
0
2879
2880
0
0
0
0
0
0
2887
2888
2889
0
0
0
0
2894
0
2896
0
0
0
0
0
0
0
0
0
2906
2907
2908
0
0
2911
0
0
0
0
0
0
2918
0
0
0
0
2923
2924
0
0
0
0
0
0
0
0
0
0
0
0
0
0
2939
2940
0
0
0
2944
0
0
0
2948
0
2950
0
2952
0
0
0
0
0
0
0
0
0
0
2963
2964
2965
0
0
0
0
2970
0
0
0
2974
0
0
0
2978
0
0
2981
0
0
0
0
0
0
0
0
0
0
2992
0
0
2995
0
0
0
2999
0
3001
0
3003
0
0
3006
0
0
0
0
0
0
3013
0
3015
0
0
0
3019
0
0
0
0
0
0
0
0
3028
0
0
0
0
0
0
0
0
0
0
0
0
0
0
6
0
0
0
0
11
0
0
0
0
0
0
0
0
0
0
0
0
24
0
0
0
0
0
0
0
0
0
0
0
0
37
0
39
0
0
42
0
0
45
46
0
48
0
0
0
52
0
0
0
0
0
58
0
0
0
0
0
0
0
66
0
0
0
0
0
0
0
0
0
0
0
0
0
0
0
82
0
0
85
0
0
88
0
0
0
0
0
0
95
0
0
98
0
0
0
0
0
0
0
106
0
0
0
0
0
0
113
0
0
0
0
118
0
0
121
122
0
0
125
0
0
0
129
0
131
0
0
134
135
0
0
0
0
0
0
0
0
0
0
0
0
0
149
150
0
0
0
0
0
0
0
0
0
0
161
162
163
164
165
166
167
168
169
170
0
0
173
174
0
176
0
0
179
180
0
182
0
184
185
186
187
0
0
190
0
0
0
194
0
0
0
0
0
0
0
0
0
0
0
0
0
0
0
0
211
212
0
0
0
0
0
0
219
220
0
222
0
0
0
0
0
0
0
0
0
0
0
0
0
0
0
238
0
0
0
0
0
244
245
0
0
0
0
0
0
0
0
0
0
0
0
0
0
0
261
0
0
0
0
0
0
0
269
0
271
0
0
0
0
0
0
0
0
0
0
0
0
0
0
0
0
0
0
290
0
292
0
0
0
0
297
0
0
0
0
0
0
0
0
0
0
0
0
0
0
0
313
0
0
0
0
0
0
0
321
0
0
0
325
326
327
0
329
0
0
332
0
334
0
336
337
0
339
340
341
342
343
344
345
0
347
0
0
0
351
0
0
0
355
0
357
0
0
0
0
0
0
0
0
0
0
0
0
0
0
0
0
0
0
376
0
0
0
0
0
0
0
0
0
0
0
0
0
0
0
0
0
0
0
396
0
0
0
400
0
0
403
0
0
0
407
0
409
0
411
412
0
0
0
0
0
0
0
0
0
0
0
0
0
0
0
0
429
0
0
0
0
434
0
436
0
0
439
0
0
0
0
444
0
0
0
0
0
0
451
0
0
0
0
0
0
458
0
460
0
0
0
0
0
0
0
0
0
470
0
0
0
474
0
0
0
0
0
0
481
0
0
0
0
0
0
0
0
490
491
0
493
0
0
0
0
0
0
0
0
0
0
0
0
506
0
0
0
0
0
0
0
0
0
516
517
518
0
520
0
0
0
524
525
526
0
0
0
530
531
0
533
534
535
536
0
0
0
0
541
0
0
0
0
0
0
0
0
0
0
0
553
554
0
0
557
0
559
560
0
0
563
0
0
0
0
0
0
0
0
572
0
0
575
0
577
0
0
0
0
0
0
0
0
0
0
0
0
0
0
592
0
594
0
0
0
0
0
0
0
602
0
0
0
606
0
608
609
0
0
612
613
0
0
0
0
0
0
620
0
0
0
0
0
0
0
0
0
0
0
0
0
0
0
0
0
0
0
640
641
0
0
0
0
0
0
0
0
0
0
0
0
0
0
656
0
0
0
0
0
0
0
0
0
0
0
668
669
0
0
0
0
0
0
0
0
678
0
0
681
0
683
0
0
0
0
0
0
0
0
0
0
0
0
0
697
0
0
0
0
702
0
0
0
0
0
0
0
710
0
0
713
0
0
0
0
0
0
0
0
0
0
0
0
0
727
0
0
0
0
0
0
0
735
0
0
0
739
0
0
0
0
744
745
746
0
0
0
0
0
0
0
754
0
0
757
0
759
0
761
0
763
764
765
766
0
768
769
770
771
772
773
0
0
0
0
0
0
0
0
0
783
0
0
0
0
0
0
0
791
792
0
794
0
0
0
0
0
0
0
0
0
0
805
806
0
0
809
0
0
812
0
0
0
0
0
0
0
0
821
0
0
824
825
826
827
0
0
0
0
0
0
0
0
0
0
838
0
0
0
0
0
0
0
0
0
0
0
0
0
0
0
0
0
0
0
0
0
0
0
0
0
0
0
0
0
0
869
0
0
0
873
0
875
0
0
0
0
0
0
882
0
0
0
0
0
0
0
890
0
0
0
0
0
0
897
0
0
0
0
0
903
0
0
0
907
0
0
0
0
0
0
0
0
0
917
0
0
920
0
0
0
0
0
0
0
0
0
0
0
0
0
0
0
0
0
938
0
0
941
0
0
0
0
0
947
0
949
0
0
0
0
954
955
956
0
958
0
960
961
962
963
0
0
0
0
968
0
970
971
0
973
0
0
976
0
978
979
980
981
0
0
0
985
0
0
0
989
0
0
0
0
994
995
0
997
998
0
1000
0
1002
0
0
0
1006
0
0
1009
1010
0
0
0
0
1015
0
0
0
0
1020
0
0
0
0
0
0
0
0
0
0
1031
0
0
0
0
1036
1037
0
0
0
0
0
0
1044
0
0
0
0
0
0
0
1052
1053
0
0
1056
0
1058
0
1060
1061
0
1063
0
1065
0
0
0
1069
0
0
1072
0
1074
1075
1076
1077
1078
0
1080
1081
1082
1083
0
0
1086
0
0
0
1090
0
1092
0
0
0
0
0
1098
0
1100
0
0
0
0
0
0
1107
0
0
0
0
0
0
0
0
0
1117
1118
0
0
0
0
0
0
0
0
0
0
0
0
0
0
0
0
0
0
0
0
0
1140
0
0
0
0
1145
0
0
0
0
0
0
0
0
0
0
0
0
1158
0
0
0
1162
0
0
0
0
0
0
0
1170
0
0
0
0
1175
0
0
0
0
0
1181
1182
0
0
1185
1186
0
0
1189
1190
0
1192
0
0
1195
1196
1197
0
0
0
0
0
0
0
1205
0
0
0
0
1210
0
0
0
0
0
1216
0
0
1219
0
0
0
1223
0
0
0
1227
0
1229
0
0
0
0
1234
0
0
0
0
0
0
0
1242
0
1244
0
0
0
0
0
0
0
0
0
0
1255
0
0
0
0
0
0
0
0
0
0
1266
1267
0
0
0
0
0
0
1274
0
0
0
0
0
1280
1281
1282
1283
0
0
0
0
0
0
0
0
0
0
0
0
0
0
1298
0
0
1301
0
0
0
0
0
0
0
0
0
0
0
0
0
1315
0
1317
0
0
0
0
0
0
0
0
0
0
0
0
0
0
0
1333
0
0
0
1337
1338
0
0
0
0
0
0
0
0
0
0
0
0
1351
0
0
0
0
0
0
1358
0
0
0
0
1363
0
0
0
0
1368
0
0
1371
0
1373
1374
1375
1376
1377
1378
0
0
0
0
0
1384
1385
0
1387
0
0
1390
1391
1392
0
0
0
0
0
0
1399
0
0
1402
0
1404
0
1406
0
0
0
0
1411
0
0
0
0
0
0
0
0
1420
1421
0
0
0
0
1426
0
0
0
0
0
0
0
0
0
0
0
0
0
0
0
1442
0
0
1445
0
0
0
1449
0
0
0
0
0
1455
1456
0
0
1459
1460
0
1462
0
0
1465
1466
0
0
0
0
1471
0
0
0
0
0
0
1478
1479
0
0
0
0
0
0
0
0
1488
0
0
0
1492
1493
0
0
0
0
1498
1499
0
0
1502
1503
0
0
0
0
0
0
0
0
0
0
1514
0
0
0
0
0
1520
0
1522
1523
0
1525
0
0
0
0
0
0
0
0
0
1535
0
0
0
1539
0
0
0
0
0
1545
0
0
0
0
0
0
0
1553
0
1555
0
0
0
0
0
0
1562
1563
0
0
1566
1567
0
0
0
1571
0
1573
0
1575
0
1577
0
0
0
0
0
0
0
0
1586
1587
0
0
1590
1591
0
1593
0
0
0
0
0
0
1600
1601
1602
0
0
0
0
0
1608
1609
1610
1611
0
1613
1614
0
0
1617
1618
0
0
1621
0
1623
1624
0
1626
1627
0
0
0
0
0
0
0
0
0
0
1638
0
0
0
1642
0
0
0
0
0
0
0
0
1651
0
0
0
0
0
0
0
1659
1660
0
0
0
0
0
1666
0
0
0
0
1671
0
0
0
0
0
0
0
0
0
0
1682
0
0
0
1686
1687
0
0
0
0
0
0
0
1695
0
0
0
0
0
0
0
0
0
0
0
0
0
1709
0
0
0
0
0
0
0
0
0
0
0
0
0
1723
0
0
0
0
0
0
0
0
0
0
1734
0
0
0
0
0
0
0
0
0
1744
0
0
0
1748
0
0
0
0
1753
0
0
1756
1757
0
0
0
0
0
1763
0
0
0
0
0
1769
0
0
1772
0
0
1775
0
0
0
1779
0
0
0
0
1784
0
0
0
0
0
0
0
0
0
0
0
0
0
1798
0
0
1801
0
0
1804
0
1806
0
0
0
0
1811
0
0
0
0
1816
0
0
0
0
0
0
0
0
1825
0
0
0
1829
0
0
0
0
0
0
0
0
0
0
0
0
1842
0
0
0
0
0
0
0
0
0
0
0
0
0
0
0
0
0
0
0
0
1863
0
0
0
0
0
0
0
1871
0
1873
0
0
1876
0
0
0
0
0
0
0
0
0
0
0
0
0
1890
0
0
0
0
0
0
0
0
0
1900
0
0
1903
0
0
0
0
1908
0
0
0
1912
0
0
0
1916
0
0
0
1920
0
0
0
0
0
0
0
0
0
0
0
0
0
0
0
0
1937
0
0
0
0
0
0
0
1945
0
0
0
0
0
0
0
0
0
0
0
0
1958
0
0
0
1962
1963
0
0
1966
0
0
0
0
0
0
0
0
0
0
0
0
0
0
1981
1982
0
0
0
0
0
0
1989
0
0
0
1993
0
0
1996
0
0
1999
2000
2001
0
0
0
0
0
2007
0
0
0
0
0
0
0
2015
0
0
0
0
0
2021
2022
0
0
2025
0
0
0
0
0
0
0
2033
0
0
0
2037
0
0
0
0
0
2043
0
2045
0
2047
0
0
0
0
2052
2053
0
0
0
2057
0
0
0
0
0
0
0
0
0
0
0
2069
0
0
0
0
0
0
2076
0
0
0
0
0
2082
0
0
2085
0
0
0
0
0
0
0
0
0
0
0
2097
2098
0
0
0
0
0
0
0
2106
0
0
0
0
0
0
0
0
0
0
2117
0
0
0
0
0
0
0
0
0
0
0
0
0
0
0
0
0
0
0
0
0
0
0
0
0
2143
0
0
0
0
2148
0
0
0
0
0
0
0
0
0
0
2159
0
0
0
0
2164
0
0
0
2168
2169
2170
0
0
0
0
0
0
0
0
0
0
0
0
2183
2184
0
0
0
0
0
0
0
2192
0
0
2195
0
2197
0
0
0
0
2202
0
0
0
2206
0
0
0
2210
2211
2212
0
2214
0
0
0
0
0
0
0
0
0
2224
0
0
0
2228
0
0
0
0
2233
0
0
0
0
0
0
0
0
0
0
0
0
0
0
0
0
0
0
0
0
0
0
2256
0
2258
0
2260
0
0
2263
2264
0
0
0
0
0
2270
2271
0
2273
2274
0
0
2277
0
2279
2280
0
0
0
2284
2285
0
0
0
0
0
0
0
2293
2294
2295
2296
0
0
0
0
0
0
0
0
0
0
0
2308
0
0
2311
0
0
0
0
0
2317
0
0
2320
0
0
2323
0
0
0
0
0
0
0
0
0
2333
0
0
0
0
0
2339
0
0
2342
2343
0
2345
0
0
0
2349
0
0
0
0
0
0
2356
0
2358
0
0
0
0
0
0
0
0
0
2368
2369
2370
0
2372
0
2374
0
0
2377
0
0
0
2381
0
0
2384
0
0
2387
0
0
2390
2391
2392
0
0
0
0
0
0
0
2400
0
0
0
2404
0
0
0
0
0
2410
0
0
0
2414
2415
2416
0
0
0
0
0
2422
0
0
0
0
0
0
2429
0
0
0
2433
2434
0
0
0
2438
2439
0
0
0
0
2444
0
0
2447
0
0
0
0
0
2453
0
0
0
2457
0
2459
0
0
2462
0
2464
2465
0
0
0
0
0
2471
0
0
0
2475
0
0
0
0
0
2481
0
2483
0
0
0
2487
0
2489
0
0
0
2493
0
0
2496
0
0
0
0
2501
0
0
2504
0
2506
0
0
0
0
2511
0
0
0
0
0
0
0
2519
0
2521
2522
0
0
0
2526
2527
0
0
2530
0
0
0
0
0
0
0
0
0
2540
0
0
2543
2544
0
0
0
0
0
0
0
0
0
0
0
2556
0
0
0
0
0
0
0
0
0
2566
0
0
0
2570
0
2572
0
2574
0
2576
2577
0
0
0
0
2582
0
0
0
0
2587
0
0
2590
0
0
2593
0
2595
0
2597
0
0
2600
0
0
0
0
0
0
2607
0
0
2610
0
0
0
0
0
2616
2617
2618
0
0
2621
2622
0
2624
2625
0
0
0
0
0
0
2632
0
0
0
0
0
0
2639
0
0
0
0
2644
0
0
0
0
2649
0
0
0
2653
0
0
0
0
0
0
0
2661
0
2663
0
2665
2666
2667
2668
2669
0
0
0
2673
2674
0
0
0
0
0
2680
0
0
2683
0
2685
0
0
2688
0
0
0
0
0
0
0
0
2697
0
0
0
2701
0
0
2704
0
0
0
0
0
0
0
0
0
0
0
0
0
2718
0
2720
0
0
0
0
0
0
2727
0
0
2730
0
0
0
0
0
2736
0
2738
2739
0
0
0
2743
2744
0
0
0
0
0
0
0
0
0
2754
0
0
0
2758
0
0
0
0
0
0
0
0
2767
0
0
0
0
0
0
0
2775
2776
0
2778
0
2780
0
2782
0
0
2785
0
0
0
0
0
0
0
0
0
2795
0
0
0
0
0
0
0
0
0
0
0
2807
0
0
0
0
0
0
2814
0
0
0
0
2819
0
0
0
0
0
0
0
2827
0
0
0
0
0
0
0
0
0
0
2838
2839
0
2841
0
0
0
0
0
0
2848
0
0
2851
0
2853
0
2855
0
2857
0
2859
0
2861
0
0
0
0
0
0
0
0
2870
2871
0
0
0
2875
2876
0
0
2879
0
0
0
0
0
0
0
0
0
2889
0
0
0
0
0
0
0
0
0
2899
0
0
0
0
0
0
0
0
0
0
0
0
0
0
2914
0
0
0
0
2919
0
0
0
0
0
0
0
2927
0
0
0
0
0
0
0
0
2936
0
0
0
0
0
0
0
0
0
0
2947
0
0
0
0
0
0
0
0
2956
0
0
2959
0
0
2962
0
0
0
0
0
2968
2969
0
2971
2972
0
0
0
0
0
0
0
0
2981
2982
0
2984
0
2986
0
2988
2989
0
0
0
0
0
0
0
0
0
2999
0
3001
0
0
3004
0
0
0
3008
0
3010
0
3012
0
0
0
0
3017
0
0
0
0
0
0
3024
0
0
0
3028
0
0
0
0
0
0
3035
3036
0
0
0
0
4
0
6
0
0
0
10
11
0
0
0
0
0
0
0
0
0
0
0
0
0
0
0
0
0
0
0
31
0
0
0
0
0
0
0
0
0
0
0
43
0
0
0
0
0
49
50
51
0
0
0
0
0
0
0
59
0
0
62
63
0
0
0
0
0
69
0
0
0
0
74
0
0
0
0
79
0
0
0
0
0
0
0
0
0
0
0
0
0
0
0
0
0
0
98
0
0
0
102
0
0
0
0
0
0
0
0
0
112
0
0
0
0
0
0
0
0
0
122
123
124
0
126
127
0
129
0
0
0
0
134
135
0
0
0
0
0
0
0
143
0
0
0
0
0
0
0
0
0
0
154
155
0
0
158
0
0
161
162
0
164
165
0
167
168
169
170
171
172
173
174
0
176
177
178
179
0
0
0
0
0
185
186
187
188
0
0
0
0
0
194
0
0
197
198
199
200
0
0
0
0
0
0
0
0
0
0
0
0
0
0
0
216
0
0
0
0
0
0
0
0
0
0
0
0
0
0
231
232
0
0
0
0
0
0
0
0
0
0
243
0
0
0
0
0
0
250
0
0
0
254
0
0
0
0
0
0
0
0
0
0
265
0
0
0
0
0
0
0
0
0
0
276
277
278
0
0
0
0
0
0
0
0
0
0
0
0
0
0
0
0
0
0
0
298
299
0
0
0
303
0
0
0
0
0
0
0
0
0
0
0
0
0
0
0
0
0
0
0
323
0
325
326
327
328
0
330
331
0
0
334
0
336
337
338
0
340
341
342
343
0
0
0
347
0
349
0
0
0
0
0
0
0
0
0
0
0
0
0
0
0
0
0
0
0
0
0
0
0
0
0
0
0
0
0
0
0
0
0
0
0
0
0
0
388
0
0
0
392
0
0
0
0
0
0
0
0
0
0
0
0
0
0
407
0
0
0
411
0
413
0
0
0
0
0
0
0
0
0
423
0
0
0
0
0
0
0
0
0
0
0
435
0
0
0
0
0
0
0
0
0
0
0
0
0
0
0
451
0
0
0
0
0
457
0
0
0
0
0
463
0
0
466
467
0
0
0
0
0
0
0
0
0
477
0
0
0
0
0
483
0
0
0
0
0
0
0
0
0
0
494
0
496
0
0
0
0
0
0
0
504
505
0
0
0
0
510
0
0
0
0
0
516
0
518
0
520
521
522
0
0
0
0
0
528
0
530
0
532
533
534
0
0
537
0
539
540
0
0
0
0
0
0
0
0
0
550
0
0
0
0
555
0
0
558
0
0
0
0
563
564
565
0
0
0
569
0
0
0
0
0
0
0
0
578
0
580
0
582
0
0
0
0
0
0
0
0
0
0
0
594
0
0
0
598
0
0
0
0
0
0
0
0
0
608
609
610
0
0
613
0
615
0
0
0
0
0
0
0
0
0
0
626
0
0
0
0
631
0
0
0
635
0
0
0
0
640
641
0
643
644
0
0
0
0
0
650
0
0
0
0
0
0
657
0
0
0
0
662
0
664
0
0
0
0
669
670
0
0
0
0
0
0
0
678
679
680
681
0
0
0
0
0
0
0
0
0
0
0
0
0
695
0
0
698
0
0
0
0
0
0
0
0
0
0
0
710
0
0
0
0
0
0
0
0
0
720
0
0
0
724
0
0
0
0
0
0
0
0
0
0
0
0
0
738
0
0
0
0
743
0
0
0
0
0
0
0
0
0
0
0
0
0
0
0
0
760
761
0
763
0
0
0
0
768
769
0
771
772
0
0
775
0
0
0
0
0
0
0
0
0
0
0
0
788
0
0
0
0
793
0
795
0
797
0
0
800
0
0
0
0
0
0
0
0
0
0
811
812
813
0
815
0
0
0
0
0
0
0
0
0
0
0
0
0
0
0
0
832
0
0
0
836
837
0
0
0
0
0
0
0
0
0
0
0
0
0
0
0
0
0
0
0
0
858
0
0
0
0
0
0
0
0
0
0
0
0
0
0
873
0
0
0
0
878
0
0
0
0
0
0
0
886
0
0
0
0
0
0
0
0
0
0
0
0
0
0
0
0
0
0
0
906
0
0
0
0
0
0
0
0
0
0
0
0
0
0
0
0
0
0
0
0
0
0
0
930
0
0
0
0
935
0
937
0
0
940
0
0
0
0
0
0
947
0
0
0
0
952
0
0
0
0
0
958
0
960
0
0
0
0
0
0
967
0
0
970
971
0
973
0
0
0
977
0
979
980
0
982
983
0
985
0
987
988
0
990
0
0
0
0
995
0
0
0
0
1000
1001
0
1003
0
1005
0
1007
1008
0
1010
0
0
0
0
0
0
0
1018
0
0
0
1022
0
1024
0
0
0
0
1029
0
0
0
1033
0
0
0
1037
1038
0
0
0
1042
0
0
0
0
0
0
0
1050
0
0
1053
1054
0
1056
1057
1058
0
1060
1061
1062
0
0
0
0
1067
0
0
0
0
1072
1073
0
1075
0
1077
0
1079
0
0
0
0
0
0
0
1087
1088
0
1090
0
1092
0
0
0
0
1097
0
0
0
1101
0
1103
0
0
0
0
0
0
1110
0
1112
1113
0
0
0
0
1118
0
1120
0
0
0
0
0
0
1127
0
0
1130
0
0
0
0
1135
1136
0
0
1139
1140
0
0
1143
0
0
1146
0
0
0
0
1151
0
0
1154
0
1156
1157
0
0
1160
0
0
0
0
0
0
0
0
0
0
0
0
0
1174
0
0
1177
0
0
0
0
0
0
1184
0
0
0
0
1189
1190
0
1192
1193
0
0
1196
1197
0
1199
1200
0
1202
0
1204
0
0
0
0
0
1210
0
0
0
0
0
0
0
1218
0
0
0
1222
0
0
0
0
0
0
1229
1230
0
1232
0
0
1235
0
0
0
1239
0
1241
0
1243
0
0
0
0
0
0
0
0
0
0
0
0
1256
0
0
0
0
0
0
0
1264
1265
0
0
0
0
0
1271
0
1273
1274
0
1276
0
0
0
1280
1281
0
1283
0
0
0
0
1288
1289
0
0
0
0
0
0
0
0
0
0
0
0
0
1303
0
0
0
0
0
0
0
0
0
0
0
0
0
0
0
0
0
0
0
0
0
0
0
0
0
0
0
1331
0
0
1334
0
0
0
0
0
0
0
0
1343
1344
0
0
0
0
0
0
1351
1352
0
0
1355
0
0
0
1359
0
0
1362
0
1364
0
0
0
1368
0
0
0
0
0
1374
1375
1376
0
0
1379
1380
1381
0
1383
0
1385
0
0
0
0
0
1391
0
0
0
0
0
0
0
0
0
1401
0
1403
1404
1405
0
0
0
0
0
0
0
0
0
0
1416
0
0
0
0
0
1422
0
0
1425
0
0
0
0
1430
0
1432
1433
0
0
0
1437
0
0
1440
0
0
0
1444
1445
1446
1447
0
1449
1450
0
1452
1453
1454
0
1456
0
0
1459
1460
0
1462
1463
0
0
0
0
1468
0
0
1471
1472
0
0
0
0
0
0
0
0
0
0
1483
1484
0
0
0
0
0
0
1491
0
0
0
0
0
0
1498
0
0
0
0
0
0
0
0
1507
0
0
0
0
0
0
0
0
0
0
0
1519
0
0
0
0
0
0
0
0
0
1529
0
0
0
0
0
0
1536
0
0
0
0
0
1542
1543
0
0
1546
0
0
0
1550
1551
1552
0
0
0
1556
0
0
0
0
1561
0
0
0
1565
1566
1567
0
1569
0
0
0
0
1574
0
0
0
0
0
0
0
1582
1583
0
1585
0
0
0
0
0
0
0
0
0
1595
1596
0
0
0
0
1601
0
1603
1604
0
0
0
0
1609
0
0
1612
1613
0
0
0
1617
1618
0
0
0
1622
0
0
0
1626
1627
0
0
0
0
0
0
0
0
0
0
0
0
0
1641
1642
0
0
1645
1646
0
0
0
0
0
1652
0
1654
0
1656
0
0
1659
0
0
1662
0
0
1665
0
1667
0
0
0
0
0
0
0
0
0
0
0
1679
0
1681
0
1683
0
0
0
0
0
0
0
0
1692
0
1694
1695
0
0
0
0
0
0
0
0
0
0
1706
0
1708
0
0
1711
0
0
0
0
0
0
0
1719
1720
0
0
0
0
1725
0
1727
0
0
1730
0
0
0
0
1735
0
0
0
1739
1740
0
0
0
0
1745
0
1747
0
0
1750
0
0
0
0
0
0
0
1758
0
0
0
0
0
1764
0
1766
1767
0
0
0
0
1772
0
0
0
1776
0
1778
1779
0
0
1782
1783
0
0
0
1787
0
0
0
0
0
0
0
1795
0
1797
0
0
0
0
1802
0
0
0
0
0
1808
1809
1810
1811
1812
0
0
0
0
0
0
0
0
1821
0
0
1824
0
0
0
1828
0
1830
0
0
0
0
0
0
0
0
0
1840
1841
0
0
1844
0
1846
0
1848
0
1850
0
0
1853
0
0
1856
0
0
0
0
0
1862
1863
0
0
1866
0
0
1869
0
0
0
0
0
0
0
0
1878
0
0
1881
1882
0
0
0
0
0
0
1889
0
0
0
1893
1894
0
1896
1897
0
0
0
0
0
1903
0
0
0
1907
0
0
1910
0
0
0
0
1915
0
0
1918
0
1920
0
0
1923
0
0
0
1927
0
1929
0
0
1932
0
0
0
0
0
1938
0
1940
0
1942
0
0
0
1946
0
0
0
0
0
0
0
0
0
0
0
0
1959
1960
0
0
0
0
0
0
0
0
0
0
0
0
0
0
0
0
0
0
0
0
0
0
1983
0
0
0
0
0
1989
1990
0
0
0
0
0
0
0
0
0
2000
0
0
0
0
0
2006
2007
0
0
2010
0
0
0
0
0
0
0
0
0
0
0
0
0
0
0
0
0
0
2029
0
0
0
0
0
0
2036
0
2038
0
0
0
0
0
2044
0
0
2047
0
2049
0
0
0
0
0
0
0
0
0
0
0
0
0
0
0
0
0
0
0
0
0
0
0
0
0
0
2076
0
0
2079
0
0
0
0
0
2085
0
0
0
0
0
2091
2092
0
0
0
0
0
0
2099
0
0
2102
0
0
0
0
0
0
0
0
0
0
0
0
2115
0
0
0
0
0
0
0
0
0
0
0
0
2128
0
0
2131
0
0
0
0
0
0
0
0
0
0
0
0
0
0
0
0
0
0
0
0
2152
0
2154
0
0
0
0
0
0
0
0
0
2164
0
2166
0
0
0
2170
0
0
0
0
0
0
2177
0
0
0
0
0
0
0
0
0
0
0
2189
0
0
0
0
0
0
0
0
0
0
2200
0
2202
0
0
0
0
0
0
0
0
0
0
0
0
0
0
0
0
0
0
0
0
0
0
2225
0
2227
2228
0
0
0
0
0
2234
0
2236
2237
0
2239
2240
0
0
0
0
0
0
0
0
0
0
2251
0
0
0
0
0
2257
0
2259
0
0
0
0
0
2265
0
0
2268
0
0
2271
0
0
0
0
2276
0
0
0
0
2281
2282
2283
0
2285
0
0
2288
2289
2290
2291
2292
0
2294
2295
2296
0
0
0
0
0
2302
0
0
2305
2306
0
2308
2309
0
0
0
2313
0
0
0
0
0
0
0
2321
2322
0
2324
2325
0
0
2328
0
0
2331
0
2333
0
0
2336
0
2338
0
0
0
2342
2343
0
0
0
0
0
2349
2350
0
0
0
2354
0
0
0
0
0
0
0
2362
0
0
0
0
0
2368
0
2370
2371
0
2373
0
0
2376
0
2378
0
0
0
0
2383
0
2385
0
0
0
0
0
0
0
0
2394
0
0
2397
0
0
0
0
0
0
0
0
0
0
0
2409
2410
0
0
0
2414
0
0
2417
2418
0
0
2421
0
2423
0
2425
0
0
0
0
0
0
0
2433
2434
2435
0
2437
0
0
0
0
0
2443
0
2445
2446
0
2448
0
2450
0
2452
0
0
0
0
2457
0
0
0
0
2462
2463
2464
0
0
2467
0
2469
0
0
0
0
2474
0
2476
0
2478
0
0
2481
0
0
0
0
0
0
0
0
0
0
0
0
0
2495
0
0
0
2499
0
0
0
0
0
0
0
2507
0
2509
0
0
0
0
0
0
2516
0
0
0
2520
2521
0
0
0
0
0
0
0
0
0
0
0
0
0
0
0
0
2538
2539
0
0
0
0
2544
2545
2546
2547
2548
2549
0
0
0
0
0
2555
0
2557
0
0
0
2561
2562
0
0
0
0
0
0
0
2570
0
0
2573
2574
0
0
0
0
0
0
2581
0
2583
0
0
2586
0
0
0
0
0
0
2593
0
0
0
2597
2598
0
0
0
0
0
0
0
0
2607
0
0
2610
0
0
0
0
0
0
0
0
0
2620
2621
2622
0
0
0
2626
2627
0
2629
2630
0
0
0
0
2635
2636
2637
0
2639
0
2641
0
0
2644
0
2646
2647
0
2649
0
0
0
2653
0
0
0
0
0
0
2660
0
0
0
0
2665
2666
0
0
0
2670
0
0
0
2674
0
0
0
0
2679
0
0
0
0
2684
2685
0
2687
0
0
0
0
0
0
2694
0
0
0
2698
0
2700
0
2702
0
0
0
2706
0
0
0
0
0
0
0
0
2715
0
0
0
0
2720
0
0
0
0
0
0
0
0
0
0
0
0
0
2734
0
2736
0
0
0
0
0
2742
0
0
0
0
0
0
0
0
0
0
0
0
0
0
0
0
2759
0
0
0
0
0
0
0
0
2768
0
0
0
0
0
0
0
0
0
0
0
0
0
0
0
0
0
0
0
0
0
2790
2791
0
2793
0
0
2796
0
2798
2799
0
0
0
0
0
0
0
2807
0
0
0
0
0
0
2814
0
0
0
0
2819
2820
0
2822
0
0
0
2826
2827
2828
2829
0
0
0
2833
0
0
0
0
0
0
0
0
0
0
0
0
0
0
0
2849
0
0
2852
0
2854
0
0
0
0
2859
0
0
0
0
0
0
0
0
0
0
0
0
0
0
0
0
0
2877
0
0
0
0
0
0
0
2885
0
0
0
0
0
0
2892
0
0
2895
0
0
0
0
0
0
0
0
0
0
2906
0
2908
2909
2910
0
0
0
0
0
2916
0
0
0
2920
0
0
0
2924
2925
0
0
0
0
0
0
0
2933
0
0
2936
0
2938
0
0
2941
0
0
0
0
0
0
0
0
0
0
0
2953
0
0
0
0
0
2959
0
2961
0
0
2964
0
0
0
0
0
2970
2971
0
2973
0
0
2976
0
0
0
0
0
0
2983
0
0
0
0
0
0
2990
0
2992
2993
0
0
2996
2997
0
0
0
0
0
3003
0
0
0
0
3008
3009
0
0
3012
0
0
3015
0
0
0
0
0
0
0
0
0
0
0
0
0
0
0
0
0
0
0
0
3036
3037
3038
0
0
0
5
0
0
0
0
0
11
0
0
0
0
16
17
0
19
0
0
0
0
0
0
0
0
0
0
0
31
0
0
0
0
0
0
0
0
0
0
42
0
0
0
0
0
0
49
0
0
0
0
0
0
0
0
0
0
0
0
62
0
0
0
0
0
0
0
0
0
72
73
0
0
0
0
0
0
0
81
0
0
84
0
0
0
0
0
0
91
0
0
0
0
96
0
0
99
0
0
0
0
0
0
0
0
0
0
0
111
0
113
0
0
0
0
0
0
120
0
0
0
0
0
0
0
0
0
0
0
0
0
134
135
136
0
0
0
0
0
0
0
0
0
0
0
0
0
0
151
0
0
0
155
0
0
0
0
0
161
162
163
164
165
166
167
168
0
170
171
0
173
174
175
0
177
178
179
0
181
182
183
184
0
186
187
188
0
0
191
0
193
0
195
0
197
198
0
200
0
0
0
0
0
0
0
0
0
0
0
0
0
214
0
0
0
0
0
220
0
0
0
224
0
0
0
0
0
0
0
232
0
0
0
236
0
0
0
0
0
242
0
0
0
0
247
0
0
0
0
0
253
0
255
0
257
0
0
0
0
0
0
0
0
0
0
0
0
0
0
0
0
0
0
0
0
278
0
0
0
0
0
0
285
0
0
288
289
290
0
0
0
0
0
0
297
0
299
0
0
0
0
0
0
306
307
0
0
310
311
0
0
0
0
0
0
0
319
0
0
0
0
0
0
0
327
328
329
0
331
332
333
0
0
0
337
0
339
340
341
342
0
344
345
0
347
0
0
0
0
0
0
354
0
0
0
0
0
0
0
0
363
364
0
0
0
368
0
0
371
0
0
0
0
0
0
0
379
380
381
0
0
0
0
0
387
0
0
0
391
392
0
0
0
0
0
0
0
400
0
0
0
0
0
0
0
408
409
0
0
0
0
0
0
0
0
0
0
0
0
0
423
0
0
0
0
0
0
0
0
0
433
0
0
0
0
0
439
0
0
442
0
0
0
446
0
0
0
450
0
0
0
0
0
0
0
458
0
0
0
0
0
0
0
0
0
0
469
0
0
0
0
0
0
0
0
0
0
480
0
0
0
0
0
0
0
0
0
0
0
0
0
0
0
0
0
0
0
500
0
0
0
0
0
0
0
0
509
510
0
0
0
0
0
0
517
518
519
520
521
522
0
524
525
526
527
0
529
530
531
532
533
0
535
536
0
538
539
540
0
0
543
0
0
0
0
0
549
0
0
0
0
0
0
0
0
0
0
0
0
562
0
0
0
0
567
0
0
0
0
0
0
574
575
0
577
0
0
580
0
0
583
0
0
0
587
0
0
0
591
0
0
0
595
0
0
0
0
600
0
602
0
0
605
0
607
0
0
0
0
0
613
0
0
0
0
0
0
0
621
0
0
0
0
0
627
0
0
0
0
0
0
0
0
636
0
638
639
0
641
0
643
0
0
0
647
0
0
0
0
0
0
0
0
656
0
0
0
0
0
0
0
0
0
0
0
0
0
670
0
0
0
0
0
0
0
0
0
0
0
0
683
0
0
0
0
688
0
0
0
0
693
0
0
696
0
0
0
700
0
702
0
0
0
706
0
0
0
0
0
0
713
0
0
0
0
0
0
0
0
0
0
0
0
0
0
0
0
0
0
0
0
0
0
0
737
0
0
740
0
0
0
0
0
0
0
0
0
750
751
0
0
0
0
0
0
0
759
760
761
0
0
764
0
0
767
768
769
770
0
0
0
0
775
776
777
0
0
0
0
782
0
784
0
0
0
788
789
0
791
0
0
0
0
0
0
0
0
0
0
0
803
0
0
0
0
808
0
0
0
0
0
0
0
0
0
0
0
0
0
0
0
0
825
0
827
828
829
830
0
0
0
834
0
0
0
0
0
0
0
0
0
0
0
0
0
848
0
850
0
0
0
0
0
0
0
0
0
0
0
0
0
0
865
0
0
0
869
0
0
0
0
874
0
0
0
0
0
0
881
0
0
0
0
0
0
0
889
0
0
892
893
894
0
0
0
0
0
0
0
902
0
904
0
0
0
0
0
0
0
0
0
0
0
0
0
0
0
920
0
0
0
0
0
0
0
0
0
0
0
0
933
934
0
0
0
0
939
0
0
942
943
0
0
0
0
0
0
0
0
0
953
954
0
956
0
958
0
960
961
0
0
964
0
0
967
968
969
970
971
972
0
974
0
0
977
978
0
0
981
0
983
984
0
986
0
988
989
0
991
0
993
0
0
0
997
998
0
1000
1001
0
1003
0
0
0
1007
0
0
0
0
0
1013
0
0
0
0
1018
0
0
0
0
1023
0
0
0
1027
0
0
0
0
0
1033
0
1035
0
0
0
0
0
0
1042
0
0
0
0
0
0
0
1050
0
0
1053
1054
1055
0
0
0
0
1060
0
0
1063
0
0
1066
1067
0
0
1070
1071
0
0
1074
0
0
1077
0
0
0
0
1082
0
0
1085
0
0
0
0
0
0
0
1093
0
0
0
0
0
0
0
0
0
0
0
0
0
0
0
0
0
0
1112
1113
0
0
0
0
0
1119
0
1121
0
0
0
1125
0
0
0
1129
0
1131
1132
0
0
0
0
0
0
0
0
0
0
0
0
0
0
0
0
0
0
0
1152
0
0
0
0
0
0
0
0
0
0
0
0
0
0
0
0
0
0
1171
0
0
0
0
0
0
0
0
1180
0
1182
1183
1184
1185
0
0
0
0
0
0
0
0
0
0
0
0
1198
0
1200
1201
0
0
0
1205
0
0
0
0
1210
0
1212
1213
0
0
0
1217
1218
1219
0
0
0
1223
1224
0
1226
1227
0
1229
0
0
0
1233
0
0
0
0
0
0
0
0
0
0
0
0
0
0
0
0
0
0
0
0
0
0
0
0
1258
0
0
1261
1262
0
0
0
0
0
0
0
0
0
0
0
0
0
1276
1277
1278
1279
0
0
0
0
1284
0
1286
0
0
0
0
0
0
0
0
0
0
0
0
1299
0
0
1302
1303
0
1305
1306
1307
0
0
0
0
0
1313
0
0
1316
1317
1318
1319
0
0
1322
1323
1324
1325
0
1327
0
0
0
0
0
0
1334
0
0
1337
0
0
0
0
0
0
0
0
0
0
0
0
0
1351
0
0
0
1355
0
0
1358
0
1360
0
0
1363
0
0
1366
0
1368
1369
1370
1371
0
0
1374
1375
0
1377
0
0
0
1381
0
0
1384
1385
0
0
0
0
0
0
0
0
0
0
0
0
0
0
0
1401
0
0
1404
0
1406
1407
1408
0
1410
0
0
0
0
0
0
0
0
0
0
0
1422
0
0
0
0
0
1428
0
1430
0
0
0
0
0
0
0
0
1439
1440
0
0
1443
1444
1445
0
0
0
1449
1450
0
1452
0
0
0
0
0
0
0
0
1461
1462
1463
0
1465
0
1467
0
0
0
0
0
0
0
0
1476
0
1478
0
0
1481
1482
0
1484
0
1486
0
0
0
0
0
0
0
0
1495
0
1497
1498
0
0
0
1502
0
0
1505
0
0
1508
0
0
0
0
0
0
1515
0
0
0
0
0
1521
1522
1523
0
0
0
0
0
0
1530
0
0
0
0
0
0
0
0
1539
0
0
1542
1543
0
0
0
0
0
0
1550
0
0
0
1554
0
0
0
0
0
1560
0
1562
1563
0
0
0
1567
0
0
0
0
0
0
0
0
0
0
0
0
0
1581
0
1583
1584
1585
0
1587
0
0
0
0
0
1593
0
1595
0
0
0
0
1600
0
0
0
0
0
1606
0
0
0
0
0
0
0
0
0
0
0
0
0
0
1621
0
1623
0
0
0
0
0
0
1630
0
0
0
0
0
1636
0
0
0
0
0
0
0
0
0
0
1647
0
0
1650
0
0
1653
0
0
0
0
0
0
0
0
0
0
0
0
0
0
1668
0
0
0
0
0
0
0
0
0
0
1679
0
1681
0
0
0
0
0
0
0
0
0
0
0
0
0
0
0
0
0
1699
0
0
0
0
0
0
0
0
0
0
1710
0
0
1713
0
0
0
0
0
1719
1720
0
0
0
0
1725
0
0
0
0
0
1731
0
1733
0
0
1736
0
0
1739
0
0
0
0
1744
0
0
1747
0
0
0
1751
1752
1753
0
0
0
0
0
0
0
1761
1762
0
0
0
0
0
0
0
0
0
0
0
0
0
0
0
0
0
0
0
0
0
0
0
1786
0
0
0
1790
0
0
0
0
0
0
0
0
1799
0
0
0
0
0
0
0
0
0
0
0
0
0
0
0
0
0
0
0
0
0
0
1822
0
0
0
0
0
1828
0
0
0
1832
1833
0
0
1836
0
0
0
0
1841
0
0
0
0
0
1847
0
0
0
0
1852
0
0
1855
0
0
0
1859
0
0
0
0
0
1865
0
0
0
1869
0
0
0
1873
1874
0
1876
0
0
0
0
0
0
0
1884
1885
0
0
0
1889
0
0
0
0
0
0
0
0
0
0
0
0
0
0
0
0
0
0
0
1909
0
0
0
1913
0
0
0
0
0
0
0
0
1922
1923
0
0
0
0
1928
0
0
1931
0
1933
0
0
0
0
0
0
0
1941
0
0
0
0
0
0
0
0
0
0
0
0
0
0
1956
0
0
0
0
0
1962
0
0
0
0
0
0
0
0
0
0
1973
0
0
0
0
0
0
0
0
0
0
0
0
0
0
0
1989
0
0
0
0
0
0
0
0
0
0
2000
2001
0
0
0
2005
0
0
0
2009
0
0
0
0
0
0
2016
0
2018
0
0
2021
0
0
2024
0
2026
0
0
0
0
0
0
0
0
0
2036
0
2038
0
2040
0
0
0
2044
2045
0
0
0
0
0
0
0
0
0
2055
0
0
2058
0
0
2061
0
0
0
0
2066
0
0
0
0
0
2072
0
2074
2075
0
0
2078
0
0
0
2082
0
0
0
0
0
2088
0
0
0
0
0
2094
2095
0
0
0
0
0
0
0
0
0
2105
0
2107
0
0
0
0
0
2113
2114
0
2116
0
2118
0
0
0
0
0
2124
0
0
2127
0
0
0
0
2132
0
0
2135
2136
2137
0
0
0
0
0
0
0
0
0
2147
0
0
0
0
2152
0
2154
0
0
2157
2158
2159
0
0
0
0
0
0
2166
0
0
2169
0
0
0
0
0
0
2176
2177
2178
0
0
0
0
0
0
0
2186
2187
0
0
0
0
0
0
0
2195
0
0
0
0
2200
0
0
0
0
0
0
2207
0
0
2210
0
2212
0
0
0
0
0
0
0
0
0
0
2223
0
0
2226
0
0
2229
0
2231
2232
0
2234
0
0
2237
0
0
0
0
0
0
0
2245
0
0
0
0
0
0
2252
0
0
0
0
0
0
0
0
0
2262
2263
0
0
0
0
0
2269
0
0
2272
2273
2274
2275
0
2277
0
2279
2280
2281
2282
0
0
0
2286
2287
2288
2289
0
0
0
2293
0
0
0
0
2298
0
2300
0
0
2303
0
2305
0
2307
0
0
0
0
0
0
0
0
2316
0
0
0
0
0
0
2323
0
0
0
2327
0
0
0
0
0
0
0
0
0
0
0
2339
0
0
0
0
0
2345
2346
0
2348
0
0
0
0
2353
2354
0
0
2357
0
0
2360
2361
2362
0
0
0
0
2367
0
2369
0
0
2372
0
0
0
0
0
0
0
0
0
0
0
2384
0
2386
2387
2388
2389
2390
2391
2392
0
0
0
2396
0
0
2399
2400
0
0
0
2404
0
2406
0
2408
2409
0
2411
2412
0
0
0
0
0
0
0
0
2421
0
0
0
0
2426
0
0
0
0
2431
2432
0
2434
2435
2436
2437
0
0
2440
0
0
0
0
2445
2446
2447
2448
0
0
0
0
2453
0
0
2456
0
0
2459
2460
2461
0
2463
0
0
0
0
0
2469
0
0
0
0
0
0
0
0
0
0
0
0
0
0
0
0
0
0
0
0
0
2491
2492
2493
0
2495
0
0
0
0
2500
0
2502
2503
0
0
2506
0
2508
0
0
0
0
0
0
0
0
0
2518
2519
2520
0
0
2523
2524
0
2526
2527
0
0
2530
2531
0
0
0
2535
2536
0
0
0
0
2541
0
0
2544
0
0
2547
0
0
0
2551
0
0
0
0
2556
0
2558
2559
0
0
0
0
0
2565
2566
2567
0
0
0
0
2572
0
0
0
0
0
0
0
0
0
2582
0
0
0
0
2587
2588
0
0
2591
2592
0
0
0
0
0
0
0
2600
0
0
0
2604
0
0
0
2608
2609
0
0
0
0
2614
2615
0
0
2618
0
0
2621
0
0
2624
2625
0
0
0
0
0
0
0
0
2634
0
0
0
2638
0
0
0
0
0
0
2645
0
0
0
0
0
0
0
0
0
0
0
0
2658
0
0
0
0
0
0
0
0
0
0
2669
0
0
0
0
0
0
0
0
0
0
0
0
0
2683
0
0
0
0
0
2689
0
0
0
0
0
0
0
0
0
0
0
0
2702
0
0
0
2706
0
0
0
2710
0
0
0
0
0
0
2717
0
0
2720
0
0
0
0
0
0
0
0
2729
0
0
0
0
2734
0
0
2737
0
0
0
2741
0
0
0
0
0
2747
0
0
0
0
0
0
0
2755
0
0
0
0
0
2761
0
0
0
0
2766
0
0
2769
0
0
0
0
0
0
0
2777
2778
0
2780
0
0
0
2784
0
0
0
0
0
2790
2791
0
0
0
0
0
0
2798
0
0
0
0
0
0
0
0
0
2808
0
0
0
0
2813
0
0
2816
0
0
0
2820
2821
0
0
0
0
0
0
0
0
0
0
0
0
0
0
0
2837
2838
0
2840
2841
0
2843
0
2845
0
2847
2848
0
0
2851
0
2853
2854
0
0
0
0
2859
2860
0
0
0
0
0
0
0
0
0
0
2871
0
2873
0
0
0
0
0
2879
0
0
0
0
0
2885
0
0
0
0
2890
0
0
0
2894
0
0
0
0
0
0
2901
2902
0
0
0
0
0
2908
0
0
0
0
0
0
0
2916
0
2918
2919
2920
0
0
0
0
0
0
2927
0
0
0
0
0
0
0
0
2936
2937
0
0
0
0
0
0
0
2945
0
2947
0
0
0
0
0
0
2954
0
2956
0
0
2959
0
2961
0
0
0
0
0
0
2968
0
0
0
0
2973
0
2975
0
0
0
0
0
0
2982
2983
0
2985
2986
2987
0
2989
0
0
0
0
2994
0
0
0
0
0
0
0
3002
0
0
0
0
0
0
0
0
3011
0
0
3014
0
0
0
0
0
3020
0
0
0
3024
0
0
0
3028
0
0
0
3032
3033
0
0
0
3037
0
0
0
0
0
0
0
0
0
0
11
0
0
0
0
16
0
18
0
0
0
0
0
0
0
0
0
0
0
0
0
0
33
34
0
0
0
0
0
0
0
0
43
0
0
0
0
0
0
0
0
0
0
0
0
0
0
0
0
0
0
0
0
0
0
0
0
0
0
0
0
0
0
74
75
0
0
0
0
0
0
0
83
84
85
0
0
0
89
0
0
0
93
0
0
0
0
0
99
0
0
0
0
0
0
0
0
108
0
0
0
0
0
114
0
0
0
0
119
0
0
122
0
0
125
0
0
0
129
0
0
132
133
134
135
0
0
0
0
0
0
0
0
0
0
0
0
0
0
0
0
0
0
0
0
0
0
158
0
0
161
162
163
0
165
166
167
168
169
170
171
0
173
174
175
176
177
178
179
180
181
0
183
184
185
186
187
0
0
0
0
0
0
0
0
0
197
0
0
200
201
0
0
0
205
0
0
0
0
0
0
0
0
0
0
0
0
0
0
0
221
0
0
0
0
0
0
0
0
0
231
0
0
0
0
0
0
0
0
0
241
0
0
0
0
0
0
0
0
0
251
0
0
0
0
0
0
0
259
0
0
0
0
0
0
266
0
0
0
0
0
0
0
0
0
0
0
0
0
0
0
0
0
284
0
286
0
0
0
0
0
0
0
0
0
0
0
0
0
0
0
0
0
0
0
0
0
0
0
0
0
0
0
0
0
316
317
0
0
0
0
0
0
0
325
0
0
328
0
330
0
0
0
334
0
336
337
338
339
340
341
0
0
344
345
0
347
0
0
0
0
0
0
0
0
0
357
0
359
0
0
0
0
0
0
0
0
0
0
0
371
0
0
0
0
0
377
0
0
380
0
0
0
384
0
0
0
0
0
0
0
392
0
0
0
0
397
0
0
0
0
0
0
0
0
0
0
0
0
0
0
0
0
0
0
416
0
0
0
0
0
0
0
0
0
0
0
0
0
430
0
432
0
0
0
436
0
0
0
0
0
0
0
0
0
0
0
0
0
0
0
0
0
0
455
0
0
458
0
0
0
0
0
0
0
0
0
0
0
0
0
0
0
0
475
0
0
0
0
0
0
0
483
484
485
0
0
0
0
0
491
0
0
0
0
0
0
0
0
0
0
0
0
0
0
0
0
0
0
510
0
0
0
0
0
0
517
518
519
0
0
0
523
524
0
0
527
0
0
530
531
532
533
0
535
536
537
0
539
0
0
0
543
0
0
0
0
548
0
0
0
0
553
0
0
0
557
0
0
0
0
0
0
0
0
0
567
0
0
0
0
572
573
0
0
576
0
0
0
0
581
0
0
0
0
0
0
0
0
0
0
0
0
594
0
596
0
598
0
0
0
0
0
0
0
606
0
0
0
610
611
0
0
0
0
0
0
0
0
0
0
0
623
0
625
0
0
0
0
0
0
0
0
634
0
0
0
0
0
0
641
0
0
644
0
0
0
0
0
0
0
0
0
0
655
0
0
658
0
0
661
0
663
664
665
0
0
0
0
0
0
0
0
0
675
0
0
0
679
0
681
0
683
0
0
0
687
0
0
0
0
0
0
0
0
0
0
0
699
0
0
0
0
704
705
0
0
0
0
0
0
0
0
0
0
0
0
0
0
0
0
722
0
0
725
0
0
0
0
0
0
0
0
0
735
736
0
0
739
0
0
0
0
0
745
0
0
748
0
0
0
0
753
0
0
756
0
0
0
0
761
0
763
0
765
766
767
0
769
770
771
0
773
0
775
0
777
0
0
0
0
0
0
0
785
786
0
788
789
0
0
792
0
0
795
796
0
0
0
0
0
802
0
804
0
0
0
0
0
0
811
0
813
814
0
0
817
0
0
0
821
0
823
824
0
826
827
828
0
0
0
0
0
0
0
0
0
0
0
0
841
0
0
0
0
0
847
0
849
0
851
0
0
0
0
0
0
0
0
0
0
862
0
0
0
0
0
868
869
0
0
0
0
874
0
876
877
0
879
0
0
0
0
0
885
0
0
0
0
0
891
0
0
0
0
0
0
0
0
0
0
0
903
0
0
0
0
0
909
0
0
912
0
0
0
0
917
918
0
0
0
0
0
0
0
0
0
0
0
0
0
0
0
934
0
0
937
938
939
0
0
0
0
0
945
946
0
948
0
0
0
0
953
0
955
0
957
958
0
0
0
0
963
0
0
0
0
0
0
970
0
0
0
974
0
976
977
978
979
0
0
982
0
984
0
986
0
0
989
0
0
0
0
0
0
0
0
0
0
0
0
0
0
1004
1005
0
1007
0
0
1010
0
0
0
0
0
0
0
0
0
0
0
0
0
0
0
0
0
0
0
0
0
0
0
0
1035
1036
0
0
1039
1040
0
0
0
0
0
0
1047
1048
0
0
0
0
1053
0
1055
1056
0
0
0
0
1061
0
0
0
0
0
1067
0
1069
1070
1071
1072
1073
1074
0
1076
1077
1078
0
1080
1081
1082
1083
0
0
0
0
0
0
0
1091
0
0
0
0
0
0
0
1099
0
0
0
0
0
0
0
0
0
0
0
0
0
0
1114
0
0
0
1118
0
0
0
0
0
0
1125
0
0
0
0
0
0
0
0
0
0
0
0
1138
0
0
1141
0
0
1144
0
0
0
0
0
0
0
0
0
0
1155
1156
0
1158
1159
0
0
0
1163
0
0
0
0
0
1169
0
0
0
0
0
1175
0
0
0
1179
0
0
0
1183
0
0
1186
0
0
1189
1190
0
0
1193
0
1195
0
1197
0
1199
0
0
1202
0
1204
0
1206
0
0
0
1210
0
0
1213
0
0
0
0
1218
1219
0
0
1222
0
1224
0
0
1227
0
0
0
1231
0
0
0
0
0
0
0
0
0
0
0
0
0
1245
0
1247
0
0
0
1251
0
0
0
1255
0
0
0
0
0
0
0
0
0
1265
0
0
0
0
0
0
1272
1273
1274
0
0
0
0
0
0
0
0
1283
1284
0
0
0
0
0
0
0
1292
0
0
0
0
0
0
0
0
0
0
0
0
0
1306
0
0
0
0
0
0
1313
0
1315
0
1317
0
0
0
0
0
0
0
0
0
0
0
0
0
1331
0
0
0
0
0
0
0
0
0
0
0
0
1344
0
1346
0
1348
0
1350
0
0
0
0
0
0
0
1358
0
1360
1361
1362
0
0
0
0
0
0
1369
1370
0
0
0
0
1375
0
0
0
1379
1380
1381
0
0
1384
0
0
0
1388
1389
1390
0
1392
0
1394
1395
0
0
0
0
0
0
0
1403
1404
0
0
1407
0
0
0
0
0
0
0
0
0
0
1418
0
0
0
1422
0
0
0
1426
0
0
0
0
0
0
1433
0
0
0
0
1438
0
0
0
0
0
0
1445
0
1447
0
0
1450
1451
1452
1453
0
1455
0
0
0
1459
0
0
1462
0
1464
0
0
0
0
1469
0
0
0
0
1474
1475
0
0
0
1479
0
0
0
0
0
0
1486
0
0
0
0
0
0
0
0
1495
0
0
0
1499
0
0
0
0
0
0
0
0
0
1509
0
0
0
0
0
0
0
0
0
0
1520
0
1522
1523
0
0
0
0
0
0
0
0
0
0
1534
0
0
0
0
0
0
0
0
0
1544
0
0
0
0
1549
0
0
1552
0
1554
1555
0
0
1558
1559
0
0
0
0
0
0
1566
0
0
0
0
1571
0
0
1574
1575
0
1577
0
1579
1580
0
0
1583
1584
0
1586
1587
0
1589
0
1591
0
0
0
0
0
1597
0
0
0
0
1602
0
0
1605
0
0
0
0
0
0
0
0
0
0
0
0
0
0
1620
0
1622
0
0
0
1626
0
0
0
0
0
0
0
0
0
0
0
0
0
0
1641
1642
0
0
0
1646
0
0
1649
1650
0
1652
0
0
1655
1656
0
0
1659
0
0
0
0
1664
0
1666
0
0
0
1670
0
1672
1673
1674
0
0
1677
1678
0
0
0
0
0
0
0
0
0
0
0
1690
0
0
1693
0
0
0
1697
0
1699
0
0
0
0
1704
1705
0
0
1708
0
0
0
0
1713
0
1715
0
0
0
0
0
0
0
0
0
0
0
1727
0
0
0
0
0
0
0
0
0
0
0
0
0
0
0
0
1744
0
0
1747
1748
0
0
0
0
1753
0
0
0
0
0
0
0
1761
1762
1763
0
0
0
0
0
0
0
0
0
0
0
1775
0
0
0
0
0
1781
0
0
0
1785
1786
0
0
0
0
1791
0
0
1794
0
0
0
0
0
0
0
0
0
0
0
0
0
1808
0
0
1811
0
0
0
0
1816
0
0
0
0
1821
0
1823
0
1825
1826
0
1828
1829
0
0
0
0
0
0
0
0
0
1839
0
1841
0
0
0
0
0
0
0
0
0
0
0
0
1854
0
1856
0
1858
0
0
0
0
0
1864
0
0
0
0
0
0
1871
1872
0
0
0
0
0
0
1879
0
0
0
0
0
0
0
0
0
0
0
1891
0
0
0
0
0
0
0
0
0
1901
1902
1903
0
0
0
0
0
0
0
0
0
0
0
0
0
1917
1918
0
0
0
1922
1923
1924
1925
0
0
0
0
0
0
0
0
0
0
1936
0
0
0
0
0
1942
0
0
1945
0
0
0
0
0
0
0
0
0
1955
0
1957
0
1959
0
0
1962
0
0
0
0
0
0
0
0
0
0
0
0
0
0
0
0
0
0
0
0
0
0
0
0
0
0
0
0
1991
0
1993
1994
0
0
0
0
0
2000
0
0
0
0
2005
0
0
0
0
0
0
2012
2013
0
0
0
0
0
0
0
0
0
0
2024
0
0
0
2028
0
0
0
0
0
0
0
0
0
0
0
0
2041
0
0
0
0
0
0
0
0
0
0
0
0
0
0
0
0
0
0
0
0
0
0
0
0
0
0
0
0
2070
2071
0
0
0
0
0
0
2078
0
0
0
0
0
0
0
0
2087
2088
0
2090
2091
0
0
0
0
2096
0
0
0
0
0
0
0
2104
0
0
2107
0
0
0
0
0
0
0
0
0
0
2118
0
2120
0
0
0
0
0
2126
2127
2128
2129
0
0
0
0
0
0
0
0
0
0
0
0
0
0
0
0
0
0
0
0
2150
0
0
0
2154
0
0
0
2158
2159
0
0
0
0
0
0
2166
0
0
0
2170
0
0
0
0
0
0
0
0
0
0
0
0
0
0
2185
0
0
0
2189
0
0
0
0
0
2195
0
0
0
0
2200
0
0
0
0
0
2206
0
2208
0
0
0
2212
2213
2214
0
0
0
0
0
2220
0
0
0
0
2225
0
2227
0
0
0
0
0
2233
0
0
0
2237
2238
2239
0
0
0
2243
0
2245
0
0
0
0
0
0
0
0
2254
0
0
0
2258
2259
0
0
2262
2263
0
0
0
2267
0
2269
0
0
0
0
0
0
2276
0
2278
0
2280
0
0
0
0
0
0
0
0
2289
0
0
0
2293
2294
0
0
2297
2298
2299
0
2301
2302
2303
0
0
0
2307
0
0
2310
2311
0
0
0
0
0
2317
0
0
2320
0
0
0
0
2325
0
0
0
0
0
0
2332
0
0
0
0
0
2338
0
0
0
2342
0
0
2345
0
2347
0
0
0
2351
0
2353
0
0
0
0
0
0
0
0
2362
2363
0
0
2366
0
0
0
0
0
0
0
2374
0
0
0
0
2379
0
0
2382
2383
0
2385
0
0
2388
0
0
0
2392
0
2394
2395
2396
0
0
0
0
0
0
0
0
2405
2406
0
2408
2409
0
2411
0
2413
0
2415
2416
0
0
0
0
0
0
0
2424
2425
0
0
2428
0
2430
0
2432
2433
2434
0
0
0
2438
0
0
0
2442
0
0
0
0
0
0
0
0
0
0
0
0
0
0
0
0
0
0
0
2462
0
0
2465
0
2467
0
0
0
0
0
0
0
2475
0
2477
0
0
2480
0
0
0
0
0
0
2487
2488
0
0
2491
0
2493
0
0
2496
0
2498
2499
2500
2501
2502
0
0
0
0
0
0
0
0
2511
0
0
2514
0
2516
0
0
2519
0
0
0
2523
0
0
0
2527
2528
2529
0
0
0
2533
2534
0
0
0
0
0
0
0
0
0
2544
2545
0
0
0
2549
0
2551
0
0
2554
0
2556
2557
0
0
2560
2561
0
0
0
0
2566
0
0
2569
0
2571
0
0
2574
0
0
0
0
0
0
0
2582
0
0
2585
0
2587
0
0
0
2591
0
0
2594
0
2596
0
0
0
0
2601
2602
0
2604
0
0
0
0
0
0
0
0
0
2614
0
0
0
0
0
0
2621
0
0
0
0
2626
0
0
0
0
0
0
2633
0
2635
0
0
0
2639
0
0
0
0
2644
0
0
0
0
2649
0
2651
0
0
0
0
0
0
0
2659
2660
0
0
0
0
0
0
0
0
0
0
0
0
0
0
0
2676
0
0
2679
0
0
0
0
2684
2685
0
0
0
0
0
0
0
0
0
2695
0
0
0
0
0
2701
0
0
0
0
2706
0
0
0
0
0
2712
0
0
2715
0
0
0
0
0
0
0
2723
0
0
0
0
0
2729
2730
0
0
0
2734
0
0
2737
0
2739
0
0
0
0
2744
0
2746
0
0
0
2750
2751
0
0
2754
2755
0
0
0
0
0
2761
0
0
0
0
2766
0
2768
0
0
0
0
0
0
0
2776
2777
0
0
0
0
0
2783
0
0
2786
2787
2788
0
0
0
0
0
0
2795
0
0
0
0
0
0
0
0
2804
0
0
0
0
2809
0
0
0
0
0
2815
0
0
0
0
0
0
2822
0
0
0
0
0
2828
0
2830
0
0
0
0
2835
0
0
0
2839
0
0
0
0
0
0
0
2847
0
0
0
0
0
0
0
0
0
2857
0
2859
0
0
0
0
2864
0
2866
0
0
0
0
0
2872
0
0
0
0
0
2878
0
0
0
0
0
0
0
0
0
0
0
2890
2891
0
0
2894
0
0
2897
2898
0
0
0
0
0
0
0
0
2907
2908
0
0
0
0
2913
0
2915
2916
0
0
0
2920
0
0
0
0
0
2926
2927
2928
0
0
0
0
0
0
0
2936
0
0
2939
0
0
0
2943
2944
0
2946
0
0
0
0
2951
0
0
0
0
2956
0
0
0
0
2961
0
0
0
2965
2966
0
0
0
2970
0
0
0
0
0
0
0
0
0
2980
0
2982
0
0
0
0
0
0
0
0
2991
0
0
0
0
0
0
2998
0
3000
0
0
0
0
0
0
0
0
0
0
0
0
0
0
0
0
0
0
0
0
0
0
0
0
0
0
3027
0
0
0
3031
0
3033
0
3035
0
0
0
0
0
0
0
0
0
8
0
0
11
0
0
0
0
0
17
0
0
0
0
0
0
0
0
0
0
0
0
0
0
0
0
0
0
0
0
38
39
0
0
0
0
44
0
46
0
0
0
0
0
0
0
0
0
0
0
0
0
0
61
0
0
64
0
0
0
68
0
0
0
0
0
0
0
0
0
0
0
0
0
0
0
0
0
0
0
0
89
0
91
92
0
0
0
96
0
0
0
0
0
0
0
0
0
0
0
0
0
0
0
0
0
0
115
0
0
118
119
0
0
0
0
124
0
0
0
0
0
0
0
0
0
134
135
0
0
0
139
0
0
0
0
0
0
0
0
0
0
0
0
0
0
154
0
0
0
0
0
0
161
162
163
164
165
166
167
168
169
170
171
0
0
174
175
176
177
0
179
180
0
182
183
0
0
186
187
188
0
0
191
0
0
194
0
0
197
0
0
200
0
0
0
0
0
0
0
0
0
0
0
0
0
0
0
0
0
0
0
0
0
222
0
0
0
0
0
0
0
0
231
232
0
0
0
0
0
0
0
0
0
0
0
244
0
0
0
0
0
0
0
0
0
254
0
0
0
0
0
0
0
0
0
0
0
0
0
268
0
0
0
0
0
0
0
0
0
0
279
0
0
0
0
0
0
0
287
0
0
0
0
0
293
0
0
0
0
0
0
0
0
0
0
0
0
0
0
0
0
0
0
0
0
314
0
0
0
0
0
0
0
0
0
0
325
326
327
328
329
330
331
332
333
334
335
336
337
0
339
0
341
342
343
344
345
0
347
0
0
0
0
0
0
0
0
356
0
358
0
0
361
0
0
0
0
0
0
0
0
370
0
0
0
0
0
376
0
0
0
0
0
382
383
384
0
0
0
0
389
0
0
0
393
0
0
0
0
0
0
400
401
0
0
0
0
0
0
0
0
0
411
0
0
414
0
0
0
0
0
0
0
0
423
0
0
0
0
0
0
0
0
0
0
0
0
0
0
438
0
0
0
0
0
0
0
0
447
0
0
0
0
452
0
0
455
0
0
0
0
0
0
462
0
0
465
0
0
0
0
470
0
0
0
0
0
0
0
478
0
0
0
0
0
0
0
0
0
0
0
0
0
0
0
0
0
0
497
0
0
0
0
0
0
504
0
0
0
0
0
510
0
0
0
0
0
0
0
0
0
520
0
0
523
0
0
526
0
528
529
0
531
532
0
534
535
536
0
0
0
0
0
0
0
0
0
0
547
0
549
0
0
0
0
0
0
0
0
0
0
0
0
0
0
0
565
0
0
0
0
0
0
0
0
574
0
576
0
0
0
0
581
0
0
584
0
0
587
588
0
0
0
592
0
0
595
0
597
0
0
0
601
0
0
0
0
0
0
0
609
610
0
0
0
0
615
616
0
0
0
0
0
0
623
624
0
0
0
628
629
0
631
632
0
0
0
0
0
0
0
640
0
0
0
0
0
0
0
0
0
0
651
0
0
0
0
0
0
0
0
0
0
0
0
0
0
0
0
0
0
0
0
0
673
0
0
0
677
0
0
0
0
0
0
0
0
0
0
0
689
690
0
0
0
0
0
0
0
0
0
0
0
0
0
0
0
0
0
708
0
0
0
0
0
714
0
0
0
0
0
0
0
0
0
0
0
726
727
0
0
0
0
0
0
0
0
0
0
738
739
0
0
0
0
0
745
746
0
0
0
0
0
752
0
754
0
756
0
758
759
0
0
762
763
764
765
0
767
0
769
770
771
772
0
774
0
0
0
778
0
0
0
0
0
0
0
0
0
0
789
0
791
792
0
0
0
796
797
0
0
800
0
0
803
0
805
0
0
0
809
0
0
0
0
0
0
0
0
0
0
0
0
0
823
0
0
0
0
828
0
0
0
0
833
0
0
0
0
0
839
0
841
842
0
0
845
846
0
848
0
0
0
0
853
0
0
0
0
0
859
0
861
0
863
864
865
0
0
0
0
870
0
0
0
0
0
0
0
0
0
0
0
882
0
0
0
0
0
0
0
0
0
0
0
0
0
0
0
0
0
900
901
0
0
0
905
0
907
0
0
0
0
0
913
0
0
0
0
0
0
920
0
0
0
0
0
0
0
0
0
0
931
0
0
0
0
0
0
0
0
0
0
942
0
944
945
0
0
0
0
0
0
952
0
954
0
0
957
0
0
0
0
0
0
964
0
966
0
968
0
0
971
0
0
0
975
0
0
978
979
980
0
982
983
0
0
986
0
988
989
990
0
0
0
994
0
0
0
0
999
1000
1001
0
1003
1004
0
1006
0
0
1009
0
1011
0
0
1014
0
0
0
0
1019
1020
0
0
1023
0
1025
0
0
0
0
0
0
0
0
0
0
0
0
0
0
0
0
0
0
0
1045
0
0
1048
1049
1050
1051
0
0
0
1055
0
0
0
1059
0
0
1062
1063
0
1065
0
0
1068
1069
1070
0
0
1073
0
1075
1076
0
0
0
1080
1081
0
1083
0
0
0
0
0
0
0
0
0
0
0
0
0
0
0
0
1100
1101
0
0
0
0
0
0
0
0
1110
0
0
0
0
0
1116
0
0
0
0
0
0
0
0
0
0
0
1128
0
0
0
0
0
1134
0
0
1137
0
0
0
0
0
1143
0
0
0
0
0
0
0
0
0
0
0
0
0
0
0
0
0
0
0
0
0
0
0
0
0
0
0
0
1172
0
1174
1175
0
0
1178
0
0
1181
0
0
0
0
0
0
0
0
1190
0
0
1193
0
0
0
0
0
0
1200
0
0
0
0
0
1206
0
0
0
1210
0
0
0
0
0
0
0
0
0
0
1221
0
1223
0
0
1226
1227
0
0
0
0
1232
0
0
0
0
0
1238
0
0
0
1242
0
0
0
0
0
1248
0
0
1251
1252
0
1254
0
1256
0
0
0
0
0
1262
0
1264
0
0
0
0
0
0
0
0
0
0
0
0
1277
0
0
1280
0
0
0
1284
0
1286
1287
0
1289
0
0
0
0
0
0
0
0
0
0
0
0
0
0
0
1305
0
0
0
0
0
0
0
0
1314
0
1316
0
0
0
0
0
1322
0
1324
1325
1326
0
1328
0
0
0
0
0
0
1335
0
1337
0
1339
0
0
0
1343
1344
0
0
0
0
0
0
0
0
1353
0
0
0
0
0
0
0
0
0
1363
0
0
0
0
1368
1369
0
0
0
0
0
0
0
1377
0
0
0
1381
1382
0
1384
0
1386
1387
0
0
0
0
0
0
1394
0
0
0
1398
0
0
0
0
0
0
0
0
0
0
0
0
0
0
0
0
0
0
0
0
0
0
1421
0
0
1424
0
0
0
0
1429
0
0
1432
0
1434
0
0
0
0
0
0
0
0
0
0
1445
0
0
1448
1449
0
0
0
0
0
1455
0
0
0
1459
1460
1461
0
1463
0
1465
0
1467
0
1469
0
0
0
0
1474
0
1476
0
0
0
0
0
0
0
0
0
0
1487
1488
0
0
1491
0
0
0
0
1496
0
0
0
0
0
0
0
0
0
0
0
1508
1509
0
0
0
0
0
0
0
0
0
0
0
0
0
0
0
1525
0
0
0
0
0
0
0
0
1534
0
0
0
0
0
0
0
1542
0
1544
0
0
1547
0
0
1550
0
0
0
1554
0
0
0
0
0
0
1561
0
0
1564
0
1566
0
0
1569
1570
1571
0
0
0
1575
0
0
1578
1579
0
1581
1582
0
1584
1585
1586
0
0
1589
1590
1591
0
1593
0
0
0
0
1598
0
0
0
0
0
0
0
0
0
0
0
0
1611
0
0
0
1615
0
0
0
0
0
0
0
0
0
0
1626
0
0
0
1630
0
0
0
0
0
0
0
0
0
0
1641
0
0
0
0
0
0
0
0
0
0
0
0
0
0
0
0
0
0
0
0
0
0
0
0
0
0
0
0
0
0
0
0
0
0
1676
0
0
1679
0
0
1682
0
0
0
1686
0
0
0
0
0
0
0
0
0
0
1697
0
0
0
0
0
0
0
0
1706
0
0
0
0
0
1712
0
0
0
0
0
0
0
0
1721
0
0
0
0
0
0
0
0
0
0
0
0
0
1735
0
0
0
1739
1740
0
0
0
0
0
0
0
0
0
0
0
1752
0
0
1755
0
0
1758
1759
0
0
0
0
0
0
0
1767
1768
0
1770
1771
0
0
0
0
0
1777
0
0
0
0
0
0
1784
1785
0
0
0
1789
1790
0
1792
0
1794
0
0
0
0
0
1800
0
1802
0
0
0
1806
1807
0
0
1810
0
0
0
0
0
1816
1817
0
0
0
1821
0
0
0
0
0
0
0
0
1830
0
0
0
0
0
0
0
0
0
0
0
0
0
0
0
0
0
1848
0
1850
0
0
0
0
1855
0
0
1858
0
0
0
0
0
0
0
0
0
0
0
0
0
0
0
1874
0
0
0
0
0
0
0
0
0
1884
0
0
0
1888
0
0
0
0
0
0
0
0
0
0
0
1900
0
1902
0
1904
0
0
1907
0
0
0
0
0
0
0
0
0
0
0
0
0
0
1922
0
0
0
0
1927
0
0
0
1931
0
0
0
1935
0
0
0
0
1940
0
0
0
1944
0
0
0
0
1949
1950
0
0
1953
1954
1955
0
0
0
0
0
0
1962
0
0
0
0
0
1968
0
0
0
0
0
0
0
1976
0
0
0
0
0
1982
0
1984
0
0
1987
0
0
1990
0
1992
0
1994
0
1996
0
0
0
0
0
0
0
0
0
0
0
0
0
0
0
0
0
0
0
0
0
2018
0
0
0
0
2023
0
0
0
0
0
0
0
0
0
2033
0
2035
0
2037
0
0
2040
0
2042
0
0
0
2046
0
0
0
0
0
0
0
0
2055
0
2057
0
0
0
0
0
0
0
0
0
0
0
2069
2070
0
2072
0
0
0
0
0
0
0
0
0
0
0
0
2085
2086
2087
0
0
0
0
0
0
0
2095
0
0
0
2099
0
2101
0
0
0
2105
0
0
0
0
2110
0
0
0
0
0
0
2117
0
0
0
0
2122
2123
0
0
0
2127
0
0
0
2131
0
0
2134
2135
0
0
2138
0
0
0
0
2143
0
0
2146
0
0
0
0
0
2152
0
0
2155
0
0
0
0
0
0
0
0
0
0
0
0
2168
0
0
0
0
0
0
0
0
0
0
0
0
0
2182
0
0
0
0
2187
2188
0
0
0
0
0
0
0
0
2197
0
0
0
0
0
0
2204
0
2206
0
0
0
0
0
0
2213
0
0
0
0
2218
0
0
0
0
0
0
0
0
2227
0
2229
0
0
0
0
0
0
0
0
0
2239
0
2241
0
0
0
0
0
0
0
0
0
0
2252
0
2254
0
0
0
0
2259
0
0
0
2263
2264
2265
2266
2267
0
0
0
0
0
0
2274
0
2276
0
0
2279
0
2281
0
2283
0
0
0
2287
0
0
0
0
2292
0
0
0
0
0
0
0
2300
2301
2302
0
2304
0
2306
0
2308
0
0
0
0
0
0
2315
0
2317
2318
2319
0
0
0
2323
0
0
2326
2327
2328
2329
2330
0
0
0
0
0
2336
0
2338
0
2340
2341
0
2343
0
2345
0
2347
0
0
0
0
0
2353
0
0
0
0
2358
0
0
0
2362
0
0
2365
0
0
0
0
2370
2371
2372
2373
0
0
0
2377
2378
0
0
0
0
0
0
0
0
0
0
0
0
0
2392
0
2394
0
0
0
0
2399
2400
0
0
0
2404
0
0
2407
0
0
0
0
0
2413
2414
2415
0
0
0
0
0
0
0
0
0
2425
0
0
2428
0
0
2431
0
0
0
0
0
0
0
0
0
2441
2442
0
0
2445
0
0
2448
2449
0
2451
2452
0
2454
0
0
0
0
2459
2460
0
0
0
2464
0
0
2467
0
0
0
2471
2472
0
2474
0
2476
2477
0
0
0
0
2482
2483
0
0
0
0
0
0
0
0
0
2493
0
0
2496
0
0
2499
0
0
0
2503
2504
0
0
0
0
0
0
0
0
2513
0
2515
0
2517
0
2519
2520
2521
2522
0
0
2525
0
0
0
0
0
0
2532
0
2534
0
0
2537
0
0
0
0
0
0
2544
2545
0
2547
0
2549
2550
2551
2552
0
0
0
0
0
0
0
2560
0
0
0
2564
0
0
2567
2568
0
0
0
0
0
0
2575
0
0
0
0
0
0
0
0
2584
2585
2586
0
0
0
0
0
0
0
2594
0
0
0
0
0
0
0
0
0
0
2605
0
0
2608
0
0
0
0
2613
0
2615
2616
0
0
2619
0
0
0
2623
0
0
0
0
0
0
0
0
0
0
0
2635
0
0
0
0
2640
0
0
0
2644
0
0
0
0
0
0
0
0
0
0
0
0
0
0
0
0
0
0
2663
0
0
0
0
2668
0
0
2671
2672
2673
2674
0
0
0
0
0
0
0
2682
0
2684
0
0
0
0
0
0
0
0
0
0
0
2696
0
2698
0
2700
0
2702
0
0
0
2706
0
0
0
0
0
2712
0
0
0
0
0
0
0
0
0
0
0
0
0
2726
0
0
0
0
2731
0
0
0
0
0
0
0
0
0
0
0
0
0
2745
0
0
2748
2749
0
2751
0
0
0
0
0
0
0
0
2760
2761
0
2763
0
0
0
0
0
0
0
0
0
0
0
0
0
0
2778
0
2780
0
0
2783
2784
0
0
0
0
0
0
0
0
0
0
0
2796
2797
0
0
0
2801
0
0
2804
0
0
0
0
0
0
2811
0
0
0
0
2816
0
2818
0
0
0
0
0
0
0
0
0
0
2829
0
0
2832
0
0
2835
0
0
0
0
0
0
2842
0
0
0
0
0
0
0
0
0
2852
0
0
0
2856
0
0
0
0
0
2862
0
2864
2865
0
2867
0
0
0
0
2872
0
0
0
2876
0
0
0
2880
0
2882
0
2884
0
0
0
0
0
2890
0
0
2893
0
2895
0
0
0
0
2900
0
2902
0
2904
0
0
0
2908
0
0
0
0
0
0
0
0
0
0
0
2920
2921
0
0
0
2925
2926
2927
0
0
0
0
0
0
2934
0
0
0
0
0
0
2941
0
0
0
0
0
0
0
0
0
2951
0
0
0
0
0
0
0
0
0
0
0
0
2964
0
0
0
0
2969
0
0
0
0
0
0
2976
2977
0
0
0
0
0
0
0
0
0
2987
2988
0
0
0
0
0
0
0
2996
0
0
0
3000
0
3002
0
0
0
3006
0
0
3009
0
3011
0
3013
0
3015
0
0
0
0
0
0
0
0
0
0
0
0
3028
3029
0
3031
0
3033
0
0
0
3037
0
0
0
4
5
6
0
0
0
0
11
0
0
0
15
0
0
0
19
0
0
0
0
0
0
0
0
0
29
0
0
0
0
0
0
0
0
0
0
0
0
0
0
0
0
0
0
48
0
0
0
0
0
0
55
0
0
0
0
60
0
0
0
0
0
0
0
0
0
70
0
0
0
74
0
0
0
0
0
0
0
0
0
0
0
0
87
0
0
0
0
0
0
0
0
0
0
0
0
0
0
0
103
0
0
0
0
0
0
0
111
0
0
114
0
0
117
0
0
0
0
0
0
0
0
126
0
0
0
0
0
0
0
134
135
136
0
0
0
0
0
0
0
0
0
0
0
0
0
0
0
0
0
0
0
0
0
0
0
0
161
162
163
164
165
166
167
168
0
170
171
0
173
174
175
176
177
178
179
0
181
0
183
184
185
0
187
188
0
0
0
192
0
0
0
196
197
0
0
0
0
0
0
0
0
0
207
0
0
0
0
0
0
0
0
0
217
0
0
0
0
0
0
0
0
226
0
0
0
0
0
0
233
234
0
0
0
0
239
0
241
0
0
244
0
246
0
0
0
250
0
0
0
254
0
0
0
0
0
0
0
0
0
264
0
0
0
268
0
0
0
0
0
0
0
0
277
0
0
0
0
0
0
284
0
0
0
0
0
0
291
0
0
0
0
0
0
0
0
0
0
0
0
0
0
0
0
0
0
310
0
0
0
0
315
0
0
0
0
0
0
0
323
0
0
326
327
0
329
0
331
0
0
0
335
336
337
338
0
340
0
0
343
344
0
346
347
348
0
0
351
352
0
354
0
0
0
0
0
360
0
0
0
0
0
0
0
0
0
370
371
0
0
0
0
0
0
378
0
0
0
0
383
0
385
0
0
0
0
0
391
392
0
0
0
396
0
0
0
0
0
0
0
0
0
0
0
408
0
0
0
412
0
0
0
0
0
418
0
0
0
0
423
0
425
0
0
0
0
0
0
0
433
0
0
0
0
0
439
0
0
0
0
0
0
0
0
0
0
0
0
452
0
0
455
0
0
0
0
460
0
0
0
0
0
0
0
468
0
0
0
472
0
0
475
0
0
0
0
0
0
482
0
0
485
0
0
0
489
0
0
0
0
494
495
0
0
0
0
0
0
0
0
0
0
0
0
0
0
0
0
0
513
0
0
0
517
0
519
0
0
522
523
0
525
526
527
528
529
530
0
532
0
534
535
536
537
538
0
540
0
0
0
0
0
0
0
548
549
0
0
0
0
0
0
0
0
0
559
0
0
0
563
0
0
0
0
0
0
570
0
0
0
0
0
0
577
0
0
0
581
582
0
0
0
0
0
0
0
0
0
0
0
0
0
0
0
0
599
0
601
0
603
0
0
0
0
0
0
0
0
0
0
0
0
616
0
0
0
0
0
0
0
0
0
626
0
0
0
0
0
0
0
0
635
0
0
0
0
0
0
0
0
644
0
0
0
0
0
0
651
0
0
654
0
0
0
0
0
0
0
0
663
0
0
666
667
0
0
0
0
0
673
0
0
0
0
0
0
0
0
0
0
0
685
0
0
688
689
0
691
0
0
0
0
0
0
0
0
0
0
702
0
0
0
0
0
0
0
710
0
0
0
0
0
0
0
0
0
0
0
0
0
724
0
0
0
0
0
0
0
0
733
0
0
0
0
0
739
740
0
742
0
0
745
0
0
0
0
0
0
0
0
0
0
756
0
0
0
760
0
0
763
764
765
766
767
0
769
0
771
772
773
0
775
0
777
0
0
0
0
0
0
784
0
0
0
0
0
790
791
792
793
0
795
0
797
0
0
0
0
0
0
0
0
0
0
0
0
0
0
0
0
0
0
0
0
0
0
0
821
0
823
824
0
826
0
828
0
0
0
0
0
0
835
0
0
0
839
0
841
0
0
0
0
0
847
0
0
0
851
852
0
0
0
0
0
858
0
0
861
0
0
0
865
0
0
0
0
870
0
0
0
0
0
0
0
878
879
0
0
0
0
884
0
0
0
0
889
890
0
892
0
0
0
0
0
0
0
0
0
902
0
904
905
906
0
0
0
0
911
0
0
0
0
0
0
0
0
920
0
0
923
924
0
0
0
0
0
0
0
0
933
934
0
0
937
0
0
0
0
0
0
0
0
946
0
948
0
950
951
0
0
954
955
0
0
958
959
960
0
0
963
964
965
966
0
0
0
0
971
972
973
0
975
0
977
0
979
0
0
0
0
984
0
986
0
988
0
0
991
0
0
994
0
0
997
0
999
0
1001
0
0
1004
1005
1006
0
1008
1009
0
0
0
0
0
0
1016
0
0
1019
0
0
0
0
0
0
0
0
0
0
0
1031
0
0
0
0
0
0
0
1039
1040
0
0
0
0
0
0
0
0
0
0
0
0
1053
1054
0
0
0
0
0
0
0
1062
1063
1064
1065
1066
0
0
0
0
0
0
0
1074
1075
1076
1077
1078
0
0
0
0
0
0
0
1086
1087
0
0
0
0
0
0
0
0
0
0
0
1099
0
0
0
0
0
0
0
0
1108
0
1110
0
0
0
0
0
0
0
1118
0
0
0
0
0
1124
1125
0
0
0
0
1130
0
0
0
1134
0
0
0
0
0
0
0
0
0
0
0
0
0
0
0
0
0
0
0
0
0
1156
0
0
0
0
0
0
1163
0
0
0
0
0
1169
0
0
0
0
0
0
0
1177
0
0
0
0
0
0
1184
0
0
0
1188
0
0
0
0
0
1194
1195
0
0
1198
0
0
0
0
1203
0
1205
0
0
0
1209
0
0
0
0
0
1215
0
0
0
0
1220
0
1222
1223
0
0
1226
1227
1228
0
0
0
0
0
0
0
0
0
0
1239
0
0
0
0
0
0
0
1247
0
0
1250
0
1252
1253
0
0
0
0
0
0
0
0
0
0
1264
0
0
1267
0
0
0
1271
0
0
0
0
0
1277
0
0
0
0
0
0
1284
0
0
0
0
0
0
0
1292
1293
0
0
0
0
0
0
1300
0
1302
0
0
0
0
0
0
0
0
0
0
0
0
1315
0
0
0
0
1320
0
0
0
0
0
1326
0
0
0
1330
0
0
0
0
1335
0
0
0
1339
0
0
0
1343
1344
0
1346
0
0
1349
0
0
0
0
0
0
0
0
0
0
0
0
0
0
1364
1365
0
0
0
1369
1370
0
0
1373
0
0
0
1377
1378
0
0
1381
1382
0
0
0
0
0
0
0
1390
1391
0
1393
0
0
1396
0
0
0
0
0
1402
0
0
0
0
0
0
0
0
0
1412
0
1414
0
0
0
0
0
1420
1421
0
0
0
0
0
0
0
0
0
0
0
0
0
0
0
0
0
0
0
0
0
0
0
1445
0
1447
0
1449
0
0
1452
0
0
0
0
0
1458
0
0
1461
1462
1463
0
0
1466
0
0
0
1470
0
0
0
0
0
0
1477
0
0
0
0
0
0
0
0
0
0
0
1489
0
0
1492
0
0
0
0
0
0
1499
0
1501
0
0
0
1505
1506
0
0
0
0
1511
0
0
1514
0
0
1517
0
0
0
0
0
0
0
0
0
0
0
0
0
1531
0
0
0
0
0
0
0
0
0
0
0
1543
0
0
0
1547
1548
0
1550
1551
0
0
0
0
0
0
1558
0
0
0
1562
0
0
1565
0
0
0
1569
0
0
1572
0
0
0
1576
0
0
1579
0
0
0
1583
0
1585
0
1587
0
0
1590
0
0
0
0
0
0
0
0
0
0
0
0
0
0
0
0
1607
0
0
0
0
0
1613
1614
0
1616
0
0
0
0
0
1622
0
0
0
0
0
0
0
0
0
0
0
0
0
0
0
0
0
0
0
0
0
0
0
0
0
1648
0
0
1651
0
0
1654
1655
1656
0
0
0
0
0
0
0
1664
1665
0
1667
0
0
0
0
0
1673
0
0
1676
0
1678
0
0
0
1682
0
0
0
0
0
1688
0
1690
0
0
0
0
1695
0
0
0
0
0
0
0
0
0
1705
0
0
0
0
0
0
0
0
0
0
0
0
0
0
0
0
0
1723
0
0
0
1727
0
0
0
0
0
0
1734
0
1736
0
1738
0
0
0
1742
0
1744
0
0
0
0
0
0
0
1752
0
0
0
0
0
0
0
0
1761
1762
0
0
0
0
0
0
0
0
0
0
0
0
1775
0
0
1778
0
1780
0
0
0
0
1785
0
1787
0
0
0
1791
0
0
1794
0
0
0
0
0
0
0
0
0
0
1805
0
1807
1808
1809
0
0
0
0
0
0
0
0
1818
0
1820
0
1822
0
0
0
0
0
0
0
0
1831
0
0
1834
1835
0
0
0
0
0
0
0
0
0
0
1846
0
1848
0
1850
0
0
0
1854
0
0
0
1858
0
0
0
1862
0
0
0
0
1867
1868
0
0
0
0
0
0
0
0
0
0
0
0
0
0
0
0
0
1886
0
0
0
1890
0
1892
1893
0
0
0
1897
0
1899
0
0
0
0
0
0
0
0
0
0
0
1911
0
1913
1914
0
0
0
0
0
1920
0
0
0
1924
1925
0
1927
0
0
1930
0
0
0
0
1935
0
0
0
0
0
1941
0
1943
0
0
0
0
1948
0
0
0
0
0
0
1955
0
0
0
0
0
0
0
0
0
0
0
0
0
0
0
0
0
0
0
0
0
1977
0
0
0
0
0
0
0
0
0
0
0
0
0
0
1992
0
1994
0
0
0
0
0
0
0
0
0
0
2005
2006
0
2008
0
0
0
0
0
0
0
0
0
0
0
0
0
2022
2023
0
0
2026
0
0
0
0
0
0
0
0
0
0
0
0
0
0
2041
0
0
0
2045
0
0
0
0
2050
0
0
0
2054
0
0
0
0
0
0
0
0
2063
2064
2065
0
0
0
0
2070
0
0
0
0
0
0
2077
0
0
0
0
0
0
0
2085
0
2087
0
0
0
0
2092
0
0
2095
0
0
0
0
0
2101
0
0
0
2105
0
0
0
0
0
0
2112
0
0
0
2116
0
0
2119
0
0
0
0
0
0
0
0
2128
0
2130
0
0
0
0
0
0
2137
0
0
0
0
0
0
0
0
0
0
0
0
0
0
0
0
0
0
0
2157
0
2159
0
0
0
0
0
0
2166
0
0
0
0
0
0
2173
0
0
0
2177
0
0
0
0
0
0
0
0
0
0
0
2189
2190
0
2192
0
0
0
0
0
0
0
0
2201
2202
2203
0
0
0
0
0
0
0
0
0
0
0
0
0
2217
0
0
0
0
0
2223
0
2225
2226
0
0
0
0
0
0
2233
0
0
0
0
0
0
0
0
0
2243
0
0
0
0
0
0
0
2251
2252
0
0
0
0
0
0
2259
2260
0
0
2263
0
2265
0
0
0
0
0
0
0
0
0
0
2276
2277
0
0
2280
0
2282
2283
0
0
0
2287
0
2289
2290
2291
2292
2293
0
2295
0
0
0
0
0
0
0
0
0
2305
0
2307
2308
0
2310
0
2312
2313
0
0
2316
2317
0
0
2320
2321
2322
0
2324
0
0
0
0
0
0
2331
0
2333
0
0
0
0
0
0
2340
0
2342
0
2344
0
0
0
2348
0
2350
2351
2352
0
0
0
0
0
2358
0
0
2361
0
2363
0
0
0
0
2368
0
0
2371
0
0
0
0
0
2377
0
0
0
0
0
0
0
0
2386
2387
0
2389
0
0
0
0
0
0
0
0
2398
2399
2400
2401
2402
2403
2404
2405
0
2407
0
2409
2410
2411
2412
2413
0
2415
0
0
2418
0
0
0
0
0
0
0
0
0
0
0
0
0
0
0
0
0
2436
0
0
0
2440
0
0
0
0
0
0
2447
2448
0
0
0
0
0
0
2455
0
0
2458
0
0
0
0
0
2464
2465
0
2467
0
0
0
0
0
2473
2474
0
0
2477
2478
0
0
0
0
2483
2484
0
0
0
2488
0
0
0
2492
0
0
0
0
0
0
0
0
0
0
0
0
0
0
0
0
0
0
2511
2512
0
0
0
0
0
2518
0
2520
2521
0
2523
0
0
0
2527
0
2529
2530
0
0
0
0
0
2536
0
0
0
0
0
0
0
2544
0
0
2547
0
2549
0
0
2552
2553
0
0
0
2557
2558
0
0
0
0
2563
2564
0
0
0
0
0
0
0
0
0
0
0
0
0
2578
0
0
2581
0
0
0
2585
2586
0
0
2589
0
0
0
0
0
2595
0
0
0
0
0
0
0
2603
0
2605
0
2607
2608
0
0
0
0
0
0
0
2616
0
0
0
2620
2621
0
0
0
2625
0
0
0
0
0
2631
0
0
0
2635
0
2637
0
0
0
0
0
2643
0
0
0
0
0
2649
2650
0
0
2653
0
0
0
2657
2658
0
2660
0
2662
0
0
2665
2666
0
0
0
0
0
0
0
2674
0
2676
0
0
0
0
0
0
0
0
2685
0
0
0
0
0
0
0
2693
0
0
0
2697
0
0
0
0
2702
0
0
0
0
0
2708
2709
0
2711
2712
0
0
2715
2716
0
0
0
0
0
0
0
0
0
0
0
2728
2729
0
0
0
0
0
0
0
0
0
0
0
0
0
0
0
0
2746
0
2748
0
0
0
0
0
0
0
2756
2757
0
0
0
0
0
0
0
0
0
2767
0
0
0
0
0
0
0
2775
0
0
0
0
0
0
0
0
0
0
0
0
0
0
0
2791
0
0
0
0
0
0
0
2799
0
0
0
2803
0
0
0
0
0
0
0
0
2812
2813
0
0
0
0
2818
0
0
0
2822
2823
2824
0
2826
2827
0
0
0
0
0
0
0
0
0
0
0
0
0
0
0
0
2844
0
2846
0
0
0
0
0
2852
2853
0
0
0
2857
0
2859
0
0
0
2863
0
0
2866
2867
2868
0
0
0
0
0
0
0
0
0
0
0
2880
2881
0
0
0
0
0
0
0
0
0
0
0
2893
2894
0
2896
0
2898
2899
0
0
2902
0
0
2905
0
0
2908
0
2910
2911
0
0
0
0
2916
0
2918
2919
0
0
2922
0
0
0
0
2927
0
0
0
2931
0
0
0
0
0
2937
0
0
0
0
0
0
2944
2945
0
0
0
2949
0
0
0
2953
0
0
0
0
2958
0
0
0
0
0
0
0
0
2967
2968
2969
0
0
0
0
0
0
0
0
0
2979
0
0
2982
0
0
2985
2986
0
0
2989
0
0
0
0
0
0
0
0
2998
0
0
3001
0
3003
0
3005
0
3007
0
0
0
0
0
0
0
0
0
0
0
0
0
0
0
0
0
0
0
0
0
3029
0
0
0
3033
0
0
0
0
0
0
0
0
0
0
7
0
0
0
11
0
0
0
0
0
0
0
0
0
0
0
0
0
25
0
0
0
0
0
0
0
33
0
0
0
0
0
0
40
41
0
0
0
45
0
0
0
0
0
0
0
0
0
0
56
0
0
0
0
61
0
0
0
0
0
67
68
0
0
0
0
0
0
75
0
0
78
0
0
0
82
0
84
85
0
0
0
0
0
0
0
0
0
0
96
0
0
0
100
0
102
0
0
0
106
0
0
0
0
0
0
0
0
0
0
0
0
0
0
0
0
0
0
0
0
127
0
0
130
0
132
0
134
135
136
137
0
0
140
141
142
0
0
0
146
0
148
0
0
0
0
0
0
155
0
0
0
0
0
161
162
163
164
165
0
167
168
0
170
171
172
0
174
0
176
177
178
179
180
181
182
0
184
185
186
187
188
0
0
0
0
193
0
0
0
0
0
0
200
0
0
0
0
0
0
0
0
0
210
0
0
0
0
0
0
0
0
0
0
0
0
0
0
0
0
227
0
0
0
0
0
0
0
0
0
0
0
0
0
0
242
0
244
0
0
0
0
0
0
0
252
0
0
0
0
257
0
0
0
261
0
263
0
0
0
0
0
0
0
271
0
0
274
0
276
0
0
0
0
0
282
0
284
0
0
0
0
0
0
0
0
0
294
0
0
0
0
0
0
0
302
0
0
0
0
0
0
0
0
0
0
0
0
0
316
0
318
0
320
0
0
0
324
0
326
327
0
0
330
331
332
0
0
0
336
0
338
339
340
341
0
343
344
345
0
0
0
0
350
0
0
0
354
0
0
0
0
0
0
0
0
0
0
0
0
0
0
0
370
0
0
0
0
0
0
0
0
0
0
0
0
0
0
0
386
0
0
0
0
0
0
0
0
0
0
397
0
0
0
0
402
0
0
0
0
0
0
0
0
0
0
413
414
0
0
0
0
0
0
421
0
0
0
0
426
0
0
429
0
0
432
0
0
0
0
0
0
439
0
441
442
443
0
0
0
0
0
0
0
451
0
0
0
0
0
0
0
0
460
0
0
0
0
0
0
0
0
0
470
0
0
0
0
0
0
477
0
0
480
0
0
0
0
0
0
0
0
0
0
0
492
0
0
0
0
0
0
499
0
0
0
0
504
505
0
0
0
0
0
0
0
0
0
0
516
0
518
519
0
521
522
0
524
525
0
0
528
529
0
531
532
533
0
535
0
0
538
539
0
0
0
0
544
0
0
0
0
0
550
0
0
0
554
0
0
0
558
0
560
0
0
0
0
0
0
567
0
0
0
0
0
0
574
575
0
0
578
0
0
0
0
0
0
0
0
0
0
0
0
0
592
0
0
0
596
0
598
0
0
0
602
603
0
0
0
0
608
0
0
0
0
613
0
615
616
0
0
0
0
621
0
0
0
625
0
0
0
0
0
0
0
633
0
0
0
0
0
0
0
0
0
0
0
0
0
0
0
0
0
0
0
0
0
0
0
657
0
659
0
661
0
0
0
0
0
0
0
0
0
0
0
0
0
0
0
677
0
679
0
0
682
683
0
0
686
0
0
0
690
0
0
0
0
0
0
0
0
0
0
0
0
703
0
0
0
0
0
0
0
0
0
0
714
0
0
0
0
719
720
0
0
0
0
0
0
0
0
0
0
0
0
0
0
0
0
0
0
0
0
741
0
0
0
0
0
0
0
749
0
0
752
753
0
0
0
0
0
0
0
0
0
763
0
0
766
0
0
769
770
771
0
773
774
775
0
777
0
0
0
0
782
0
0
0
786
0
0
0
790
791
0
0
794
0
796
0
0
799
800
0
0
803
0
0
0
0
0
0
0
0
0
0
0
0
0
0
0
0
0
821
0
823
0
0
826
0
0
0
0
831
0
0
0
0
836
0
0
0
0
0
0
0
0
845
0
0
0
0
0
0
0
0
0
0
0
0
0
0
860
861
0
0
0
0
0
0
0
869
0
0
0
0
874
0
0
0
0
0
880
0
0
0
0
885
0
0
0
0
0
0
0
0
0
0
0
0
0
0
0
0
0
0
0
0
0
0
0
0
0
0
0
0
0
0
0
0
0
0
0
0
0
923
0
0
926
0
0
0
0
0
932
0
0
0
0
937
0
0
0
0
942
0
0
0
0
0
0
0
950
951
952
0
0
0
956
957
958
0
0
961
962
963
964
965
0
0
968
0
970
0
0
973
974
0
976
0
0
0
980
981
982
983
0
985
0
0
988
0
990
991
0
993
0
0
0
0
0
0
1000
0
1002
1003
0
1005
1006
0
0
1009
1010
0
0
0
0
0
1016
0
0
0
0
0
0
0
0
0
0
0
0
0
0
0
1032
1033
0
0
0
0
0
0
0
1041
0
0
0
0
1046
0
0
0
1050
1051
1052
1053
1054
1055
1056
1057
1058
1059
0
0
0
1063
0
0
1066
1067
1068
1069
1070
1071
1072
0
1074
0
0
1077
1078
1079
0
1081
0
1083
0
0
0
0
1088
0
0
0
0
0
0
0
0
0
0
0
0
0
0
0
0
0
0
0
0
0
0
0
1112
1113
0
0
0
0
0
0
0
0
0
0
1124
1125
1126
0
1128
0
0
0
0
1133
0
0
0
0
0
0
0
0
1142
1143
1144
0
0
0
0
0
0
0
0
0
0
0
1156
0
0
0
0
0
0
0
0
0
1166
0
0
0
0
0
0
0
0
0
0
0
0
0
0
1181
1182
0
0
1185
0
0
1188
0
0
1191
0
1193
1194
0
0
0
0
0
1200
0
0
1203
0
1205
0
0
0
0
0
1211
0
0
0
1215
0
0
1218
0
1220
0
0
1223
0
1225
1226
1227
0
0
0
0
0
0
0
1235
0
1237
0
1239
0
0
1242
1243
0
1245
0
0
1248
0
0
0
0
0
0
0
0
0
1258
0
1260
0
1262
0
0
0
0
0
1268
0
0
0
0
0
1274
0
0
0
1278
0
0
0
0
0
0
0
1286
0
0
0
0
0
0
0
0
0
0
0
0
0
0
0
0
0
0
0
0
0
0
0
1310
1311
0
0
0
0
0
0
0
0
0
0
0
0
0
0
0
1327
0
0
0
0
0
0
0
0
0
0
0
1339
1340
1341
0
0
0
0
1346
0
1348
0
0
0
0
1353
0
0
0
1357
0
0
0
1361
1362
0
0
1365
1366
1367
1368
0
0
1371
0
0
1374
0
1376
0
0
0
0
1381
1382
0
1384
0
0
0
0
0
1390
1391
1392
1393
0
0
0
1397
1398
0
0
0
0
0
0
1405
0
0
0
0
0
0
0
0
0
0
0
0
0
0
0
0
0
0
0
0
0
0
0
0
1430
0
0
0
0
0
0
1437
0
0
1440
0
0
0
0
0
0
0
0
1449
0
0
0
0
1454
1455
0
1457
0
1459
0
1461
1462
1463
0
1465
1466
0
0
0
1470
0
0
1473
0
0
0
0
0
0
0
0
0
0
0
0
0
0
0
0
0
0
0
0
0
0
0
0
0
0
0
1501
0
0
0
1505
0
1507
0
0
0
1511
0
0
1514
0
1516
0
0
1519
0
0
0
0
0
0
0
0
0
1529
0
1531
1532
0
0
0
0
0
0
1539
1540
0
1542
1543
1544
0
0
0
1548
0
0
0
0
0
1554
1555
0
0
0
0
0
0
0
0
1564
1565
1566
0
0
0
0
0
1572
0
0
0
0
0
0
1579
1580
1581
0
1583
0
0
0
1587
1588
0
0
0
0
0
0
0
0
0
0
0
1600
0
0
1603
0
0
0
0
0
0
1610
0
0
1613
0
0
0
0
0
1619
0
0
1622
1623
1624
0
0
0
0
1629
0
0
0
0
0
0
0
0
0
0
0
0
0
0
0
1645
1646
0
0
0
1650
0
0
0
0
0
0
0
1658
0
0
1661
0
0
0
0
0
0
0
0
0
0
0
0
0
0
0
0
0
0
0
0
0
1683
0
0
0
0
0
0
0
0
0
0
0
0
0
1697
0
0
0
0
0
0
0
0
0
0
0
0
0
0
0
0
0
0
0
0
0
0
0
0
0
1723
0
0
0
1727
1728
0
0
0
0
0
0
0
0
0
1738
1739
0
0
1742
0
0
1745
0
1747
0
0
0
0
0
1753
0
1755
0
0
0
1759
0
1761
0
0
1764
1765
0
0
0
1769
0
0
0
0
0
0
0
0
0
0
1780
0
0
0
0
0
0
0
0
1789
0
0
0
0
0
1795
0
0
0
0
1800
0
1802
0
1804
0
0
1807
0
1809
0
0
1812
0
0
0
1816
0
0
0
1820
0
0
0
0
0
0
0
0
0
0
0
0
0
0
0
0
0
0
0
0
0
0
0
1844
0
0
0
0
1849
1850
0
0
0
0
0
0
0
1858
0
0
0
0
1863
0
0
0
0
0
0
0
0
1872
0
0
0
0
0
0
0
0
0
0
0
0
0
0
0
0
1889
0
0
0
0
0
0
0
0
0
1899
0
0
0
0
0
0
0
0
0
0
0
0
1912
0
0
0
0
0
0
0
0
0
0
0
0
0
0
0
0
0
0
0
1932
0
0
0
1936
0
0
0
0
0
0
0
0
0
0
0
0
1949
0
0
0
1953
0
0
0
0
0
0
0
0
1962
0
1964
0
1966
0
0
0
0
0
0
1973
1974
0
0
0
0
0
0
0
0
0
0
1985
0
0
1988
0
0
0
0
0
0
0
1996
1997
0
0
0
0
0
0
0
0
2006
0
0
0
0
0
0
0
0
0
2016
0
0
0
0
2021
0
0
0
0
2026
0
2028
0
0
0
2032
0
0
0
0
0
2038
0
0
2041
0
0
0
0
0
0
0
0
2050
0
2052
0
2054
0
2056
2057
0
0
0
2061
0
0
0
0
2066
0
0
2069
0
0
2072
0
2074
0
0
0
0
2079
0
0
0
2083
0
0
0
0
0
0
0
2091
0
0
0
0
0
0
0
0
0
2101
0
0
2104
0
0
0
0
2109
0
2111
0
0
0
2115
0
0
0
0
0
0
0
0
2124
0
0
2127
0
0
0
0
0
2133
0
0
0
0
0
0
0
0
2142
2143
2144
0
0
2147
0
0
0
0
0
0
0
0
0
2157
0
0
0
0
0
2163
0
2165
0
0
0
0
0
2171
0
0
0
2175
0
2177
2178
0
0
0
0
0
2184
0
0
0
0
0
0
2191
0
0
0
2195
0
0
0
0
0
0
2202
0
0
0
0
0
0
0
0
2211
0
0
2214
0
2216
0
0
0
2220
0
0
0
0
2225
0
0
2228
0
0
0
0
0
0
0
0
0
0
0
0
2241
0
0
2244
0
0
0
0
0
0
0
0
0
0
2255
0
0
0
0
2260
0
0
0
0
2265
0
0
0
0
0
0
2272
0
0
2275
0
0
0
0
2280
0
0
2283
0
0
2286
0
0
0
2290
0
2292
2293
0
2295
2296
0
2298
0
0
0
0
2303
0
0
0
0
2308
0
0
0
0
2313
0
0
0
2317
0
0
2320
0
0
2323
2324
0
0
0
0
2329
0
0
0
2333
0
0
0
0
0
0
0
0
0
0
2344
0
0
2347
0
0
2350
0
2352
2353
0
2355
0
0
0
0
2360
0
2362
2363
2364
0
0
0
2368
0
0
2371
2372
0
0
0
2376
2377
0
0
0
0
0
2383
2384
0
0
2387
2388
2389
2390
0
0
0
0
0
2396
0
0
2399
0
0
0
0
2404
2405
0
0
0
2409
0
2411
2412
0
0
0
2416
0
0
0
2420
0
2422
0
0
2425
0
0
2428
2429
0
0
2432
0
0
0
0
2437
2438
0
0
0
0
0
0
0
0
0
0
2449
0
0
2452
0
0
2455
0
2457
0
0
0
2461
0
0
0
0
2466
2467
0
0
0
2471
0
0
0
0
2476
0
2478
2479
0
0
0
2483
0
0
0
2487
0
2489
0
0
2492
0
0
2495
0
2497
0
2499
2500
0
2502
0
0
0
2506
0
2508
2509
2510
2511
0
2513
0
0
2516
0
0
0
0
0
2522
0
2524
2525
0
0
2528
0
2530
2531
2532
0
2534
0
2536
2537
0
0
0
0
2542
0
0
0
0
0
0
2549
0
0
0
0
0
0
0
0
0
0
0
2561
0
2563
0
0
0
2567
0
0
0
0
0
0
2574
0
0
0
2578
0
0
0
2582
2583
2584
0
2586
0
0
0
0
2591
0
0
0
0
0
0
2598
0
0
0
0
0
0
0
0
0
0
0
0
2611
2612
2613
0
2615
0
0
0
0
0
0
0
0
0
0
0
0
0
2629
2630
0
0
2633
0
2635
0
0
0
2639
0
0
0
2643
2644
0
0
0
0
0
0
0
0
0
0
0
2656
0
2658
0
0
2661
0
0
0
2665
0
0
0
0
0
0
0
0
2674
2675
0
0
0
0
0
0
2682
2683
0
0
0
0
2688
0
0
0
0
0
2694
0
2696
2697
2698
0
0
0
0
2703
0
2705
2706
2707
2708
0
0
0
0
0
0
0
0
0
0
0
0
0
0
0
2724
2725
2726
0
2728
0
0
2731
0
0
0
0
0
0
0
0
0
0
0
0
0
0
0
2747
0
0
0
0
0
0
0
0
0
0
0
0
0
0
0
0
0
0
2766
2767
0
0
2770
0
0
2773
0
0
0
0
0
2779
0
0
0
0
0
0
0
0
0
2789
0
0
0
0
2794
0
0
2797
0
2799
2800
0
0
0
2804
0
2806
0
2808
2809
2810
0
0
0
0
2815
0
2817
2818
0
0
2821
0
0
0
0
0
0
2828
0
2830
0
2832
0
0
0
0
0
0
0
0
0
0
0
2844
0
0
2847
0
0
0
0
0
2853
2854
2855
0
0
0
2859
2860
2861
0
0
0
0
2866
0
0
0
2870
0
0
0
0
0
0
0
2878
0
2880
0
0
2883
0
0
0
0
0
0
0
0
2892
0
2894
0
0
0
0
2899
0
0
2902
0
0
0
0
2907
0
0
0
0
0
0
0
0
0
0
0
2919
0
2921
0
2923
0
2925
2926
2927
0
0
0
0
2932
0
0
0
0
0
0
0
0
0
0
0
0
0
0
0
0
0
0
0
0
0
0
0
0
2957
0
0
2960
0
2962
0
0
0
0
0
0
2969
2970
2971
2972
0
2974
0
0
0
0
0
0
0
2982
2983
2984
0
0
0
2988
0
0
2991
0
0
0
0
2996
0
0
0
0
0
0
0
3004
0
3006
0
0
0
0
0
0
0
3014
0
0
3017
0
0
0
0
0
3023
0
0
0
0
0
0
0
0
0
0
3034
0
0
3037
0
0
3
0
0
0
0
0
0
0
11
0
0
0
15
0
17
0
0
0
0
0
0
0
0
0
0
0
0
0
0
0
0
34
35
36
0
0
39
40
0
0
0
0
45
0
47
48
49
0
0
0
0
0
0
0
0
0
0
0
61
0
0
0
0
0
67
0
0
0
0
0
0
74
0
0
0
0
0
0
0
0
83
0
0
0
0
88
0
0
0
0
93
0
0
0
0
0
0
0
0
0
0
0
105
0
0
0
0
0
111
0
0
0
115
0
117
0
0
0
0
0
123
124
0
0
0
128
0
0
0
0
0
134
135
0
0
0
0
0
0
142
0
144
0
0
147
0
0
0
151
0
0
0
0
0
0
0
0
0
161
162
163
0
165
166
167
168
0
170
0
0
173
174
175
176
0
178
0
180
181
182
183
184
185
186
187
188
189
0
0
0
0
0
0
0
0
198
0
0
0
202
0
0
0
0
0
0
0
0
0
0
0
0
0
0
0
218
0
0
0
0
0
0
0
226
0
0
0
0
0
0
0
0
0
236
0
0
0
0
0
0
0
0
245
0
0
0
0
0
251
0
0
0
255
0
0
258
0
0
0
262
0
0
0
0
0
0
0
0
0
0
0
0
0
0
0
0
0
0
281
0
0
0
0
0
0
0
0
0
0
0
0
0
0
0
0
0
0
300
0
0
0
0
0
0
0
0
0
0
311
0
0
0
0
0
0
0
0
320
0
0
0
0
0
326
0
328
329
0
331
332
333
0
0
336
337
338
339
340
0
342
0
0
0
346
347
348
0
0
0
0
0
0
355
0
0
0
0
0
0
0
0
0
0
0
0
0
0
0
0
0
0
0
0
0
0
0
0
0
0
0
0
0
0
0
0
0
389
0
0
0
0
0
0
396
0
0
399
0
0
0
0
0
0
0
0
0
0
0
411
412
0
0
0
0
417
0
0
0
0
0
0
0
0
0
0
428
429
0
0
432
0
0
435
0
0
0
0
0
441
0
0
0
0
0
0
448
0
0
0
0
0
454
0
0
457
0
0
0
0
0
0
0
0
0
467
0
0
0
0
0
0
0
0
0
0
0
0
0
0
0
0
0
0
0
487
488
0
490
0
0
0
494
495
496
0
498
0
0
501
502
503
0
0
0
0
0
0
0
0
0
513
0
0
516
517
518
519
520
521
0
523
524
0
0
527
528
0
0
531
0
0
534
535
0
0
538
539
0
0
0
543
0
0
0
0
0
0
0
551
552
0
0
0
0
0
0
0
0
561
0
0
0
0
566
0
0
0
0
0
0
0
574
0
576
0
0
0
580
0
0
0
0
0
0
0
0
0
0
0
0
0
594
0
0
0
0
0
0
0
0
0
0
0
0
0
0
0
0
0
612
0
0
0
0
0
0
0
620
0
0
623
0
0
0
0
0
629
0
0
0
0
0
0
0
0
638
0
0
0
0
0
0
0
0
0
0
0
0
651
0
653
0
0
0
0
0
659
0
0
0
0
0
0
0
0
0
0
0
0
0
0
0
0
0
0
0
679
680
0
0
0
684
0
0
0
0
689
0
0
0
0
0
0
0
0
0
0
0
0
702
0
0
0
0
0
0
0
0
0
0
0
0
0
716
0
0
0
0
0
0
0
0
0
0
727
0
0
0
731
0
0
734
735
0
0
0
0
0
0
0
743
744
0
0
0
0
749
0
0
0
0
0
0
0
0
0
759
0
761
0
763
764
0
766
0
768
769
770
771
0
773
774
775
776
777
778
0
0
781
0
0
0
0
0
0
788
789
0
791
0
793
794
0
0
0
798
0
0
0
802
0
0
0
806
0
0
0
0
811
812
813
0
0
0
0
0
0
0
821
0
0
824
825
826
0
0
829
0
0
0
0
0
0
0
0
0
0
0
0
0
0
0
0
0
0
0
849
0
0
0
0
0
0
0
0
0
859
0
0
0
0
0
0
0
0
0
0
0
0
0
873
0
0
0
0
878
0
0
0
0
0
0
0
0
0
0
889
0
0
0
0
0
0
0
0
0
0
0
0
0
0
904
0
0
0
0
0
0
0
0
0
0
0
916
917
0
0
0
0
0
0
924
0
0
927
0
0
0
0
932
0
0
0
936
0
938
0
0
0
0
0
0
0
0
0
0
0
0
0
0
0
954
0
956
957
958
0
960
961
962
0
0
965
0
0
968
0
0
0
0
0
0
0
0
977
0
0
0
981
982
983
0
0
986
0
0
0
0
0
992
993
994
995
996
997
998
0
0
1001
1002
0
1004
0
0
0
1008
1009
1010
0
0
1013
0
1015
0
1017
0
0
0
1021
0
0
0
1025
1026
0
1028
0
1030
0
0
0
0
0
0
0
1038
1039
0
0
0
0
0
0
1046
0
0
0
0
1051
0
0
1054
0
0
0
1058
0
0
0
1062
1063
0
0
0
0
0
0
1070
1071
1072
1073
1074
0
1076
1077
1078
0
0
1081
0
0
0
0
0
0
0
0
0
0
0
0
0
0
0
1097
0
1099
0
0
1102
0
0
0
0
0
0
0
1110
0
0
0
0
0
0
1117
0
0
0
0
0
0
0
0
0
1127
0
0
0
1131
0
0
0
0
0
0
1138
0
0
1141
0
1143
0
0
0
0
0
0
0
0
0
0
0
0
0
0
0
0
0
0
0
0
1164
0
0
1167
1168
0
0
0
0
0
0
0
1176
0
0
1179
0
0
0
0
1184
1185
0
0
1188
1189
0
0
0
0
0
0
0
0
1198
0
1200
0
1202
0
1204
0
0
0
0
1209
0
1211
1212
1213
0
0
1216
0
0
1219
1220
1221
0
0
0
1225
1226
1227
0
0
1230
0
1232
0
0
0
1236
0
0
1239
1240
0
0
0
0
0
0
0
0
0
0
0
0
0
0
0
0
0
0
0
0
0
0
0
0
0
0
0
0
0
0
0
0
0
1274
0
0
0
0
0
0
1281
0
0
0
0
0
0
0
0
1290
0
0
0
0
0
0
0
0
0
0
1301
0
1303
1304
0
1306
0
0
0
0
0
0
1313
0
1315
0
1317
0
0
0
0
1322
1323
0
0
1326
0
0
0
0
1331
0
0
0
0
0
0
0
0
1340
0
0
0
0
0
0
0
0
0
0
1351
0
0
0
0
1356
0
0
0
0
0
0
0
0
0
0
1367
1368
0
0
0
0
1373
0
0
0
0
0
1379
0
0
1382
0
0
1385
0
0
0
1389
1390
0
1392
0
1394
0
0
1397
0
0
0
0
0
1403
0
0
1406
0
0
0
0
0
1412
0
0
1415
0
0
0
0
0
0
0
1423
0
1425
0
1427
0
1429
0
0
0
1433
0
0
0
1437
0
0
0
0
0
1443
1444
0
0
1447
0
1449
0
1451
0
0
1454
0
1456
0
0
0
0
1461
0
0
0
1465
0
0
1468
0
0
0
0
0
0
0
0
0
0
0
0
0
1482
0
0
0
0
0
1488
0
0
0
0
0
0
0
1496
0
0
0
0
0
1502
0
0
1505
0
0
0
0
1510
0
0
0
0
0
1516
0
0
1519
0
0
0
0
0
0
0
0
0
0
1530
0
0
0
1534
1535
0
0
0
0
0
0
0
1543
0
0
1546
0
0
0
0
0
0
1553
0
0
0
0
1558
0
0
0
1562
1563
1564
0
0
0
0
1569
0
0
1572
0
0
0
0
0
0
0
0
1581
1582
0
0
0
0
1587
1588
1589
1590
0
0
0
0
0
0
0
1598
0
0
0
0
0
1604
0
0
0
0
0
1610
0
1612
1613
0
0
0
1617
0
1619
0
0
0
0
0
0
0
0
0
1629
0
0
1632
0
1634
0
0
0
0
1639
0
0
0
0
0
0
1646
0
0
0
0
0
0
0
1654
0
0
0
1658
0
0
0
0
1663
0
0
0
1667
0
1669
1670
0
0
0
0
0
0
0
1678
0
0
0
1682
0
0
0
0
0
0
0
0
0
0
0
0
1695
0
0
0
1699
0
0
0
0
1704
0
0
0
0
0
0
0
0
0
0
1715
1716
0
0
0
1720
0
0
1723
0
0
0
0
0
0
0
1731
0
0
1734
1735
0
0
0
0
0
0
0
0
0
0
0
0
1748
0
1750
0
0
0
0
0
1756
1757
0
0
0
0
1762
0
1764
0
0
0
0
0
0
0
1772
1773
0
0
1776
0
0
0
0
0
0
0
1784
0
0
0
0
0
0
0
0
0
0
0
0
1797
1798
0
0
1801
0
1803
0
0
1806
1807
1808
0
0
0
0
0
0
1815
0
0
0
1819
1820
0
0
0
0
1825
0
0
0
0
0
1831
0
0
0
0
0
0
1838
0
1840
0
0
0
1844
0
0
0
0
0
1850
0
0
0
0
0
0
0
0
1859
0
0
0
1863
0
0
1866
1867
0
0
0
1871
0
0
0
0
0
0
0
0
1880
0
0
0
0
0
0
1887
0
0
0
0
0
0
0
0
0
0
0
0
0
0
0
0
1904
1905
0
0
0
0
0
0
0
0
0
0
0
0
0
0
1920
1921
0
1923
0
1925
0
0
0
0
0
1931
0
0
0
0
0
0
0
0
0
1941
0
1943
1944
0
0
1947
0
0
0
0
0
0
0
1955
1956
1957
0
0
1960
1961
0
0
0
0
0
0
0
1969
0
0
1972
0
0
0
1976
0
0
0
0
0
0
0
1984
0
0
0
0
0
0
0
0
0
0
1995
0
0
0
1999
0
2001
0
0
0
0
2006
0
0
0
0
0
0
0
0
0
2016
2017
0
0
0
0
0
0
2024
0
2026
0
0
0
0
2031
0
0
2034
0
0
0
0
2039
0
0
0
2043
0
0
2046
2047
0
0
2050
2051
0
0
0
0
0
2057
0
0
0
0
2062
0
0
0
0
2067
0
2069
0
0
2072
0
0
0
0
0
0
0
0
0
0
0
2084
0
2086
0
0
0
2090
0
0
0
0
0
0
0
0
0
0
0
0
0
0
0
0
0
0
0
0
0
0
0
0
0
0
0
0
0
0
0
0
2123
0
0
0
0
2128
0
0
0
0
0
2134
0
0
0
0
2139
0
2141
0
0
0
0
0
0
0
0
0
2151
0
2153
0
0
2156
2157
0
0
0
0
0
0
0
0
0
0
2168
2169
2170
0
2172
0
2174
0
2176
0
0
0
0
0
2182
0
2184
0
0
0
0
2189
2190
2191
0
0
2194
0
0
0
0
0
0
2201
0
0
0
0
0
0
0
0
0
0
0
0
0
0
0
0
0
2219
0
2221
0
2223
0
0
0
0
0
0
0
0
0
0
0
0
0
2237
0
0
0
2241
0
2243
0
0
0
0
2248
0
0
0
0
2253
0
0
0
2257
2258
0
2260
0
0
2263
2264
0
0
2267
0
2269
0
0
0
0
0
0
2276
0
2278
2279
2280
0
2282
0
2284
0
0
0
0
0
0
0
0
0
0
0
0
0
2298
0
2300
0
0
0
0
2305
0
0
0
0
0
0
0
0
0
0
0
2317
2318
0
0
0
0
0
2324
2325
2326
2327
0
0
0
2331
2332
0
0
0
0
0
2338
0
2340
2341
0
0
0
2345
0
0
0
2349
0
0
0
2353
2354
2355
0
0
2358
0
0
0
2362
0
2364
0
0
0
0
0
0
2371
0
0
0
0
2376
0
0
0
0
0
0
2383
2384
0
0
0
0
0
0
0
2392
2393
0
0
0
2397
0
0
0
0
0
2403
0
0
0
0
0
0
0
0
0
2413
2414
0
0
0
0
0
0
2421
0
2423
0
0
0
2427
0
0
0
0
0
0
0
0
0
2437
0
0
2440
0
0
0
2444
0
2446
0
0
2449
0
0
0
0
0
2455
0
0
0
0
0
2461
0
2463
0
2465
0
2467
0
2469
0
0
0
2473
0
0
0
0
0
0
0
0
0
0
0
0
0
0
0
0
0
0
2492
0
0
0
2496
0
2498
0
0
0
2502
0
0
0
2506
0
0
2509
0
0
2512
2513
0
0
2516
0
0
0
0
2521
0
0
0
0
2526
0
0
0
2530
0
0
0
0
0
2536
0
0
0
0
0
2542
2543
0
2545
0
2547
0
0
0
0
2552
2553
0
0
0
2557
0
0
0
0
2562
0
2564
2565
2566
2567
0
0
0
0
0
0
0
2575
0
0
0
2579
2580
2581
0
2583
0
0
0
0
0
0
0
0
2592
0
0
2595
0
2597
0
0
2600
0
0
2603
2604
2605
0
0
0
0
0
2611
2612
0
0
2615
0
0
0
0
0
0
0
0
0
0
0
0
0
2629
2630
0
2632
0
2634
0
0
0
0
0
0
0
0
0
0
0
0
0
0
0
0
0
0
2653
0
2655
0
0
2658
0
0
0
0
0
0
0
0
0
0
0
0
2671
0
0
2674
0
2676
2677
0
0
0
0
0
0
2684
2685
0
0
2688
0
0
2691
0
2693
0
0
0
0
0
0
2700
2701
2702
2703
0
0
0
0
0
0
2710
2711
0
0
0
0
0
2717
0
0
2720
0
0
0
0
0
2726
0
0
2729
0
0
2732
0
2734
0
0
2737
2738
2739
2740
0
0
0
0
0
0
0
0
0
2750
0
0
2753
0
2755
0
0
0
0
0
0
2762
0
0
0
0
0
0
0
0
0
0
0
0
2775
2776
0
0
0
2780
0
0
0
0
0
2786
0
0
0
0
0
2792
0
0
0
0
0
2798
0
0
0
0
0
0
0
0
0
0
2809
0
0
2812
0
0
0
0
0
2818
0
2820
0
0
0
0
0
2826
0
0
0
0
0
2832
2833
0
0
2836
0
0
0
0
0
0
0
0
2845
0
0
2848
0
0
2851
0
0
0
0
0
0
0
0
0
0
0
0
0
0
0
0
0
0
0
0
0
2873
2874
2875
0
0
0
0
0
0
0
0
0
2885
0
2887
0
2889
0
0
0
0
0
2895
0
2897
0
0
2900
0
0
2903
0
0
0
0
2908
2909
2910
2911
0
0
0
0
0
0
2918
2919
0
2921
0
2923
0
2925
2926
0
0
0
0
0
0
2933
2934
2935
0
0
0
0
2940
2941
2942
2943
0
0
2946
2947
0
0
2950
0
0
0
2954
2955
0
0
0
0
0
0
0
0
2964
2965
0
0
2968
0
2970
0
0
0
0
0
2976
0
0
2979
0
0
2982
0
2984
0
0
0
2988
0
0
0
0
2993
2994
0
0
0
2998
2999
0
0
0
0
0
0
0
0
3008
0
0
0
0
0
0
0
0
0
0
0
3020
3021
0
3023
0
0
0
0
3028
3029
0
0
0
0
3034
3035
3036
0
0
0
0
0
0
6
0
0
0
0
11
0
0
0
0
0
0
0
0
0
21
0
0
24
0
0
0
0
0
0
0
0
0
0
0
0
0
38
0
0
0
0
0
0
0
0
0
0
0
50
0
52
0
0
0
0
0
58
59
60
0
0
0
0
0
0
67
0
0
0
0
0
0
74
0
0
0
0
0
0
81
0
83
0
0
0
0
0
0
0
0
0
0
0
95
0
0
98
0
0
101
0
0
0
0
106
0
108
0
0
0
0
0
0
0
0
0
0
0
0
0
122
0
0
0
0
0
0
0
0
0
0
0
134
135
136
0
0
0
0
0
0
0
0
0
0
0
0
0
0
0
0
0
0
155
0
0
0
0
0
161
162
163
164
0
166
167
168
169
170
0
172
173
174
175
176
177
178
0
180
181
182
183
184
185
186
187
188
0
190
0
0
0
0
0
0
0
0
0
0
0
0
0
0
205
0
0
0
0
0
0
0
0
0
0
0
217
0
0
0
0
0
223
0
0
0
0
0
0
230
231
0
0
0
0
0
0
0
0
0
0
0
0
0
0
0
0
0
0
0
0
252
0
254
0
0
0
0
0
0
0
0
0
0
0
0
0
268
0
0
0
272
0
0
0
0
0
0
0
0
0
0
0
0
0
0
0
0
0
0
0
0
0
0
0
0
297
0
0
0
0
0
0
0
0
0
307
0
309
0
311
0
0
0
315
316
0
0
0
0
0
0
323
0
0
0
327
328
0
330
331
332
333
334
0
336
337
338
339
340
0
342
0
344
0
0
347
0
0
350
0
352
0
0
0
0
357
0
0
360
0
0
0
0
0
0
0
0
0
0
0
0
0
0
0
376
0
0
0
0
0
0
0
384
385
386
0
0
0
0
0
0
0
394
0
396
0
0
0
0
0
0
0
404
0
0
0
0
409
410
411
0
0
0
0
0
0
0
0
420
0
0
0
0
0
0
0
0
0
0
0
0
0
0
0
0
0
0
0
440
441
0
443
0
0
0
0
0
449
0
0
0
0
0
0
0
457
458
459
460
0
0
0
0
0
0
0
0
0
0
0
0
0
474
475
0
477
0
0
0
0
0
483
0
0
486
0
0
0
0
0
0
493
0
0
0
0
0
499
0
0
0
0
0
0
0
0
0
0
0
0
512
513
0
0
0
0
0
519
0
521
522
523
0
0
0
527
528
529
530
531
532
533
534
535
536
0
538
539
0
0
0
0
0
0
0
0
0
0
0
0
0
0
0
0
0
0
558
0
0
0
562
0
0
0
0
0
0
0
0
0
0
0
0
0
0
0
0
0
0
0
0
0
0
0
0
0
0
0
0
591
0
0
0
0
596
0
0
0
0
0
0
0
0
0
0
0
0
0
610
0
0
0
0
0
0
0
0
0
0
621
0
0
0
0
0
0
0
0
0
0
0
0
0
0
0
0
0
639
640
0
0
0
0
0
0
0
0
0
0
0
0
653
0
0
0
657
0
0
0
661
0
0
0
0
0
0
0
0
0
0
672
0
0
0
0
0
0
0
680
0
0
0
0
0
0
0
0
0
0
691
0
0
694
0
0
0
698
699
0
0
0
0
0
0
0
0
0
0
0
0
0
713
0
0
0
0
0
0
720
0
722
0
0
0
726
0
0
0
0
0
0
0
0
0
736
0
0
0
0
0
0
743
0
0
746
0
748
0
0
0
0
0
0
0
0
0
0
759
0
761
762
763
764
765
0
0
0
769
770
771
772
773
774
0
0
777
0
779
0
0
0
0
0
0
0
0
788
0
790
791
0
0
0
795
0
0
0
0
0
0
0
0
804
805
0
0
0
0
0
0
0
0
0
0
0
0
0
0
0
0
0
0
824
0
0
0
828
0
0
0
0
0
0
0
836
0
0
0
0
841
0
843
0
0
0
0
848
0
0
0
0
0
0
0
0
0
0
859
0
0
0
0
0
0
0
867
0
0
0
0
0
0
0
0
876
0
0
0
0
0
0
0
0
0
0
0
0
0
0
0
0
0
0
0
896
897
0
0
0
0
0
0
0
0
0
0
0
0
0
911
0
913
0
0
0
917
0
0
0
0
0
0
0
0
0
927
0
0
930
931
0
0
934
0
0
0
0
0
0
941
0
0
0
0
0
0
0
0
0
951
0
0
954
955
956
0
0
0
960
961
962
0
964
965
0
967
968
969
970
0
972
973
974
975
976
977
0
979
0
0
0
0
984
985
0
0
0
989
990
0
992
993
0
0
0
0
998
999
1000
0
1002
0
1004
0
0
0
0
0
0
0
0
1013
0
0
0
1017
0
0
0
0
0
0
0
0
0
1027
0
0
0
0
0
0
0
1035
0
0
0
0
0
0
0
0
0
0
0
0
0
0
0
1051
1052
1053
1054
0
0
1057
0
1059
1060
0
0
1063
1064
0
0
1067
1068
1069
1070
0
1072
0
0
1075
0
1077
1078
0
0
0
1082
0
0
0
1086
0
1088
0
0
0
0
0
1094
0
0
0
0
0
0
0
0
1103
0
0
0
0
1108
0
0
1111
0
0
0
1115
0
0
0
0
0
0
0
0
1124
0
1126
0
0
0
0
0
0
0
0
0
0
0
0
0
0
1141
1142
0
0
0
0
1147
0
1149
0
1151
0
1153
1154
0
0
0
0
0
0
0
0
0
0
0
0
0
0
0
0
0
1172
1173
1174
0
1176
0
0
0
0
0
0
0
0
1185
0
1187
1188
0
0
1191
0
1193
0
1195
0
1197
0
0
1200
0
0
0
0
0
0
1207
0
0
0
1211
1212
1213
0
1215
0
1217
1218
1219
0
0
1222
1223
0
1225
0
1227
0
1229
0
0
0
0
1234
0
0
1237
0
0
0
0
0
1243
0
1245
0
0
0
0
0
0
0
0
0
0
0
0
0
0
0
0
0
0
1264
0
1266
0
0
0
0
0
1272
0
0
0
0
0
0
0
0
0
0
0
0
0
0
0
0
0
0
1291
0
0
0
0
0
0
0
0
0
0
0
1303
0
0
0
0
0
0
1310
0
0
0
0
0
0
0
1318
0
0
0
0
0
0
0
1326
0
0
0
0
0
0
0
0
1335
0
1337
1338
1339
0
0
0
0
0
1345
0
0
0
0
0
0
0
0
0
1355
0
0
0
0
1360
0
0
1363
0
0
0
0
0
0
0
0
1372
0
0
1375
0
0
1378
1379
1380
0
0
0
0
0
0
1387
0
0
1390
1391
1392
0
0
0
1396
0
0
0
1400
0
0
0
0
0
1406
1407
0
0
1410
0
0
0
0
0
0
0
0
0
0
0
0
0
0
0
0
0
0
0
0
0
0
0
1434
0
1436
0
0
0
0
1441
0
0
0
0
0
0
0
1449
1450
0
0
0
0
0
0
1457
0
0
0
0
0
0
0
1465
0
0
0
0
0
0
0
0
0
0
0
1477
0
0
0
0
0
0
0
1485
1486
0
0
0
0
0
1492
0
0
0
0
1497
0
0
0
0
0
0
0
0
0
0
1508
0
0
0
0
0
1514
0
0
0
0
0
0
0
0
1523
0
0
0
0
0
1529
0
0
1532
0
1534
0
0
1537
0
0
0
0
1542
0
0
1545
0
0
0
0
1550
0
0
0
0
0
0
0
1558
1559
1560
0
0
0
0
1565
0
0
0
1569
1570
1571
0
0
0
0
0
1577
0
1579
1580
1581
0
1583
0
0
0
0
1588
0
0
0
1592
0
0
0
0
0
0
1599
0
0
0
0
0
0
1606
1607
0
0
1610
1611
0
0
1614
1615
1616
0
0
0
1620
1621
0
1623
1624
1625
0
0
0
1629
0
0
0
0
0
0
0
0
0
0
0
0
0
0
0
0
0
0
0
1649
0
0
0
0
1654
0
0
0
0
0
0
0
0
1663
0
0
0
0
0
0
1670
0
0
0
1674
0
0
1677
0
0
1680
0
0
1683
0
1685
0
1687
0
0
0
0
0
0
0
0
0
1697
0
0
0
0
0
0
0
0
0
1707
0
0
1710
0
1712
0
0
1715
0
1717
1718
0
0
0
0
0
0
0
1726
1727
1728
0
0
0
1732
0
1734
0
0
0
0
0
0
0
0
0
0
1745
0
1747
0
0
0
0
0
0
0
0
0
1757
0
0
1760
0
0
0
1764
0
0
1767
0
0
0
0
1772
1773
0
0
1776
1777
0
0
0
0
0
0
1784
0
0
0
0
1789
0
1791
0
1793
1794
0
1796
0
0
0
0
0
0
1803
0
0
1806
1807
0
0
0
0
0
0
1814
0
0
0
0
0
0
0
0
0
0
0
0
0
0
1829
1830
0
0
1833
0
0
0
0
0
0
0
0
1842
0
0
1845
1846
0
0
0
0
0
1852
0
1854
0
1856
1857
0
0
0
0
0
0
0
1865
0
0
0
1869
0
0
0
0
0
0
0
1877
0
0
1880
0
0
1883
0
0
0
0
0
0
0
0
0
0
0
0
0
0
0
1899
0
0
0
0
1904
1905
1906
0
1908
0
0
0
0
0
0
0
0
0
0
0
0
0
0
0
1924
0
0
0
0
0
0
0
0
0
0
0
0
1937
0
0
1940
0
0
1943
0
1945
0
0
0
1949
0
0
0
0
0
0
0
0
0
0
1960
0
0
0
1964
0
0
1967
0
0
0
0
0
1973
0
0
1976
0
0
0
1980
0
0
1983
1984
0
0
0
0
0
0
0
0
0
0
0
0
0
0
1999
0
0
0
0
0
2005
2006
0
2008
0
0
0
0
0
0
0
0
0
0
0
0
0
0
0
0
2025
0
0
0
2029
0
0
0
2033
0
0
0
0
0
0
0
2041
0
0
0
0
0
0
0
0
0
0
0
0
0
0
2056
2057
0
0
0
0
2062
2063
0
0
0
0
0
2069
0
0
0
0
0
0
0
0
0
0
2080
0
0
0
0
2085
2086
0
2088
0
0
0
0
0
2094
0
2096
2097
0
0
0
0
0
0
2104
0
0
2107
0
0
0
0
2112
0
0
2115
0
0
0
0
0
2121
0
0
2124
0
0
0
2128
0
0
0
0
0
0
0
0
0
2138
0
0
0
0
2143
0
0
0
0
2148
0
2150
0
0
0
0
0
0
0
0
0
0
2161
0
0
0
0
2166
0
0
0
0
2171
0
0
2174
2175
0
0
0
0
0
0
0
0
0
0
0
0
2188
0
0
0
0
0
2194
0
0
0
0
2199
0
0
0
2203
0
0
0
0
0
2209
0
0
0
0
2214
0
0
0
0
0
0
0
2222
0
0
0
2226
0
2228
2229
0
0
0
2233
2234
0
0
0
0
0
0
0
0
0
0
0
0
0
0
0
0
0
0
0
2254
0
2256
0
2258
2259
0
0
2262
0
0
0
0
2267
0
0
2270
2271
0
0
0
2275
0
2277
2278
0
2280
2281
2282
0
0
2285
0
0
0
0
2290
0
0
2293
0
0
2296
2297
0
0
0
0
0
0
0
0
0
0
2308
2309
0
2311
2312
0
0
2315
0
2317
0
2319
0
2321
2322
2323
0
0
0
0
2328
0
2330
0
2332
0
0
0
0
0
0
0
0
0
0
0
0
2345
0
0
0
0
0
0
2352
2353
0
0
0
0
0
2359
2360
2361
0
0
2364
0
2366
0
0
0
0
0
0
0
0
2375
0
0
0
2379
0
2381
2382
2383
0
2385
0
2387
0
0
2390
0
2392
2393
0
0
2396
0
0
0
0
2401
0
2403
2404
0
0
2407
0
0
0
0
0
0
2414
2415
0
0
2418
0
2420
0
0
2423
0
0
0
0
0
0
0
0
2432
0
0
0
0
2437
0
0
0
2441
0
2443
0
2445
0
0
0
0
2450
0
2452
0
0
2455
0
0
0
2459
0
0
0
2463
2464
0
0
0
0
0
2470
2471
0
0
0
2475
2476
0
0
2479
2480
0
0
0
0
0
0
0
2488
2489
0
2491
0
0
0
2495
0
0
0
0
0
0
0
0
0
2505
2506
0
0
0
0
2511
2512
0
0
0
0
0
2518
0
2520
0
2522
0
0
0
0
0
0
2529
0
2531
0
2533
0
0
0
2537
0
2539
0
0
2542
0
0
0
0
2547
0
0
2550
2551
0
0
2554
2555
0
0
0
0
2560
0
0
0
2564
0
2566
2567
0
0
2570
0
0
0
0
2575
0
2577
0
0
2580
0
0
0
0
2585
0
0
0
0
0
0
0
0
0
0
2596
2597
0
0
0
0
0
0
0
0
0
2607
0
0
0
0
2612
0
2614
0
0
2617
0
0
2620
0
0
0
0
2625
0
0
0
0
0
0
2632
0
0
2635
0
0
2638
0
0
0
0
0
2644
2645
0
0
0
0
2650
0
2652
0
2654
0
0
0
0
0
0
0
0
0
0
0
2666
0
2668
0
2670
0
0
0
0
0
2676
0
0
0
0
0
0
0
2684
0
2686
0
0
2689
0
0
0
0
0
0
0
2697
0
0
2700
2701
0
2703
0
2705
2706
2707
2708
0
0
2711
0
2713
0
0
0
0
2718
0
0
0
0
0
0
0
0
0
0
2729
0
0
2732
2733
0
0
0
0
0
0
0
0
2742
0
2744
0
2746
2747
0
2749
0
0
2752
0
0
0
0
0
2758
2759
0
0
0
0
0
2765
0
0
0
0
0
0
2772
0
0
0
0
2777
0
2779
0
2781
0
0
2784
0
0
0
0
0
0
0
0
0
2794
0
0
0
0
0
2800
2801
0
0
0
2805
0
0
2808
0
0
0
0
0
0
0
0
0
0
2819
0
0
0
0
2824
0
2826
0
0
2829
0
2831
2832
2833
2834
2835
0
0
0
0
0
0
2842
0
0
0
2846
0
2848
2849
0
0
0
0
0
0
0
0
0
2859
2860
2861
0
0
2864
2865
0
2867
2868
0
0
2871
0
2873
0
0
2876
2877
0
0
0
2881
2882
0
0
0
2886
0
0
0
0
0
0
2893
2894
0
0
0
0
0
2900
0
0
0
0
0
0
0
0
0
0
0
2912
2913
0
0
0
0
2918
0
2920
2921
0
2923
0
0
2926
0
0
0
0
0
0
2933
0
0
0
0
2938
0
0
0
0
2943
0
2945
2946
0
0
2949
2950
0
0
2953
0
0
0
2957
2958
2959
0
0
0
0
0
0
0
0
0
0
0
2971
0
0
0
0
0
0
2978
0
0
0
0
2983
0
0
0
0
0
2989
0
0
2992
0
0
0
0
0
2998
0
0
3001
3002
3003
0
0
3006
3007
3008
0
0
0
0
0
0
0
0
0
0
0
0
3021
0
0
0
0
0
0
0
3029
0
0
0
0
0
0
0
0
0
EOF
