DIMENSION : 3038
NUMBER OF ITEMS : 15185

TOUR_SECTION
1
2
12
13
3
4
14
15
5
6
16
17
7
8
18
19
9
10
20
21
31
32
22
23
24
25
26
27
28
29
30
40
39
38
37
36
68
35
34
33
137
189
190
191
192
193
194
195
196
211
212
210
209
208
207
199
206
205
204
203
202
364
349
201
198
200
348
363
362
361
360
359
358
357
368
367
366
365
356
355
354
353
565
352
351
350
346
545
544
546
542
543
557
558
569
568
567
566
564
563
560
561
562
559
552
551
550
556
555
549
548
547
541
540
778
779
780
781
782
783
784
785
786
787
570
554
553
571
572
573
371
370
374
375
376
377
378
382
379
380
381
392
398
397
396
393
394
401
402
403
404
405
406
407
408
409
411
410
412
413
414
415
416
417
418
419
420
421
395
399
239
238
237
236
432
400
384
385
386
387
388
389
383
390
391
373
372
369
214
213
228
229
230
231
232
227
233
234
235
226
225
222
221
220
219
224
218
223
217
216
215
44
45
43
41
42
46
58
59
47
48
49
60
61
50
51
52
62
63
53
54
64
65
55
56
57
67
66
138
240
241
252
253
242
243
139
244
245
246
140
84
83
82
81
80
79
69
70
71
72
73
74
75
85
86
76
77
78
88
87
251
250
249
248
247
254
255
262
261
260
259
258
257
256
431
430
429
428
427
426
425
263
264
424
423
422
265
266
267
268
269
270
271
272
273
141
274
275
285
142
143
144
107
106
105
104
103
102
101
100
99
89
90
91
112
92
93
94
95
96
97
108
98
109
110
111
114
113
300
302
292
291
290
289
288
287
286
284
276
277
278
279
280
281
282
283
441
449
440
448
447
446
445
444
443
442
439
438
437
436
435
434
433
661
662
663
664
665
666
667
668
669
670
671
672
673
674
675
450
451
458
452
453
454
455
456
715
716
712
711
713
714
457
460
462
463
464
459
465
466
467
468
293
294
295
296
297
298
299
461
489
486
488
487
306
304
303
301
115
116
117
118
120
119
146
145
305
313
314
315
307
308
316
317
318
319
320
321
322
323
324
312
311
310
309
150
149
148
147
121
122
123
124
151
152
153
125
126
127
154
155
128
129
130
131
156
133
132
157
158
159
160
514
513
512
747
745
744
743
742
741
736
740
739
738
737
490
491
492
493
494
495
746
496
497
498
499
500
501
502
503
504
505
506
507
508
509
510
511
479
478
480
481
482
483
484
485
476
477
469
470
471
472
473
474
475
703
704
705
706
707
708
709
710
702
701
699
698
697
696
695
694
693
692
691
690
734
733
732
731
735
730
729
728
727
726
725
724
723
722
721
720
719
717
718
902
903
904
905
906
907
908
909
911
912
910
913
939
940
941
935
924
748
749
750
751
752
753
754
755
515
758
757
756
933
934
931
938
948
947
949
946
937
930
929
932
928
927
926
925
936
942
943
944
945
950
1170
1169
1168
1167
1166
1165
1164
1163
1162
1171
1363
1172
1173
1174
1175
1176
1177
1178
1179
1180
1360
1359
1358
1357
1356
1355
1354
1348
1347
1353
1352
1351
1361
1362
1350
1349
1338
1339
1340
1341
1342
1343
1344
1345
1346
1893
1892
1902
1903
1904
1916
1915
1914
1905
1901
1900
1891
1899
1898
1897
1896
1895
1894
1889
1890
1337
1336
1319
1318
1317
1316
1315
1314
1313
1311
1312
1310
1309
1297
1296
1295
1294
1293
1291
1292
1290
1289
1288
1283
1300
1299
1301
1302
1303
1298
1304
1305
1306
1307
1308
1320
1322
1321
1323
1324
1325
1326
1327
1328
1329
1330
1331
1332
1333
1334
1335
1161
1160
1159
1158
1157
1156
1155
1149
1154
1153
1152
1151
1150
1148
1140
1141
1142
1143
1144
1145
1046
1146
1147
1047
914
915
916
917
918
919
920
921
901
922
1045
899
898
897
896
895
894
893
892
1044
1119
1120
1121
1122
1123
1124
1125
1126
1131
1139
1130
1138
1129
1137
1136
1135
1128
1134
1127
1133
1132
1116
1117
1118
1287
1286
1285
1284
1282
1826
1281
1267
1266
1265
1264
1263
1262
1261
1268
1269
1274
1275
1276
1277
1278
1279
1280
1114
1102
1113
1112
1111
1110
1109
1108
1107
1106
1101
1105
1104
1103
1257
1273
1271
1272
1270
1258
1259
1260
1819
1818
1817
1828
1816
1815
1827
1814
1813
1799
1772
1773
1774
1775
1776
1777
1778
1779
1800
1801
1920
1921
1922
1923
1936
1935
1934
1933
2019
2020
2021
2022
1938
1937
1924
1925
1917
1834
1829
1820
1821
1822
1830
1823
1824
1825
1833
1832
1831
1835
1928
1927
1919
1918
1926
1939
1940
1941
1942
1929
1930
1943
1944
1931
1932
1946
1945
1947
2024
1949
1948
1951
1952
1953
1950
1954
1955
1956
1957
1958
1960
1969
1968
1967
1966
1959
1965
1961
1964
1963
1962
2026
2025
2064
2062
2065
2027
2066
2067
2068
2069
2070
2071
2082
2030
2028
2029
2083
2084
2085
2086
2087
2088
2089
2090
2099
2098
2032
2031
1989
1988
1987
1986
1981
1985
1984
1983
1982
1979
1980
1971
1972
1886
1973
1974
1975
1976
1977
1978
1876
1877
1879
1878
1880
1888
1887
1881
1885
1882
1883
1884
1864
1970
1861
1862
1853
1854
1855
1856
1857
1858
1859
1860
1842
1841
1836
1840
1838
1837
1839
1843
1844
1845
1846
1847
1848
1849
1850
1851
1852
1863
1865
1866
1867
1868
1869
1870
1871
1872
1873
1874
1875
1907
1908
1906
1909
1990
1991
1910
1911
1912
1913
1993
1992
2000
1999
1998
1997
1996
1995
1994
2004
2007
2008
2009
2010
2011
2012
2013
2014
2005
2001
2002
2003
2006
2016
2015
2108
2109
2114
2113
2112
2107
2106
2111
2105
2110
2104
2103
2102
2101
2100
2115
2116
2117
2118
2119
2120
2121
2124
2122
2123
2125
2231
2230
2229
2228
2227
2149
2226
2225
2224
2147
2148
2146
2145
2144
2222
2242
2243
2244
2223
2245
2246
2247
2248
2249
2250
2251
2252
2259
2765
2764
2763
2767
2766
2762
2761
2760
2759
2758
2757
2258
2756
2770
2771
2772
2773
2774
2789
2790
2775
2776
2791
2777
2778
2779
2768
2769
2780
2793
2792
2814
2813
2812
2811
2810
2809
2808
2818
2807
2788
2806
2787
2786
2805
2804
2816
2831
2833
2834
2832
2817
2835
2836
2837
2838
2839
2819
2840
2841
2844
2842
2843
2845
3001
3013
3038
3037
3033
3032
3031
3012
3011
3000
2999
2998
2997
3009
3010
3029
3030
3028
3027
3008
3007
2996
2995
2994
3003
3004
3005
3006
3025
3026
3024
3023
3002
2993
2992
2991
3021
3022
3020
3018
2990
2989
2829
2830
2826
2825
2828
2824
2823
2827
2822
2821
2820
2981
2983
3014
3015
2984
2982
2985
2986
2987
2988
3017
3016
3019
3036
3035
2938
2937
2915
2916
2893
2894
2869
2868
2867
2892
2891
2866
2865
2890
2913
2914
2936
2935
2956
2957
2958
2979
2978
2977
2976
2975
2974
2953
2954
2955
2934
2912
2889
2864
2863
2862
2888
2887
2910
2911
2933
2932
2931
2952
2973
2972
2951
2930
2908
2909
2886
2861
2860
2885
2884
2907
2929
2950
2971
2970
2969
2968
2967
2966
2945
2944
2965
2964
2963
2962
2961
2960
2939
2918
2896
2901
2897
2919
2940
2941
2920
2898
2876
2875
2874
2873
2851
2847
2852
2853
2854
2855
2877
2899
2921
2942
2943
2922
2900
2980
2923
2924
2902
2879
2878
2856
2857
2858
2880
2881
2903
2904
2926
2925
2946
2947
2948
2949
2928
2927
2905
2906
2883
2882
2849
2859
2848
2704
2703
2702
2689
2690
2691
2681
2680
2679
2678
2688
2701
2700
2687
2699
2686
2685
2698
2697
2684
2683
2696
2695
2682
2672
2673
2636
2674
2675
2637
2676
2677
2640
2638
2639
2641
2642
2643
2644
2645
2646
2647
2648
2666
2665
2664
2649
2650
2663
2662
2661
2660
2659
2658
2657
2656
2655
2654
2653
2652
2651
2710
2723
2721
2719
2717
2715
2709
2708
2707
2706
2705
2712
2713
2714
2716
2718
2720
2722
2724
2726
2725
2727
2728
2730
2729
2731
2732
2734
2733
2711
2782
2794
2795
2796
2797
2798
2783
2799
2800
2784
2801
2802
2815
2803
2785
2755
2754
2753
2752
2751
2745
2750
2749
2748
2747
2746
2781
2667
2214
2735
2736
2253
2737
2738
2739
2740
2741
2256
2742
2743
2744
2257
2241
2240
2239
2238
2237
2255
2254
2236
2235
2234
2233
2232
2213
2201
2211
2210
2200
2191
2199
2209
2208
2207
2198
2197
2188
2196
2206
2205
2204
2203
2202
2192
2193
2194
2195
2189
2190
2179
2180
2137
2181
2182
2183
2187
2184
2185
2186
2139
2212
2215
2216
2217
2218
2219
2220
2221
2143
2097
2096
2142
2141
2095
2094
2093
2092
2091
2081
2140
2080
2072
2073
2074
2075
2138
2076
2077
2078
2079
2063
2061
2136
2135
2134
2059
2060
2046
2045
2044
2058
2057
2043
2042
2056
2055
2041
2023
2040
2054
2053
2039
2038
2052
2051
2037
2036
2035
2034
2018
2017
2033
2047
2048
2049
2050
2131
2133
2132
2130
2129
2128
2127
1808
1807
1787
1786
1806
1805
1785
1784
1783
1804
1803
1782
1781
1802
1780
1741
1742
1743
1744
1745
1746
1747
1748
1750
1749
1788
1789
1790
1809
1791
1810
1792
1755
1757
1756
1758
1759
1763
1762
1761
1760
1754
1753
1752
1751
1708
1709
1710
1711
1712
1713
1714
1673
1671
1672
1670
1669
1668
1667
1666
1665
1664
1663
2397
1632
1631
1621
1622
1625
1623
1624
1620
1619
1618
1617
1616
1615
1626
1589
1588
1590
1591
1602
1601
1600
1592
1593
1594
1596
1595
1599
1598
1597
1628
1629
1630
1662
1651
1661
1660
1659
1658
1652
1653
1657
1656
1655
1654
1640
1639
1638
1637
1636
1635
1634
1633
1627
1650
1649
1648
1647
1646
1645
1644
1643
1641
1642
1682
1707
1706
2437
1705
1704
1703
1702
1681
1680
1701
1700
1699
1698
1697
1696
1740
1695
1694
1693
1692
1691
1690
1729
1730
1731
1733
1736
1737
1738
1739
1735
1734
1732
1727
1728
1771
1798
1770
1769
1723
1768
1797
1767
1766
1765
1099
1100
1084
1085
1086
1087
1088
1089
1090
1091
1092
1093
1094
1096
1095
1097
1098
1115
1043
1042
880
881
882
883
884
885
886
887
888
889
890
891
900
923
689
688
687
686
685
684
683
682
681
679
678
700
655
677
680
676
645
646
647
643
642
641
857
640
639
649
650
648
652
651
653
654
644
635
634
854
855
636
637
638
856
863
862
861
860
859
853
858
1024
869
870
871
872
873
1025
1026
874
864
865
866
867
868
879
878
877
876
875
1027
1028
1029
1030
1041
1040
1039
1038
1037
1036
1035
1034
1033
1032
1031
1023
1022
1021
1020
1019
1018
1017
1012
1011
846
847
848
849
1013
850
852
838
842
841
633
659
658
656
657
660
629
630
631
632
616
617
626
618
619
620
621
622
623
624
625
627
628
604
605
606
607
608
609
610
611
612
613
614
615
840
839
837
836
835
834
833
832
831
830
829
843
844
845
1010
1016
1015
1014
1674
1675
1683
1684
1676
1677
1678
1687
1724
1686
1685
1721
1718
1715
1716
1717
1719
1720
1722
1726
1725
1688
1689
1679
1251
1250
1009
1008
1007
1006
1004
1005
1003
1002
1001
1000
999
998
997
996
982
983
984
985
986
987
988
995
989
990
991
992
824
993
994
825
826
827
828
851
809
808
807
583
584
585
586
592
593
594
595
597
596
598
599
600
601
602
603
591
590
589
588
587
582
581
580
579
578
577
576
574
575
798
823
799
800
801
802
803
804
805
806
810
811
812
813
814
815
816
817
822
818
819
820
797
821
980
981
978
979
796
788
795
794
793
792
789
791
790
969
970
971
972
973
975
974
976
977
1075
1074
1073
1071
1072
1070
1069
1068
1067
1076
1077
1078
1079
1080
1081
1082
1220
1083
1216
1217
1218
1219
1221
1222
1223
1224
1225
1226
1227
1204
1201
1205
1206
1207
1202
1203
1208
1209
1210
1211
1212
1213
1214
1215
1435
1228
1229
1230
1231
1232
1233
1234
1240
1245
1244
1243
1242
1256
1255
1254
1253
1246
1252
1247
1248
1249
1241
1235
1236
1237
1238
1239
1443
1442
1441
1440
1439
1438
1437
1436
1434
1430
1433
1432
1418
1417
1415
1414
1416
1413
1412
1411
1410
1409
1408
1407
1402
1401
1393
1394
1395
1493
1396
1397
1398
1399
1400
1494
1495
1503
1502
1501
1500
1530
1531
1419
1420
1429
1421
1422
1423
1431
1424
1425
1426
1428
1427
1541
1540
1539
1538
1537
1536
1535
1534
1532
1533
1529
1528
1525
1524
1523
1522
1521
1520
1517
1519
1518
1515
1514
1513
1516
1512
1511
1510
1509
1508
1507
1506
1505
1504
1526
1527
1499
1498
1497
1496
1477
1476
1475
1474
1473
1480
1479
1478
1491
1490
1489
1488
1487
1483
1486
1492
1485
1484
1466
1467
1392
1403
1406
1405
1404
1463
1462
1461
1465
1464
1609
1468
1482
1469
1470
1481
1471
1472
1604
1603
1605
1606
1607
1608
1565
1562
1561
1560
1559
1558
1557
1552
1546
1547
1548
1549
1550
1551
1564
1578
1611
1612
1614
1613
2330
2356
2357
2355
2358
2359
2360
2361
2362
2398
2400
2402
2364
2365
2366
2367
2372
2371
2368
2369
2370
2334
2333
2335
2338
2339
2342
2343
2344
2340
2341
2337
2380
2379
2378
2377
2376
2373
2375
2374
2403
2405
2496
2408
2524
2527
2525
2526
2517
2528
2529
2530
2531
2532
2533
2534
2556
2557
2535
2536
2558
2559
2560
2537
2538
2561
2580
2583
2581
2582
2627
2584
2565
2564
2563
2562
2539
2540
2541
2542
2543
2544
2545
2546
2523
2514
2515
2494
2474
2493
2492
2513
2512
2491
2490
2511
2510
2489
2488
2509
2508
2487
2486
2507
2522
2521
2520
2519
2505
2506
2485
2484
2483
2504
2518
2503
2482
2481
2502
2501
2500
2499
2498
2497
2476
2477
2478
2479
2480
2472
2471
2470
2450
2451
2452
2363
2453
2454
2455
2456
2435
2434
2433
2432
2431
2430
2429
2428
2449
2448
2469
2447
2401
2399
2426
2427
2416
2417
2418
2419
2420
2421
2422
2423
2424
2425
2436
2457
2458
2473
2459
2438
2439
2460
2461
2440
2441
2462
2463
2442
2443
2464
2465
2444
1764
2445
2466
2467
2468
2446
1796
1795
1812
1794
1793
1811
2126
2150
2151
2152
2153
2154
2155
2156
2157
2158
2159
2160
2161
2162
2163
2164
2178
2177
2176
2175
2174
2173
2172
2171
2170
2169
2632
2631
2630
2168
2167
2166
2165
2628
2629
2633
2634
2635
2671
2670
2669
2668
2475
2495
2516
2692
2693
2694
2846
2850
2872
2895
2871
2870
2917
3034
2959
2625
2624
2604
2603
2623
2622
2602
2601
2621
2620
2600
2599
2619
2618
2617
2616
2596
2597
2598
2579
2578
2577
2576
2595
2615
2614
2613
2593
2594
2575
2574
2555
2554
2553
2572
2626
2592
2612
2611
2591
2590
2610
2609
2608
2607
2587
2586
2606
2605
2585
2566
2567
2568
2569
2588
2589
2570
2573
2571
2552
2551
2550
2549
2548
2547
2410
2409
2407
2406
2404
2388
2387
2386
2385
2384
2383
2382
2381
2389
2390
2391
2392
2393
2394
2395
2396
2411
2412
2413
2414
2354
2353
2352
2351
2350
2347
2345
2346
2348
2349
2324
2323
2322
2326
2321
2327
2328
2325
2320
2318
2317
2319
2415
2316
2315
2299
2298
2297
2300
2313
2314
2312
2301
2302
2311
2310
2303
2296
2304
2305
2309
2308
2307
2306
2295
2294
2286
2285
2293
2292
2284
2283
2291
2290
2282
2281
2289
2288
2280
2287
2279
2260
2262
2263
2269
2264
2265
2266
2261
2267
2268
2278
2336
2332
2331
2329
2277
2276
1610
2275
2274
2273
2272
2271
2270
1566
1567
1577
1568
1569
1576
1570
1571
1572
1573
1574
1575
1579
1581
1580
1582
1583
1585
1586
1584
1587
1542
1543
1545
1544
1553
1554
1555
1556
1563
1446
1447
1448
1449
1450
1451
1460
1459
1458
1457
1456
1455
1452
1445
1444
1453
1454
1364
1365
1366
1367
1368
1369
1370
1371
1372
1373
1374
1375
1376
1384
1390
1391
1187
1186
1188
1189
1190
1185
1184
1183
1387
1388
1389
1383
1382
1381
1380
1379
1378
1377
1385
1386
1182
1181
1191
1192
1193
1194
1195
1196
1197
1198
1199
1200
1065
1064
1063
1058
1057
1062
1061
1060
1059
1048
1049
961
962
1050
1052
1053
1051
1054
1055
1056
965
1066
966
967
968
953
960
959
958
952
957
964
963
956
955
954
951
770
771
772
773
768
774
775
776
777
769
767
766
765
760
764
763
762
761
759
516
517
518
519
523
520
521
522
527
528
529
530
532
533
535
534
536
537
526
524
525
538
539
325
326
327
335
334
328
329
330
531
331
332
345
347
333
338
185
340
339
341
342
343
336
337
344
183
184
173
174
175
176
179
177
181
178
182
180
186
197
188
187
172
171
170
169
168
136
167
166
135
165
164
161
163
134
162
11

PP_SECTION
2
3
4
5
0
0
0
9
10
11
0
0
0
0
0
0
0
19
20
21
22
0
0
0
0
0
0
0
0
0
0
0
34
35
36
37
0
0
0
0
0
0
44
45
46
47
48
49
50
51
52
0
0
0
0
57
58
59
60
61
62
63
64
65
66
67
68
69
0
0
0
0
0
0
0
0
0
0
0
0
0
0
0
85
86
87
88
89
90
91
92
0
0
0
0
0
0
0
100
101
102
103
104
105
0
107
108
109
0
0
0
0
0
0
0
117
118
119
120
0
122
123
124
125
126
127
128
129
0
131
0
0
134
135
136
0
0
0
140
141
142
143
144
145
0
0
0
0
150
151
152
153
0
0
0
0
158
159
160
161
162
163
164
165
166
167
168
169
170
171
172
173
174
175
176
177
178
179
180
181
182
183
184
185
186
187
188
0
0
0
0
0
0
0
0
197
0
0
0
0
0
0
0
0
0
0
0
0
0
211
212
213
214
215
216
217
0
0
0
221
222
223
224
225
226
0
0
0
0
0
0
0
0
0
0
0
0
0
0
0
0
0
0
0
0
0
0
249
250
251
0
0
0
0
256
257
258
0
0
0
0
0
0
0
0
0
0
0
0
0
0
0
0
0
0
0
0
0
280
281
282
0
0
0
0
0
0
289
290
291
292
0
0
0
296
297
298
299
300
301
302
303
304
305
306
307
0
0
0
0
312
313
314
315
316
317
318
319
320
321
322
323
324
325
326
327
328
329
330
331
332
333
334
335
336
337
338
339
340
341
342
343
344
345
0
347
0
0
0
0
0
0
0
0
0
0
0
0
0
0
0
0
0
365
366
367
368
369
370
0
0
0
0
0
0
0
0
0
0
0
0
0
0
385
386
387
0
0
0
0
0
0
0
0
396
397
398
399
400
401
402
403
404
0
0
407
408
0
0
0
412
413
414
415
416
417
418
419
0
0
0
0
0
0
0
427
428
0
0
0
0
433
434
435
436
437
438
439
440
441
0
0
0
0
0
0
0
0
0
0
0
0
0
0
0
0
0
0
0
461
462
463
464
465
466
467
0
0
0
0
0
0
474
475
476
0
0
0
480
0
0
0
484
485
486
487
0
0
0
0
0
0
0
495
496
497
498
0
0
0
0
503
504
505
0
507
508
509
510
511
512
513
514
0
516
517
518
519
520
521
522
523
524
525
526
527
528
529
530
531
532
533
534
535
536
537
538
539
540
541
0
0
0
0
0
0
0
0
0
0
0
0
0
0
0
0
0
0
0
0
562
563
564
0
0
0
0
0
570
571
572
0
574
575
576
577
578
579
580
581
582
583
584
585
586
587
588
589
590
591
592
593
594
595
596
597
598
599
600
601
602
603
604
605
606
607
608
609
610
611
612
613
614
615
616
617
618
619
620
621
622
623
624
625
626
627
628
629
630
631
632
633
634
635
636
637
638
639
640
641
642
643
644
645
646
647
648
649
650
651
652
653
654
655
656
657
658
659
660
0
662
663
664
665
666
667
0
0
0
0
0
0
0
0
676
677
678
679
680
681
682
683
684
685
686
687
688
689
0
0
0
0
0
0
0
0
0
699
700
701
702
0
0
0
0
0
708
0
0
711
712
713
714
715
716
0
0
0
0
721
722
723
724
725
726
0
728
729
730
731
732
733
734
735
736
737
738
739
740
0
742
743
744
745
0
0
748
749
750
0
0
753
754
755
756
757
0
759
760
761
762
763
764
765
766
767
768
769
770
771
772
773
774
775
776
777
0
0
780
781
782
783
0
0
0
0
788
789
790
791
792
793
794
795
796
797
798
799
800
801
802
803
804
805
806
807
808
809
810
811
812
813
814
815
816
817
818
819
820
821
822
823
824
825
826
827
828
829
830
831
832
833
834
835
836
837
838
839
840
841
842
843
844
845
846
847
848
849
850
851
852
853
854
855
856
857
858
859
860
861
862
863
864
865
866
867
868
869
870
871
872
873
874
875
876
877
878
879
880
881
882
883
884
885
886
887
888
889
890
891
0
0
0
0
0
897
898
899
900
0
902
903
904
905
906
907
908
909
0
0
0
0
0
0
0
917
918
919
920
921
922
923
0
925
926
927
928
929
930
931
932
933
934
935
936
0
0
0
0
0
0
943
944
945
946
0
0
0
0
951
952
953
954
955
956
957
958
959
960
961
962
963
964
965
966
967
968
969
970
971
972
973
974
975
976
977
978
979
980
981
982
983
984
985
986
987
988
989
990
991
992
993
994
995
996
997
998
999
1000
1001
1002
1003
1004
1005
1006
1007
1008
1009
1010
1011
1012
1013
1014
1015
1016
1017
1018
1019
1020
1021
1022
1023
1024
1025
1026
1027
1028
1029
1030
1031
1032
1033
1034
1035
1036
1037
1038
1039
1040
1041
1042
1043
1044
1045
0
0
1048
1049
1050
1051
1052
1053
1054
1055
1056
1057
1058
1059
1060
1061
1062
1063
1064
1065
1066
1067
1068
1069
1070
1071
1072
1073
1074
1075
1076
1077
1078
1079
1080
1081
1082
1083
1084
1085
1086
1087
1088
1089
1090
1091
1092
1093
1094
1095
1096
1097
1098
1099
1100
1101
1102
1103
0
0
0
1107
1108
1109
1110
1111
1112
1113
1114
1115
1116
1117
1118
1119
1120
1121
0
0
0
0
0
0
0
0
0
0
0
0
0
0
0
0
0
0
1140
1141
1142
1143
1144
1145
1146
1147
1148
1149
1150
1151
1152
1153
1154
1155
1156
1157
1158
1159
0
0
0
1163
1164
0
0
0
1168
1169
0
0
0
0
0
0
1176
1177
1178
1179
1180
1181
1182
1183
1184
1185
1186
1187
1188
1189
1190
1191
1192
1193
1194
1195
1196
1197
1198
1199
1200
1201
1202
1203
1204
1205
1206
1207
1208
1209
1210
1211
1212
1213
1214
1215
1216
1217
1218
1219
1220
1221
1222
1223
1224
1225
1226
1227
1228
1229
1230
1231
1232
1233
1234
1235
1236
1237
1238
1239
1240
1241
1242
1243
1244
1245
1246
1247
1248
1249
1250
1251
1252
1253
1254
1255
1256
1257
1258
1259
0
0
1262
1263
1264
1265
1266
1267
1268
1269
1270
0
1272
0
1274
1275
1276
1277
1278
1279
1280
1281
1282
0
1284
1285
1286
1287
1288
0
0
0
0
0
0
0
0
0
0
0
0
0
1302
1303
1304
1305
1306
1307
1308
1309
1310
0
0
0
0
0
0
0
0
0
0
0
0
0
1324
1325
1326
1327
1328
1329
1330
1331
1332
1333
1334
1335
1336
1337
1338
1339
1340
1341
1342
1343
1344
1345
1346
1347
1348
0
0
0
1352
1353
1354
1355
0
0
0
0
1360
1361
1362
1363
1364
1365
1366
1367
1368
1369
1370
1371
1372
1373
1374
1375
1376
1377
1378
1379
1380
1381
1382
1383
1384
1385
1386
1387
1388
1389
1390
1391
1392
1393
1394
1395
1396
1397
1398
1399
1400
1401
1402
1403
1404
1405
1406
1407
1408
1409
1410
1411
1412
1413
1414
1415
1416
1417
1418
1419
1420
1421
1422
1423
1424
1425
1426
1427
1428
1429
1430
1431
1432
1433
1434
1435
1436
1437
1438
1439
1440
1441
1442
1443
1444
1445
1446
1447
1448
1449
1450
1451
1452
1453
1454
1455
1456
1457
1458
1459
1460
1461
1462
1463
1464
1465
1466
1467
1468
1469
1470
1471
1472
1473
1474
1475
1476
1477
1478
1479
1480
1481
1482
1483
1484
1485
1486
1487
1488
1489
1490
1491
1492
1493
1494
1495
1496
1497
1498
1499
1500
1501
1502
1503
1504
1505
1506
1507
1508
1509
1510
1511
1512
1513
1514
1515
1516
1517
1518
1519
1520
1521
1522
1523
1524
1525
1526
1527
1528
1529
1530
1531
1532
1533
1534
1535
1536
1537
1538
1539
1540
1541
1542
1543
1544
1545
1546
1547
1548
1549
1550
1551
1552
1553
1554
1555
1556
1557
1558
1559
1560
1561
1562
1563
1564
1565
1566
1567
1568
1569
1570
1571
1572
1573
1574
1575
1576
1577
1578
1579
1580
1581
1582
1583
1584
1585
1586
1587
1588
1589
1590
1591
1592
1593
1594
1595
1596
1597
1598
1599
1600
1601
1602
1603
1604
1605
1606
1607
1608
1609
1610
1611
1612
1613
1614
1615
1616
1617
1618
1619
1620
1621
1622
1623
1624
1625
1626
1627
1628
1629
1630
1631
1632
1633
1634
1635
1636
1637
1638
1639
1640
1641
1642
1643
1644
1645
1646
1647
1648
1649
1650
1651
1652
1653
1654
1655
1656
1657
1658
1659
1660
1661
1662
1663
1664
1665
1666
1667
1668
1669
1670
1671
1672
1673
1674
1675
1676
1677
1678
1679
1680
1681
1682
1683
1684
1685
1686
1687
1688
1689
1690
1691
1692
1693
1694
1695
1696
1697
1698
1699
1700
1701
1702
1703
1704
1705
1706
1707
1708
1709
1710
1711
1712
1713
1714
1715
1716
1717
1718
1719
1720
1721
1722
1723
1724
1725
1726
1727
1728
1729
1730
1731
1732
1733
1734
1735
1736
1737
1738
1739
1740
1741
1742
1743
1744
1745
1746
1747
1748
1749
1750
1751
1752
1753
1754
1755
1756
1757
1758
1759
1760
1761
1762
1763
1764
1765
1766
1767
1768
1769
1770
1771
0
0
0
1775
1776
1777
1778
1779
1780
1781
1782
1783
1784
1785
1786
1787
1788
1789
1790
1791
1792
1793
1794
1795
1796
1797
1798
1799
1800
0
1802
1803
1804
1805
1806
1807
1808
1809
1810
1811
1812
1813
0
0
0
0
0
0
0
0
1822
1823
1824
1825
1826
1827
1828
1829
0
0
0
0
1834
1835
1836
1837
1838
1839
1840
1841
1842
1843
1844
1845
0
0
1848
0
1850
1851
1852
1853
1854
1855
1856
1857
1858
1859
1860
1861
1862
1863
1864
1865
1866
1867
0
0
0
1871
1872
1873
0
0
0
1877
1878
1879
1880
1881
0
0
0
0
0
1887
1888
0
1890
1891
1892
1893
1894
0
0
0
0
0
0
0
0
0
1904
1905
1906
1907
1908
1909
1910
1911
1912
1913
0
0
0
1917
1918
1919
0
0
0
0
0
0
1926
1927
1928
1929
1930
1931
0
0
1934
1935
1936
1937
1938
1939
1940
1941
1942
1943
1944
1945
1946
1947
1948
1949
1950
1951
1952
1953
1954
1955
1956
1957
1958
1959
1960
1961
1962
0
0
0
0
0
0
0
1970
1971
1972
0
1974
1975
1976
1977
1978
1979
1980
1981
1982
1983
1984
1985
1986
0
0
0
0
1991
1992
1993
1994
1995
1996
1997
1998
1999
2000
2001
2002
2003
2004
2005
2006
2007
2008
2009
2010
0
0
0
0
2015
2016
2017
2018
2019
2020
0
0
2023
0
0
0
0
2028
2029
2030
2031
2032
2033
2034
2035
2036
2037
2038
2039
2040
2041
2042
2043
2044
2045
2046
2047
2048
2049
2050
2051
2052
2053
2054
2055
2056
2057
2058
2059
2060
2061
2062
2063
0
0
0
2067
2068
2069
2070
2071
2072
2073
2074
2075
2076
2077
2078
2079
2080
2081
2082
2083
2084
2085
2086
2087
2088
2089
2090
2091
2092
2093
2094
2095
2096
2097
2098
2099
2100
2101
2102
2103
2104
0
0
2107
0
2109
2110
2111
2112
2113
2114
2115
2116
2117
2118
2119
2120
2121
0
0
0
0
2126
2127
2128
2129
2130
2131
2132
2133
2134
2135
2136
2137
2138
2139
2140
2141
2142
2143
2144
2145
2146
2147
2148
2149
2150
2151
2152
2153
2154
2155
2156
2157
2158
2159
2160
2161
2162
2163
2164
2165
2166
2167
2168
2169
2170
2171
2172
2173
2174
2175
2176
2177
2178
2179
2180
2181
2182
2183
2184
2185
2186
2187
2188
2189
2190
2191
2192
2193
2194
2195
2196
2197
2198
2199
2200
2201
2202
2203
2204
2205
2206
2207
2208
2209
2210
2211
2212
2213
2214
2215
2216
2217
2218
2219
2220
2221
2222
2223
2224
2225
2226
2227
0
0
0
2231
2232
2233
2234
2235
2236
2237
2238
2239
2240
2241
2242
2243
2244
2245
2246
2247
2248
2249
2250
2251
2252
2253
2254
2255
2256
2257
0
0
2260
2261
2262
2263
2264
2265
2266
2267
2268
2269
2270
2271
2272
2273
2274
2275
2276
2277
2278
2279
2280
2281
2282
2283
2284
2285
2286
2287
2288
2289
2290
2291
2292
2293
2294
2295
2296
2297
2298
2299
2300
2301
2302
2303
2304
2305
2306
2307
2308
2309
2310
2311
2312
2313
2314
2315
2316
2317
2318
2319
2320
2321
2322
2323
2324
2325
2326
2327
2328
2329
2330
2331
2332
2333
2334
2335
2336
2337
2338
2339
2340
2341
2342
2343
2344
2345
2346
2347
2348
2349
2350
2351
2352
2353
2354
2355
2356
2357
2358
2359
2360
2361
2362
2363
2364
2365
2366
2367
2368
2369
2370
2371
2372
2373
2374
2375
2376
2377
2378
2379
2380
2381
2382
2383
2384
2385
2386
2387
2388
2389
2390
2391
2392
2393
2394
2395
2396
2397
2398
2399
2400
2401
2402
2403
2404
2405
2406
2407
2408
2409
2410
2411
2412
2413
2414
2415
2416
2417
2418
2419
2420
2421
2422
2423
2424
2425
2426
2427
2428
2429
2430
2431
2432
2433
2434
2435
2436
2437
2438
2439
2440
2441
2442
2443
2444
2445
2446
2447
2448
2449
2450
2451
2452
2453
2454
2455
2456
2457
2458
2459
2460
2461
2462
2463
2464
2465
2466
2467
2468
2469
2470
2471
2472
2473
2474
2475
2476
2477
2478
2479
2480
2481
2482
2483
2484
2485
2486
2487
2488
2489
2490
2491
2492
2493
2494
2495
2496
2497
2498
2499
2500
2501
2502
2503
2504
2505
2506
2507
2508
2509
2510
2511
2512
2513
2514
2515
2516
2517
2518
2519
2520
2521
2522
2523
2524
2525
2526
2527
2528
2529
2530
2531
2532
2533
2534
2535
2536
2537
2538
2539
2540
2541
2542
2543
2544
2545
2546
2547
2548
2549
2550
2551
2552
2553
2554
2555
2556
2557
2558
2559
2560
2561
2562
2563
2564
2565
2566
2567
2568
2569
2570
2571
2572
2573
2574
2575
2576
2577
2578
2579
2580
2581
2582
2583
2584
2585
2586
2587
2588
2589
2590
2591
2592
2593
2594
2595
2596
2597
2598
2599
2600
2601
2602
2603
2604
2605
2606
2607
2608
2609
2610
2611
2612
2613
2614
2615
2616
2617
2618
2619
2620
2621
2622
2623
2624
2625
2626
2627
2628
2629
2630
2631
2632
2633
2634
2635
2636
2637
2638
2639
2640
2641
2642
2643
2644
2645
2646
2647
2648
2649
2650
2651
2652
2653
2654
2655
2656
2657
2658
2659
2660
2661
2662
2663
2664
2665
2666
2667
2668
2669
2670
2671
2672
2673
2674
2675
2676
2677
2678
2679
2680
2681
2682
2683
2684
2685
2686
2687
2688
2689
2690
2691
2692
2693
2694
2695
2696
2697
2698
2699
2700
2701
2702
2703
2704
2705
2706
2707
2708
2709
2710
2711
2712
2713
2714
2715
2716
2717
2718
2719
2720
2721
2722
2723
2724
2725
2726
2727
2728
2729
2730
2731
2732
2733
2734
2735
2736
2737
2738
2739
2740
2741
2742
2743
2744
2745
2746
2747
2748
2749
2750
2751
2752
2753
2754
2755
2756
2757
2758
2759
2760
2761
2762
2763
2764
2765
2766
2767
2768
2769
2770
2771
2772
2773
2774
2775
2776
2777
2778
2779
2780
2781
2782
2783
2784
2785
2786
2787
2788
2789
2790
2791
2792
2793
2794
2795
2796
2797
2798
2799
2800
2801
2802
2803
2804
2805
2806
2807
2808
2809
2810
2811
2812
2813
0
2815
0
2817
2818
2819
2820
2821
2822
2823
2824
2825
2826
2827
2828
2829
2830
2831
2832
2833
2834
2835
2836
2837
2838
2839
2840
2841
2842
2843
2844
2845
2846
2847
2848
2849
2850
2851
2852
2853
2854
2855
2856
2857
2858
2859
2860
2861
2862
2863
2864
2865
2866
2867
2868
2869
2870
2871
2872
2873
2874
2875
2876
2877
2878
2879
2880
2881
2882
2883
2884
2885
2886
2887
2888
2889
2890
2891
2892
2893
2894
2895
2896
2897
2898
2899
2900
2901
2902
2903
2904
2905
2906
2907
2908
2909
2910
2911
2912
2913
2914
2915
2916
2917
2918
2919
2920
2921
2922
2923
2924
2925
2926
2927
2928
2929
2930
2931
2932
2933
2934
2935
2936
2937
2938
2939
2940
2941
2942
2943
2944
2945
2946
2947
2948
2949
2950
2951
2952
2953
2954
2955
2956
2957
2958
2959
2960
2961
2962
2963
2964
2965
2966
2967
2968
2969
2970
2971
2972
2973
2974
2975
2976
2977
2978
2979
2980
2981
2982
2983
2984
2985
2986
2987
2988
2989
2990
2991
2992
2993
2994
2995
2996
2997
2998
2999
3000
3001
3002
3003
3004
3005
3006
3007
3008
3009
3010
3011
3012
3013
3014
3015
3016
3017
3018
3019
3020
3021
3022
3023
3024
3025
3026
3027
3028
3029
3030
3031
3032
3033
3034
3035
3036
3037
3038
2
3
0
0
0
0
8
9
10
11
0
0
0
0
16
17
18
0
0
0
0
0
0
0
0
0
0
0
0
0
32
33
34
0
0
0
0
0
0
0
42
43
44
45
0
0
0
0
50
51
0
0
0
0
0
0
0
0
0
0
0
0
0
0
0
0
0
0
0
0
0
0
0
0
76
77
78
79
80
81
0
0
0
0
0
0
0
0
0
0
0
0
0
0
0
0
98
0
0
0
0
0
0
0
0
0
0
0
0
0
0
113
114
115
116
117
118
0
0
0
0
0
124
125
126
127
128
0
0
131
132
133
134
135
136
137
138
139
140
141
142
143
144
145
146
147
0
0
150
151
152
153
0
0
156
157
158
159
160
161
162
163
164
165
166
167
168
169
170
171
172
173
174
175
176
177
178
179
180
181
182
183
184
185
186
187
188
0
0
0
0
0
0
0
196
197
198
199
200
201
202
203
204
205
206
207
208
209
210
0
0
0
0
0
0
0
218
219
220
0
0
0
224
225
226
0
0
0
230
231
232
0
0
0
0
0
0
0
0
0
0
0
0
0
0
0
0
0
0
0
0
0
254
255
256
257
0
0
0
0
0
0
0
0
0
0
0
269
270
271
0
0
0
0
0
0
0
0
0
281
282
283
0
0
0
0
288
289
290
291
292
293
0
0
0
0
0
0
0
0
0
0
304
0
0
0
308
309
0
0
312
313
314
315
316
317
0
0
0
0
322
323
0
325
326
327
328
329
330
331
332
333
334
335
336
337
338
339
340
341
342
343
344
345
0
347
0
0
0
0
0
0
0
0
0
0
0
359
0
0
0
363
0
0
0
0
368
369
370
371
372
373
374
375
376
0
0
0
0
381
382
0
0
0
0
387
388
389
390
0
0
0
394
395
396
397
398
399
0
0
0
403
404
0
0
0
0
409
410
411
412
413
414
415
416
417
418
419
420
421
0
0
0
0
0
427
428
429
430
431
432
0
0
0
0
0
438
439
0
0
0
0
0
0
0
0
448
449
450
451
0
0
0
455
456
457
0
0
460
461
462
463
0
0
0
0
0
0
0
471
472
473
0
0
0
0
478
479
480
481
482
483
484
485
486
487
488
0
0
491
492
493
0
0
0
497
498
499
0
0
0
0
0
0
0
507
508
509
0
0
0
513
514
515
516
517
518
519
520
521
522
523
524
525
526
527
528
529
530
531
532
533
534
535
536
537
538
539
540
541
542
543
544
545
546
547
548
0
0
0
0
0
554
555
556
0
558
559
560
0
0
0
0
0
0
0
0
0
0
0
0
0
574
575
576
577
578
579
580
581
582
583
584
585
586
587
588
589
590
591
592
593
594
595
596
597
598
599
600
601
602
603
604
605
606
607
608
609
610
611
612
613
614
615
616
617
618
619
620
621
622
623
624
625
626
627
628
629
630
631
632
633
634
635
636
637
638
639
640
641
642
643
644
645
646
647
648
649
650
651
652
653
654
655
656
657
658
659
660
661
662
663
664
665
0
0
0
0
670
671
672
673
0
0
676
677
678
679
680
681
682
683
684
685
686
687
688
689
0
0
0
0
0
0
0
697
698
699
700
701
702
703
704
0
0
0
0
0
0
0
0
0
0
0
0
0
718
719
0
0
0
0
724
725
726
727
728
729
730
731
732
733
0
735
0
0
0
0
740
741
742
743
744
745
746
747
0
0
0
0
0
0
0
0
0
0
0
759
760
761
762
763
764
765
766
767
768
769
770
771
772
773
774
775
776
777
778
0
0
0
782
783
784
785
786
787
788
789
790
791
792
793
794
795
796
797
798
799
800
801
802
803
804
805
806
807
808
809
810
811
812
813
814
815
816
817
818
819
820
821
822
823
824
825
826
827
828
829
830
831
832
833
834
835
836
837
838
839
840
841
842
843
844
845
846
847
848
849
850
851
852
853
854
855
856
857
858
859
860
861
862
863
864
865
866
867
868
869
870
871
872
873
874
875
876
877
878
879
880
881
882
883
884
885
886
887
888
889
890
891
892
0
0
0
896
897
898
899
900
901
0
0
0
0
0
0
0
0
910
911
912
913
914
915
916
917
0
919
920
921
922
923
0
0
0
0
0
0
0
0
932
933
934
935
936
937
938
939
0
0
0
943
944
945
946
947
948
949
950
951
952
953
954
955
956
957
958
959
960
961
962
963
964
965
966
967
968
969
970
971
972
973
974
975
976
977
978
979
980
981
982
983
984
985
986
987
988
989
990
991
992
993
994
995
996
997
998
999
1000
1001
1002
1003
1004
1005
1006
1007
1008
1009
1010
1011
1012
1013
1014
1015
1016
1017
1018
1019
1020
1021
1022
1023
1024
1025
1026
1027
1028
1029
1030
1031
1032
1033
1034
1035
1036
1037
1038
1039
1040
1041
1042
1043
1044
1045
1046
1047
1048
1049
1050
1051
1052
1053
1054
1055
1056
1057
1058
1059
1060
1061
1062
1063
1064
1065
1066
1067
1068
1069
1070
1071
1072
1073
1074
1075
1076
1077
1078
1079
1080
1081
1082
1083
1084
1085
1086
1087
1088
1089
1090
1091
1092
1093
1094
1095
1096
1097
1098
1099
1100
1101
1102
1103
0
0
0
0
0
0
0
1111
1112
1113
1114
1115
1116
1117
1118
0
0
0
0
1123
1124
1125
1126
0
0
0
1130
1131
1132
1133
1134
1135
1136
0
0
0
0
0
0
0
0
1145
1146
1147
0
0
0
0
1152
1153
1154
1155
1156
0
0
0
0
0
0
0
0
0
1166
1167
1168
1169
0
0
0
0
0
0
0
0
0
0
0
1181
1182
1183
1184
1185
1186
1187
1188
1189
1190
1191
1192
1193
1194
1195
1196
1197
1198
1199
1200
1201
1202
1203
1204
1205
1206
1207
1208
1209
1210
1211
1212
1213
1214
1215
1216
1217
1218
1219
1220
1221
1222
1223
1224
1225
1226
1227
1228
1229
1230
1231
1232
1233
1234
1235
1236
1237
1238
1239
1240
1241
1242
1243
1244
1245
1246
1247
1248
1249
1250
1251
1252
1253
1254
1255
1256
1257
1258
1259
1260
1261
1262
1263
0
0
0
0
1268
0
0
0
1272
1273
1274
1275
0
0
1278
1279
1280
1281
0
0
0
1285
1286
1287
0
0
0
0
1292
1293
1294
0
0
0
0
0
0
0
0
0
0
0
1306
1307
1308
1309
0
0
0
0
0
0
0
0
0
0
1320
1321
1322
1323
1324
1325
1326
1327
1328
0
0
0
1332
1333
1334
1335
0
0
0
0
0
0
0
0
0
0
0
0
0
0
0
0
0
0
1354
1355
1356
1357
1358
1359
1360
1361
1362
1363
1364
1365
1366
1367
1368
1369
1370
1371
1372
1373
1374
1375
1376
1377
1378
1379
1380
1381
1382
1383
1384
1385
1386
1387
1388
1389
1390
1391
1392
1393
1394
1395
1396
1397
1398
1399
1400
1401
1402
1403
1404
1405
1406
1407
1408
1409
1410
1411
1412
1413
1414
1415
1416
1417
1418
1419
1420
1421
1422
1423
1424
1425
1426
1427
1428
1429
1430
1431
1432
1433
1434
1435
1436
1437
1438
1439
1440
1441
1442
1443
1444
1445
1446
1447
1448
1449
1450
1451
1452
1453
1454
1455
1456
1457
1458
1459
1460
1461
1462
1463
1464
1465
1466
1467
1468
1469
1470
1471
1472
1473
1474
1475
1476
1477
1478
1479
1480
1481
1482
1483
1484
1485
1486
1487
1488
1489
1490
1491
1492
1493
1494
1495
1496
1497
1498
1499
1500
1501
1502
1503
1504
1505
1506
1507
1508
1509
1510
1511
1512
1513
1514
1515
1516
1517
1518
1519
1520
1521
1522
1523
1524
1525
1526
1527
1528
1529
1530
1531
1532
1533
1534
1535
1536
1537
1538
1539
1540
1541
1542
1543
1544
1545
1546
1547
1548
1549
1550
1551
1552
1553
1554
1555
1556
1557
1558
1559
1560
1561
1562
1563
1564
1565
1566
1567
1568
1569
1570
1571
1572
1573
1574
1575
1576
1577
1578
1579
1580
1581
1582
1583
1584
1585
1586
1587
1588
1589
1590
1591
1592
1593
1594
1595
1596
1597
1598
1599
1600
1601
1602
1603
1604
1605
1606
1607
1608
1609
1610
1611
1612
1613
1614
1615
1616
1617
1618
1619
1620
1621
1622
1623
1624
1625
1626
1627
1628
1629
1630
1631
1632
1633
1634
1635
1636
1637
1638
1639
1640
1641
1642
1643
1644
1645
1646
1647
1648
1649
1650
1651
1652
1653
1654
1655
1656
1657
1658
1659
1660
1661
1662
1663
1664
1665
1666
1667
1668
1669
1670
1671
1672
1673
1674
1675
1676
1677
1678
1679
1680
1681
1682
1683
1684
1685
1686
1687
1688
1689
1690
1691
1692
1693
1694
1695
1696
1697
1698
1699
1700
1701
1702
1703
1704
1705
1706
1707
1708
1709
1710
1711
1712
1713
1714
1715
1716
1717
1718
1719
1720
1721
1722
1723
1724
1725
1726
1727
1728
1729
1730
1731
1732
1733
1734
1735
1736
1737
1738
1739
1740
1741
1742
1743
1744
1745
1746
1747
1748
1749
1750
1751
1752
1753
1754
1755
1756
1757
1758
1759
1760
1761
1762
1763
1764
1765
1766
1767
1768
1769
1770
1771
1772
0
0
0
0
1777
1778
1779
1780
1781
1782
1783
1784
1785
1786
1787
1788
1789
1790
1791
1792
1793
1794
1795
1796
1797
1798
1799
1800
1801
1802
1803
1804
1805
1806
1807
1808
1809
1810
1811
1812
0
0
0
1816
0
0
1819
1820
1821
1822
1823
1824
1825
1826
1827
1828
1829
0
0
0
0
0
0
1836
1837
1838
1839
1840
1841
1842
1843
1844
1845
1846
1847
1848
1849
1850
1851
0
1853
1854
1855
1856
1857
0
0
0
0
1862
1863
1864
1865
1866
1867
1868
1869
1870
1871
1872
0
0
0
1876
1877
1878
0
0
0
1882
1883
1884
1885
1886
1887
1888
1889
1890
0
0
1893
1894
1895
1896
1897
1898
1899
0
0
0
1903
1904
1905
1906
0
0
0
0
0
1912
1913
1914
0
0
0
0
0
0
0
0
0
0
0
0
0
0
0
0
1931
1932
0
0
0
1936
1937
1938
1939
1940
1941
1942
0
0
0
0
0
0
0
0
1951
1952
1953
1954
1955
1956
1957
1958
1959
1960
1961
1962
1963
1964
1965
1966
1967
1968
1969
1970
1971
1972
1973
1974
1975
1976
1977
1978
1979
1980
1981
1982
1983
1984
0
0
0
0
0
0
0
1992
1993
1994
1995
1996
1997
1998
1999
2000
2001
2002
0
0
0
2006
2007
2008
2009
2010
2011
2012
2013
2014
2015
2016
2017
2018
2019
2020
2021
2022
2023
2024
2025
2026
0
0
0
0
0
0
2033
2034
2035
2036
2037
2038
2039
2040
2041
2042
2043
2044
2045
2046
2047
2048
2049
2050
2051
2052
2053
2054
2055
2056
2057
2058
2059
2060
2061
0
2063
2064
2065
2066
2067
0
0
0
0
2072
2073
2074
2075
2076
2077
2078
2079
2080
2081
2082
2083
2084
2085
2086
2087
2088
2089
2090
2091
2092
2093
2094
2095
2096
2097
2098
2099
2100
2101
2102
2103
2104
2105
2106
2107
2108
2109
2110
2111
2112
2113
2114
2115
2116
2117
2118
2119
2120
2121
2122
2123
2124
2125
2126
2127
2128
2129
2130
2131
2132
2133
2134
2135
2136
2137
2138
2139
2140
2141
2142
2143
2144
2145
2146
2147
2148
2149
2150
2151
2152
2153
2154
2155
2156
2157
2158
2159
2160
2161
2162
2163
2164
2165
2166
2167
2168
2169
2170
2171
2172
2173
2174
2175
2176
2177
2178
2179
2180
2181
2182
2183
2184
2185
2186
2187
2188
2189
2190
2191
2192
2193
2194
2195
2196
2197
2198
2199
2200
2201
2202
2203
2204
2205
2206
2207
2208
2209
2210
2211
2212
2213
2214
2215
2216
2217
2218
2219
2220
2221
2222
2223
2224
2225
2226
2227
2228
2229
2230
2231
2232
2233
2234
2235
2236
2237
2238
2239
2240
2241
0
0
0
2245
2246
2247
2248
2249
2250
2251
2252
2253
2254
2255
2256
2257
2258
0
2260
2261
2262
2263
2264
2265
2266
2267
2268
2269
2270
2271
2272
2273
2274
2275
2276
2277
2278
2279
2280
2281
2282
2283
2284
2285
2286
2287
2288
2289
2290
2291
2292
2293
2294
2295
2296
2297
2298
2299
2300
2301
2302
2303
2304
2305
2306
2307
2308
2309
2310
2311
2312
2313
2314
2315
2316
2317
2318
2319
2320
2321
2322
2323
2324
2325
2326
2327
2328
2329
2330
2331
2332
2333
2334
2335
2336
2337
2338
2339
2340
2341
2342
2343
2344
2345
2346
2347
2348
2349
2350
2351
2352
2353
2354
2355
2356
2357
2358
2359
2360
2361
2362
2363
2364
2365
2366
2367
2368
2369
2370
2371
2372
2373
2374
2375
2376
2377
2378
2379
2380
2381
2382
2383
2384
2385
2386
2387
2388
2389
2390
2391
2392
2393
2394
2395
2396
2397
2398
2399
2400
2401
2402
2403
2404
2405
2406
2407
2408
2409
2410
2411
2412
2413
2414
2415
2416
2417
2418
2419
2420
2421
2422
2423
2424
2425
2426
2427
2428
2429
2430
2431
2432
2433
2434
2435
2436
2437
2438
2439
2440
2441
2442
2443
2444
2445
2446
2447
2448
2449
2450
2451
2452
2453
2454
2455
2456
2457
2458
2459
2460
2461
2462
2463
2464
2465
2466
2467
2468
2469
2470
2471
2472
2473
2474
2475
2476
2477
2478
2479
2480
2481
2482
2483
2484
2485
2486
2487
2488
2489
2490
2491
2492
2493
2494
2495
2496
2497
2498
2499
2500
2501
2502
2503
2504
2505
2506
2507
2508
2509
2510
2511
2512
2513
2514
2515
2516
2517
2518
2519
2520
2521
2522
2523
2524
2525
2526
2527
2528
2529
2530
2531
2532
2533
2534
2535
2536
2537
2538
2539
2540
2541
2542
2543
2544
2545
2546
2547
2548
2549
2550
2551
2552
2553
2554
2555
2556
2557
2558
2559
2560
2561
2562
2563
2564
2565
2566
2567
2568
2569
2570
2571
2572
2573
2574
2575
2576
2577
2578
2579
2580
2581
2582
2583
2584
2585
2586
2587
2588
2589
2590
2591
2592
2593
2594
2595
2596
2597
2598
2599
2600
2601
2602
2603
2604
2605
2606
2607
2608
2609
2610
2611
2612
2613
2614
2615
2616
2617
2618
2619
2620
2621
2622
2623
2624
2625
2626
2627
2628
2629
2630
2631
2632
2633
2634
2635
2636
2637
2638
2639
2640
2641
2642
2643
2644
2645
2646
2647
2648
2649
2650
2651
2652
2653
2654
2655
2656
2657
2658
2659
2660
2661
2662
2663
2664
2665
2666
2667
2668
2669
2670
2671
2672
2673
2674
2675
2676
2677
2678
2679
2680
2681
2682
2683
2684
2685
2686
2687
2688
2689
2690
2691
2692
2693
2694
2695
2696
2697
2698
2699
2700
2701
2702
2703
2704
2705
2706
2707
2708
2709
2710
2711
2712
2713
2714
2715
2716
2717
2718
2719
2720
2721
2722
2723
2724
2725
2726
2727
2728
2729
2730
2731
2732
2733
2734
2735
2736
2737
2738
2739
2740
2741
2742
2743
2744
2745
2746
2747
2748
2749
2750
2751
2752
2753
2754
2755
2756
2757
2758
2759
2760
2761
2762
2763
2764
2765
2766
2767
2768
2769
2770
2771
2772
2773
2774
2775
2776
2777
2778
2779
2780
2781
2782
2783
2784
2785
2786
2787
2788
2789
2790
2791
2792
2793
2794
2795
2796
2797
2798
2799
2800
2801
2802
2803
2804
2805
2806
2807
2808
2809
2810
2811
2812
2813
2814
2815
2816
2817
2818
2819
2820
2821
2822
2823
2824
2825
2826
2827
2828
2829
2830
2831
2832
2833
2834
2835
2836
2837
2838
2839
2840
2841
2842
2843
2844
2845
2846
2847
2848
2849
2850
2851
2852
2853
2854
2855
2856
2857
2858
2859
2860
2861
2862
2863
2864
2865
2866
2867
2868
2869
2870
2871
2872
2873
2874
2875
2876
2877
2878
2879
2880
2881
2882
2883
2884
2885
2886
2887
2888
2889
2890
2891
2892
2893
2894
2895
2896
2897
2898
2899
2900
2901
2902
2903
2904
2905
2906
2907
2908
2909
2910
2911
2912
2913
2914
2915
2916
2917
2918
2919
2920
2921
2922
2923
2924
2925
2926
2927
2928
2929
2930
2931
2932
2933
2934
2935
2936
2937
2938
2939
2940
2941
2942
2943
2944
2945
2946
2947
2948
2949
2950
2951
2952
2953
2954
2955
2956
2957
2958
2959
2960
2961
2962
2963
2964
2965
2966
2967
2968
2969
2970
2971
2972
2973
2974
2975
2976
2977
2978
2979
2980
2981
2982
2983
2984
2985
2986
2987
2988
2989
2990
2991
2992
2993
2994
2995
2996
2997
2998
2999
3000
3001
3002
3003
3004
3005
3006
3007
3008
3009
3010
3011
3012
3013
3014
3015
3016
3017
3018
3019
3020
3021
3022
3023
3024
3025
3026
3027
3028
3029
3030
3031
3032
3033
3034
3035
3036
3037
3038
2
3
4
5
6
7
8
0
0
11
0
0
0
0
0
0
0
0
0
0
0
0
0
0
0
0
0
0
0
0
32
33
34
35
36
37
38
0
0
0
0
0
0
0
0
0
0
0
0
51
52
53
54
55
56
57
0
0
0
61
62
63
0
0
66
67
0
69
70
71
72
73
74
75
76
0
0
0
0
81
82
83
84
85
86
87
88
0
90
91
92
93
0
0
0
97
0
0
0
101
102
103
104
105
106
107
108
109
110
0
0
0
114
115
0
0
0
119
120
121
122
0
0
0
0
0
0
0
0
0
0
0
134
135
136
0
138
139
140
0
0
0
144
145
146
147
148
0
150
151
152
0
0
0
0
157
158
159
160
161
162
163
164
165
166
167
168
169
170
171
172
173
174
175
176
177
178
179
180
181
182
183
184
185
186
187
188
189
190
191
0
0
0
0
0
197
198
199
0
201
202
203
0
0
0
207
208
209
210
211
212
213
214
0
0
0
0
0
0
0
0
0
0
0
0
0
0
0
0
0
0
233
234
235
236
237
238
239
0
0
0
0
0
0
0
0
0
249
250
251
252
253
254
255
256
0
0
259
260
0
0
0
0
265
266
267
268
269
270
271
272
273
0
0
0
0
0
279
280
281
282
283
0
0
0
287
0
0
0
291
292
293
294
295
296
0
0
0
0
0
0
0
0
0
306
307
308
309
310
311
312
0
0
0
0
317
318
319
320
321
322
0
0
325
326
327
328
329
330
331
332
333
334
335
336
337
338
339
340
341
342
343
344
345
0
347
348
349
350
351
0
0
0
0
0
0
358
359
0
0
0
0
0
0
0
0
0
369
370
371
372
373
374
375
376
377
378
379
0
0
0
0
0
0
0
0
0
0
0
391
392
393
0
0
0
0
0
0
400
401
402
0
0
0
0
0
0
0
0
0
412
413
414
0
0
0
0
0
0
421
422
423
424
0
0
0
0
429
430
431
432
0
0
435
436
437
438
439
440
441
442
443
0
0
446
447
0
0
0
0
0
0
0
0
0
0
0
0
0
0
0
463
464
465
466
467
468
0
0
0
0
0
0
0
0
0
478
479
480
0
0
0
484
485
486
487
488
0
0
0
492
493
494
495
496
497
498
499
500
501
0
0
0
0
506
507
508
509
0
0
0
513
514
515
516
517
518
519
520
521
522
523
524
525
526
527
528
529
530
531
532
533
534
535
536
537
538
539
540
541
542
543
544
545
546
547
548
549
0
0
0
0
0
0
0
557
558
559
560
0
0
0
0
0
0
0
0
0
0
0
0
573
574
575
576
577
578
579
580
581
582
583
584
585
586
587
588
589
590
591
592
593
594
595
596
597
598
599
600
601
602
603
604
605
606
607
608
609
610
611
612
613
614
615
616
617
618
619
620
621
622
623
624
625
626
627
628
629
630
631
632
633
634
635
636
637
638
639
640
641
642
643
644
645
646
647
648
649
650
651
652
653
654
655
656
657
658
659
660
0
0
0
0
665
666
667
668
669
670
0
0
0
0
0
676
677
678
679
680
681
682
683
684
685
686
687
688
689
0
0
0
0
0
0
0
0
0
0
700
0
0
0
0
0
0
0
0
709
710
711
0
0
0
0
0
0
0
0
0
0
0
0
0
0
726
727
728
729
0
0
0
0
734
735
0
737
738
739
740
0
0
743
744
745
746
747
748
749
750
751
752
0
0
0
0
0
0
759
760
761
762
763
764
765
766
767
768
769
770
771
772
773
774
775
776
777
778
0
0
0
0
0
0
0
0
0
788
789
790
791
792
793
794
795
796
797
798
799
800
801
802
803
804
805
806
807
808
809
810
811
812
813
814
815
816
817
818
819
820
821
822
823
824
825
826
827
828
829
830
831
832
833
834
835
836
837
838
839
840
841
842
843
844
845
846
847
848
849
850
851
852
853
854
855
856
857
858
859
860
861
862
863
864
865
866
867
868
869
870
871
872
873
874
875
876
877
878
879
880
881
882
883
884
885
886
887
888
889
890
891
0
0
0
895
896
0
0
0
900
901
902
903
904
905
906
907
0
0
0
0
0
0
0
0
916
917
918
919
920
0
0
923
924
925
926
0
0
0
930
931
932
933
934
935
936
0
0
0
0
0
0
0
0
945
946
947
948
949
950
951
952
953
954
955
956
957
958
959
960
961
962
963
964
965
966
967
968
969
970
971
972
973
974
975
976
977
978
979
980
981
982
983
984
985
986
987
988
989
990
991
992
993
994
995
996
997
998
999
1000
1001
1002
1003
1004
1005
1006
1007
1008
1009
1010
1011
1012
1013
1014
1015
1016
1017
1018
1019
1020
1021
1022
1023
1024
1025
1026
1027
1028
1029
1030
1031
1032
1033
1034
1035
1036
1037
1038
1039
1040
1041
1042
1043
0
0
0
0
1048
1049
1050
1051
1052
1053
1054
1055
1056
1057
1058
1059
1060
1061
1062
1063
1064
1065
1066
1067
1068
1069
1070
1071
1072
1073
1074
1075
1076
1077
1078
1079
1080
1081
1082
1083
1084
1085
1086
1087
1088
1089
1090
1091
1092
1093
1094
1095
1096
1097
1098
1099
1100
1101
1102
1103
1104
1105
1106
1107
1108
1109
1110
1111
1112
1113
1114
1115
1116
1117
1118
1119
1120
1121
1122
1123
1124
1125
1126
1127
1128
1129
1130
1131
1132
1133
0
0
0
0
0
0
0
0
0
0
0
0
0
1147
1148
1149
0
0
0
0
1154
1155
1156
1157
1158
1159
1160
0
1162
1163
1164
1165
1166
1167
1168
1169
0
0
0
0
0
0
1176
1177
0
0
0
1181
1182
1183
1184
1185
1186
1187
1188
1189
1190
1191
1192
1193
1194
1195
1196
1197
1198
1199
1200
1201
1202
1203
1204
1205
1206
1207
1208
1209
1210
1211
1212
1213
1214
1215
1216
1217
1218
1219
1220
1221
1222
1223
1224
1225
1226
1227
1228
1229
1230
1231
1232
1233
1234
1235
1236
1237
1238
1239
1240
1241
1242
1243
1244
1245
1246
1247
1248
1249
1250
1251
1252
1253
1254
1255
1256
1257
1258
1259
1260
1261
1262
0
0
0
0
0
0
0
1270
1271
1272
1273
1274
1275
1276
1277
1278
1279
1280
0
0
1283
1284
1285
0
0
0
0
0
1291
1292
1293
1294
0
0
1297
1298
1299
0
0
0
0
0
1305
1306
1307
1308
0
0
0
1312
1313
1314
0
1316
1317
1318
0
0
0
0
1323
1324
1325
1326
1327
1328
1329
1330
1331
1332
1333
0
0
0
0
0
0
0
0
0
0
0
1345
0
0
0
0
0
0
1352
1353
1354
0
0
0
1358
0
0
0
1362
1363
1364
1365
1366
1367
1368
1369
1370
1371
1372
1373
1374
1375
1376
1377
1378
1379
1380
1381
1382
1383
1384
1385
1386
1387
1388
1389
1390
1391
1392
1393
1394
1395
1396
1397
1398
1399
1400
1401
1402
1403
1404
1405
1406
1407
1408
1409
1410
1411
1412
1413
1414
1415
1416
1417
1418
1419
1420
1421
1422
1423
1424
1425
1426
1427
1428
1429
1430
1431
1432
1433
1434
1435
1436
1437
1438
1439
1440
1441
1442
1443
1444
1445
1446
1447
1448
1449
1450
1451
1452
1453
1454
1455
1456
1457
1458
1459
1460
1461
1462
1463
1464
1465
1466
1467
1468
1469
1470
1471
1472
1473
1474
1475
1476
1477
1478
1479
1480
1481
1482
1483
1484
1485
1486
1487
1488
1489
1490
1491
1492
1493
1494
1495
1496
1497
1498
1499
1500
1501
1502
1503
1504
1505
1506
1507
1508
1509
1510
1511
1512
1513
1514
1515
1516
1517
1518
1519
1520
1521
1522
1523
1524
1525
1526
1527
1528
1529
1530
1531
1532
1533
1534
1535
1536
1537
1538
1539
1540
1541
1542
1543
1544
1545
1546
1547
1548
1549
1550
1551
1552
1553
1554
1555
1556
1557
1558
1559
1560
1561
1562
1563
1564
1565
1566
1567
1568
1569
1570
1571
1572
1573
1574
1575
1576
1577
1578
1579
1580
1581
1582
1583
1584
1585
1586
1587
1588
1589
1590
1591
1592
1593
1594
1595
1596
1597
1598
1599
1600
1601
1602
1603
1604
1605
1606
1607
1608
1609
1610
1611
1612
1613
1614
1615
1616
1617
1618
1619
1620
1621
1622
1623
1624
1625
1626
1627
1628
1629
1630
1631
1632
1633
1634
1635
1636
1637
1638
1639
1640
1641
1642
1643
1644
1645
1646
1647
1648
1649
1650
1651
1652
1653
1654
1655
1656
1657
1658
1659
1660
1661
1662
1663
1664
1665
1666
1667
1668
1669
1670
1671
1672
1673
1674
1675
1676
1677
1678
1679
1680
1681
1682
1683
1684
1685
1686
1687
1688
1689
1690
1691
1692
1693
1694
1695
1696
1697
1698
1699
1700
1701
1702
1703
1704
1705
1706
1707
1708
1709
1710
1711
1712
1713
1714
1715
1716
1717
1718
1719
1720
1721
1722
1723
1724
1725
1726
1727
1728
1729
1730
1731
1732
1733
1734
1735
1736
1737
1738
1739
1740
1741
1742
1743
1744
1745
1746
1747
1748
1749
1750
1751
1752
1753
1754
1755
1756
1757
1758
1759
1760
1761
1762
1763
1764
1765
1766
1767
1768
1769
1770
1771
0
1773
1774
1775
1776
1777
1778
1779
1780
1781
1782
1783
1784
1785
1786
1787
1788
1789
1790
1791
1792
1793
1794
1795
1796
1797
1798
1799
1800
1801
1802
1803
1804
1805
1806
1807
1808
1809
1810
1811
1812
1813
0
0
0
0
0
0
1820
1821
1822
1823
1824
1825
0
0
1828
1829
1830
0
0
0
1834
1835
1836
1837
1838
1839
1840
1841
1842
1843
1844
0
0
0
0
0
1850
1851
1852
1853
1854
1855
1856
1857
1858
1859
1860
1861
1862
0
0
0
1866
1867
1868
1869
1870
1871
1872
1873
1874
1875
1876
0
0
0
0
1881
1882
1883
1884
1885
1886
1887
1888
1889
1890
0
0
0
1894
1895
0
0
0
0
0
0
0
0
0
0
0
0
1908
1909
1910
1911
1912
1913
1914
1915
1916
1917
1918
1919
1920
1921
1922
1923
1924
1925
1926
1927
0
0
0
0
1932
1933
1934
1935
1936
1937
1938
1939
1940
1941
0
0
0
0
0
0
1948
1949
1950
1951
1952
1953
1954
1955
0
1957
1958
1959
1960
1961
1962
1963
1964
1965
1966
1967
1968
1969
0
0
0
0
0
0
0
1977
1978
0
0
1981
1982
1983
1984
0
0
0
1988
1989
1990
1991
0
0
0
1995
1996
1997
0
0
0
0
0
0
0
2005
2006
2007
2008
2009
2010
2011
2012
2013
0
0
2016
2017
2018
0
2020
2021
2022
2023
2024
2025
2026
0
0
0
0
0
0
2033
2034
2035
2036
2037
2038
2039
2040
2041
2042
2043
2044
2045
2046
2047
2048
2049
2050
2051
2052
2053
2054
2055
2056
2057
2058
2059
2060
2061
2062
2063
2064
2065
2066
2067
2068
2069
2070
2071
2072
2073
2074
2075
2076
2077
2078
2079
2080
2081
2082
2083
2084
2085
0
0
0
2089
0
2091
2092
2093
2094
2095
2096
2097
2098
2099
2100
2101
2102
2103
2104
2105
2106
2107
0
0
0
2111
2112
2113
2114
2115
2116
0
0
0
2120
2121
2122
2123
2124
2125
2126
2127
2128
2129
2130
2131
2132
2133
2134
2135
2136
2137
2138
2139
2140
2141
2142
2143
0
2145
2146
2147
2148
2149
2150
2151
2152
2153
2154
2155
2156
2157
2158
2159
2160
2161
2162
2163
2164
2165
2166
2167
2168
2169
2170
2171
2172
2173
2174
2175
2176
2177
2178
2179
2180
2181
2182
2183
2184
2185
2186
2187
2188
2189
2190
2191
2192
2193
2194
2195
2196
2197
2198
2199
2200
2201
2202
2203
2204
2205
2206
2207
2208
2209
2210
2211
2212
2213
2214
2215
2216
2217
2218
2219
2220
2221
2222
2223
2224
2225
2226
2227
2228
2229
2230
2231
2232
2233
2234
2235
2236
2237
2238
2239
2240
2241
2242
2243
2244
2245
2246
2247
2248
2249
2250
2251
2252
2253
2254
2255
2256
2257
2258
2259
2260
2261
2262
2263
2264
2265
2266
2267
2268
2269
2270
2271
2272
2273
2274
2275
2276
2277
2278
2279
2280
2281
2282
2283
2284
2285
2286
2287
2288
2289
2290
2291
2292
2293
2294
2295
2296
2297
2298
2299
2300
2301
2302
2303
2304
2305
2306
2307
2308
2309
2310
2311
2312
2313
2314
2315
2316
2317
2318
2319
2320
2321
2322
2323
2324
2325
2326
2327
2328
2329
2330
2331
2332
2333
2334
2335
2336
2337
2338
2339
2340
2341
2342
2343
2344
2345
2346
2347
2348
2349
2350
2351
2352
2353
2354
2355
2356
2357
2358
2359
2360
2361
2362
2363
2364
2365
2366
2367
2368
2369
2370
2371
2372
2373
2374
2375
2376
2377
2378
2379
2380
2381
2382
2383
2384
2385
2386
2387
2388
2389
2390
2391
2392
2393
2394
2395
2396
2397
2398
2399
2400
2401
2402
2403
2404
2405
2406
2407
2408
2409
2410
2411
2412
2413
2414
2415
2416
2417
2418
2419
2420
2421
2422
2423
2424
2425
2426
2427
2428
2429
2430
2431
2432
2433
2434
2435
2436
2437
2438
2439
2440
2441
2442
2443
2444
2445
2446
2447
2448
2449
2450
2451
2452
2453
2454
2455
2456
2457
2458
2459
2460
2461
2462
2463
2464
2465
2466
2467
2468
2469
2470
2471
2472
2473
2474
2475
2476
2477
2478
2479
2480
2481
2482
2483
2484
2485
2486
2487
2488
2489
2490
2491
2492
2493
2494
2495
2496
2497
2498
2499
2500
2501
2502
2503
2504
2505
2506
2507
2508
2509
2510
2511
2512
2513
2514
2515
2516
2517
2518
2519
2520
2521
2522
2523
2524
2525
2526
2527
2528
2529
2530
2531
2532
2533
2534
2535
2536
2537
2538
2539
2540
2541
2542
2543
2544
2545
2546
2547
2548
2549
2550
2551
2552
2553
2554
2555
2556
2557
2558
2559
2560
2561
2562
2563
2564
2565
2566
2567
2568
2569
2570
2571
2572
2573
2574
2575
2576
2577
2578
2579
2580
2581
2582
2583
2584
2585
2586
2587
2588
2589
2590
2591
2592
2593
2594
2595
2596
2597
2598
2599
2600
2601
2602
2603
2604
2605
2606
2607
2608
2609
2610
2611
2612
2613
2614
2615
2616
2617
2618
2619
2620
2621
2622
2623
2624
2625
2626
2627
2628
2629
2630
2631
2632
2633
2634
2635
2636
2637
2638
2639
2640
2641
2642
2643
2644
2645
2646
2647
2648
2649
2650
2651
2652
2653
2654
2655
2656
2657
2658
2659
2660
2661
2662
2663
2664
2665
2666
2667
2668
2669
2670
2671
2672
2673
2674
2675
2676
2677
2678
2679
2680
2681
2682
2683
2684
2685
2686
2687
2688
2689
2690
2691
2692
2693
2694
2695
2696
2697
2698
2699
2700
2701
2702
2703
2704
2705
2706
2707
2708
2709
2710
2711
2712
2713
2714
2715
2716
2717
2718
2719
2720
2721
2722
2723
2724
2725
2726
2727
2728
2729
2730
2731
2732
2733
2734
2735
2736
2737
2738
2739
2740
2741
2742
2743
2744
2745
2746
2747
2748
2749
2750
2751
2752
2753
2754
2755
2756
2757
2758
2759
2760
2761
2762
2763
2764
2765
2766
2767
2768
2769
2770
0
0
0
2774
2775
2776
2777
2778
2779
2780
2781
2782
2783
2784
2785
2786
2787
2788
2789
2790
2791
2792
2793
2794
2795
2796
2797
2798
2799
2800
2801
2802
2803
2804
2805
2806
2807
2808
2809
2810
2811
2812
2813
2814
2815
2816
2817
2818
2819
2820
2821
2822
2823
2824
2825
2826
2827
2828
2829
2830
2831
2832
2833
2834
2835
2836
2837
2838
2839
2840
2841
2842
2843
2844
2845
2846
2847
2848
2849
2850
2851
2852
2853
2854
2855
2856
2857
2858
2859
2860
2861
2862
2863
2864
2865
2866
2867
2868
2869
2870
2871
2872
2873
2874
2875
2876
2877
2878
2879
2880
2881
2882
2883
2884
2885
2886
2887
2888
2889
2890
2891
2892
2893
2894
2895
2896
2897
2898
2899
2900
2901
2902
2903
2904
2905
2906
2907
2908
2909
2910
2911
2912
2913
2914
2915
2916
2917
2918
2919
2920
2921
2922
2923
2924
2925
2926
2927
2928
2929
2930
2931
2932
2933
2934
2935
2936
2937
2938
2939
2940
2941
2942
2943
2944
2945
2946
2947
2948
2949
2950
2951
2952
2953
2954
2955
2956
2957
2958
2959
2960
2961
2962
2963
2964
2965
2966
2967
2968
2969
2970
2971
2972
2973
2974
2975
2976
2977
2978
2979
2980
2981
2982
2983
2984
2985
2986
2987
2988
2989
2990
2991
2992
2993
2994
2995
2996
2997
2998
2999
3000
3001
3002
3003
3004
3005
3006
3007
3008
3009
3010
3011
3012
3013
3014
3015
3016
3017
3018
3019
3020
3021
3022
3023
3024
3025
3026
3027
3028
3029
3030
3031
3032
3033
3034
3035
3036
3037
3038
0
0
0
5
6
7
8
9
10
11
0
0
0
15
16
17
0
0
0
0
0
0
0
0
0
27
28
29
0
0
0
0
0
0
36
37
38
39
40
41
42
0
0
0
0
0
0
49
50
51
52
53
54
55
56
57
58
0
0
0
0
63
64
65
0
67
68
69
70
0
0
0
74
75
76
0
0
0
0
0
0
0
0
0
0
0
88
89
90
91
92
93
94
95
96
97
98
0
0
0
102
103
104
0
0
0
0
0
0
0
112
113
114
115
0
0
0
0
120
121
122
123
124
125
126
127
0
0
0
131
132
133
134
135
136
0
138
0
0
0
0
0
0
0
0
0
148
149
150
0
0
0
0
0
0
157
158
159
160
161
162
163
164
165
166
167
168
169
170
171
172
173
174
175
176
177
178
179
180
181
182
183
184
185
186
187
188
189
190
191
0
0
0
0
0
197
0
0
0
0
202
203
204
0
0
207
208
0
0
0
0
0
0
0
0
0
0
0
0
0
0
0
0
0
0
0
228
229
230
231
232
233
234
235
236
237
238
239
240
241
242
0
0
0
0
0
248
0
0
251
252
253
254
255
256
0
0
0
260
261
262
263
0
0
0
0
0
0
0
0
0
0
0
0
0
0
0
0
280
281
282
283
284
285
0
0
288
289
290
0
0
0
0
0
0
0
0
0
0
0
0
0
0
0
306
307
308
309
310
311
312
0
0
0
0
0
0
319
320
321
322
323
324
325
326
327
328
329
330
331
332
333
334
335
336
337
338
339
340
341
342
343
344
345
0
347
348
0
0
0
0
0
0
0
0
0
0
0
0
361
362
0
0
0
0
0
0
0
0
0
0
373
374
375
376
0
0
0
0
0
0
0
0
0
0
0
0
0
0
0
0
0
0
0
396
397
398
0
0
0
402
403
404
0
0
407
408
0
0
0
412
413
414
415
416
417
0
0
0
0
0
0
0
0
0
0
0
0
0
0
0
0
0
0
436
437
438
439
440
441
442
0
0
0
0
447
448
449
450
0
452
453
454
455
0
0
0
459
460
461
462
463
464
465
466
467
0
0
0
0
472
473
474
475
476
477
478
479
0
0
0
0
484
485
486
487
488
489
490
0
492
493
494
495
0
0
0
499
500
501
502
0
0
0
0
0
0
0
0
511
512
513
514
515
516
517
518
519
520
521
522
523
524
525
526
527
528
529
530
531
532
533
534
535
536
537
538
539
540
541
542
543
0
0
0
547
548
0
0
551
552
553
554
0
0
0
558
559
560
561
0
0
0
0
566
567
568
569
570
571
0
0
574
575
576
577
578
579
580
581
582
583
584
585
586
587
588
589
590
591
592
593
594
595
596
597
598
599
600
601
602
603
604
605
606
607
608
609
610
611
612
613
614
615
616
617
618
619
620
621
622
623
624
625
626
627
628
629
630
631
632
633
634
635
636
637
638
639
640
641
642
643
644
645
646
647
648
649
650
651
652
653
654
655
656
657
658
659
660
661
0
0
0
0
666
667
668
669
670
671
672
0
0
0
676
677
678
679
680
681
682
683
684
685
686
687
688
689
0
691
692
693
0
0
696
697
698
0
700
0
0
0
0
0
706
707
708
709
710
0
0
0
714
715
716
717
718
719
0
0
0
0
0
0
0
0
0
0
0
0
0
733
734
735
0
0
0
0
0
0
0
0
0
0
0
0
0
0
0
0
0
0
0
755
756
757
758
759
760
761
762
763
764
765
766
767
768
769
770
771
772
773
774
775
776
777
0
0
0
0
0
0
0
785
786
787
788
789
790
791
792
793
794
795
796
797
798
799
800
801
802
803
804
805
806
807
808
809
810
811
812
813
814
815
816
817
818
819
820
821
822
823
824
825
826
827
828
829
830
831
832
833
834
835
836
837
838
839
840
841
842
843
844
845
846
847
848
849
850
851
852
853
854
855
856
857
858
859
860
861
862
863
864
865
866
867
868
869
870
871
872
873
874
875
876
877
878
879
880
881
882
883
884
885
886
887
888
889
890
891
892
893
894
895
0
0
0
899
900
901
902
903
904
905
0
0
0
0
0
911
912
0
914
915
0
0
0
0
0
0
0
923
0
0
0
0
0
0
0
0
0
0
0
935
936
937
938
939
0
0
0
0
0
0
946
947
948
949
950
951
952
953
954
955
956
957
958
959
960
961
962
963
964
965
966
967
968
969
970
971
972
973
974
975
976
977
978
979
980
981
982
983
984
985
986
987
988
989
990
991
992
993
994
995
996
997
998
999
1000
1001
1002
1003
1004
1005
1006
1007
1008
1009
1010
1011
1012
1013
1014
1015
1016
1017
1018
1019
1020
1021
1022
1023
1024
1025
1026
1027
1028
1029
1030
1031
1032
1033
1034
1035
1036
1037
1038
1039
1040
1041
1042
1043
0
1045
1046
1047
1048
1049
1050
1051
1052
1053
1054
1055
1056
1057
1058
1059
1060
1061
1062
1063
1064
1065
1066
1067
1068
1069
1070
1071
1072
1073
1074
1075
1076
1077
1078
1079
1080
1081
1082
1083
1084
1085
1086
1087
1088
1089
1090
1091
1092
1093
1094
1095
1096
1097
1098
1099
1100
0
0
0
0
0
0
0
1108
1109
1110
0
0
0
0
1115
1116
1117
1118
1119
1120
1121
1122
1123
1124
1125
1126
1127
0
0
0
0
1132
1133
1134
1135
0
0
0
0
1140
1141
1142
1143
1144
1145
1146
1147
1148
1149
0
0
1152
1153
1154
1155
1156
1157
1158
1159
1160
1161
1162
0
0
0
0
0
0
0
0
0
0
0
1174
1175
1176
0
0
0
0
1181
1182
1183
1184
1185
1186
1187
1188
1189
1190
1191
1192
1193
1194
1195
1196
1197
1198
1199
1200
1201
1202
1203
1204
1205
1206
1207
1208
1209
1210
1211
1212
1213
1214
1215
1216
1217
1218
1219
1220
1221
1222
1223
1224
1225
1226
1227
1228
1229
1230
1231
1232
1233
1234
1235
1236
1237
1238
1239
1240
1241
1242
1243
1244
1245
1246
1247
1248
1249
1250
1251
1252
1253
1254
1255
1256
1257
1258
1259
1260
1261
1262
1263
1264
1265
1266
1267
1268
1269
0
0
0
0
0
0
0
0
0
0
0
0
0
0
1284
1285
1286
1287
1288
0
0
0
0
1293
1294
1295
1296
1297
1298
1299
1300
1301
1302
1303
1304
1305
1306
1307
1308
1309
1310
1311
1312
1313
1314
1315
1316
0
0
1319
1320
1321
0
0
1324
1325
0
0
0
0
1330
1331
1332
1333
1334
1335
0
0
0
0
0
0
0
0
0
0
0
0
0
0
1350
1351
1352
1353
1354
1355
1356
1357
0
0
0
0
0
0
1364
1365
1366
1367
1368
1369
1370
1371
1372
1373
1374
1375
1376
1377
1378
1379
1380
1381
1382
1383
1384
1385
1386
1387
1388
1389
1390
1391
1392
1393
1394
1395
1396
1397
1398
1399
1400
1401
1402
1403
1404
1405
1406
1407
1408
1409
1410
1411
1412
1413
1414
1415
1416
1417
1418
1419
1420
1421
1422
1423
1424
1425
1426
1427
1428
1429
1430
1431
1432
1433
1434
1435
1436
1437
1438
1439
1440
1441
1442
1443
1444
1445
1446
1447
1448
1449
1450
1451
1452
1453
1454
1455
1456
1457
1458
1459
1460
1461
1462
1463
1464
1465
1466
1467
1468
1469
1470
1471
1472
1473
1474
1475
1476
1477
1478
1479
1480
1481
1482
1483
1484
1485
1486
1487
1488
1489
1490
1491
1492
1493
1494
1495
1496
1497
1498
1499
1500
1501
1502
1503
1504
1505
1506
1507
1508
1509
1510
1511
1512
1513
1514
1515
1516
1517
1518
1519
1520
1521
1522
1523
1524
1525
1526
1527
1528
1529
1530
1531
1532
1533
1534
1535
1536
1537
1538
1539
1540
1541
1542
1543
1544
1545
1546
1547
1548
1549
1550
1551
1552
1553
1554
1555
1556
1557
1558
1559
1560
1561
1562
1563
1564
1565
1566
1567
1568
1569
1570
1571
1572
1573
1574
1575
1576
1577
1578
1579
1580
1581
1582
1583
1584
1585
1586
1587
1588
1589
1590
1591
1592
1593
1594
1595
1596
1597
1598
1599
1600
1601
1602
1603
1604
1605
1606
1607
1608
1609
1610
1611
1612
1613
1614
1615
1616
1617
1618
1619
1620
1621
1622
1623
1624
1625
1626
1627
1628
1629
1630
1631
1632
1633
1634
1635
1636
1637
1638
1639
1640
1641
1642
1643
1644
1645
1646
1647
1648
1649
1650
1651
1652
1653
1654
1655
1656
1657
1658
1659
1660
1661
1662
1663
1664
1665
1666
1667
1668
1669
1670
1671
1672
1673
1674
1675
1676
1677
1678
1679
1680
1681
1682
1683
1684
1685
1686
1687
1688
1689
1690
1691
1692
1693
1694
1695
1696
1697
1698
1699
1700
1701
1702
1703
1704
1705
1706
1707
1708
1709
1710
1711
1712
1713
1714
1715
1716
1717
1718
1719
1720
1721
1722
1723
1724
1725
1726
1727
1728
1729
1730
1731
1732
1733
1734
1735
1736
1737
1738
1739
1740
1741
1742
1743
1744
1745
1746
1747
1748
1749
1750
1751
1752
1753
1754
1755
1756
1757
1758
1759
1760
1761
1762
1763
1764
1765
1766
1767
1768
1769
1770
1771
1772
1773
1774
1775
1776
0
1778
1779
1780
1781
1782
1783
1784
1785
1786
1787
1788
1789
1790
1791
1792
1793
1794
1795
1796
1797
1798
1799
1800
1801
1802
1803
1804
1805
1806
1807
1808
1809
1810
1811
1812
0
0
0
0
0
0
0
0
0
0
0
0
0
0
0
1828
1829
1830
1831
0
0
0
1835
1836
1837
1838
1839
1840
1841
1842
1843
1844
1845
1846
1847
1848
1849
1850
1851
1852
1853
1854
1855
1856
1857
1858
1859
1860
1861
0
0
0
0
1866
1867
1868
1869
1870
1871
1872
1873
1874
1875
1876
1877
1878
1879
0
1881
1882
1883
0
0
1886
1887
0
0
0
1891
1892
1893
1894
1895
0
0
0
0
0
1901
1902
1903
1904
0
0
0
0
1909
1910
1911
1912
1913
0
1915
1916
1917
1918
0
0
0
0
0
1924
1925
1926
0
0
0
0
1931
1932
1933
0
0
1936
1937
1938
1939
1940
1941
1942
1943
1944
1945
1946
1947
1948
0
0
0
0
1953
1954
1955
1956
0
0
0
0
0
0
0
0
0
0
0
1968
1969
1970
1971
1972
1973
0
0
0
1977
1978
1979
1980
1981
1982
1983
1984
1985
1986
1987
1988
1989
1990
1991
1992
1993
1994
1995
1996
1997
1998
1999
2000
2001
2002
2003
2004
2005
2006
2007
2008
2009
2010
0
0
2013
2014
2015
2016
2017
2018
2019
0
0
0
2023
0
0
0
2027
2028
2029
2030
2031
2032
2033
2034
2035
2036
2037
2038
2039
2040
2041
2042
2043
2044
2045
2046
2047
2048
2049
2050
2051
2052
2053
2054
2055
2056
2057
2058
2059
2060
2061
0
2063
0
0
0
2067
2068
2069
2070
2071
2072
2073
2074
2075
2076
2077
2078
2079
2080
2081
2082
2083
2084
2085
0
0
0
0
2090
2091
2092
2093
2094
2095
2096
2097
0
2099
2100
2101
2102
2103
2104
2105
2106
2107
0
0
2110
2111
2112
2113
2114
2115
2116
2117
2118
2119
2120
2121
2122
2123
2124
2125
2126
2127
2128
2129
2130
2131
2132
2133
2134
2135
2136
2137
2138
2139
2140
2141
2142
2143
0
0
0
0
0
2149
2150
2151
2152
2153
2154
2155
2156
2157
2158
2159
2160
2161
2162
2163
2164
2165
2166
2167
2168
2169
2170
2171
2172
2173
2174
2175
2176
2177
2178
2179
2180
2181
2182
2183
2184
2185
2186
2187
2188
2189
2190
2191
2192
2193
2194
2195
2196
2197
2198
2199
2200
2201
2202
2203
2204
2205
2206
2207
2208
2209
2210
2211
2212
2213
2214
2215
2216
2217
2218
2219
2220
2221
2222
2223
2224
2225
2226
2227
2228
2229
2230
2231
2232
2233
2234
2235
2236
2237
2238
2239
2240
2241
2242
2243
2244
2245
2246
2247
2248
2249
2250
2251
2252
2253
2254
2255
2256
2257
2258
2259
2260
2261
2262
2263
2264
2265
2266
2267
2268
2269
2270
2271
2272
2273
2274
2275
2276
2277
2278
2279
2280
2281
2282
2283
2284
2285
2286
2287
2288
2289
2290
2291
2292
2293
2294
2295
2296
2297
2298
2299
2300
2301
2302
2303
2304
2305
2306
2307
2308
2309
2310
2311
2312
2313
2314
2315
2316
2317
2318
2319
2320
2321
2322
2323
2324
2325
2326
2327
2328
2329
2330
2331
2332
2333
2334
2335
2336
2337
2338
2339
2340
2341
2342
2343
2344
2345
2346
2347
2348
2349
2350
2351
2352
2353
2354
2355
2356
2357
2358
2359
2360
2361
2362
2363
2364
2365
2366
2367
2368
2369
2370
2371
2372
2373
2374
2375
2376
2377
2378
2379
2380
2381
2382
2383
2384
2385
2386
2387
2388
2389
2390
2391
2392
2393
2394
2395
2396
2397
2398
2399
2400
2401
2402
2403
2404
2405
2406
2407
2408
2409
2410
2411
2412
2413
2414
2415
2416
2417
2418
2419
2420
2421
2422
2423
2424
2425
2426
2427
2428
2429
2430
2431
2432
2433
2434
2435
2436
2437
2438
2439
2440
2441
2442
2443
2444
2445
2446
2447
2448
2449
2450
2451
2452
2453
2454
2455
2456
2457
2458
2459
2460
2461
2462
2463
2464
2465
2466
2467
2468
2469
2470
2471
2472
2473
2474
2475
2476
2477
2478
2479
2480
2481
2482
2483
2484
2485
2486
2487
2488
2489
2490
2491
2492
2493
2494
2495
2496
2497
2498
2499
2500
2501
2502
2503
2504
2505
2506
2507
2508
2509
2510
2511
2512
2513
2514
2515
2516
2517
2518
2519
2520
2521
2522
2523
2524
2525
2526
2527
2528
2529
2530
2531
2532
2533
2534
2535
2536
2537
2538
2539
2540
2541
2542
2543
2544
2545
2546
2547
2548
2549
2550
2551
2552
2553
2554
2555
2556
2557
2558
2559
2560
2561
2562
2563
2564
2565
2566
2567
2568
2569
2570
2571
2572
2573
2574
2575
2576
2577
2578
2579
2580
2581
2582
2583
2584
2585
2586
2587
2588
2589
2590
2591
2592
2593
2594
2595
2596
2597
2598
2599
2600
2601
2602
2603
2604
2605
2606
2607
2608
2609
2610
2611
2612
2613
2614
2615
2616
2617
2618
2619
2620
2621
2622
2623
2624
2625
2626
2627
2628
2629
2630
2631
2632
2633
2634
2635
2636
2637
2638
2639
2640
2641
2642
2643
2644
2645
2646
2647
2648
2649
2650
2651
2652
2653
2654
2655
2656
2657
2658
2659
2660
2661
2662
2663
2664
2665
2666
2667
2668
2669
2670
2671
2672
2673
2674
2675
2676
2677
2678
2679
2680
2681
2682
2683
2684
2685
2686
2687
2688
2689
2690
2691
2692
2693
2694
2695
2696
2697
2698
2699
2700
2701
2702
2703
2704
2705
2706
2707
2708
2709
2710
2711
2712
2713
2714
2715
2716
2717
2718
2719
2720
2721
2722
2723
2724
2725
2726
2727
2728
2729
2730
2731
2732
2733
2734
2735
2736
2737
2738
2739
2740
2741
2742
2743
2744
2745
2746
2747
2748
2749
2750
2751
2752
2753
2754
2755
2756
2757
2758
2759
2760
2761
2762
0
0
2765
2766
0
2768
2769
2770
2771
0
0
0
0
0
0
0
2779
2780
2781
2782
2783
2784
2785
2786
2787
2788
2789
2790
2791
2792
2793
2794
2795
2796
2797
2798
2799
2800
2801
2802
2803
2804
2805
2806
2807
2808
2809
2810
2811
2812
2813
2814
2815
2816
2817
2818
2819
2820
2821
2822
2823
2824
2825
2826
2827
2828
2829
2830
2831
2832
2833
2834
2835
2836
2837
2838
2839
2840
2841
2842
2843
2844
2845
2846
2847
2848
2849
2850
2851
2852
2853
2854
2855
2856
2857
2858
2859
2860
2861
2862
2863
2864
2865
2866
2867
2868
2869
2870
2871
2872
2873
2874
2875
2876
2877
2878
2879
2880
2881
2882
2883
2884
2885
2886
2887
2888
2889
2890
2891
2892
2893
2894
2895
2896
2897
2898
2899
2900
2901
2902
2903
2904
2905
2906
2907
2908
2909
2910
2911
2912
2913
2914
2915
2916
2917
2918
2919
2920
2921
2922
2923
2924
2925
2926
2927
2928
2929
2930
2931
2932
2933
2934
2935
2936
2937
2938
2939
2940
2941
2942
2943
2944
2945
2946
2947
2948
2949
2950
2951
2952
2953
2954
2955
2956
2957
2958
2959
2960
2961
2962
2963
2964
2965
2966
2967
2968
2969
2970
2971
2972
2973
2974
2975
2976
2977
2978
2979
2980
2981
2982
2983
2984
2985
2986
2987
2988
2989
2990
2991
2992
2993
2994
2995
2996
2997
2998
2999
3000
3001
3002
3003
3004
3005
3006
3007
3008
3009
3010
3011
3012
3013
3014
3015
3016
3017
3018
3019
3020
3021
3022
3023
3024
3025
3026
3027
3028
3029
3030
3031
3032
3033
3034
3035
3036
3037
3038
0
0
4
5
6
7
8
9
10
11
0
0
0
15
16
0
0
0
0
0
0
0
24
25
26
27
28
29
30
0
0
0
0
0
0
0
0
39
40
41
42
43
44
0
0
0
0
0
0
0
0
0
0
0
0
0
0
0
0
61
62
0
0
0
0
67
68
69
70
71
0
0
0
0
76
77
78
79
0
0
0
0
0
0
0
87
88
89
0
0
0
0
94
95
0
0
0
99
100
101
102
0
0
105
106
0
0
0
0
0
0
113
114
115
116
117
118
0
0
121
122
123
124
125
126
127
0
0
0
0
0
0
134
135
136
137
138
139
140
141
142
143
144
145
146
147
0
0
0
0
152
153
154
155
0
0
0
0
160
161
162
163
164
165
166
167
168
169
170
171
172
173
174
175
176
177
178
179
180
181
182
183
184
185
186
187
188
189
190
191
192
193
0
0
0
197
198
199
200
0
0
0
0
205
206
207
208
0
0
0
0
213
214
215
216
217
218
219
0
0
0
0
0
0
0
227
228
0
0
0
0
0
0
0
236
237
0
0
240
241
242
0
0
0
0
0
0
0
0
0
0
0
0
255
256
0
0
0
0
0
0
0
0
0
266
267
268
269
0
0
0
273
274
275
276
277
0
0
0
0
282
0
0
0
0
0
0
289
290
291
0
0
0
0
0
297
298
0
0
0
0
303
304
305
306
307
0
0
0
0
0
0
0
0
0
0
0
0
0
0
0
0
0
325
326
327
328
329
330
331
332
333
334
335
336
337
338
339
340
341
342
343
344
345
346
347
348
349
350
351
352
353
354
355
0
0
0
0
0
0
0
0
0
365
366
367
0
0
0
0
0
0
0
0
376
377
378
0
0
0
0
0
0
0
0
0
0
0
0
0
0
0
394
395
396
397
398
399
400
401
402
403
404
405
406
407
408
409
410
411
412
413
414
415
0
0
0
0
0
0
0
0
0
0
0
0
0
0
0
0
0
0
0
0
0
0
0
0
440
441
442
443
444
445
446
0
0
0
0
451
452
453
0
0
456
0
0
0
0
0
0
0
0
0
0
0
0
0
0
0
0
0
0
0
0
0
0
0
0
0
0
0
0
0
0
0
0
0
0
0
0
0
0
0
0
0
498
499
500
0
0
0
0
0
0
0
0
509
510
511
512
513
514
515
516
517
518
519
520
521
522
523
524
525
526
527
528
529
530
531
532
533
534
535
536
537
538
539
540
541
542
543
544
545
546
547
548
549
550
551
552
553
0
0
0
0
0
0
0
0
0
0
0
0
0
0
0
0
0
571
572
0
574
575
576
577
578
579
580
581
582
583
584
585
586
587
588
589
590
591
592
593
594
595
596
597
598
599
600
601
602
603
604
605
606
607
608
609
610
611
612
613
614
615
616
617
618
619
620
621
622
623
624
625
626
627
628
629
630
631
632
633
634
635
636
637
638
639
640
641
642
643
644
645
646
647
648
649
650
651
652
653
654
655
656
657
658
659
660
661
0
0
0
0
0
0
0
669
670
0
0
0
0
0
676
677
678
679
680
681
682
683
684
685
686
687
688
689
0
691
692
693
694
695
696
0
0
0
700
701
702
703
704
705
706
707
708
709
0
0
712
713
714
715
0
0
0
0
0
0
0
0
0
0
0
0
0
729
730
731
732
733
734
735
736
0
0
0
0
741
742
743
0
0
0
0
0
0
0
0
0
753
754
755
756
757
758
759
760
761
762
763
764
765
766
767
768
769
770
771
772
773
774
775
776
777
0
0
0
0
0
0
0
0
786
787
788
789
790
791
792
793
794
795
796
797
798
799
800
801
802
803
804
805
806
807
808
809
810
811
812
813
814
815
816
817
818
819
820
821
822
823
824
825
826
827
828
829
830
831
832
833
834
835
836
837
838
839
840
841
842
843
844
845
846
847
848
849
850
851
852
853
854
855
856
857
858
859
860
861
862
863
864
865
866
867
868
869
870
871
872
873
874
875
876
877
878
879
880
881
882
883
884
885
886
887
888
889
890
891
892
893
894
895
896
897
898
899
900
901
902
903
904
905
906
907
908
909
910
911
0
0
914
915
916
917
918
919
920
921
922
923
924
925
926
927
928
929
930
0
0
0
0
0
0
0
0
0
0
0
0
0
0
945
946
947
948
949
950
951
952
953
954
955
956
957
958
959
960
961
962
963
964
965
966
967
968
969
970
971
972
973
974
975
976
977
978
979
980
981
982
983
984
985
986
987
988
989
990
991
992
993
994
995
996
997
998
999
1000
1001
1002
1003
1004
1005
1006
1007
1008
1009
1010
1011
1012
1013
1014
1015
1016
1017
1018
1019
1020
1021
1022
1023
1024
1025
1026
1027
1028
1029
1030
1031
1032
1033
1034
1035
1036
1037
1038
1039
1040
1041
1042
1043
1044
0
0
1047
1048
1049
1050
1051
1052
1053
1054
1055
1056
1057
1058
1059
1060
1061
1062
1063
1064
1065
1066
1067
1068
1069
1070
1071
1072
1073
1074
1075
1076
1077
1078
1079
1080
1081
1082
1083
1084
1085
1086
1087
1088
1089
1090
1091
1092
1093
1094
1095
1096
1097
1098
1099
1100
0
0
0
0
1105
1106
1107
1108
1109
1110
0
0
0
0
1115
0
0
0
0
0
0
0
0
0
0
1126
1127
1128
1129
1130
0
0
0
1134
1135
1136
1137
0
0
0
1141
0
0
0
1145
1146
1147
1148
0
0
0
1152
1153
1154
1155
1156
0
0
0
1160
1161
1162
1163
1164
1165
1166
1167
1168
1169
1170
1171
0
0
0
1175
1176
1177
0
0
0
1181
1182
1183
1184
1185
1186
1187
1188
1189
1190
1191
1192
1193
1194
1195
1196
1197
1198
1199
1200
1201
1202
1203
1204
1205
1206
1207
1208
1209
1210
1211
1212
1213
1214
1215
1216
1217
1218
1219
1220
1221
1222
1223
1224
1225
1226
1227
1228
1229
1230
1231
1232
1233
1234
1235
1236
1237
1238
1239
1240
1241
1242
1243
1244
1245
1246
1247
1248
1249
1250
1251
1252
1253
1254
1255
1256
1257
1258
1259
1260
1261
1262
1263
1264
1265
1266
1267
0
0
0
0
0
1273
1274
1275
1276
1277
1278
1279
1280
1281
1282
1283
0
0
1286
1287
1288
1289
1290
1291
1292
0
0
0
0
0
0
1299
1300
1301
1302
1303
0
0
1306
1307
1308
1309
1310
1311
1312
1313
1314
1315
1316
1317
1318
1319
1320
1321
1322
1323
1324
1325
1326
0
0
1329
1330
1331
1332
1333
1334
1335
1336
1337
1338
1339
1340
1341
0
0
0
0
1346
1347
0
1349
1350
1351
1352
0
0
0
0
0
1358
1359
1360
1361
1362
1363
1364
1365
1366
1367
1368
1369
1370
1371
1372
1373
1374
1375
1376
1377
1378
1379
1380
1381
1382
1383
1384
1385
1386
1387
1388
1389
1390
1391
1392
1393
1394
1395
1396
1397
1398
1399
1400
1401
1402
1403
1404
1405
1406
1407
1408
1409
1410
1411
1412
1413
1414
1415
1416
1417
1418
1419
1420
1421
1422
1423
1424
1425
1426
1427
1428
1429
1430
1431
1432
1433
1434
1435
1436
1437
1438
1439
1440
1441
1442
1443
1444
1445
1446
1447
1448
1449
1450
1451
1452
1453
1454
1455
1456
1457
1458
1459
1460
1461
1462
1463
1464
1465
1466
1467
1468
1469
1470
1471
1472
1473
1474
1475
1476
1477
1478
1479
1480
1481
1482
1483
1484
1485
1486
1487
1488
1489
1490
1491
1492
1493
1494
1495
1496
1497
1498
1499
1500
1501
1502
1503
1504
1505
1506
1507
1508
1509
1510
1511
1512
1513
1514
1515
1516
1517
1518
1519
1520
1521
1522
1523
1524
1525
1526
1527
1528
1529
1530
1531
1532
1533
1534
1535
1536
1537
1538
1539
1540
1541
1542
1543
1544
1545
1546
1547
1548
1549
1550
1551
1552
1553
1554
1555
1556
1557
1558
1559
1560
1561
1562
1563
1564
1565
1566
1567
1568
1569
1570
1571
1572
1573
1574
1575
1576
1577
1578
1579
1580
1581
1582
1583
1584
1585
1586
1587
1588
1589
1590
1591
1592
1593
1594
1595
1596
1597
1598
1599
1600
1601
1602
1603
1604
1605
1606
1607
1608
1609
1610
1611
1612
1613
1614
1615
1616
1617
1618
1619
1620
1621
1622
1623
1624
1625
1626
1627
1628
1629
1630
1631
1632
1633
1634
1635
1636
1637
1638
1639
1640
1641
1642
1643
1644
1645
1646
1647
1648
1649
1650
1651
1652
1653
1654
1655
1656
1657
1658
1659
1660
1661
1662
1663
1664
1665
1666
1667
1668
1669
1670
1671
1672
1673
1674
1675
1676
1677
1678
1679
1680
1681
1682
1683
1684
1685
1686
1687
1688
1689
1690
1691
1692
1693
1694
1695
1696
1697
1698
1699
1700
1701
1702
1703
1704
1705
1706
1707
1708
1709
1710
1711
1712
1713
1714
1715
1716
1717
1718
1719
1720
1721
1722
1723
1724
1725
1726
1727
1728
1729
1730
1731
1732
1733
1734
1735
1736
1737
1738
1739
1740
1741
1742
1743
1744
1745
1746
1747
1748
1749
1750
1751
1752
1753
1754
1755
1756
1757
1758
1759
1760
1761
1762
1763
1764
1765
1766
1767
1768
1769
1770
1771
0
1773
1774
1775
1776
1777
1778
1779
1780
1781
1782
1783
1784
1785
1786
1787
1788
1789
1790
1791
1792
1793
1794
1795
1796
1797
1798
1799
1800
1801
1802
1803
1804
1805
1806
1807
1808
1809
1810
1811
1812
0
0
0
0
0
0
0
1820
1821
0
0
0
1825
1826
1827
1828
1829
1830
1831
1832
1833
1834
0
1836
1837
1838
0
0
0
1842
1843
1844
1845
1846
1847
1848
1849
1850
1851
1852
1853
0
0
0
1857
1858
1859
0
0
0
0
0
0
1866
1867
1868
0
0
0
0
0
0
1875
1876
1877
1878
1879
1880
1881
1882
1883
1884
1885
1886
0
0
0
0
0
0
1893
1894
1895
1896
1897
1898
1899
1900
1901
1902
1903
1904
1905
1906
1907
1908
1909
0
0
0
0
1914
1915
1916
1917
1918
0
0
0
0
0
0
1925
1926
1927
1928
1929
1930
1931
1932
1933
1934
1935
1936
1937
0
0
0
0
1942
1943
1944
1945
0
1947
1948
1949
1950
0
0
0
1954
1955
1956
1957
1958
1959
1960
1961
0
0
0
0
1966
0
0
0
1970
0
0
0
1974
1975
1976
1977
1978
1979
1980
1981
1982
1983
1984
1985
1986
1987
1988
1989
1990
1991
1992
1993
1994
1995
1996
1997
1998
1999
2000
2001
2002
2003
2004
2005
2006
2007
2008
2009
2010
0
0
0
0
0
0
2017
2018
0
2020
2021
2022
2023
0
2025
2026
2027
2028
2029
2030
2031
2032
2033
2034
2035
2036
2037
2038
2039
2040
2041
2042
2043
2044
2045
2046
2047
2048
2049
2050
2051
2052
2053
2054
2055
2056
2057
2058
2059
2060
2061
2062
2063
2064
2065
0
0
0
0
0
0
2072
2073
2074
2075
2076
2077
2078
2079
2080
2081
2082
2083
2084
2085
2086
2087
2088
0
0
2091
2092
2093
2094
2095
2096
2097
2098
2099
2100
2101
2102
2103
2104
0
0
2107
2108
2109
2110
2111
2112
2113
2114
2115
2116
2117
2118
2119
2120
2121
2122
2123
2124
2125
2126
2127
2128
2129
2130
2131
2132
2133
2134
2135
2136
2137
2138
2139
2140
2141
2142
2143
2144
2145
2146
2147
2148
2149
2150
2151
2152
2153
2154
2155
2156
2157
2158
2159
2160
2161
2162
2163
2164
2165
2166
2167
2168
2169
2170
2171
2172
2173
2174
2175
2176
2177
2178
2179
2180
2181
2182
2183
2184
2185
2186
2187
2188
2189
2190
2191
2192
2193
2194
2195
2196
2197
2198
2199
2200
2201
2202
2203
2204
2205
2206
2207
2208
2209
2210
2211
2212
2213
2214
2215
2216
2217
2218
2219
2220
2221
2222
2223
2224
2225
2226
2227
2228
2229
2230
2231
2232
2233
2234
2235
2236
2237
2238
2239
2240
2241
2242
2243
2244
2245
2246
2247
2248
2249
2250
2251
2252
2253
2254
2255
2256
2257
2258
2259
2260
2261
2262
2263
2264
2265
2266
2267
2268
2269
2270
2271
2272
2273
2274
2275
2276
2277
2278
2279
2280
2281
2282
2283
2284
2285
2286
2287
2288
2289
2290
2291
2292
2293
2294
2295
2296
2297
2298
2299
2300
2301
2302
2303
2304
2305
2306
2307
2308
2309
2310
2311
2312
2313
2314
2315
2316
2317
2318
2319
2320
2321
2322
2323
2324
2325
2326
2327
2328
2329
2330
2331
2332
2333
2334
2335
2336
2337
2338
2339
2340
2341
2342
2343
2344
2345
2346
2347
2348
2349
2350
2351
2352
2353
2354
2355
2356
2357
2358
2359
2360
2361
2362
2363
2364
2365
2366
2367
2368
2369
2370
2371
2372
2373
2374
2375
2376
2377
2378
2379
2380
2381
2382
2383
2384
2385
2386
2387
2388
2389
2390
2391
2392
2393
2394
2395
2396
2397
2398
2399
2400
2401
2402
2403
2404
2405
2406
2407
2408
2409
2410
2411
2412
2413
2414
2415
2416
2417
2418
2419
2420
2421
2422
2423
2424
2425
2426
2427
2428
2429
2430
2431
2432
2433
2434
2435
2436
2437
2438
2439
2440
2441
2442
2443
2444
2445
2446
2447
2448
2449
2450
2451
2452
2453
2454
2455
2456
2457
2458
2459
2460
2461
2462
2463
2464
2465
2466
2467
2468
2469
2470
2471
2472
2473
2474
2475
2476
2477
2478
2479
2480
2481
2482
2483
2484
2485
2486
2487
2488
2489
2490
2491
2492
2493
2494
2495
2496
2497
2498
2499
2500
2501
2502
2503
2504
2505
2506
2507
2508
2509
2510
2511
2512
2513
2514
2515
2516
2517
2518
2519
2520
2521
2522
2523
2524
2525
2526
2527
2528
2529
2530
2531
2532
2533
2534
2535
2536
2537
2538
2539
2540
2541
2542
2543
2544
2545
2546
2547
2548
2549
2550
2551
2552
2553
2554
2555
2556
2557
2558
2559
2560
2561
2562
2563
2564
2565
2566
2567
2568
2569
2570
2571
2572
2573
2574
2575
2576
2577
2578
2579
2580
2581
2582
2583
2584
2585
2586
2587
2588
2589
2590
2591
2592
2593
2594
2595
2596
2597
2598
2599
2600
2601
2602
2603
2604
2605
2606
2607
2608
2609
2610
2611
2612
2613
2614
2615
2616
2617
2618
2619
2620
2621
2622
2623
2624
2625
2626
2627
2628
2629
2630
2631
2632
2633
2634
2635
2636
2637
2638
2639
2640
2641
2642
2643
2644
2645
2646
2647
2648
2649
2650
2651
2652
2653
2654
2655
2656
2657
2658
2659
2660
2661
2662
2663
2664
2665
2666
2667
2668
2669
2670
2671
2672
2673
2674
2675
2676
2677
2678
2679
2680
2681
2682
2683
2684
2685
2686
2687
2688
2689
2690
2691
2692
2693
2694
2695
2696
2697
2698
2699
2700
2701
2702
2703
2704
2705
2706
2707
2708
2709
2710
2711
2712
2713
2714
2715
2716
2717
2718
2719
2720
2721
2722
2723
2724
2725
2726
2727
2728
2729
2730
2731
2732
2733
2734
2735
2736
2737
2738
2739
2740
2741
2742
2743
2744
2745
2746
2747
2748
2749
2750
2751
2752
2753
2754
2755
2756
2757
2758
2759
2760
2761
2762
2763
2764
2765
2766
2767
2768
2769
2770
2771
2772
2773
2774
2775
2776
2777
2778
2779
2780
2781
2782
2783
2784
2785
2786
2787
2788
2789
2790
2791
2792
2793
2794
2795
2796
2797
2798
2799
2800
2801
2802
2803
2804
2805
2806
2807
2808
2809
2810
2811
2812
2813
2814
2815
2816
2817
2818
2819
2820
2821
2822
2823
2824
2825
2826
2827
2828
2829
2830
2831
2832
2833
2834
2835
2836
2837
2838
2839
2840
2841
2842
2843
2844
2845
2846
2847
2848
2849
2850
2851
2852
2853
2854
2855
2856
2857
2858
2859
2860
2861
2862
2863
2864
2865
2866
2867
2868
2869
2870
2871
2872
2873
2874
2875
2876
2877
2878
2879
2880
2881
2882
2883
2884
2885
2886
2887
2888
2889
2890
2891
2892
2893
2894
2895
2896
2897
2898
2899
2900
2901
2902
2903
2904
2905
2906
2907
2908
2909
2910
2911
2912
2913
2914
2915
2916
2917
2918
2919
2920
2921
2922
2923
2924
2925
2926
2927
2928
2929
2930
2931
2932
2933
2934
2935
2936
2937
2938
2939
2940
2941
2942
2943
2944
2945
2946
2947
2948
2949
2950
2951
2952
2953
2954
2955
2956
2957
2958
2959
2960
2961
2962
2963
2964
2965
2966
2967
2968
2969
2970
2971
2972
2973
2974
2975
2976
2977
2978
2979
2980
2981
2982
2983
2984
2985
2986
2987
2988
2989
2990
2991
2992
2993
2994
2995
2996
2997
2998
2999
3000
3001
3002
3003
3004
3005
3006
3007
3008
3009
3010
3011
3012
3013
3014
3015
3016
3017
3018
3019
3020
3021
3022
3023
3024
3025
3026
3027
3028
3029
3030
3031
3032
3033
3034
3035
3036
3037
3038
EOF
