DIMENSION : 439
NUMBER OF ITEMS : 2190

TOUR_SECTION
1
4
5
6
7
8
9
10
11
12
13
14
15
16
17
33
34
35
36
37
38
39
40
41
43
42
44
45
46
49
47
48
50
51
53
54
55
56
82
81
80
79
57
58
78
86
87
77
59
60
61
76
75
62
32
31
30
28
26
27
29
63
73
74
64
25
23
21
22
24
65
66
67
20
19
18
68
69
70
71
72
88
89
90
91
104
105
106
107
108
109
110
111
112
146
144
147
148
145
185
190
224
223
233
234
235
236
237
238
239
240
241
242
243
244
245
246
247
248
249
250
210
211
212
213
214
215
216
217
218
219
220
221
222
191
184
192
183
193
194
195
196
197
198
199
200
201
202
203
205
206
172
173
174
204
175
176
177
178
179
180
181
182
154
155
156
157
158
159
160
161
162
163
134
135
136
137
138
139
140
141
142
152
153
151
150
143
113
114
116
118
119
121
122
101
120
117
115
103
102
92
93
94
100
95
96
97
98
99
125
123
124
126
127
129
128
130
131
132
133
167
165
164
166
169
168
170
171
207
208
209
251
253
252
255
254
316
315
317
318
319
320
321
322
323
324
325
326
327
328
329
331
332
330
303
302
304
305
306
307
308
309
310
311
312
313
314
256
257
258
259
260
261
262
263
264
265
266
267
268
269
270
271
272
301
273
274
275
276
277
278
279
294
295
296
297
298
299
300
333
334
335
336
337
338
339
360
370
361
362
363
364
365
366
367
368
369
378
385
386
387
388
401
400
402
404
405
417
418
428
429
431
416
415
419
420
421
414
406
407
413
412
423
422
432
433
430
427
424
426
425
410
411
409
408
403
434
438
437
436
435
439
284
344
343
342
341
373
371
372
383
382
384
394
395
393
397
396
398
399
392
391
381
375
374
380
390
389
379
377
376
345
346
348
347
349
350
351
353
352
354
355
356
358
357
359
293
292
291
290
289
288
340
287
286
285
280
232
231
225
189
188
187
230
281
282
229
283
228
227
226
186
149
85
84
83
52
2
3

PP_SECTION
2
3
0
0
0
0
8
0
0
0
0
0
0
0
0
0
0
19
0
0
0
0
24
0
0
0
0
0
0
0
0
0
34
0
0
37
0
0
0
0
0
0
0
0
0
0
0
0
0
0
52
0
0
0
0
0
0
0
0
0
0
0
64
0
0
0
0
0
0
0
0
0
0
75
76
0
78
0
0
0
0
83
84
0
0
0
88
89
0
0
0
0
0
0
0
0
0
0
0
0
0
103
0
0
0
0
0
0
0
111
0
0
0
0
0
0
118
0
0
0
0
0
0
0
126
127
0
0
0
0
0
0
0
0
0
0
0
0
0
0
0
0
0
0
0
0
0
0
0
0
0
153
0
0
0
0
0
0
0
161
162
0
0
0
0
0
0
0
0
0
172
0
174
0
0
0
0
0
0
0
182
0
0
0
0
187
0
0
0
0
0
193
0
0
0
0
0
0
200
0
0
0
0
0
206
207
0
209
210
0
0
0
0
0
0
0
0
219
0
0
0
0
0
225
0
0
228
0
0
0
0
233
0
0
0
0
0
0
0
0
0
0
0
0
0
0
0
0
0
251
0
253
0
0
256
0
0
0
0
0
262
263
0
0
0
0
0
0
0
0
0
0
0
0
276
277
0
0
280
281
0
283
0
285
286
0
0
289
0
291
0
0
0
0
0
0
298
0
0
0
0
0
0
0
306
307
0
0
0
0
0
0
0
0
316
317
0
319
0
0
0
0
0
0
0
0
0
0
0
331
0
0
0
335
336
0
0
339
0
0
0
343
0
345
346
0
0
0
0
351
0
0
354
0
0
0
358
0
0
0
0
0
0
0
0
0
368
369
0
0
372
0
374
375
0
377
0
379
0
381
382
0
384
0
0
387
0
0
390
0
0
0
0
0
396
397
398
0
0
401
0
0
404
0
0
0
0
0
0
411
412
0
0
0
0
0
0
0
0
0
0
0
424
0
0
0
428
0
0
0
432
0
0
0
0
0
438
0
2
3
0
0
0
7
0
0
0
0
12
0
0
0
0
0
0
0
0
0
0
0
0
0
26
27
0
0
0
0
0
0
0
35
0
0
0
0
0
0
42
0
0
0
0
0
0
49
0
0
52
0
54
55
0
0
0
0
60
0
0
63
64
0
0
0
0
0
0
0
0
0
74
0
76
0
78
0
80
0
0
0
84
85
0
0
0
0
0
0
0
0
0
0
0
0
0
0
100
0
0
0
104
0
0
0
0
0
110
0
0
0
0
0
0
0
0
0
0
0
0
0
0
125
126
0
0
0
0
0
0
133
0
0
0
0
138
139
0
141
0
0
0
0
0
0
0
149
0
0
0
0
0
0
0
157
0
0
0
0
0
0
0
0
0
0
0
0
0
0
0
0
0
0
0
0
178
0
0
0
182
0
0
0
186
0
0
0
190
0
0
0
0
195
0
0
0
0
0
0
0
0
0
0
0
207
0
209
210
0
0
0
0
215
0
0
0
219
0
0
0
0
0
0
226
227
228
0
0
231
0
233
0
0
0
0
0
0
0
0
0
0
0
0
0
0
0
0
0
0
0
0
0
0
0
0
0
0
0
261
262
263
0
0
0
0
0
0
0
0
0
0
0
275
276
0
278
279
280
281
0
0
284
285
0
0
0
0
0
0
0
0
0
0
0
0
0
0
300
0
0
303
0
0
0
0
0
0
0
0
0
0
0
0
316
0
0
0
0
0
0
0
0
325
0
0
0
329
0
0
0
0
0
0
0
0
0
0
340
341
0
0
0
0
346
347
0
349
0
351
0
0
0
355
0
0
358
0
0
0
0
363
0
0
366
367
0
369
0
0
0
0
0
0
376
0
378
0
0
0
0
0
0
0
0
0
0
0
390
391
392
0
0
395
0
0
0
399
400
0
0
0
404
0
0
407
0
0
0
411
412
413
0
0
416
417
0
0
0
0
0
0
424
0
0
0
0
0
0
0
0
0
0
435
0
437
438
439
0
3
0
5
6
0
0
0
0
0
12
0
0
0
0
0
0
19
0
0
0
0
0
0
26
0
0
0
0
0
32
0
0
0
0
0
0
0
0
0
0
0
0
0
0
0
0
0
0
0
52
0
0
0
0
0
0
0
60
0
0
0
0
0
0
0
0
69
0
0
0
0
0
0
76
0
0
0
0
0
0
83
0
85
86
0
0
0
0
0
0
93
0
0
0
0
0
0
0
0
0
0
0
105
0
0
0
0
0
0
0
113
0
115
116
0
118
0
0
121
0
0
124
0
0
0
128
0
0
0
0
0
0
0
0
0
0
0
0
0
0
0
0
0
0
0
148
0
0
151
0
0
0
0
0
0
158
159
0
161
0
0
0
0
0
0
0
0
0
171
0
173
174
0
0
0
178
0
0
0
0
0
0
0
186
0
188
0
0
191
0
0
0
0
0
0
0
0
0
0
0
0
0
0
0
207
0
0
0
0
0
0
0
0
0
217
218
0
0
0
0
223
0
225
226
227
0
229
230
0
232
233
234
0
0
237
0
0
0
0
0
243
0
0
246
0
0
249
0
251
0
0
0
0
0
0
0
0
260
0
0
0
264
0
0
0
0
0
0
271
0
0
0
0
0
0
278
0
280
281
282
283
0
285
0
0
0
289
0
0
0
0
0
295
0
0
0
299
300
301
0
0
0
0
0
307
308
0
310
0
312
313
314
0
0
0
0
0
0
0
0
0
0
325
0
327
0
0
0
0
0
0
334
335
336
0
338
0
0
0
0
0
0
0
346
0
348
0
0
0
0
0
354
355
0
0
0
359
0
0
0
0
0
0
0
0
0
0
0
371
0
373
0
0
0
0
0
0
0
381
382
0
384
0
386
0
388
0
390
0
392
0
0
0
0
397
0
399
0
0
0
0
0
405
0
0
408
409
0
0
0
0
0
0
0
417
418
0
420
0
0
423
424
0
0
0
0
0
0
431
0
0
0
435
0
437
0
0
2
3
0
0
0
0
0
0
0
0
0
13
14
0
0
0
0
19
20
0
0
0
0
0
0
0
0
0
0
0
0
0
0
0
36
0
0
0
0
41
0
0
44
0
0
0
0
0
0
0
52
0
54
55
0
0
58
59
0
61
62
0
0
0
0
0
0
0
0
0
0
0
0
0
0
0
0
0
0
0
0
0
84
85
0
0
0
0
90
91
0
0
0
95
0
0
0
99
0
0
0
0
0
105
0
0
0
0
0
0
112
0
114
0
0
0
0
0
0
0
0
0
0
125
126
0
0
0
130
0
0
0
0
0
0
0
0
0
0
0
142
0
0
0
0
147
0
149
0
151
0
0
0
0
0
0
0
159
0
0
0
0
0
0
0
0
0
0
0
0
0
0
174
0
0
0
0
0
0
0
0
0
0
0
0
187
0
0
0
0
0
0
0
0
0
0
0
199
200
0
0
203
0
205
0
0
0
0
0
0
0
0
214
0
0
217
0
0
220
0
0
223
0
0
0
0
228
0
230
231
0
233
0
0
0
0
0
0
240
0
0
243
0
0
0
247
0
0
0
251
0
0
0
0
0
0
0
0
0
0
0
0
264
0
0
0
0
0
270
0
0
273
0
0
0
0
278
0
0
281
282
283
0
0
0
0
0
0
290
0
0
293
0
295
0
0
298
299
0
301
0
0
0
0
306
307
0
0
0
0
0
0
0
0
0
317
0
0
0
0
0
0
0
0
0
0
0
329
0
0
0
0
334
0
336
0
338
0
340
0
342
0
0
345
0
347
348
0
350
351
0
353
0
355
0
0
0
0
0
0
362
0
0
0
0
0
0
0
370
0
0
0
374
0
376
0
0
0
0
381
0
0
0
0
0
0
0
0
0
391
0
0
0
0
0
0
0
0
0
401
0
403
0
0
0
0
408
0
0
0
0
0
414
415
0
0
0
0
0
0
0
0
0
0
426
427
428
0
0
431
0
0
0
435
0
437
0
439
2
3
0
0
0
0
0
0
10
11
0
0
0
0
16
0
18
0
20
0
0
0
24
0
0
0
0
29
30
0
32
0
0
0
0
37
38
0
0
0
0
43
0
0
0
0
0
0
0
0
52
0
0
0
56
0
0
0
0
61
0
0
64
0
0
0
0
0
0
0
0
0
0
0
0
0
0
0
0
0
0
83
0
0
0
0
0
0
0
0
0
0
0
0
0
0
0
0
0
0
0
0
0
105
106
0
108
0
0
0
0
0
0
0
0
0
0
0
0
121
122
0
0
0
0
0
0
0
0
0
0
0
0
0
0
0
0
0
0
0
0
0
0
0
0
0
0
149
0
151
0
0
0
0
0
157
0
0
160
0
0
0
0
0
0
0
0
0
0
171
0
0
0
0
176
0
0
179
0
0
0
0
0
185
0
0
188
189
0
0
0
0
194
0
0
0
0
0
0
0
0
0
0
0
206
0
0
0
0
0
0
0
0
215
216
0
218
0
0
221
0
0
224
0
0
0
228
229
230
231
0
0
234
0
0
0
0
0
0
241
0
243
0
245
0
0
0
0
0
0
0
0
0
0
0
0
0
0
0
0
0
0
0
0
0
0
0
269
0
0
0
0
0
0
276
277
278
279
0
0
0
0
0
285
0
0
288
0
290
291
0
293
0
295
0
297
0
0
0
301
0
0
0
0
0
0
0
0
310
0
312
0
0
315
316
0
0
0
0
0
322
0
324
0
0
327
0
0
0
0
0
0
0
0
0
337
0
0
0
0
0
0
0
0
0
0
0
0
0
351
352
353
354
0
0
0
0
0
0
0
0
363
364
0
0
0
0
0
370
371
0
373
0
0
376
377
0
0
380
381
0
383
0
385
0
387
388
389
0
391
0
0
0
395
0
0
398
399
0
0
0
0
0
0
406
407
0
0
410
0
0
0
414
0
416
0
0
419
0
421
0
423
424
0
0
0
0
0
0
0
0
0
0
0
0
437
438
439
EOF
