DIMENSION : 439
NUMBER OF ITEMS : 2190

TOUR_SECTION
1
3
2
52
83
84
85
149
186
226
227
228
283
229
282
281
230
187
188
189
225
231
232
280
285
286
287
340
288
289
290
291
292
293
359
357
358
356
355
354
352
353
351
350
349
347
348
346
345
376
377
379
389
390
380
374
375
381
391
392
399
398
396
397
393
395
394
384
382
383
372
371
373
341
342
343
344
284
439
435
436
437
438
434
403
408
409
411
410
425
426
424
427
430
433
432
422
423
412
413
407
406
414
421
420
419
415
416
431
429
428
418
417
405
404
402
400
401
388
387
386
385
378
369
368
367
366
365
364
363
362
361
370
360
339
338
337
336
335
334
333
300
299
298
297
296
295
294
279
278
277
276
275
274
273
301
272
271
270
269
268
267
266
265
264
263
262
261
260
259
258
257
256
314
313
312
311
310
309
308
307
306
305
304
302
303
330
332
331
329
328
327
326
325
324
323
322
321
320
319
318
317
315
316
254
255
252
253
251
209
208
207
171
170
168
169
166
164
165
167
133
132
131
130
128
129
127
126
124
123
125
99
98
97
96
95
100
94
93
92
102
103
115
117
120
101
122
121
119
118
116
114
113
143
150
151
153
152
142
141
140
139
138
137
136
135
134
163
162
161
160
159
158
157
156
155
154
182
181
180
179
178
177
176
175
204
174
173
172
206
205
203
202
201
200
199
198
197
196
195
194
193
183
192
184
191
222
221
220
219
218
217
216
215
214
213
212
211
210
250
249
248
247
246
245
244
243
242
241
240
239
238
237
236
235
234
233
223
224
190
185
145
148
147
144
146
112
111
110
109
108
107
106
105
104
91
90
89
88
72
71
70
69
68
18
19
20
67
66
65
24
22
21
23
25
64
74
73
63
29
27
26
28
30
31
32
62
75
76
61
60
59
77
87
86
78
58
57
79
80
81
82
56
55
54
53
51
50
48
47
49
46
45
44
42
43
41
40
39
38
37
36
35
34
33
17
16
15
14
13
12
11
10
9
8
7
6
5
4

PP_SECTION
0
3
4
5
6
7
0
9
10
11
12
13
14
15
0
17
0
0
20
0
0
0
0
25
26
27
28
29
0
0
32
33
34
35
36
0
38
39
40
41
42
0
44
0
46
47
48
49
50
51
0
53
0
0
56
57
0
59
60
61
62
63
0
65
0
67
68
69
70
71
72
73
0
0
0
77
0
0
80
81
82
83
0
0
86
87
0
0
90
91
92
93
94
95
96
0
0
99
100
0
0
0
0
0
0
0
108
0
0
0
0
113
0
0
0
0
0
119
120
0
122
123
124
0
0
0
0
129
130
131
132
0
134
135
136
0
0
0
140
0
142
143
0
0
0
147
148
0
0
0
0
0
0
155
156
0
158
0
160
0
0
163
164
0
0
0
168
0
170
171
0
173
0
175
0
0
178
0
180
0
0
0
184
185
0
0
188
189
190
191
192
0
194
195
0
197
198
0
0
201
202
203
204
0
0
0
208
0
0
0
212
213
214
0
0
217
218
0
0
0
222
223
0
0
226
227
0
0
230
231
232
0
234
0
236
0
238
239
240
0
0
243
244
0
246
0
0
249
0
0
252
0
0
0
0
257
0
259
0
261
0
0
264
265
266
0
268
269
270
0
0
273
0
0
0
0
0
279
0
0
282
0
284
0
0
0
0
0
0
0
292
293
0
295
0
0
0
0
0
0
302
0
0
0
0
0
0
0
0
311
0
313
314
315
0
0
318
0
0
0
322
0
0
0
0
0
0
329
330
0
0
0
334
0
0
0
0
0
340
0
0
0
344
0
0
0
0
0
0
0
0
0
0
0
0
0
0
0
360
361
362
0
0
365
0
0
0
0
370
0
0
0
0
0
0
0
0
0
0
0
0
0
0
385
0
0
0
0
0
391
392
393
394
395
0
0
0
0
0
0
0
403
0
0
0
407
0
0
0
0
0
0
0
0
416
0
0
419
420
421
0
0
0
425
426
427
0
429
430
0
0
433
0
0
436
0
0
0
0
0
4
5
6
0
8
9
10
11
0
0
14
15
16
17
18
19
0
21
0
0
0
0
0
0
28
29
30
0
0
33
34
0
36
37
38
39
0
0
0
43
44
45
46
47
48
0
50
51
0
53
0
0
56
0
0
59
0
61
62
0
0
0
0
0
68
69
70
0
0
73
0
75
0
77
0
0
0
81
0
0
0
0
0
0
88
0
90
91
92
93
94
95
96
97
98
0
0
0
102
0
0
105
0
0
0
109
0
111
112
113
0
0
0
0
0
0
0
0
0
0
124
0
0
127
0
0
130
0
132
0
0
135
0
137
0
0
0
0
0
143
144
0
0
147
148
0
0
0
0
0
0
0
0
0
158
159
0
0
162
163
0
165
0
0
0
0
170
0
172
173
174
0
0
0
0
0
0
181
0
183
184
185
0
0
188
189
0
0
192
0
0
0
0
197
198
199
0
201
0
203
0
0
206
0
208
0
0
211
212
213
0
0
216
217
218
0
220
0
222
223
224
225
0
0
0
229
0
0
0
0
234
0
236
0
0
0
240
241
242
243
244
0
0
247
248
249
0
251
252
0
0
255
256
0
0
259
260
0
0
0
0
0
0
267
0
269
0
0
0
0
274
0
0
0
0
0
0
0
0
283
0
0
0
287
288
0
0
0
0
0
294
295
0
297
298
0
0
0
302
0
0
0
306
0
0
0
310
311
0
0
314
0
0
0
0
0
320
321
322
0
0
0
0
327
328
0
330
331
332
333
0
0
336
0
0
0
0
0
342
0
0
0
0
0
348
0
0
0
352
0
0
0
356
357
0
359
360
361
0
0
0
365
0
0
368
0
0
371
372
0
374
0
0
377
0
0
380
381
0
0
384
385
386
0
0
389
0
0
0
393
0
0
0
0
0
0
0
401
0
0
0
0
0
0
0
0
0
0
0
0
0
415
0
0
0
0
0
421
0
0
0
0
0
427
0
0
430
431
0
0
434
0
0
0
0
0
0
0
4
0
6
7
0
9
10
11
0
13
14
15
16
17
18
0
20
21
0
23
24
25
0
0
28
29
30
31
0
33
34
35
36
37
38
39
40
41
42
43
44
45
0
47
48
49
50
51
0
53
54
55
56
57
58
59
0
61
0
0
64
65
0
67
68
0
70
71
72
73
74
75
0
77
78
0
0
81
0
0
84
0
0
87
88
89
0
91
92
0
94
95
0
0
0
99
0
101
0
103
0
0
106
107
0
109
0
111
112
0
114
0
0
0
0
119
0
0
0
0
0
125
0
0
0
129
0
0
132
0
134
0
0
0
138
139
0
0
0
0
0
145
146
147
0
0
0
0
0
0
154
155
0
157
0
0
0
0
0
163
164
0
0
0
168
0
170
0
0
0
0
175
176
177
0
0
180
0
0
0
0
185
0
187
0
189
190
0
192
0
194
0
196
197
198
199
0
0
0
0
0
205
206
0
208
209
210
211
212
0
0
215
216
0
0
219
0
221
0
0
0
0
0
0
0
0
0
0
0
0
0
235
0
0
238
239
0
241
0
0
0
0
0
247
0
0
250
0
252
0
254
0
0
257
258
259
0
261
0
263
0
265
0
0
0
269
0
0
0
0
274
275
0
0
0
279
0
0
0
0
284
0
0
287
0
0
290
291
0
293
0
0
296
0
298
0
0
0
0
0
304
0
306
0
0
309
0
311
0
0
0
0
316
317
0
0
320
321
0
323
324
0
326
0
328
0
0
331
0
333
0
0
0
337
0
339
0
0
342
0
0
0
0
0
0
0
0
0
0
353
0
0
0
357
0
0
0
0
362
0
0
365
0
367
0
0
0
0
0
0
374
0
0
0
0
0
0
0
0
0
0
0
0
0
0
389
0
391
0
0
0
0
0
0
398
0
400
401
0
403
0
0
406
407
0
0
0
0
0
0
0
0
0
0
0
419
0
0
422
0
0
425
0
427
0
0
0
0
0
0
434
0
0
0
438
0
0
3
4
5
6
7
8
9
10
11
0
0
0
15
16
17
18
0
0
0
22
23
24
25
26
27
28
0
30
0
32
33
34
35
0
37
38
39
40
0
42
43
0
45
46
47
48
0
50
51
0
53
0
0
56
0
0
0
60
0
0
63
64
65
66
67
68
0
70
0
72
73
0
0
0
77
78
79
80
81
82
0
0
0
0
87
88
0
0
0
0
93
0
0
96
97
98
0
100
101
102
103
104
0
106
0
108
109
0
0
0
113
0
0
116
0
0
119
120
121
0
0
124
0
0
127
128
129
0
131
132
133
134
135
0
137
138
139
140
0
0
0
144
145
146
0
148
0
0
0
0
153
154
0
156
157
0
0
160
0
0
163
0
0
166
167
0
169
0
171
172
173
0
175
0
177
178
179
180
0
0
183
184
185
0
0
0
189
190
191
192
193
194
195
196
197
198
0
0
0
0
0
204
0
0
207
0
0
210
211
212
0
0
215
216
0
218
219
0
221
0
0
0
225
226
0
0
0
0
0
232
0
234
235
236
237
0
0
0
0
0
0
0
245
0
0
248
249
0
0
0
0
0
0
0
257
258
259
260
261
262
0
0
0
0
267
0
269
0
271
272
0
274
0
0
0
0
0
0
0
0
0
0
285
0
287
288
289
0
0
292
0
294
0
0
0
0
0
0
0
0
303
0
305
0
0
0
0
0
0
312
313
0
0
0
0
318
0
320
0
0
0
324
0
0
0
328
0
0
0
0
333
0
0
0
337
0
0
0
341
0
0
0
0
346
0
0
349
0
0
0
0
0
0
356
0
0
0
0
0
0
0
364
365
0
0
0
0
0
0
372
0
0
375
0
0
0
0
380
0
382
0
384
0
0
387
0
0
390
0
0
393
394
0
396
0
398
399
400
0
402
0
0
405
406
0
0
0
0
0
0
0
0
0
0
0
418
419
420
421
422
0
424
425
0
0
0
0
0
0
432
433
0
0
0
0
438
0
2
3
4
5
6
7
8
9
10
0
12
13
14
15
16
17
0
19
0
0
22
23
0
25
26
0
28
0
0
0
0
0
34
35
36
0
0
39
40
41
42
0
0
45
0
47
48
0
0
0
0
53
54
0
0
57
58
0
60
0
62
63
0
0
66
67
68
0
70
71
72
0
74
75
0
77
78
0
80
0
82
0
0
85
0
87
88
89
90
91
0
93
0
0
96
97
0
99
0
101
0
103
0
0
0
107
0
109
0
0
112
0
114
115
116
117
0
119
120
0
0
123
124
0
0
127
128
129
0
0
132
0
134
135
136
137
0
0
140
0
142
143
144
145
146
0
148
0
150
0
152
153
154
155
156
0
158
0
0
161
162
163
0
165
166
0
0
169
0
0
172
0
0
175
0
0
0
0
0
0
0
0
184
0
0
0
0
0
190
0
0
193
0
195
0
197
198
199
200
201
0
203
204
205
0
207
208
209
210
211
212
0
214
0
0
217
0
219
0
0
222
223
0
225
0
0
0
0
0
0
0
233
0
235
236
237
0
239
240
0
242
0
0
0
0
0
248
249
250
0
252
253
0
0
256
257
0
0
260
261
0
0
0
265
0
267
0
0
270
0
272
0
0
275
0
0
0
0
280
281
0
0
0
0
0
0
0
0
0
0
0
0
0
0
296
0
0
299
0
0
302
0
0
0
306
307
0
0
0
311
0
313
0
0
0
0
318
319
320
321
0
0
0
325
0
0
0
0
330
331
0
333
0
335
0
0
0
339
0
0
0
0
344
0
0
347
0
0
0
0
0
0
0
0
0
0
0
359
0
0
0
0
0
365
0
0
0
369
0
0
0
0
374
0
0
0
378
0
0
0
382
0
0
0
0
0
0
0
0
0
392
0
0
0
0
0
0
0
400
0
0
0
0
405
0
0
0
409
0
0
412
413
0
415
0
417
0
0
420
0
422
0
0
425
426
0
428
429
430
0
0
0
434
0
436
0
0
0
EOF
