DIMENSION : 439
NUMBER OF ITEMS : 2190

TOUR_SECTION
1
3
2
52
83
84
85
149
186
226
227
228
283
229
282
281
230
187
188
189
225
231
232
280
285
286
287
340
288
289
290
291
292
293
359
357
358
356
355
354
352
353
351
350
349
347
348
346
345
376
377
379
389
390
380
374
375
381
391
392
399
398
396
397
393
395
394
384
382
383
372
371
373
341
342
343
344
284
439
435
436
437
438
434
403
408
409
411
410
425
426
424
427
430
433
432
422
423
412
413
407
406
414
421
420
419
415
416
431
429
428
418
417
405
404
402
400
401
388
387
386
385
378
369
368
367
366
365
364
363
362
361
370
360
339
338
337
336
335
334
333
300
299
298
297
296
295
294
279
278
277
276
275
274
273
301
272
271
270
269
268
267
266
265
264
263
262
261
260
259
258
257
256
314
313
312
311
310
309
308
307
306
305
304
302
303
330
332
331
329
328
327
326
325
324
323
322
321
320
319
318
317
315
316
254
255
252
253
251
209
208
207
171
170
168
169
166
164
165
167
133
132
131
130
128
129
127
126
124
123
125
99
98
97
96
95
100
94
93
92
102
103
115
117
120
101
122
121
119
118
116
114
113
143
150
151
153
152
142
141
140
139
138
137
136
135
134
163
162
161
160
159
158
157
156
155
154
182
181
180
179
178
177
176
175
204
174
173
172
206
205
203
202
201
200
199
198
197
196
195
194
193
183
192
184
191
222
221
220
219
218
217
216
215
214
213
212
211
210
250
249
248
247
246
245
244
243
242
241
240
239
238
237
236
235
234
233
223
224
190
185
145
148
147
144
146
112
111
110
109
108
107
106
105
104
91
90
89
88
72
71
70
69
68
18
19
20
67
66
65
24
22
21
23
25
64
74
73
63
29
27
26
28
30
31
32
62
75
76
61
60
59
77
87
86
78
58
57
79
80
81
82
56
55
54
53
51
50
48
47
49
46
45
44
42
43
41
40
39
38
37
36
35
34
33
17
16
15
14
13
12
11
10
9
8
7
6
5
4

PP_SECTION
2
0
4
5
6
7
8
9
10
11
12
13
14
15
16
17
18
19
20
21
22
0
24
25
26
0
28
29
30
31
32
33
34
35
36
37
38
39
40
41
42
43
44
45
46
0
48
49
50
51
52
53
54
55
56
57
58
59
60
61
62
63
64
0
66
67
68
0
70
71
72
73
74
75
76
77
78
0
80
81
0
0
84
0
0
87
88
89
90
0
92
0
94
95
0
97
98
0
100
101
0
103
104
105
106
107
0
109
110
111
112
113
114
115
116
117
118
119
0
121
122
123
0
125
126
127
0
129
130
131
132
133
0
135
136
137
138
139
0
141
142
143
144
145
146
147
148
0
0
151
152
153
154
155
0
157
158
159
160
161
162
0
164
165
166
167
168
169
170
0
172
173
174
175
0
177
0
179
180
181
182
183
0
0
186
187
188
0
190
191
0
193
194
195
196
197
0
199
200
0
0
203
0
205
206
207
0
209
210
211
212
0
214
215
0
217
0
219
220
221
222
223
224
225
226
0
228
0
0
231
0
233
234
0
0
237
0
0
0
241
242
0
0
245
246
247
0
249
250
251
0
253
254
0
256
257
258
259
260
261
262
263
264
265
0
267
268
269
0
0
272
0
274
275
276
277
278
0
280
281
282
283
0
285
286
0
0
289
0
291
292
0
294
295
296
297
298
299
0
301
302
303
0
0
306
307
308
309
310
0
312
0
314
315
316
317
318
319
320
0
0
323
0
325
0
327
328
329
330
331
332
0
0
335
336
0
0
339
340
0
0
343
344
345
346
347
0
349
350
351
0
0
354
355
356
0
358
359
360
361
362
363
364
0
366
367
368
369
370
371
372
373
374
375
376
377
378
379
380
381
382
383
384
0
0
387
388
389
390
391
0
0
394
0
396
397
398
0
400
401
0
0
404
0
0
407
408
409
410
411
412
413
414
415
0
417
418
419
420
0
422
0
424
0
0
427
428
429
430
431
432
433
434
435
0
0
438
439
0
3
4
5
6
7
8
9
10
11
12
13
14
15
16
17
0
19
20
21
22
23
24
25
26
27
28
29
30
31
32
33
34
35
0
37
38
39
40
41
42
43
44
45
46
47
48
49
50
51
52
53
54
55
56
57
58
59
60
61
62
63
64
65
66
67
68
69
70
71
72
73
74
75
76
77
78
0
80
81
82
0
84
85
86
87
88
89
90
91
0
93
94
0
96
97
98
99
100
101
102
103
104
105
106
107
0
109
110
111
112
0
114
115
116
117
118
119
120
121
122
0
124
125
126
0
128
129
0
131
132
133
134
135
0
137
138
139
140
141
142
143
144
145
146
147
148
149
150
151
0
0
154
155
156
157
0
159
160
161
162
0
164
165
166
167
168
169
0
171
172
0
0
175
176
177
178
0
180
0
182
183
184
185
186
0
0
0
190
191
0
193
0
195
196
197
0
0
0
0
202
0
204
205
206
207
208
209
210
0
0
0
214
215
0
217
218
219
220
221
222
223
224
0
226
227
228
0
230
231
232
233
234
235
236
237
238
239
240
0
242
243
244
245
246
247
0
0
250
251
0
0
254
0
256
257
258
0
260
261
262
263
264
265
266
267
268
269
270
271
272
273
0
275
276
277
278
279
280
281
0
0
284
285
0
0
0
0
0
0
0
293
294
0
296
297
0
299
300
0
302
303
304
305
306
307
0
309
310
311
312
0
0
315
316
317
0
319
320
0
322
323
324
325
326
327
328
329
330
331
0
333
334
335
336
337
338
0
340
341
342
343
344
0
346
347
0
349
350
351
0
353
354
355
0
357
358
0
360
0
0
363
0
0
366
367
368
369
370
0
0
0
374
0
376
0
378
0
380
0
0
0
384
0
386
387
388
0
390
391
392
0
0
395
0
0
0
399
400
0
402
403
404
0
406
407
408
409
410
411
412
413
414
415
416
417
0
419
0
0
422
423
424
425
426
0
428
429
0
0
0
0
0
435
436
437
438
439
0
0
4
5
6
7
8
9
10
11
12
13
14
15
16
17
18
19
20
0
22
0
24
25
26
27
0
29
30
31
32
33
34
0
0
0
0
39
40
0
42
43
44
45
46
47
48
49
50
51
52
53
54
55
56
57
58
59
60
61
62
63
64
65
66
0
68
69
70
71
72
73
74
75
76
77
78
0
80
81
82
83
0
85
86
87
88
89
90
0
92
93
0
0
96
0
0
99
0
101
0
103
104
105
106
107
108
0
110
111
112
113
0
115
116
117
118
119
120
121
122
123
124
125
126
127
128
129
130
131
132
133
134
135
136
137
0
139
140
141
0
143
144
0
146
147
148
0
150
151
152
153
154
155
156
157
158
159
160
161
162
163
164
165
166
0
0
169
0
171
172
173
174
175
0
0
178
179
180
181
0
183
184
185
186
0
188
0
0
191
0
193
0
195
196
0
198
199
200
201
202
203
204
0
206
207
0
0
0
211
212
213
214
215
0
217
218
0
220
221
222
223
224
225
226
227
228
229
230
0
232
233
234
235
236
237
238
239
240
241
242
243
244
245
246
0
248
249
0
251
252
253
254
255
0
257
0
259
260
261
262
0
264
0
266
267
268
0
270
271
272
273
274
0
276
0
278
279
280
281
282
283
0
285
0
287
0
289
0
0
0
0
294
295
296
297
298
299
300
301
302
303
304
0
306
307
308
0
310
311
312
313
314
315
316
317
0
319
0
321
0
323
0
325
326
327
328
0
330
0
332
0
334
335
336
0
338
0
340
0
342
343
0
0
346
0
348
0
350
0
0
353
354
355
0
0
0
359
360
361
0
363
364
365
366
367
368
0
370
371
0
373
0
0
0
0
378
0
380
381
382
383
384
385
386
387
388
389
390
0
392
0
394
395
396
397
0
399
0
0
402
0
404
405
0
407
408
409
0
411
0
0
414
415
416
417
418
0
420
421
422
423
424
0
426
0
428
429
430
431
432
0
0
435
0
437
0
439
0
3
4
5
6
7
8
9
10
11
12
13
14
15
16
17
18
19
20
21
22
23
24
0
26
27
28
29
30
31
0
33
34
35
36
37
38
39
40
41
42
43
44
45
46
47
48
49
50
51
52
53
54
55
56
57
58
59
60
61
62
63
64
65
66
67
68
69
70
71
72
73
74
75
76
77
78
79
80
81
0
0
84
85
86
87
0
89
90
91
92
93
94
95
96
0
0
99
100
101
102
0
0
105
106
107
108
0
0
111
112
113
114
115
0
117
118
0
120
0
122
123
124
125
126
127
128
0
130
131
132
0
134
135
136
0
138
139
140
141
142
143
144
0
146
147
148
149
150
151
152
153
154
0
156
0
0
159
0
161
162
163
164
165
166
167
0
169
170
171
172
0
174
175
176
177
0
179
180
181
182
183
184
185
0
187
188
189
0
191
0
193
194
0
196
197
0
199
200
201
202
203
0
205
206
207
208
209
210
211
212
0
214
0
216
217
218
219
220
221
222
223
224
0
0
227
228
0
230
231
0
233
234
235
0
237
238
239
240
241
242
243
244
245
0
247
0
249
0
251
252
253
254
255
256
0
258
259
260
261
262
263
264
0
266
267
268
269
270
271
272
273
274
0
0
277
278
279
0
281
282
283
0
0
0
0
0
0
290
291
0
293
0
295
296
297
298
299
300
301
302
303
304
305
306
307
308
309
310
0
312
313
0
315
316
317
318
319
0
321
322
323
324
325
326
327
328
329
330
0
332
0
334
335
336
0
338
339
340
0
342
343
0
345
0
347
348
349
350
351
352
353
0
355
0
0
0
0
360
0
362
363
364
0
366
367
0
0
370
0
0
373
374
375
376
0
378
379
380
381
0
383
384
385
386
0
388
389
390
391
392
0
0
0
0
397
398
399
0
401
402
403
404
405
0
407
408
409
410
411
412
413
414
415
0
417
418
0
420
0
0
423
0
0
426
427
428
0
430
431
0
433
0
435
0
437
438
439
0
3
4
5
6
7
8
9
10
11
12
13
14
0
16
17
18
19
20
21
22
23
24
25
26
27
28
29
30
31
32
33
34
35
36
37
38
39
0
41
42
43
44
45
46
47
48
49
50
51
52
53
54
55
56
57
0
59
60
61
62
0
64
65
0
67
68
69
70
71
72
73
74
0
76
77
78
79
80
81
82
83
0
0
86
87
88
89
90
91
92
93
94
95
96
97
0
0
100
101
102
103
104
105
106
107
108
0
110
111
0
113
114
115
0
0
118
0
120
121
122
123
124
125
126
127
128
0
130
131
132
0
134
135
0
137
138
0
140
141
142
0
144
145
146
147
148
149
150
151
0
153
154
155
156
157
0
159
160
161
162
0
164
165
166
167
0
0
170
171
172
173
0
0
176
177
178
179
180
181
0
183
184
185
0
0
188
189
190
0
192
193
194
195
196
197
198
199
200
201
202
203
0
205
206
0
0
0
210
211
212
213
214
215
216
217
218
219
220
221
0
223
224
0
0
0
228
229
230
231
0
233
234
0
236
237
0
0
0
241
0
243
244
245
246
247
248
0
250
0
252
0
254
0
256
0
258
0
0
261
0
263
264
265
266
0
268
269
270
271
0
273
0
275
276
277
278
279
280
0
0
0
0
285
286
0
288
0
290
291
0
293
294
295
296
297
298
299
300
301
302
303
0
305
306
307
308
0
310
0
312
0
314
315
316
317
318
319
0
321
322
323
324
0
326
327
0
329
0
0
332
0
334
0
0
337
338
339
0
341
342
343
0
0
0
0
348
349
0
351
352
353
354
355
356
0
0
359
360
361
362
363
364
365
366
367
368
0
370
371
0
373
0
375
376
377
378
379
380
381
382
383
384
385
386
387
388
389
0
391
0
0
394
395
396
0
398
399
0
401
402
403
404
405
406
407
408
0
410
411
412
0
414
0
416
417
418
419
0
421
422
423
424
0
0
0
428
429
0
431
0
0
0
435
436
437
438
439
EOF
