DIMENSION : 439
NUMBER OF ITEMS : 4380

TOUR_SECTION
1
4
5
6
7
8
9
10
11
12
13
14
15
16
17
33
34
35
36
37
57
58
78
86
87
77
59
60
61
76
75
62
32
31
30
28
26
27
29
63
73
74
64
25
23
24
65
66
67
22
21
20
19
18
68
69
70
71
72
88
89
90
91
104
105
106
107
108
109
110
111
112
146
144
147
148
145
185
113
114
116
118
119
121
122
101
120
117
115
103
102
92
93
94
100
95
96
97
98
99
125
123
124
126
127
129
128
130
131
132
133
167
165
164
166
169
168
170
171
172
173
174
204
176
175
161
160
162
163
134
135
136
137
138
139
140
141
142
152
143
150
151
153
154
155
156
157
158
159
177
178
179
180
181
182
183
192
184
191
190
224
223
222
233
234
235
236
237
238
239
240
241
242
243
244
245
246
247
248
249
250
210
211
212
213
214
215
216
217
218
219
220
221
193
194
195
196
197
198
199
200
201
202
203
205
206
207
208
209
251
253
252
255
254
316
315
317
318
319
320
321
322
323
324
325
326
327
328
329
331
332
330
303
302
304
305
306
307
308
309
310
311
312
313
314
256
257
258
259
260
261
262
263
264
265
266
267
268
269
270
271
272
301
273
274
275
276
277
278
279
294
295
296
297
298
299
300
333
334
335
336
337
338
339
360
370
361
362
363
364
365
366
367
368
369
378
385
386
387
388
401
400
402
404
405
417
418
428
429
431
416
415
419
420
421
414
390
389
379
380
376
377
348
346
345
347
349
350
351
353
352
354
355
356
358
357
359
293
292
291
290
289
288
340
287
286
285
280
232
231
225
189
188
187
230
281
282
229
228
283
284
344
343
342
341
373
371
372
383
382
384
394
395
397
396
398
393
375
374
381
391
392
399
406
407
413
412
423
422
432
433
430
427
424
426
425
410
411
409
408
403
434
438
437
436
435
439
227
226
186
149
85
84
83
53
54
55
56
82
81
80
79
38
39
40
41
43
42
44
45
46
49
47
48
50
51
52
2
3

PP_SECTION
0
3
0
0
0
7
0
0
0
0
0
0
14
0
0
0
0
0
0
0
0
0
0
0
0
0
0
29
0
0
0
0
0
0
0
0
38
39
40
41
42
43
44
45
46
47
48
49
50
51
52
53
54
55
56
0
0
59
0
0
62
63
0
65
0
67
68
69
0
71
0
0
0
0
0
0
0
79
80
81
82
83
84
85
0
87
0
0
90
0
0
93
94
0
0
0
0
99
100
0
0
0
0
0
0
0
108
0
0
0
0
113
0
0
0
0
0
119
0
0
0
123
0
0
0
0
0
0
0
131
0
0
134
135
0
0
0
0
140
0
0
0
0
0
0
0
148
149
0
0
0
0
0
155
156
0
0
0
160
0
0
0
164
0
0
0
168
0
0
0
0
0
0
0
0
0
0
0
0
0
0
0
0
185
0
0
188
189
190
0
0
0
0
0
0
197
0
0
0
201
0
203
204
0
0
0
208
0
0
0
0
213
0
0
0
217
0
0
0
0
0
223
0
0
226
227
0
0
230
231
232
0
234
0
236
0
0
0
240
0
0
243
244
0
246
0
0
249
0
0
252
0
0
0
0
257
0
259
0
261
0
0
264
265
266
0
268
269
270
0
0
273
0
0
0
0
0
279
0
0
282
0
284
0
0
287
288
0
290
0
292
293
0
295
0
0
0
0
0
0
302
0
0
0
0
0
0
0
0
311
0
313
314
315
0
0
318
0
0
0
322
0
0
0
0
0
0
329
330
0
0
333
334
0
0
337
0
0
340
341
342
343
344
0
0
347
348
349
350
0
352
353
0
355
0
0
0
0
360
361
362
0
0
365
0
367
0
0
370
0
0
373
0
0
376
0
0
0
380
0
0
383
0
385
0
0
0
0
0
391
392
393
394
395
0
0
0
0
0
0
0
403
0
405
0
407
408
0
0
0
0
413
0
0
416
417
0
419
420
421
422
0
0
425
426
427
0
429
430
0
0
433
434
435
436
437
0
439
2
3
0
0
0
0
8
9
10
11
0
0
0
0
0
17
18
19
0
0
0
0
0
0
0
0
28
0
0
0
0
0
0
0
0
0
38
39
40
0
42
43
44
45
46
47
48
49
50
51
0
53
0
0
56
0
0
59
0
0
0
0
0
0
0
0
0
0
0
0
0
0
0
75
0
77
0
79
80
81
82
83
84
0
0
0
88
0
0
91
92
93
94
95
0
97
98
0
0
0
102
0
0
105
0
0
0
109
0
0
112
113
0
0
0
0
0
0
0
0
0
0
124
0
0
127
0
0
130
0
132
0
0
135
0
137
0
0
0
0
0
0
0
0
0
147
148
149
0
0
0
0
0
0
0
0
0
0
0
0
162
0
0
165
0
0
0
0
0
0
0
173
0
0
0
0
0
0
0
181
0
183
184
0
186
187
188
189
0
0
192
0
0
0
0
197
198
199
0
0
0
203
0
0
206
0
208
0
0
211
212
213
0
0
216
217
218
0
0
0
222
0
224
225
226
227
0
229
0
0
0
0
0
0
0
0
0
0
240
241
0
243
0
0
0
0
248
249
0
0
0
0
0
255
256
0
0
259
260
0
0
0
0
0
0
267
0
269
0
0
0
0
274
0
0
0
0
0
0
0
282
283
0
0
286
287
288
289
0
291
292
293
294
295
0
297
298
0
0
0
302
0
0
0
306
0
0
0
310
311
0
0
314
0
0
0
0
0
320
321
322
0
0
0
0
327
328
0
330
331
332
333
0
0
336
0
0
0
0
0
342
343
344
345
0
0
348
0
0
0
352
0
354
0
356
357
0
359
360
361
0
0
0
365
0
0
368
0
0
371
372
373
374
375
0
377
0
379
380
381
382
383
384
385
386
0
0
389
0
0
0
393
0
0
0
397
398
0
0
401
0
403
0
0
0
0
408
409
0
0
0
0
414
415
0
0
0
419
420
421
0
0
0
425
0
427
0
0
430
431
0
433
434
435
436
0
0
439
2
3
0
0
0
0
0
9
0
0
0
0
0
0
0
0
18
0
0
0
0
23
0
0
0
0
0
29
30
0
0
0
0
35
36
0
38
39
40
41
42
43
44
45
46
47
48
49
50
51
52
53
54
55
56
57
0
0
0
61
0
0
64
0
0
0
0
0
70
0
0
0
0
0
0
0
0
0
80
81
82
83
84
0
0
0
0
0
0
91
0
0
94
95
0
0
0
99
0
101
0
103
0
0
0
0
0
109
0
0
112
0
114
0
0
0
0
0
0
0
0
0
0
125
0
0
0
0
0
0
132
0
134
0
0
0
138
139
0
0
0
0
0
145
0
147
0
149
0
0
0
0
0
155
0
157
0
0
0
0
0
0
0
0
0
0
168
0
0
0
0
0
0
175
0
177
0
0
0
0
0
0
0
0
186
187
0
189
0
0
192
0
194
0
196
197
0
199
0
0
0
0
0
0
206
0
208
209
210
211
212
0
0
215
216
0
0
219
0
221
0
0
0
225
226
227
0
0
0
0
232
0
0
0
0
0
0
239
0
0
0
0
0
0
0
247
0
0
250
0
252
0
254
0
0
257
258
259
0
261
0
263
0
265
0
0
0
269
0
0
0
0
274
275
0
0
0
279
0
0
282
0
284
0
0
287
288
0
290
291
292
293
0
0
296
0
298
0
0
0
0
0
0
0
306
0
0
309
0
311
0
0
0
0
316
317
0
0
320
321
0
323
324
0
0
0
328
0
0
331
0
333
0
0
0
337
0
339
0
341
342
0
344
0
0
347
0
349
350
0
352
353
0
0
0
357
358
0
0
0
362
0
0
365
0
367
0
0
0
0
0
0
374
375
0
377
0
379
380
0
0
383
0
0
0
0
0
389
0
391
0
393
394
395
0
0
398
0
400
401
402
403
404
0
406
407
0
0
410
411
412
413
0
0
0
0
0
419
0
421
422
0
0
425
426
427
0
0
0
0
432
433
434
0
436
0
438
0
2
3
4
0
0
0
0
0
10
11
0
0
0
0
0
0
0
0
0
0
0
23
24
0
0
0
0
0
0
0
0
33
0
0
0
0
38
39
40
41
42
43
44
45
46
47
48
49
50
51
52
53
0
0
56
0
0
0
60
0
0
0
0
65
0
0
0
0
0
0
0
0
0
0
0
0
78
79
80
81
82
83
84
85
0
0
0
0
0
0
0
93
0
0
0
97
0
0
0
0
102
0
104
0
106
0
0
109
0
0
0
113
0
0
116
0
0
0
120
121
0
0
124
0
0
0
128
129
0
131
0
0
0
0
0
0
138
139
140
0
0
0
144
0
0
0
0
149
0
0
0
153
0
0
156
157
0
0
160
0
0
0
0
0
166
167
0
169
0
171
0
173
0
0
0
0
178
0
180
0
0
183
184
185
186
0
0
189
190
0
0
193
194
195
196
197
0
0
0
0
0
0
0
0
0
207
0
0
0
0
212
0
0
215
216
0
0
219
0
0
0
0
0
225
226
227
0
0
230
231
232
0
234
235
236
237
0
0
0
0
0
0
0
245
0
0
0
249
0
0
0
0
0
0
0
257
258
259
260
261
262
0
0
0
0
267
0
269
0
271
272
0
274
0
0
0
0
0
0
281
0
0
0
285
0
287
288
289
0
0
292
0
294
0
0
0
0
0
0
0
0
303
0
305
0
0
0
0
0
0
312
313
0
0
0
0
0
0
0
0
0
0
324
0
0
0
328
0
0
0
0
333
0
0
0
337
0
0
0
341
0
343
344
0
346
347
348
349
0
0
352
0
354
0
356
357
0
359
360
0
0
0
364
365
0
0
0
369
0
371
372
0
0
375
0
377
0
379
380
0
382
383
384
0
0
387
0
0
390
0
392
393
394
395
396
397
398
399
400
0
402
0
0
405
406
407
0
409
410
411
0
413
0
0
0
0
418
419
420
421
422
423
424
425
0
0
0
0
0
0
432
433
434
435
436
437
438
0
2
3
0
0
0
0
8
0
0
0
0
0
0
0
0
0
0
0
0
0
0
0
0
0
0
0
0
0
0
0
0
0
0
0
0
0
0
39
40
41
42
0
44
45
46
47
48
49
50
51
52
53
54
55
0
0
0
0
0
0
0
63
0
0
0
0
0
0
70
71
72
0
0
75
0
77
0
79
80
81
82
0
84
85
0
0
0
0
0
0
0
93
0
0
96
97
0
99
0
101
0
103
0
0
0
107
0
0
0
0
0
0
0
115
116
117
0
119
120
0
0
0
124
0
0
127
0
129
0
0
132
0
0
0
136
0
0
0
140
0
0
143
144
0
0
0
0
149
150
0
0
153
154
0
0
0
158
0
0
161
0
0
0
0
166
0
0
169
0
0
0
0
0
0
0
0
0
0
0
0
0
0
184
0
186
187
0
0
190
0
0
193
0
0
0
197
198
199
200
0
0
0
204
205
0
207
0
209
0
0
0
0
214
0
0
0
0
0
0
0
0
0
0
225
226
227
0
229
230
0
232
233
0
235
0
237
0
239
0
0
242
0
0
0
0
0
248
249
250
0
252
253
0
0
256
257
0
0
260
261
0
0
0
265
0
267
0
0
270
0
272
0
0
275
0
0
0
0
280
281
282
283
0
0
286
287
0
289
0
0
0
293
0
0
296
0
0
299
0
0
302
0
0
0
306
307
0
0
0
311
0
0
0
0
0
0
318
319
320
321
0
0
0
325
0
0
0
0
330
331
0
333
0
335
0
0
0
339
340
341
342
0
344
345
0
347
348
349
0
0
0
0
0
355
356
357
0
359
0
0
0
0
0
365
0
0
0
369
0
0
372
0
374
0
0
0
378
0
0
0
382
0
384
0
0
0
0
0
0
0
392
0
394
395
396
397
398
0
400
0
0
403
0
405
0
0
408
409
0
411
412
413
0
415
0
417
0
0
420
0
422
0
0
425
426
427
428
429
430
0
432
433
434
435
436
0
0
0
2
3
0
0
0
0
0
0
0
0
0
0
0
0
0
0
18
19
0
0
0
0
0
0
0
0
0
0
0
0
0
0
0
0
0
0
38
39
40
41
42
43
0
45
46
47
48
49
50
51
52
53
0
55
56
0
0
0
60
0
62
0
64
0
0
0
0
0
0
71
72
73
0
0
0
77
78
79
80
81
82
83
84
85
0
0
0
0
0
0
0
0
0
0
96
0
0
99
100
0
0
0
0
0
0
0
0
0
110
111
0
0
0
0
0
117
0
0
0
121
0
0
124
0
0
0
128
0
0
131
0
133
0
0
0
0
138
0
140
141
0
0
0
145
0
147
148
149
150
151
0
0
154
0
0
0
158
159
0
0
0
0
164
0
0
0
168
0
0
0
172
173
174
0
0
0
0
179
0
0
0
0
0
0
186
0
188
189
0
0
192
0
0
195
0
0
0
0
200
0
0
0
0
205
0
0
0
0
210
0
212
0
214
0
216
0
0
219
220
0
0
0
0
0
226
227
228
0
0
231
232
0
0
0
0
237
0
0
0
0
0
0
0
0
0
0
0
0
250
0
0
0
0
255
0
0
258
259
260
261
262
0
264
265
0
0
0
269
0
271
272
0
0
0
276
277
0
0
0
281
282
0
0
0
286
0
288
289
0
0
292
0
0
0
0
0
0
0
0
0
0
303
304
305
306
0
308
0
0
0
0
0
0
0
316
317
0
319
0
0
0
0
0
325
0
0
328
0
330
331
0
333
0
0
0
0
338
339
0
341
342
0
0
0
0
347
348
0
0
0
0
353
0
355
356
0
0
359
0
0
362
0
364
365
0
367
0
369
0
0
0
373
374
375
0
377
378
379
0
381
382
383
0
385
386
0
0
0
0
0
0
0
0
0
396
397
398
399
400
401
402
403
0
0
0
0
408
0
410
411
0
413
414
415
416
0
0
0
0
0
0
423
424
0
0
427
428
0
430
0
0
0
434
0
436
437
438
0
2
3
0
0
0
7
0
0
0
0
0
0
0
0
0
0
0
0
0
0
22
0
24
0
0
0
0
0
0
0
0
0
0
0
0
0
38
0
40
41
42
43
44
45
46
47
48
49
50
51
52
0
54
55
56
57
0
0
0
0
0
0
64
65
0
67
68
0
0
0
0
0
0
0
0
0
0
79
80
81
0
0
84
85
0
0
0
0
0
0
0
0
0
0
0
97
0
0
0
0
0
0
0
0
0
0
108
109
0
0
112
0
0
0
0
0
0
0
120
121
0
0
0
0
126
0
0
0
130
131
0
0
0
0
0
137
138
0
0
141
0
143
0
0
0
0
0
149
0
0
0
153
154
0
0
0
0
159
0
0
0
0
164
165
166
0
168
0
170
0
0
173
0
175
176
0
0
0
180
181
0
0
0
185
186
0
0
189
190
191
0
0
0
195
0
0
0
0
200
0
0
203
0
205
0
0
0
209
0
211
212
0
0
215
0
0
0
0
220
0
0
223
224
225
226
227
0
0
230
231
0
0
234
0
236
0
238
0
0
241
242
0
0
245
246
0
0
0
250
0
0
0
0
0
0
257
258
0
0
0
262
263
0
0
0
0
0
269
0
0
272
273
274
275
276
277
0
0
0
0
282
0
284
0
0
287
288
289
0
291
292
293
294
0
0
0
298
299
300
0
0
303
304
0
0
0
0
0
0
0
0
0
314
0
0
0
0
319
0
0
0
323
0
0
0
0
328
329
330
0
0
333
0
0
0
0
0
339
0
0
0
343
344
345
0
0
348
0
0
0
352
0
0
355
0
357
358
359
360
0
362
363
0
365
0
0
368
369
0
0
0
0
374
0
376
0
0
0
380
381
382
383
384
0
0
0
0
389
390
0
0
393
394
395
396
397
398
399
0
401
0
403
404
0
0
407
0
0
410
0
0
413
414
0
416
0
0
0
0
0
0
423
424
425
426
427
428
0
0
0
432
0
0
435
436
437
438
0
2
3
0
0
6
0
0
0
0
0
0
0
14
0
0
0
0
0
20
21
0
0
0
0
0
27
0
0
0
0
0
33
34
0
0
0
38
39
40
41
42
43
44
45
46
47
48
49
50
51
52
0
54
55
0
57
0
0
0
61
0
0
0
0
0
67
68
0
0
0
0
0
0
0
0
0
0
79
80
81
82
83
0
0
86
0
0
0
0
91
0
0
0
0
0
97
98
0
0
0
0
103
104
0
106
0
108
0
0
0
0
113
0
0
0
0
0
0
0
0
0
0
0
125
0
0
0
0
0
0
0
0
0
135
0
0
138
0
0
0
0
0
0
0
0
147
0
149
150
0
0
153
154
0
156
0
0
0
0
0
0
163
0
0
166
0
168
169
0
171
0
0
0
0
0
177
178
0
0
0
0
0
0
0
186
187
0
189
0
0
0
0
194
0
0
197
198
199
0
0
202
0
0
205
206
207
0
0
0
211
212
0
0
0
0
217
0
219
0
0
0
0
224
225
226
227
0
229
230
231
0
233
234
0
0
0
0
0
0
0
0
0
0
0
0
0
248
0
250
251
0
253
0
0
0
257
258
0
0
0
0
0
0
0
266
0
0
269
0
0
272
0
274
0
276
277
0
0
280
281
0
283
0
285
0
0
0
0
290
291
0
293
0
295
0
297
0
0
300
0
0
0
304
0
306
307
0
309
0
0
0
0
0
0
0
317
0
319
0
0
0
0
0
0
0
0
0
0
0
0
332
333
0
335
336
0
338
0
340
341
342
343
0
345
0
0
348
349
350
351
352
0
354
355
356
357
358
359
0
361
362
363
0
0
0
0
0
369
0
0
0
373
0
375
376
377
0
379
0
381
0
0
0
0
0
0
388
0
0
0
392
393
394
395
396
397
398
399
0
0
402
403
404
0
0
0
408
409
0
411
412
0
414
0
416
417
418
419
420
0
0
423
424
0
0
0
428
0
0
0
432
433
434
435
436
437
0
439
2
3
4
0
6
0
0
0
0
11
0
0
0
0
0
0
0
19
0
21
0
0
0
0
0
0
0
0
0
0
0
0
0
0
36
0
38
0
40
41
42
43
44
45
46
47
48
49
50
51
52
0
54
55
56
0
0
0
60
0
62
0
64
65
0
0
0
0
0
71
0
0
0
0
76
77
78
79
80
81
82
83
84
85
0
0
0
0
0
0
0
0
0
0
0
0
98
0
100
101
0
0
0
0
0
0
0
0
0
0
0
113
0
0
0
0
0
0
0
0
122
0
124
0
0
0
128
0
0
131
0
0
0
0
0
0
138
0
140
0
0
143
144
0
0
0
0
149
0
151
152
0
0
0
156
0
0
0
0
0
162
163
0
0
0
167
0
0
0
0
0
0
0
175
0
0
0
0
0
181
0
0
184
185
186
187
188
0
0
191
0
193
0
195
196
197
198
0
200
0
0
0
0
0
206
0
0
0
0
0
212
0
0
215
0
217
0
0
0
221
222
223
0
225
0
227
0
229
0
231
0
233
0
0
0
0
0
239
240
0
242
0
0
245
0
247
0
249
250
0
0
0
254
255
0
0
0
259
0
261
0
0
264
265
266
0
0
269
0
271
0
0
274
0
0
0
0
0
0
0
282
283
284
285
286
0
288
0
0
291
0
0
0
295
0
297
0
0
0
0
0
303
0
305
0
307
0
0
310
311
0
313
0
0
0
317
318
0
320
0
322
0
0
0
0
327
0
329
330
331
332
0
0
335
0
0
0
0
0
0
0
343
0
0
0
347
0
349
350
0
352
353
0
0
0
0
0
0
0
0
362
363
364
0
366
367
0
0
370
0
372
0
0
375
0
377
378
0
0
381
382
0
384
385
386
387
0
0
390
391
392
393
394
395
396
0
0
399
400
0
0
403
404
0
0
407
0
409
410
411
0
413
414
0
416
0
0
419
0
421
422
0
0
425
0
427
0
0
0
431
432
433
434
435
0
437
0
439
2
3
0
0
0
7
0
0
0
0
0
13
0
0
0
0
0
19
0
0
0
0
24
0
0
27
0
0
30
0
32
0
0
0
0
0
38
39
40
41
0
43
0
45
46
47
48
49
50
51
52
0
54
0
56
0
0
59
0
0
62
0
0
65
0
0
68
0
0
0
72
0
0
0
0
77
0
79
80
81
82
83
84
0
86
87
0
0
0
0
0
0
94
0
0
0
0
99
100
0
0
0
0
0
0
0
0
0
0
111
0
0
114
0
0
0
0
0
120
0
122
0
0
125
0
0
128
129
0
0
0
0
134
0
0
0
138
0
0
0
0
0
144
0
0
0
0
149
0
0
152
0
154
0
0
0
0
159
0
161
0
163
0
165
166
0
0
0
0
0
0
0
0
175
0
0
0
0
0
0
182
0
0
0
186
0
188
189
0
191
0
0
0
0
0
0
0
0
200
0
0
0
204
205
206
0
0
209
210
0
0
0
0
0
216
0
0
0
0
0
0
0
0
225
226
227
0
229
230
231
232
0
0
0
236
0
238
239
0
241
0
0
244
0
0
0
248
249
250
0
0
0
254
0
0
0
0
0
0
0
0
0
0
0
0
0
268
269
0
0
0
273
274
275
0
0
278
279
0
0
282
0
0
285
286
0
288
289
0
0
0
293
0
295
0
0
0
299
0
0
302
303
0
0
0
0
308
0
310
0
312
0
0
315
316
317
0
319
0
0
0
323
0
325
0
0
0
0
330
331
332
0
0
335
0
0
0
0
0
341
342
343
0
345
346
347
0
349
0
0
0
0
0
355
0
357
358
0
360
0
0
363
364
365
0
367
368
0
370
371
372
0
0
0
0
0
0
0
380
381
0
383
384
0
386
387
388
389
390
391
0
0
0
0
0
0
0
399
400
401
0
403
404
0
406
407
0
0
0
411
0
413
0
415
0
417
418
419
0
421
422
423
424
425
426
427
0
0
430
0
0
0
434
435
436
437
438
439
EOF
