DIMENSION : 439
NUMBER OF ITEMS : 438

TOUR_SECTION
1
3
2
52
49
46
45
43
41
40
38
39
42
44
47
48
50
51
53
54
55
56
82
81
80
79
57
58
78
86
87
77
59
60
61
76
75
62
63
73
74
110
111
112
109
108
144
146
147
148
145
185
190
224
223
273
274
275
276
277
278
279
294
295
296
297
298
299
300
333
334
335
336
337
338
339
361
360
370
359
358
356
355
357
293
292
291
290
289
288
347
345
346
348
349
352
354
353
351
350
377
379
389
390
380
376
340
287
286
285
280
232
231
225
189
188
187
230
281
282
341
342
343
344
284
283
228
229
227
226
186
149
83
84
85
439
435
436
437
438
434
403
408
409
411
410
425
426
424
427
430
433
432
422
423
412
413
396
397
398
393
395
394
384
382
383
372
371
373
374
375
381
391
392
399
407
406
414
421
420
419
415
416
431
429
428
418
417
405
404
402
400
401
388
387
386
385
378
367
368
369
362
363
364
365
366
332
330
331
329
328
327
326
325
324
323
322
321
320
319
318
317
315
314
313
312
311
310
309
308
307
306
305
304
303
302
301
272
271
270
269
268
267
266
265
264
263
262
261
260
259
258
257
256
316
254
255
252
249
248
247
246
245
244
243
242
241
240
239
238
237
236
235
234
233
222
221
220
219
218
217
216
215
214
213
212
211
210
250
251
253
209
208
207
206
205
203
202
201
200
199
198
197
196
195
194
193
191
184
192
183
182
181
180
179
178
177
159
158
157
156
155
154
153
151
150
143
152
142
141
140
139
138
137
136
135
134
163
162
160
161
175
176
204
174
173
172
171
170
168
169
166
164
165
167
133
132
131
130
128
129
127
126
124
123
125
99
98
97
96
95
100
94
93
92
102
103
115
117
120
101
122
121
119
118
116
114
113
104
105
106
107
88
72
71
89
90
91
70
69
68
18
19
20
67
66
65
24
22
21
23
25
64
26
27
28
29
30
31
32
33
34
35
36
37
17
16
15
14
13
12
11
10
9
8
7
6
5
4

PP_SECTION
2
3
4
5
6
7
8
9
10
11
12
13
14
15
16
0
0
19
20
21
22
0
0
0
0
0
0
0
0
0
0
0
34
35
36
37
0
0
0
0
0
0
44
0
0
0
0
0
50
51
52
0
0
0
0
0
0
0
0
0
0
0
64
65
66
67
68
69
0
0
0
0
0
0
0
0
0
0
0
0
0
0
0
85
86
87
88
89
90
91
0
0
0
0
0
0
0
0
100
101
102
103
104
105
0
107
108
109
0
0
0
0
0
0
0
0
0
0
0
0
0
0
0
0
126
127
128
129
0
0
0
0
0
0
0
0
0
0
0
0
0
0
0
0
0
0
0
0
150
151
152
153
0
0
0
0
0
0
0
161
0
0
0
0
0
167
168
0
0
0
0
0
0
0
0
0
0
0
0
0
182
183
0
0
0
0
0
0
0
0
0
0
0
0
0
0
0
0
0
0
0
0
0
0
0
0
0
0
0
211
212
213
214
215
216
217
0
0
0
221
222
0
0
0
0
0
0
0
0
0
0
0
0
0
0
0
0
0
0
0
0
0
0
0
0
0
0
0
0
0
0
0
0
0
256
257
258
0
0
0
0
0
0
0
0
0
0
0
0
0
0
0
0
0
0
0
0
0
0
0
0
0
0
0
0
0
0
0
0
0
0
0
0
0
296
297
0
0
300
301
0
0
304
305
306
307
0
0
0
0
0
0
0
0
0
0
318
0
0
0
322
323
324
0
0
0
0
0
330
331
332
333
0
0
0
0
0
0
0
341
342
343
0
0
0
0
0
0
0
0
0
0
0
0
0
0
0
0
0
0
0
0
0
0
0
0
368
369
370
0
0
0
0
0
0
0
0
0
0
0
0
0
0
0
0
0
0
0
0
0
0
0
0
0
0
0
0
0
0
401
0
0
0
0
0
407
408
0
0
0
0
0
0
0
0
0
0
0
0
0
0
0
0
0
0
0
0
0
0
0
0
0
0
435
436
437
438
0
EOF
