DIMENSION : 439
NUMBER OF ITEMS : 2190

TOUR_SECTION
1
4
5
6
7
8
9
10
11
12
13
14
15
16
17
37
36
35
34
33
32
31
30
29
28
27
26
64
25
23
21
22
24
65
66
67
20
19
18
68
69
70
91
90
89
71
72
88
107
106
105
104
113
114
116
118
119
121
122
101
120
117
115
103
102
92
93
94
100
95
96
97
98
99
125
123
124
126
127
129
128
130
131
132
133
167
165
164
166
169
168
170
171
172
173
174
204
176
175
161
160
162
163
134
135
136
137
138
139
140
141
142
152
143
150
151
153
154
155
156
157
158
159
177
178
179
180
181
182
183
192
184
191
193
194
195
196
197
198
199
200
201
202
203
205
206
207
208
209
251
253
252
255
254
316
256
257
258
259
260
261
262
263
264
307
308
309
310
311
312
313
314
315
317
318
319
320
321
322
323
324
325
326
327
328
329
331
330
332
366
365
364
363
362
369
368
367
378
385
386
387
388
401
400
402
404
405
417
418
428
429
431
416
415
419
420
421
414
406
407
399
392
391
381
375
374
373
371
372
383
382
384
394
395
393
398
397
396
413
412
423
422
432
433
430
427
424
426
425
410
411
409
408
403
434
438
437
436
435
439
85
84
83
149
186
226
227
229
228
283
284
344
343
342
341
282
281
230
187
188
189
225
231
232
280
285
286
287
340
376
380
390
389
379
377
350
351
353
354
352
349
348
346
345
347
288
289
290
291
292
293
357
355
356
358
359
370
360
361
339
338
337
336
335
334
333
300
299
298
297
296
295
294
279
278
277
276
275
274
273
301
302
303
304
305
306
265
266
267
268
269
270
271
272
233
234
235
236
237
238
239
240
241
242
243
244
245
246
247
248
249
250
210
211
212
213
214
215
216
217
218
219
220
221
222
223
224
190
185
145
148
147
146
144
108
109
112
111
110
74
73
63
62
75
76
61
60
59
77
87
86
78
58
57
79
80
81
82
56
55
54
53
51
50
48
47
44
42
39
38
40
41
43
45
46
49
52
2
3

PP_SECTION
2
3
4
0
0
0
8
9
0
11
12
13
0
0
16
17
18
19
0
0
22
0
24
25
26
0
28
29
30
31
32
0
34
35
0
37
38
39
40
41
42
43
44
45
46
47
48
49
50
51
52
53
54
55
56
57
58
59
60
61
62
63
64
0
66
67
0
0
70
0
72
73
74
75
76
77
78
79
80
81
82
83
84
0
0
87
88
89
90
0
0
0
0
95
0
97
98
0
100
101
0
103
104
105
106
107
0
109
110
111
112
0
114
115
116
117
118
119
0
121
0
123
0
125
126
127
0
129
130
0
132
133
0
135
136
137
138
139
0
141
142
143
144
145
146
147
148
149
0
151
152
153
154
0
0
157
158
159
160
161
162
0
164
165
166
167
168
169
170
0
172
173
174
175
0
177
0
179
0
181
182
183
0
0
186
187
188
0
190
191
0
193
194
195
196
197
0
199
200
0
0
203
0
0
206
207
0
209
210
211
212
0
214
215
216
217
218
219
220
221
222
223
224
225
226
0
228
0
230
231
232
233
234
0
0
237
238
239
240
241
242
0
0
245
246
247
0
249
250
251
0
253
254
0
256
257
258
259
260
261
262
263
264
265
0
267
268
269
270
0
272
0
274
275
276
277
278
279
280
281
282
283
0
285
286
0
288
289
0
291
292
0
294
295
296
297
298
299
0
301
302
303
0
0
306
307
308
309
310
0
312
0
314
0
316
317
318
319
0
0
0
323
0
325
0
0
328
329
330
331
332
0
0
335
336
0
0
339
340
341
0
343
344
345
346
347
348
349
350
351
352
0
354
355
356
357
358
359
360
361
362
363
364
0
366
367
368
369
370
371
372
373
374
375
376
377
378
379
380
381
382
383
384
0
0
387
388
389
390
391
0
0
394
0
396
397
398
0
400
401
0
0
404
0
0
407
408
409
410
411
412
413
414
415
0
417
418
419
420
0
422
0
424
0
0
427
428
429
430
431
432
433
434
435
436
0
438
439
2
3
4
5
0
7
0
0
10
11
12
13
14
15
16
0
0
19
20
21
22
0
24
25
26
27
28
29
0
0
32
33
0
35
0
37
38
39
40
41
42
43
44
45
46
47
48
49
50
51
52
53
54
55
56
57
58
59
60
61
62
63
64
0
66
67
0
69
0
0
72
73
74
75
76
77
78
0
80
81
82
0
84
85
86
87
88
89
0
91
0
93
94
0
96
0
0
99
100
101
102
103
104
105
106
107
108
109
110
111
112
0
114
0
0
117
0
119
120
121
122
0
124
125
126
0
128
129
0
131
0
133
134
135
0
137
138
139
0
141
142
143
144
145
146
147
148
149
150
151
0
0
154
155
156
157
0
0
160
0
0
0
164
165
166
167
0
0
0
171
172
0
0
0
176
177
178
0
180
0
182
183
184
185
186
187
188
189
190
191
0
0
0
195
196
197
0
0
0
0
202
0
204
205
206
207
0
209
210
0
0
0
214
215
0
217
218
219
220
221
222
223
224
225
226
227
228
229
230
231
232
233
234
235
236
237
238
239
240
0
242
243
244
245
246
247
0
249
250
251
0
0
254
0
256
257
258
0
260
261
262
263
264
265
266
267
268
269
270
271
272
273
274
275
276
277
278
279
280
281
282
0
284
285
286
0
0
289
290
291
292
293
294
295
296
297
0
299
300
0
302
303
304
305
306
307
0
309
310
311
312
0
0
315
316
317
0
319
320
0
0
323
324
325
326
327
328
329
330
331
0
333
334
335
336
337
338
0
340
341
342
343
344
345
346
347
0
349
350
351
352
353
354
355
0
357
358
359
360
361
0
363
0
0
366
367
368
369
370
0
0
0
374
0
376
0
378
379
380
0
0
0
384
0
386
387
388
0
390
391
392
0
0
395
396
0
0
399
400
0
402
403
404
0
406
407
408
409
410
411
412
413
414
415
416
417
0
419
0
0
422
423
424
425
426
0
428
429
0
0
0
0
0
435
436
437
438
439
0
3
4
5
6
7
8
9
10
0
12
0
14
15
0
17
0
19
0
0
22
0
24
0
26
27
0
0
30
31
32
0
34
0
0
0
38
39
40
41
42
43
44
45
46
47
48
49
50
51
52
53
54
55
56
57
58
59
60
61
62
63
0
0
0
0
68
69
70
0
0
73
74
75
76
77
78
79
80
81
82
83
84
85
86
87
0
89
90
0
92
93
0
0
96
0
0
0
0
0
0
0
104
105
0
107
108
0
110
111
112
113
0
115
116
117
118
119
120
121
122
123
124
0
126
127
128
129
130
131
0
133
0
135
136
137
0
0
140
141
0
143
144
0
146
147
148
0
150
151
152
153
0
155
156
0
158
159
160
161
162
163
164
165
166
0
0
169
0
171
0
173
174
175
0
0
178
179
180
181
0
183
184
185
186
0
188
189
190
191
0
0
0
195
196
0
198
0
200
0
202
203
0
0
206
207
0
0
0
211
212
213
214
215
0
217
218
0
220
221
222
223
224
225
226
227
228
229
230
231
232
233
234
235
236
237
238
239
240
241
242
243
244
245
246
0
248
249
0
251
0
253
254
0
0
257
0
259
260
0
262
0
264
265
266
267
268
269
270
271
272
273
274
0
276
277
278
279
280
281
282
283
0
285
286
287
288
289
290
291
292
0
294
295
296
297
298
299
300
301
302
303
304
0
306
307
308
0
310
311
312
313
314
315
0
0
0
319
0
321
0
323
0
325
326
327
328
0
330
0
332
0
334
335
336
0
338
0
340
0
342
343
0
345
346
0
348
0
350
0
352
353
354
355
356
357
358
359
360
361
0
363
364
365
366
0
0
0
370
371
0
373
0
0
376
0
378
0
380
381
382
383
384
0
386
387
388
389
390
0
392
0
394
395
396
397
398
399
0
0
402
0
404
405
0
407
408
409
0
411
0
0
414
415
416
417
418
0
420
421
422
423
424
0
426
0
428
429
430
431
432
0
0
435
0
437
0
439
2
3
4
0
6
7
8
0
0
11
12
13
14
15
16
0
0
19
20
21
0
0
24
0
0
0
28
29
30
31
0
0
34
0
36
0
38
39
40
41
42
43
44
45
46
47
48
49
50
51
52
53
54
55
56
57
58
59
60
61
62
63
64
65
66
0
0
69
0
71
72
73
74
75
76
77
78
79
80
81
0
83
84
85
86
87
0
89
90
91
92
93
94
95
96
0
0
99
100
101
102
0
0
105
106
107
108
0
0
111
112
113
114
115
0
117
118
0
120
0
122
123
124
125
126
127
0
0
130
131
132
0
134
135
136
0
138
139
0
141
142
143
144
0
146
147
148
149
150
151
152
153
154
0
156
0
0
159
0
0
162
163
164
0
0
167
0
169
170
0
172
0
174
175
176
177
0
0
180
181
182
0
184
185
186
187
188
189
0
191
0
0
194
0
196
0
0
199
200
201
202
203
0
205
0
207
208
209
210
211
212
0
214
215
216
217
218
219
220
221
222
223
224
0
226
227
228
0
230
231
0
233
234
235
0
237
238
239
240
241
242
243
244
245
246
247
248
249
0
251
252
253
254
255
256
0
258
259
0
261
262
0
264
0
266
267
268
269
270
271
272
273
274
0
0
277
278
279
280
281
282
283
0
285
0
287
288
289
290
291
0
293
0
295
296
297
298
299
300
301
302
303
304
305
306
307
308
309
310
0
312
313
0
315
316
317
318
319
0
321
322
323
324
325
326
0
328
329
330
0
332
0
334
335
336
337
338
339
340
341
342
343
0
345
0
347
348
349
350
351
352
353
0
355
0
357
0
0
360
361
362
363
364
0
366
367
0
0
370
0
0
373
374
375
376
0
378
379
380
381
0
383
384
385
386
0
388
389
390
391
392
393
0
0
0
397
398
399
0
401
0
403
404
405
0
407
408
409
410
411
412
413
414
415
0
417
418
0
420
0
0
423
424
0
426
427
428
0
430
431
0
433
0
435
0
437
438
439
2
3
0
5
6
7
0
0
10
11
0
13
14
0
16
17
18
19
20
21
0
0
24
25
26
0
28
29
30
31
32
33
34
0
36
37
38
39
0
41
42
43
44
45
46
47
48
49
50
51
52
53
54
55
56
57
58
59
60
61
62
0
64
65
0
0
68
69
0
71
0
73
74
0
76
77
78
79
80
81
82
83
0
0
86
87
0
89
90
91
92
93
94
95
96
97
0
0
100
0
102
103
104
105
106
0
108
0
110
111
0
113
114
0
0
0
118
0
120
121
122
123
124
125
126
127
128
0
130
131
132
0
134
135
0
137
138
0
140
141
0
0
144
145
146
147
148
149
0
151
0
0
0
155
156
157
0
159
160
161
162
0
164
165
0
167
0
0
170
171
172
173
0
0
176
177
178
179
180
181
0
183
0
185
0
0
188
189
190
0
192
193
194
195
0
197
0
0
200
201
202
203
0
205
206
0
0
0
210
211
212
213
214
215
216
217
218
219
220
221
222
223
224
0
226
0
228
229
230
231
232
233
234
0
236
237
0
239
0
241
0
243
244
245
246
247
248
0
250
0
0
0
254
0
256
0
258
0
0
261
0
263
264
265
266
0
268
269
270
271
0
273
274
275
276
277
278
279
280
281
0
0
284
285
286
0
288
289
290
291
292
293
294
295
296
297
298
299
300
301
302
303
0
305
306
307
308
0
310
0
312
0
314
315
316
317
318
0
0
321
322
323
324
0
326
327
0
329
0
0
332
333
334
0
336
337
338
339
340
341
342
343
344
0
0
347
348
349
0
351
352
353
354
355
356
357
0
359
360
361
362
363
364
365
366
367
0
0
370
371
0
373
0
375
376
377
378
379
380
381
382
383
384
385
386
387
388
389
390
391
0
0
394
395
396
0
398
399
0
401
0
403
404
405
406
407
408
409
410
411
412
0
414
0
416
417
418
419
0
421
422
423
424
0
0
0
428
429
0
431
0
0
0
435
436
437
438
439
EOF
