DIMENSION : 439
NUMBER OF ITEMS : 2190

TOUR_SECTION
1
3
2
52
83
84
85
149
186
226
227
439
435
436
437
438
434
403
408
409
411
410
425
426
424
427
430
433
432
422
423
412
413
407
406
399
392
391
398
396
397
393
395
394
384
382
383
372
371
373
381
375
374
341
342
343
344
284
283
228
229
282
281
230
187
188
189
225
231
232
280
285
286
287
340
288
289
290
291
292
293
359
357
358
356
355
354
352
353
351
350
349
347
348
346
345
376
377
379
380
390
389
414
421
420
419
415
416
431
429
428
418
417
405
404
402
400
401
388
387
386
385
378
369
368
367
366
365
364
363
362
361
370
360
339
338
337
336
335
334
333
300
299
298
297
296
295
294
279
278
277
276
275
274
273
301
272
271
270
269
268
267
266
265
264
263
262
261
260
259
258
257
256
314
313
312
311
310
309
308
307
306
305
304
302
303
330
332
331
329
328
327
326
325
324
323
322
321
320
319
318
317
315
316
254
255
252
253
251
209
208
207
206
205
203
202
201
200
199
178
177
176
175
204
174
173
172
171
170
168
169
166
164
165
167
133
132
131
130
128
99
98
97
96
95
18
19
20
21
22
24
23
25
65
66
67
68
69
70
91
90
89
71
72
88
107
106
105
104
113
114
116
118
119
121
122
120
117
115
103
102
92
93
94
100
101
123
125
129
127
126
124
137
136
135
134
163
162
161
160
159
158
138
139
140
141
142
152
143
150
151
153
154
155
156
157
179
180
181
182
183
192
184
191
193
194
195
196
197
198
216
215
214
213
212
211
210
250
249
248
247
246
245
244
243
242
241
217
218
219
220
221
240
239
238
237
236
235
234
233
222
223
224
190
185
145
148
147
146
144
108
109
112
111
110
74
73
63
64
26
27
28
29
30
31
32
62
75
76
61
60
59
77
87
86
78
58
57
79
80
81
82
56
55
54
53
51
50
48
47
49
46
45
44
42
43
41
40
39
38
37
36
35
34
33
17
16
15
14
13
12
11
10
9
8
7
6
5
4

PP_SECTION
2
3
4
5
6
7
8
9
10
11
12
13
14
15
16
17
0
19
20
21
22
23
24
25
26
27
28
29
30
31
32
33
34
35
36
37
38
39
40
41
42
43
44
45
46
47
48
49
50
51
52
53
54
55
56
57
58
59
60
61
62
63
64
65
66
67
68
69
0
0
0
73
74
75
76
77
78
79
80
81
82
0
0
85
86
87
88
89
90
91
92
0
0
0
0
0
0
0
100
101
102
103
104
105
0
107
108
109
110
111
112
0
0
0
0
117
118
119
120
0
122
123
124
125
126
127
128
129
0
131
132
133
134
0
0
0
0
0
140
141
142
143
144
145
146
147
148
0
150
151
152
153
154
155
156
157
158
159
160
161
162
0
0
0
0
167
168
0
0
0
172
173
0
0
0
0
0
0
0
0
182
183
184
185
0
0
0
0
190
191
192
193
194
195
196
197
198
0
0
0
0
0
0
0
0
0
0
209
210
211
212
213
214
215
216
217
218
219
220
221
222
223
224
225
226
0
0
0
0
0
0
233
234
235
236
237
238
239
240
241
242
243
244
245
246
247
248
249
250
251
0
0
0
0
256
257
258
0
0
0
0
0
0
0
0
0
0
0
0
0
0
0
0
0
0
0
0
0
0
0
0
0
0
0
0
0
0
289
290
291
292
0
0
0
296
297
0
0
300
301
302
303
304
305
306
307
0
0
0
0
312
313
314
315
316
317
318
319
320
321
322
323
324
0
0
0
0
0
330
331
332
333
334
0
0
0
0
0
0
341
342
343
0
0
0
0
0
0
0
0
0
0
0
0
0
0
0
0
0
0
0
0
0
365
366
367
368
369
370
0
0
0
0
0
0
0
0
0
0
0
0
0
0
385
386
387
0
0
0
0
0
0
0
0
0
0
0
0
400
401
402
403
404
0
0
407
408
0
0
0
412
413
414
415
416
417
418
419
0
0
0
0
0
0
0
0
428
0
0
0
0
0
0
435
436
437
438
0
0
0
4
5
6
7
8
9
10
11
12
13
14
15
16
17
18
19
0
0
0
23
24
25
26
27
28
29
30
31
32
33
34
35
36
37
38
39
40
41
42
43
44
45
46
47
48
49
50
51
0
53
54
55
56
57
58
59
60
61
62
63
64
65
66
67
0
69
70
71
72
73
74
75
76
77
78
79
80
81
82
0
0
0
86
87
88
89
90
91
92
93
94
0
0
0
0
0
100
101
102
103
0
0
0
0
108
109
110
111
112
0
0
0
0
0
0
0
120
121
122
123
124
125
126
127
0
129
0
0
132
133
134
0
0
137
138
139
140
141
142
143
144
145
146
147
148
0
150
151
152
153
154
155
156
157
158
159
160
161
162
163
164
165
166
0
0
169
170
171
172
173
174
175
0
0
0
0
0
0
182
183
184
185
0
0
0
0
190
191
192
193
194
195
196
197
198
199
200
201
202
203
204
205
206
207
208
0
210
211
212
213
214
215
216
217
218
219
220
221
222
223
224
225
0
0
0
0
0
0
0
233
234
235
236
237
238
239
240
241
242
243
244
245
246
247
248
249
250
0
0
0
0
0
0
0
0
0
0
261
262
263
264
0
0
0
0
0
0
0
0
273
274
0
0
0
0
0
0
0
0
0
0
0
286
287
288
0
290
291
292
0
0
0
296
297
298
299
300
301
302
0
304
305
306
307
0
0
310
311
312
0
0
315
316
317
318
319
0
0
0
0
0
0
0
0
0
0
0
0
0
0
0
0
0
0
0
0
0
0
342
343
344
345
0
0
0
0
350
351
352
353
0
355
356
357
358
0
0
0
0
363
0
0
0
0
0
0
0
0
0
0
0
0
0
0
378
379
380
0
0
0
0
0
0
387
388
0
0
391
0
0
0
0
0
0
0
0
0
0
0
0
0
0
0
0
0
0
0
411
0
0
0
0
416
417
418
0
0
0
0
0
0
0
0
0
428
429
0
0
0
0
0
0
0
0
0
0
0
0
4
5
6
7
8
9
10
11
12
13
14
15
16
17
0
0
0
21
22
23
0
0
26
27
28
29
30
31
32
33
34
35
36
37
38
39
40
41
42
43
44
45
46
47
48
49
50
51
52
53
54
55
56
57
58
59
60
61
62
63
64
0
0
67
68
69
70
71
0
73
74
75
76
77
78
79
80
81
82
0
0
0
86
87
88
89
90
91
92
0
0
95
96
97
98
0
100
101
102
103
104
105
0
0
108
109
110
111
112
113
114
115
0
0
0
119
120
121
122
0
0
0
126
127
128
129
0
0
0
0
134
135
136
137
138
139
140
141
142
143
144
145
146
147
148
0
150
151
152
153
0
155
156
157
0
0
0
161
162
163
164
165
0
167
168
169
0
0
0
0
174
175
176
177
178
179
180
181
0
0
0
185
186
187
188
189
190
191
192
193
194
195
196
197
198
199
0
0
202
203
204
205
0
0
0
0
210
211
212
213
214
215
216
217
218
219
220
221
222
223
224
225
226
227
0
0
0
0
0
233
234
235
236
237
238
239
240
241
242
243
244
245
246
247
248
249
250
0
0
0
0
0
0
0
0
0
0
0
0
0
264
265
266
267
268
269
270
271
272
273
274
275
276
277
278
279
280
281
282
283
0
0
0
287
288
0
0
0
0
0
0
0
0
0
0
0
300
301
302
303
304
305
306
307
308
309
310
311
312
313
314
0
0
0
318
319
320
321
322
323
0
0
0
0
0
0
0
331
332
0
0
0
0
0
0
0
0
0
0
0
0
0
346
347
348
349
0
0
0
0
0
0
0
0
358
359
360
0
0
0
0
0
0
0
0
369
370
371
0
0
0
0
0
0
0
0
0
0
0
0
0
0
0
0
388
389
390
0
0
0
0
0
0
0
0
0
0
401
402
403
404
0
0
0
0
409
410
411
412
0
0
0
0
0
0
0
0
0
0
0
0
0
426
427
428
429
0
0
0
433
0
0
0
0
0
0
0
0
4
5
6
7
8
9
10
11
12
13
14
15
16
17
18
19
20
21
22
23
24
25
26
27
28
29
30
31
32
33
34
35
36
37
38
39
40
41
42
43
44
45
46
47
48
49
50
51
0
53
54
55
56
57
58
59
60
61
62
63
64
65
66
67
68
69
70
0
0
73
74
75
76
77
78
79
80
81
82
0
0
0
86
87
0
0
0
0
0
0
0
0
0
0
98
0
100
101
102
103
104
105
106
107
108
109
110
111
112
113
114
115
116
117
0
0
0
0
122
123
124
125
126
127
128
129
0
0
0
133
134
135
136
137
138
139
140
141
142
143
144
145
146
147
148
0
150
151
152
153
154
155
156
157
158
159
0
0
0
163
0
0
0
0
0
169
170
171
172
173
174
175
0
0
178
179
180
181
182
183
184
185
186
187
188
189
190
191
192
193
194
195
196
197
198
199
200
201
202
203
204
205
206
207
208
0
210
211
212
213
214
215
216
217
218
219
220
221
222
223
224
0
0
0
0
0
0
0
0
233
234
235
236
237
238
239
240
241
242
243
244
245
246
247
248
249
250
251
0
0
0
0
0
0
0
0
260
261
262
263
0
265
266
267
268
269
270
271
272
0
0
275
276
277
278
0
0
0
0
0
0
0
0
0
0
0
290
0
0
0
0
0
296
297
0
299
0
0
0
0
304
305
306
0
0
0
0
311
312
313
314
315
0
0
0
0
0
0
322
0
0
0
0
0
0
0
0
0
332
333
334
335
336
0
0
0
0
341
342
0
0
0
346
347
348
349
350
351
352
353
0
0
0
0
0
0
0
0
0
0
0
0
0
0
0
369
370
0
0
0
0
0
0
0
0
379
380
381
382
383
384
385
386
387
388
389
390
391
392
393
394
395
396
397
398
399
0
0
402
403
404
405
406
407
0
0
0
0
0
0
0
0
0
0
0
0
420
421
422
0
0
0
0
0
0
0
0
0
0
0
0
0
0
0
0
0
0
0
4
5
6
7
8
9
10
11
12
13
14
15
16
17
0
0
0
0
0
23
24
25
26
27
28
29
30
31
32
33
34
35
36
37
38
39
40
41
42
43
44
45
46
47
48
49
50
51
0
53
54
55
56
57
58
59
60
61
62
63
64
0
0
0
0
0
70
71
72
73
74
75
76
77
78
79
80
81
82
0
0
0
86
87
88
89
90
91
92
93
0
0
0
0
98
99
100
101
102
103
104
105
106
107
108
109
110
111
112
113
114
115
0
0
0
119
120
121
0
0
0
125
126
127
128
129
0
0
0
0
0
0
0
0
138
139
140
141
142
0
144
145
146
147
148
0
0
0
152
153
154
155
156
157
158
159
160
161
162
163
0
0
0
0
0
0
0
0
0
0
0
0
176
177
178
179
0
0
182
183
184
185
186
0
0
0
190
191
192
193
194
195
196
197
198
0
200
201
202
203
204
205
206
207
208
209
210
211
212
213
214
215
216
217
218
219
220
221
222
223
224
0
226
227
228
0
0
0
0
233
234
235
236
237
238
239
240
241
242
243
244
245
246
247
248
249
250
251
252
253
254
255
0
0
0
0
0
0
0
0
0
0
266
267
268
0
0
0
0
0
0
0
276
277
278
279
280
281
282
283
284
285
286
287
288
289
0
0
0
0
0
0
296
297
298
0
0
301
302
303
304
305
306
307
308
0
0
0
0
0
0
315
316
317
318
319
320
321
0
0
0
325
326
327
328
329
330
331
332
333
0
0
0
0
0
0
0
0
0
0
0
345
346
0
0
0
0
0
0
0
0
0
0
0
358
359
360
0
0
0
0
0
0
0
0
0
0
0
0
0
0
0
0
0
0
0
380
381
382
383
384
385
386
0
0
0
390
391
392
0
0
0
0
397
398
399
0
0
0
0
0
0
0
0
0
0
0
0
0
0
414
0
0
0
0
419
420
421
422
0
0
0
0
0
0
0
0
431
0
0
434
0
0
0
0
0
EOF
