DIMENSION : 439
NUMBER OF ITEMS : 438

TOUR_SECTION
1
4
5
6
7
8
9
10
11
12
13
14
15
16
17
33
34
35
36
37
38
39
40
41
43
42
44
45
46
49
47
48
50
51
53
54
55
56
82
81
80
79
57
58
78
86
87
77
59
60
61
76
75
62
32
31
30
28
26
27
29
63
73
74
64
25
23
21
22
24
65
66
67
20
19
18
68
69
70
71
72
88
89
90
91
102
92
93
94
100
95
96
97
98
99
128
133
132
131
130
129
127
126
124
125
123
101
122
121
119
118
116
120
117
115
103
114
113
104
105
106
107
108
109
110
111
112
146
144
147
148
145
185
190
224
223
222
233
234
235
236
237
238
239
240
221
220
219
218
217
241
242
243
244
245
246
247
248
249
250
210
211
212
213
214
215
216
198
197
196
195
194
193
191
184
192
183
182
181
180
179
157
156
155
154
153
151
150
143
152
142
141
140
139
138
158
159
177
178
199
200
201
202
176
175
161
160
137
136
135
134
162
163
164
165
167
166
169
168
170
171
172
173
174
204
203
205
206
207
208
209
251
253
252
255
254
316
315
317
318
319
320
321
322
323
324
325
326
327
328
329
331
332
330
303
302
304
305
306
307
308
309
310
311
312
313
314
256
257
258
259
260
261
262
263
264
265
266
267
268
269
270
271
272
301
273
274
275
276
277
278
279
294
295
296
297
298
299
300
333
334
335
336
337
338
339
360
370
361
362
363
364
365
366
367
368
369
378
385
386
387
388
401
400
402
404
405
417
418
428
429
431
416
415
419
420
421
414
406
407
413
412
423
422
432
433
430
427
424
426
425
410
411
409
408
403
434
438
437
436
435
439
284
344
343
342
341
373
371
372
383
382
384
394
395
393
397
396
398
399
392
391
381
375
374
380
390
389
379
377
376
345
346
348
347
349
350
351
353
352
354
355
356
358
357
359
293
292
291
290
289
288
340
287
286
285
280
232
231
225
189
188
187
230
281
282
229
283
228
227
226
186
149
85
84
83
52
2
3

PP_SECTION
0
3
0
0
0
7
0
0
10
0
0
0
14
0
0
0
0
0
0
0
0
0
0
0
0
27
0
29
0
0
0
0
0
0
0
0
0
39
0
0
0
0
44
0
0
0
0
0
0
51
52
0
0
0
56
0
0
59
0
0
62
63
0
65
0
67
68
69
70
71
0
0
0
0
0
0
0
0
0
0
0
83
84
85
0
87
0
0
90
0
0
93
94
0
0
0
0
99
100
0
0
0
0
0
0
0
108
0
0
0
0
113
0
0
0
0
0
119
120
0
0
123
0
0
0
0
0
0
0
131
0
0
134
135
0
0
0
0
140
0
0
0
0
0
0
0
148
149
0
0
0
0
0
155
156
0
158
0
160
0
0
0
164
0
0
0
168
0
170
171
0
0
0
0
0
0
0
0
180
0
0
0
0
185
0
0
188
189
190
0
0
0
0
0
0
197
0
0
0
201
0
203
204
0
0
0
208
0
0
0
0
213
0
0
0
217
0
0
0
0
0
223
0
0
226
227
0
229
230
231
232
0
234
0
236
0
0
0
240
0
0
243
244
0
246
0
0
249
0
0
252
0
0
0
0
257
0
259
0
261
0
0
264
265
266
0
268
269
270
0
0
273
0
0
0
0
0
279
0
281
282
283
284
0
286
287
288
289
290
0
292
293
0
295
0
0
0
0
300
0
302
0
0
0
0
0
0
0
0
311
0
313
314
315
0
0
318
0
0
0
322
0
0
0
0
0
0
329
330
0
0
333
334
0
0
337
0
0
340
341
342
343
344
0
346
347
348
349
350
0
352
353
0
355
0
0
0
0
360
361
362
0
0
365
0
367
0
0
370
0
0
373
0
0
376
377
0
379
380
0
0
383
0
385
0
0
0
389
390
391
392
393
394
395
0
0
0
0
0
0
0
403
0
405
0
407
408
0
0
0
0
413
0
0
416
417
0
419
420
421
0
0
0
425
426
427
0
429
430
0
0
433
434
0
436
0
0
439
EOF
