DIMENSION : 439
NUMBER OF ITEMS : 2190

TOUR_SECTION
1
4
5
6
7
8
9
10
11
12
13
14
15
16
17
33
34
35
36
37
38
39
40
41
43
42
44
45
46
49
47
48
50
51
53
54
55
56
82
81
80
79
57
58
78
86
87
77
59
60
61
76
75
62
32
31
30
29
28
27
26
64
63
73
74
110
111
112
109
108
144
146
147
148
145
185
190
224
223
222
233
234
235
236
237
238
239
240
221
220
219
218
217
241
242
243
244
245
246
247
248
249
250
210
211
212
213
214
215
216
198
197
196
195
194
193
191
184
192
183
182
181
180
179
157
156
155
154
153
151
150
143
152
142
141
140
139
121
119
118
116
114
113
104
105
106
107
88
72
71
89
90
91
70
69
68
67
66
65
25
23
24
22
21
20
19
18
94
93
92
102
103
115
117
120
122
101
100
95
96
98
97
133
132
131
130
128
99
125
123
124
126
127
129
134
135
136
137
138
158
159
160
161
162
163
164
165
167
166
169
168
170
171
172
173
174
204
175
176
177
178
199
200
201
202
203
205
206
207
208
209
251
253
252
255
254
316
315
317
318
319
320
321
322
323
324
325
326
327
328
329
331
332
330
303
302
304
305
306
307
308
309
310
311
312
313
314
256
257
258
259
260
261
262
263
264
265
266
267
268
269
270
271
272
301
273
274
275
276
277
278
279
294
295
296
297
298
299
300
333
334
335
336
337
338
339
360
370
361
362
363
364
365
366
367
368
369
378
385
386
387
388
401
400
402
404
405
417
418
428
429
431
416
415
419
420
421
414
406
407
413
412
423
422
432
433
430
427
424
426
425
410
411
409
408
403
434
438
437
436
435
439
284
344
343
342
341
373
371
372
383
382
384
394
395
393
397
396
398
399
392
391
381
375
374
380
390
389
379
377
376
345
346
348
347
349
350
351
353
352
354
355
356
358
357
359
293
292
291
290
289
288
340
287
286
285
280
232
231
225
189
188
187
230
281
282
229
283
228
227
226
186
149
85
84
83
52
2
3

PP_SECTION
0
3
0
0
0
7
0
0
10
0
0
0
14
0
0
0
0
0
0
0
0
0
0
0
0
0
0
29
0
0
0
0
0
0
0
0
0
39
0
0
0
0
44
0
0
0
0
0
0
51
52
0
0
0
56
0
0
59
0
0
62
63
0
65
0
67
68
69
70
71
0
0
0
0
0
0
0
0
0
0
0
83
84
85
0
87
0
0
90
0
0
93
94
0
0
0
0
99
100
0
0
0
0
0
0
0
108
0
0
0
0
113
0
0
0
0
0
119
120
0
0
123
124
0
0
0
0
0
0
131
0
0
134
135
0
0
0
0
140
0
0
0
0
0
0
0
148
149
0
0
0
0
0
155
156
0
158
0
160
0
0
0
164
0
0
0
168
0
170
0
0
0
0
0
0
0
0
0
0
0
0
0
0
185
0
0
188
189
190
0
0
0
0
0
0
197
0
0
0
201
0
203
204
0
0
0
208
0
0
0
0
213
0
0
0
0
0
0
0
0
0
223
0
0
226
227
0
229
230
231
232
0
0
0
236
0
0
0
0
0
0
243
244
0
246
0
0
249
0
0
252
0
0
0
0
257
0
259
0
261
0
0
264
265
266
0
268
269
270
0
0
273
0
0
0
0
0
279
0
281
282
283
284
0
286
287
288
289
290
0
292
293
0
295
0
0
0
0
300
0
302
0
0
0
0
0
0
0
0
311
0
313
314
315
0
0
318
0
0
0
322
0
0
0
0
0
0
329
330
0
0
333
334
0
0
337
0
0
340
341
342
343
344
0
346
347
348
349
350
0
352
353
0
355
0
0
0
0
360
361
362
0
0
365
0
367
0
0
370
0
0
373
374
0
376
377
0
379
380
0
0
383
0
385
0
0
0
389
390
391
392
393
394
395
0
0
0
0
0
0
0
403
0
405
0
407
408
0
0
0
0
413
0
0
416
417
0
419
420
421
0
0
0
425
426
427
0
429
430
0
0
433
434
0
436
0
0
439
2
3
0
0
0
0
8
9
10
11
0
0
0
0
0
17
18
19
0
0
0
0
0
0
0
0
28
0
0
0
0
0
0
0
0
0
0
0
0
0
0
0
0
0
46
47
0
0
0
0
0
0
0
0
0
0
0
59
0
0
0
0
0
0
0
0
68
0
70
0
0
0
0
75
0
77
0
0
0
81
0
83
84
0
0
0
88
0
0
91
92
93
94
95
0
97
98
0
0
0
102
0
0
105
0
0
0
109
0
0
112
113
0
0
0
0
0
0
0
0
0
0
124
0
0
127
0
0
130
0
132
0
0
135
0
137
0
0
0
0
0
0
0
0
0
147
148
149
0
0
0
0
0
0
0
0
0
0
0
0
162
0
0
165
0
0
0
0
0
0
172
173
0
0
0
0
0
0
0
181
0
183
184
0
186
187
188
189
0
0
192
0
0
0
0
197
0
199
0
0
0
203
0
0
206
0
208
0
0
211
212
0
0
0
216
217
218
0
0
0
0
0
224
225
226
227
0
229
230
0
232
0
0
0
0
0
0
0
240
0
0
243
0
0
0
0
248
249
0
0
0
0
0
255
256
0
0
259
260
0
0
0
0
0
0
267
0
269
0
0
0
0
274
0
0
277
0
0
0
281
282
283
0
285
286
287
288
289
0
291
292
293
294
295
0
297
298
0
0
0
302
0
0
0
306
0
0
0
310
311
0
0
314
0
0
0
0
0
320
321
322
0
0
0
0
327
328
0
330
331
332
333
0
0
336
0
0
0
0
0
342
343
344
345
0
0
348
0
0
0
352
0
354
0
356
357
0
359
360
361
362
0
0
365
0
0
368
0
0
371
372
373
374
375
376
377
0
379
380
381
382
383
384
385
386
0
0
389
0
0
0
393
0
0
396
397
398
0
0
401
0
403
0
0
0
0
408
0
0
0
0
0
414
415
0
0
0
419
420
421
0
0
0
425
0
427
0
0
430
431
0
433
434
0
436
0
0
0
2
3
0
0
0
0
0
9
0
0
0
0
0
0
0
0
18
0
20
21
0
23
0
25
0
0
0
29
30
31
0
0
0
35
36
0
0
0
40
0
42
0
0
0
0
0
48
0
0
51
52
53
0
0
0
57
58
0
0
61
0
0
64
0
0
67
0
0
70
0
72
0
0
0
0
0
0
0
0
0
0
83
84
0
0
0
0
0
0
91
92
0
94
95
0
0
0
99
0
101
0
103
0
0
0
0
0
109
0
0
112
0
114
0
0
0
0
0
0
0
0
0
0
125
0
0
0
0
0
0
132
0
134
0
0
0
138
139
0
0
0
0
0
145
0
147
0
149
0
0
0
0
0
155
0
0
0
0
0
0
0
0
164
0
0
0
168
0
170
0
0
0
0
175
176
177
0
0
0
0
0
0
0
0
186
187
188
189
0
0
0
0
194
0
196
197
0
199
0
0
0
0
0
0
206
0
208
209
210
211
0
0
0
215
216
0
0
219
0
221
0
0
0
225
226
227
0
229
0
231
232
0
0
0
0
0
0
0
0
0
0
0
0
0
0
247
0
0
0
0
252
0
254
0
0
257
258
259
0
261
0
263
0
265
0
0
0
269
0
0
0
0
274
275
0
0
0
279
0
281
282
0
284
0
286
287
288
0
290
291
292
293
0
0
296
0
298
0
0
0
0
0
304
0
306
0
0
309
0
311
0
0
0
0
316
317
0
0
320
321
0
323
324
0
326
0
328
0
0
331
0
333
0
0
0
337
0
339
0
341
342
0
344
0
0
347
0
349
350
351
352
353
0
0
0
357
358
0
0
0
362
0
0
365
0
367
0
0
0
0
0
0
374
375
0
377
0
379
380
0
0
383
0
0
0
0
0
389
0
391
0
393
394
395
0
0
398
0
400
401
402
403
404
0
406
407
0
0
410
411
412
413
0
0
0
0
0
419
0
421
422
0
0
425
426
427
428
0
0
0
432
0
434
0
0
0
438
0
2
3
4
0
0
0
0
0
10
11
0
0
0
0
0
0
0
0
0
0
0
23
24
25
0
0
0
0
0
0
0
33
0
0
0
0
0
39
0
0
0
0
0
0
0
0
0
0
50
0
52
0
0
0
56
0
0
0
60
0
0
0
0
65
0
0
68
0
70
0
0
0
0
0
0
0
78
0
0
0
0
83
84
85
0
0
0
0
0
0
0
93
0
0
96
97
98
0
100
0
102
103
104
0
106
0
0
109
0
0
0
113
0
0
116
0
0
119
120
121
0
0
124
0
0
0
128
129
0
131
132
0
0
0
0
137
138
139
140
0
0
0
144
0
0
0
0
149
0
0
0
153
0
0
156
157
0
0
160
0
0
0
0
0
166
167
0
169
0
171
0
173
0
0
0
0
178
0
180
0
0
183
184
185
186
0
0
189
190
0
0
193
0
195
196
197
0
0
0
0
0
0
0
0
0
207
0
0
0
0
212
0
0
215
216
0
0
0
0
0
0
0
0
225
226
227
0
229
230
231
232
0
234
235
236
237
0
0
0
0
0
0
0
245
0
0
0
249
0
0
0
0
0
0
0
257
258
259
260
261
262
0
0
0
0
267
0
269
0
271
272
0
274
0
0
277
0
279
280
281
282
283
0
285
286
287
288
289
290
291
292
293
294
0
0
0
0
0
300
0
0
303
0
305
0
0
0
0
0
0
312
313
0
0
0
0
0
0
0
0
0
0
324
0
0
0
328
0
0
0
0
333
0
0
0
337
0
0
340
341
0
343
344
0
346
347
348
349
350
0
352
0
354
0
356
357
358
359
360
0
0
0
364
365
0
0
0
369
0
371
372
0
0
375
0
377
0
379
380
0
382
383
384
0
0
387
0
0
390
0
392
393
394
395
396
397
398
399
400
0
402
0
0
405
406
407
0
0
410
411
0
0
0
0
0
0
418
419
420
421
422
0
424
425
0
0
0
0
0
0
432
433
0
0
0
0
438
0
2
3
0
0
0
0
8
0
0
0
0
0
0
0
0
0
0
0
0
0
0
0
0
0
0
0
0
0
0
0
0
0
0
0
0
0
0
0
0
0
0
0
0
0
0
0
0
0
0
0
52
0
0
0
0
0
0
0
0
0
0
63
0
0
66
67
0
0
70
71
72
0
0
75
0
77
0
0
0
0
82
83
84
85
0
0
0
0
0
0
0
93
0
0
96
97
0
99
0
101
0
103
0
0
0
107
0
0
0
0
0
0
0
115
116
117
0
119
120
0
0
0
124
0
0
127
0
129
0
0
132
0
0
0
136
0
0
0
140
0
0
143
144
0
0
0
0
149
150
0
0
153
154
0
0
0
158
0
0
161
0
0
0
165
166
0
0
169
0
0
0
0
0
0
0
0
0
0
0
0
0
0
184
0
186
187
0
0
190
0
0
193
0
0
0
197
198
199
200
0
0
203
204
205
0
207
0
209
0
0
0
0
0
0
0
0
0
0
0
0
0
0
0
225
226
227
228
229
230
0
232
0
0
235
0
237
0
239
0
0
242
0
0
0
0
0
248
0
0
0
252
253
0
0
256
257
0
0
260
261
0
0
264
265
0
267
0
0
270
0
272
0
0
275
0
0
0
0
280
281
282
283
0
285
286
287
288
289
0
0
0
293
0
0
296
0
0
299
0
0
302
0
0
0
306
307
0
0
0
311
0
0
0
0
0
0
318
319
320
321
0
0
0
325
0
0
0
0
330
331
0
333
0
335
0
0
0
339
340
341
342
0
344
345
0
347
348
349
0
351
0
0
0
355
356
357
358
359
0
0
0
0
0
365
0
0
0
369
0
0
372
0
374
0
0
0
378
0
0
0
382
0
384
0
0
0
0
0
390
0
392
0
394
395
396
397
398
0
400
0
0
403
0
405
0
0
0
409
0
411
412
413
0
415
0
417
0
0
420
0
422
0
0
425
426
427
428
429
430
0
0
433
434
435
436
0
0
0
EOF
