DIMENSION : 439
NUMBER OF ITEMS : 438

TOUR_SECTION
1
3
2
52
83
84
85
149
186
226
227
228
283
229
282
281
230
187
188
189
225
231
232
280
285
286
287
340
288
289
290
291
292
293
359
357
358
356
355
354
352
353
351
350
349
347
348
346
345
376
377
379
389
390
380
374
375
381
391
392
399
398
396
397
393
395
394
384
382
383
372
371
373
341
342
343
344
284
439
435
436
437
438
434
403
408
409
411
410
425
426
424
427
430
433
432
422
423
412
413
407
406
414
421
420
419
415
416
431
429
428
418
417
405
404
402
400
401
388
387
386
385
378
369
368
367
366
365
364
363
362
361
370
360
339
338
337
336
335
334
333
300
299
298
297
296
295
294
279
278
277
276
275
274
273
301
302
303
304
330
332
331
329
328
327
326
325
324
323
322
321
320
319
318
317
315
316
254
255
256
257
258
259
314
313
312
311
310
260
261
262
263
309
308
307
264
265
266
267
306
305
268
269
270
271
272
233
234
235
236
237
238
239
240
241
242
243
244
245
246
247
248
249
252
253
209
251
250
210
211
212
213
214
215
216
217
218
219
220
221
222
223
224
190
185
145
148
147
144
146
112
111
110
109
108
107
106
105
104
113
114
103
115
117
120
116
118
119
121
122
101
123
125
124
126
127
129
134
135
136
137
138
139
140
141
142
152
143
150
151
153
154
155
156
157
158
159
177
178
179
180
181
182
183
192
184
191
193
194
195
196
197
198
199
200
201
202
203
205
206
207
208
171
172
173
174
204
176
175
161
160
162
163
164
165
166
169
170
168
167
133
132
131
130
128
99
98
97
96
95
100
94
93
92
102
91
90
89
88
72
71
70
69
68
18
19
20
67
66
65
24
22
21
23
25
64
74
73
63
29
27
26
28
30
31
32
62
75
76
61
60
59
77
87
86
78
58
57
79
80
81
82
56
55
54
53
51
50
48
47
49
46
45
44
42
43
41
40
39
38
37
36
35
34
33
17
16
15
14
13
12
11
10
9
8
7
6
5
4

PP_SECTION
2
3
4
5
6
7
8
9
10
11
12
13
14
15
16
17
18
19
20
21
22
23
24
25
26
27
28
29
30
31
32
33
34
35
36
37
38
39
40
41
42
43
44
45
46
47
48
49
50
51
52
53
54
55
56
57
58
59
60
61
62
63
64
65
66
67
68
69
70
71
72
73
74
75
76
77
78
79
80
81
82
0
0
85
86
87
88
89
90
91
92
93
94
95
96
97
98
99
100
101
102
103
104
105
0
107
108
109
0
0
0
113
0
0
0
117
118
119
120
0
122
123
124
125
126
127
128
129
130
131
132
133
134
0
136
137
0
0
140
141
142
143
144
145
0
0
0
0
150
151
152
153
154
155
156
157
158
159
160
161
162
163
164
165
166
167
168
169
170
171
172
173
174
175
176
0
0
0
0
0
182
183
0
0
0
0
0
0
0
191
192
193
194
0
0
0
198
199
200
201
202
203
204
205
206
207
208
209
210
211
212
213
214
215
216
217
0
0
0
221
222
223
224
225
226
0
0
0
0
0
0
0
0
0
0
0
0
0
0
0
242
243
244
0
0
0
0
249
250
251
0
0
0
0
256
257
258
0
0
0
0
0
0
0
0
0
0
0
0
0
0
0
0
0
0
0
0
0
0
0
0
0
0
0
0
0
0
289
290
291
292
0
0
0
296
297
0
0
300
301
302
303
304
305
306
307
0
0
0
0
312
313
314
315
316
317
318
319
320
321
322
323
324
0
0
0
0
0
330
331
332
333
334
335
336
337
0
0
0
341
342
343
0
0
0
0
0
0
0
0
0
0
0
0
0
0
0
0
0
0
0
0
0
365
366
367
368
369
370
0
0
0
0
0
0
0
0
0
0
0
0
0
0
385
386
387
0
0
0
0
0
0
0
0
0
397
0
0
400
401
402
403
404
0
0
407
408
0
0
0
412
413
414
415
416
417
418
419
0
0
0
0
0
0
0
427
428
0
0
0
0
433
0
435
436
437
438
0
EOF
