DIMENSION : 439
NUMBER OF ITEMS : 2190

TOUR_SECTION
1
3
2
52
83
84
85
149
186
226
227
228
283
229
282
281
230
187
188
189
225
231
232
280
285
286
287
340
288
289
290
291
292
293
359
357
358
356
355
354
352
353
351
350
349
347
348
346
345
376
377
379
389
390
380
374
375
381
391
392
399
398
396
397
393
395
394
384
382
383
372
371
373
341
342
343
344
284
439
435
436
437
438
434
403
408
409
411
410
425
426
424
427
430
433
432
422
423
412
413
407
406
414
421
420
419
415
416
431
429
428
418
417
405
404
402
400
401
388
387
386
385
378
369
368
367
366
365
364
363
362
361
370
360
339
338
337
336
335
334
333
300
299
298
297
296
295
294
279
278
277
276
275
274
273
301
302
303
304
330
332
331
329
328
327
326
325
324
323
322
321
320
319
318
317
315
316
254
255
256
257
258
259
314
313
312
311
310
260
261
262
263
309
308
307
264
265
266
267
306
305
268
269
270
271
272
233
234
235
236
237
238
239
240
241
242
243
244
245
246
247
248
249
252
253
209
251
250
210
211
212
213
214
215
216
217
218
219
220
221
193
194
195
196
197
198
199
200
201
202
203
205
204
174
173
172
206
207
208
171
170
168
169
166
167
165
164
163
162
134
135
136
137
138
139
140
141
142
152
143
150
151
153
154
155
156
157
158
159
160
161
175
176
177
178
179
180
181
182
183
192
184
191
222
223
224
190
185
145
148
147
144
146
112
111
110
109
108
107
106
105
104
113
114
103
115
117
120
116
118
119
121
122
101
123
125
124
126
127
129
130
131
132
133
128
99
98
97
96
95
100
94
93
92
102
91
90
89
88
72
71
70
69
68
18
19
20
67
66
65
24
22
21
23
25
64
74
73
63
29
27
26
28
30
31
32
62
75
76
61
60
59
77
87
86
78
58
57
79
80
81
82
56
55
54
53
51
50
48
47
49
46
45
44
42
43
41
40
39
38
37
36
35
34
33
17
16
15
14
13
12
11
10
9
8
7
6
5
4

PP_SECTION
2
0
4
0
0
0
8
9
0
11
12
13
0
0
16
17
18
19
0
0
22
0
24
0
0
0
28
0
0
31
0
0
34
0
0
37
0
0
0
0
42
43
0
0
46
0
0
49
0
0
52
0
54
55
0
0
0
0
60
0
0
0
64
0
0
0
0
0
0
0
0
0
0
75
76
0
78
0
0
0
0
0
0
0
0
0
88
89
0
0
0
0
0
0
0
0
0
0
0
0
0
103
0
0
0
0
0
109
0
111
0
0
0
115
0
0
118
0
0
0
0
0
0
0
126
127
0
0
0
0
0
133
0
0
0
137
0
0
0
0
0
0
0
0
0
0
0
0
0
0
0
153
154
0
0
0
0
0
0
161
162
0
0
165
0
0
0
0
0
0
172
0
174
0
0
0
0
0
0
0
182
183
0
0
0
0
0
0
0
0
0
193
0
0
0
0
0
0
200
0
0
0
0
0
206
207
0
209
210
0
0
0
0
0
0
0
0
219
0
0
0
0
0
225
0
0
228
0
0
0
0
233
0
0
0
0
0
0
0
0
0
0
0
0
0
0
0
0
0
251
0
253
0
0
256
0
0
0
0
0
262
263
0
0
0
0
0
0
0
0
0
0
0
0
276
277
0
0
280
0
0
0
0
0
0
0
0
0
0
291
0
0
0
0
0
0
298
0
0
0
0
0
0
0
306
307
0
0
0
0
0
0
0
0
316
317
0
319
0
0
0
0
0
0
0
0
0
0
0
331
0
0
0
335
336
0
0
339
0
0
0
0
0
0
0
0
0
0
0
351
0
0
354
0
0
0
0
0
0
0
0
0
0
0
0
0
368
369
0
0
0
0
0
0
0
0
0
0
0
0
0
0
384
0
0
387
0
0
0
0
0
0
0
0
0
0
398
0
0
401
0
0
404
0
0
0
0
0
0
411
412
0
0
0
0
0
0
0
0
0
0
0
0
0
0
0
428
0
0
0
432
0
0
0
0
0
438
0
0
0
4
5
0
7
0
0
10
11
12
13
0
15
0
0
0
0
20
0
0
0
24
0
26
27
0
0
0
0
32
0
0
35
0
37
38
0
0
41
42
43
0
0
0
0
0
49
0
51
52
0
54
55
0
0
58
0
60
61
0
63
64
0
66
67
0
0
0
0
0
0
74
0
76
0
78
0
80
0
82
0
0
85
0
87
0
89
0
0
0
0
0
0
0
0
0
0
100
0
0
0
104
0
0
0
0
0
110
0
0
0
114
0
0
0
0
0
120
0
0
0
0
125
126
0
128
0
0
0
0
133
134
0
0
0
138
139
0
141
0
0
0
0
146
0
0
0
0
151
0
0
0
0
0
157
0
0
160
0
0
0
0
0
0
0
0
0
0
0
0
0
0
0
0
0
178
0
0
0
182
0
0
0
0
0
0
0
190
0
0
0
0
195
0
0
0
0
0
0
0
0
0
0
0
207
0
209
210
0
0
0
0
215
0
0
0
219
0
0
0
0
0
0
0
0
0
0
0
231
0
233
0
0
0
237
0
239
0
0
0
0
0
0
0
0
0
0
0
0
0
0
0
0
0
0
0
0
0
261
262
263
0
0
0
0
0
0
0
271
272
0
0
275
276
0
278
279
0
0
0
0
284
0
0
0
0
0
0
0
0
0
0
0
0
0
0
0
300
0
0
303
0
305
0
0
0
0
0
0
0
0
0
0
316
0
0
0
0
0
0
0
0
325
0
0
0
329
0
0
0
0
0
0
0
0
0
0
340
0
0
0
0
0
346
347
0
349
0
0
0
0
0
0
0
0
0
0
0
0
0
363
0
0
366
367
0
369
0
0
0
0
0
0
0
0
378
0
0
0
0
0
0
0
0
0
0
0
390
391
392
0
0
395
0
0
0
0
400
0
0
0
404
0
0
407
0
0
0
411
0
413
0
0
416
417
0
0
0
0
0
0
424
0
0
0
0
0
0
0
0
0
0
0
0
437
438
0
0
0
4
5
6
7
8
9
10
0
12
0
14
15
0
17
0
19
0
0
22
0
24
0
26
27
0
0
0
0
32
0
34
0
0
0
0
39
0
0
0
0
0
45
46
47
0
49
50
0
0
0
54
55
0
0
0
0
60
0
62
63
0
0
0
0
0
69
0
0
0
0
0
0
76
0
0
0
80
81
82
0
0
85
86
0
0
0
0
0
0
93
0
0
0
0
0
0
0
0
0
0
0
105
0
0
108
0
0
0
0
113
0
115
116
0
118
0
0
121
122
0
124
0
0
127
128
0
130
0
0
0
0
0
136
0
0
0
140
0
0
0
144
0
0
0
148
0
150
151
0
0
0
0
0
0
158
159
160
161
0
0
0
0
0
0
0
0
0
171
0
173
174
0
0
0
178
0
0
0
0
0
184
0
0
0
0
0
0
191
0
0
0
0
0
0
0
0
0
0
0
0
0
0
0
207
0
0
0
0
0
0
0
0
0
217
218
0
0
0
222
223
0
0
226
0
0
0
230
0
0
233
234
0
0
237
0
0
0
0
0
243
244
245
246
0
0
249
0
251
0
0
0
0
0
0
0
0
260
0
0
0
264
0
0
0
0
0
0
271
0
0
0
0
0
0
278
0
280
0
0
283
0
0
0
0
0
289
0
0
0
0
0
295
0
0
0
299
300
301
0
0
0
0
0
307
308
0
310
0
312
313
314
0
0
0
0
0
0
0
0
0
0
325
0
327
0
0
0
0
0
0
334
335
336
0
338
0
0
0
0
0
0
0
346
0
0
0
0
0
0
0
0
355
0
0
0
0
0
0
0
0
0
0
0
0
0
0
0
371
0
0
0
0
0
0
0
0
0
381
0
0
384
0
386
0
388
0
390
0
0
0
0
0
0
397
0
0
0
0
0
0
0
405
0
0
408
0
0
0
0
0
0
0
0
417
0
0
420
0
0
423
424
0
0
0
0
0
0
431
0
0
0
435
0
437
0
0
0
0
4
0
6
7
8
0
0
11
12
13
14
15
16
0
0
19
20
21
0
0
0
0
0
0
0
0
0
31
0
0
34
0
36
0
0
0
40
41
0
0
44
45
0
47
48
49
0
0
52
0
54
55
0
57
58
59
0
61
62
0
0
0
0
0
0
69
0
71
0
0
0
0
76
0
0
0
0
0
0
0
0
0
86
0
0
0
90
91
0
0
0
95
0
0
0
99
0
0
0
0
0
105
0
107
0
0
0
111
112
0
114
115
0
0
0
0
0
0
122
0
0
125
126
0
0
0
130
0
0
0
0
0
0
0
0
0
0
0
142
143
0
0
0
147
0
0
150
151
0
0
0
0
0
0
0
159
0
0
0
0
164
0
0
0
0
0
0
0
0
0
174
0
0
0
0
0
0
0
0
0
0
0
0
187
0
0
0
0
0
0
0
0
0
0
0
199
200
0
0
203
0
205
0
0
0
0
0
0
0
0
214
0
0
217
0
0
220
0
0
223
0
0
0
0
0
0
0
0
0
233
0
0
0
0
0
0
240
0
0
243
0
0
0
247
0
0
0
251
0
0
0
0
0
0
0
0
0
0
0
0
264
0
0
0
0
0
270
0
0
273
0
0
0
0
278
0
0
0
0
0
0
0
0
0
0
0
0
0
0
0
0
295
0
0
298
299
0
301
0
0
0
0
306
307
0
0
0
0
0
0
0
0
0
317
0
0
0
0
0
0
0
0
0
0
0
329
0
0
0
0
334
0
0
0
338
0
0
0
0
0
0
345
0
0
0
0
0
0
0
353
0
0
0
0
0
0
0
0
362
0
0
0
0
0
0
0
370
0
0
0
374
0
0
0
0
0
0
381
0
0
0
0
0
0
388
0
0
391
0
0
0
0
0
0
0
0
0
0
0
0
0
0
0
0
408
0
0
0
0
0
0
415
0
0
0
0
0
0
0
0
0
0
426
427
428
0
0
431
0
0
0
0
0
0
0
439
0
0
4
5
6
7
0
0
10
11
0
13
14
0
16
0
18
0
20
21
0
0
24
0
26
0
0
29
30
31
32
33
34
0
36
37
38
0
0
0
0
43
0
45
0
0
48
0
50
0
52
0
0
0
56
57
0
0
0
61
0
0
64
0
0
0
0
0
0
0
0
73
0
0
0
0
0
79
0
81
0
83
0
0
86
0
0
0
0
0
0
0
0
0
0
0
0
0
0
0
0
0
0
105
106
0
108
0
110
0
0
0
0
0
0
0
118
0
0
121
122
0
0
0
0
0
0
0
130
0
0
0
0
0
0
0
138
0
0
0
0
0
0
0
0
0
0
0
0
151
0
0
0
0
0
157
0
159
160
0
0
0
164
0
0
0
0
0
0
171
0
0
0
0
176
0
0
179
0
0
0
0
0
185
0
0
0
189
0
0
0
0
194
0
0
0
0
0
0
0
0
0
0
0
206
0
0
0
0
0
0
213
0
215
216
0
218
0
0
221
0
0
224
0
0
0
0
0
0
231
0
0
234
0
0
0
0
0
0
241
0
243
0
245
0
0
0
0
0
0
0
0
0
0
0
0
258
0
0
0
0
0
0
0
0
0
0
269
0
0
0
0
0
0
276
0
278
279
0
0
0
0
0
285
0
0
0
0
0
0
0
0
0
0
0
297
0
0
0
301
0
0
0
0
0
0
0
0
310
0
312
0
0
315
316
0
0
0
0
0
322
0
324
0
0
327
0
0
0
0
0
0
0
0
0
337
0
0
0
0
0
0
0
0
0
0
0
0
0
0
352
353
354
0
0
0
0
0
0
0
0
363
364
0
0
0
0
0
370
371
0
373
0
0
376
377
0
0
0
0
0
0
0
385
0
387
388
0
0
391
0
0
0
0
0
0
0
0
0
0
0
0
0
0
406
407
0
0
410
0
0
0
414
0
0
0
0
0
0
421
0
423
424
0
0
0
0
0
0
0
0
0
0
0
0
437
438
439
EOF
