DIMENSION : 439
NUMBER OF ITEMS : 438

TOUR_SECTION
1
4
5
6
7
8
9
10
11
12
13
14
15
16
17
33
34
35
36
37
38
39
40
41
43
42
44
45
46
49
47
48
50
51
53
54
55
56
82
81
80
79
57
58
78
86
87
77
59
60
61
76
75
62
32
31
30
28
26
27
29
63
73
74
64
25
23
21
22
24
65
66
67
20
19
18
68
69
70
71
72
88
89
90
91
102
92
93
94
100
95
96
97
98
99
128
130
131
132
133
167
168
170
169
166
165
164
163
162
160
161
175
176
204
174
173
172
171
208
207
206
205
203
202
201
200
199
198
197
196
195
194
193
191
184
192
183
182
181
180
179
178
177
159
158
157
156
155
154
153
151
150
143
152
142
141
140
139
138
137
136
135
134
129
127
126
124
125
123
101
122
121
119
118
116
120
117
115
103
114
113
104
105
106
107
108
109
110
111
112
146
144
147
148
145
185
190
224
223
222
221
220
219
218
217
216
215
214
213
212
211
210
250
251
209
253
252
249
248
247
246
245
244
243
242
241
240
239
238
237
236
235
234
233
272
271
270
269
268
305
306
267
266
265
264
307
308
309
263
262
261
260
310
311
312
313
314
259
258
257
256
255
254
316
315
317
318
319
320
321
322
323
324
325
326
327
328
329
331
332
330
304
303
302
301
273
274
275
276
277
278
279
294
295
296
297
298
299
300
333
334
335
336
337
338
339
360
370
361
362
363
364
365
366
367
368
369
378
385
386
387
388
401
400
402
404
405
417
418
428
429
431
416
415
419
420
421
414
406
407
413
412
423
422
432
433
430
427
424
426
425
410
411
409
408
403
434
438
437
436
435
439
284
344
343
342
341
373
371
372
383
382
384
394
395
393
397
396
398
399
392
391
381
375
374
380
390
389
379
377
376
345
346
348
347
349
350
351
353
352
354
355
356
358
357
359
293
292
291
290
289
288
340
287
286
285
280
232
231
225
189
188
187
230
281
282
229
283
228
227
226
186
149
85
84
83
52
2
3

PP_SECTION
2
3
4
5
0
0
0
9
10
11
0
0
0
0
0
0
0
19
20
21
22
23
24
25
0
0
28
29
30
0
0
0
34
35
36
37
0
0
0
0
0
0
44
45
46
47
48
49
50
51
52
0
0
0
0
57
58
59
60
61
62
63
64
65
66
67
68
69
0
0
0
0
0
0
0
0
78
79
80
0
0
83
84
85
86
87
88
89
90
91
92
0
0
0
0
97
98
99
100
101
102
103
104
105
106
107
108
109
110
111
112
113
0
0
0
117
118
119
120
121
122
123
124
125
126
127
128
129
0
131
132
133
134
135
136
0
0
0
140
141
142
143
144
145
0
0
0
149
150
151
152
153
154
155
156
157
158
159
160
161
162
0
164
165
166
167
168
0
0
0
172
173
0
0
0
0
0
0
0
0
182
183
0
0
186
187
188
189
0
0
0
0
0
0
0
0
0
0
0
0
0
203
0
205
206
207
208
209
210
211
212
213
214
215
216
217
218
219
220
221
222
223
224
225
226
227
228
229
230
231
232
233
234
235
236
237
238
239
240
241
242
243
244
245
246
247
248
249
250
251
252
253
254
255
256
257
258
259
260
261
262
263
264
265
266
267
268
269
270
271
272
273
274
275
276
277
278
279
280
281
282
283
284
285
286
287
288
289
290
291
292
293
294
295
296
297
298
299
300
301
302
303
304
305
306
307
308
309
310
311
312
313
314
315
316
317
318
319
320
321
322
323
324
325
326
327
328
329
330
331
332
333
334
335
336
337
338
339
340
341
342
343
344
345
346
347
348
349
350
351
352
353
354
355
356
357
358
359
360
361
362
363
364
365
366
367
368
369
370
371
372
373
374
375
376
377
378
379
380
381
382
383
384
385
386
387
388
389
390
391
392
393
394
395
396
397
398
399
400
401
402
403
404
405
406
407
408
409
410
411
412
413
414
415
416
417
418
419
420
421
422
423
424
425
426
427
428
429
430
431
432
433
434
435
436
437
438
439
EOF
