DIMENSION : 439
NUMBER OF ITEMS : 438

TOUR_SECTION
1
3
2
52
83
84
85
149
186
226
227
228
283
229
282
281
230
187
188
189
225
231
232
280
285
286
287
340
288
289
290
291
292
293
359
357
358
356
355
354
352
353
351
350
349
347
348
346
345
376
377
379
389
390
380
374
375
381
391
392
399
398
396
397
393
395
394
384
382
383
372
371
373
341
342
343
344
284
439
435
436
437
438
434
403
408
409
411
410
425
426
424
427
430
433
432
422
423
412
413
407
406
414
421
420
419
415
416
431
429
428
418
417
405
404
402
400
401
388
387
386
385
378
369
368
367
366
365
364
363
362
361
370
360
339
338
337
336
335
334
333
300
299
298
297
296
295
294
279
278
277
276
275
274
273
301
302
303
304
330
332
331
329
328
327
326
325
324
323
322
321
320
319
318
317
315
316
254
255
256
257
258
259
314
313
312
311
310
260
261
262
263
309
308
307
264
265
266
267
306
305
268
269
270
271
272
233
234
235
236
237
238
239
240
241
242
243
244
245
246
247
248
249
252
253
209
251
250
210
211
212
213
214
215
216
217
218
219
220
221
193
194
195
196
197
198
199
200
201
202
203
205
204
174
173
172
206
207
208
171
170
168
169
166
167
165
164
163
162
134
135
136
137
138
139
140
141
142
152
143
150
151
153
154
155
156
157
158
159
160
161
175
176
177
178
179
180
181
182
183
192
184
191
222
223
224
190
185
145
148
147
144
146
112
111
110
109
108
107
106
105
104
113
114
103
115
117
120
116
118
119
121
122
101
123
125
124
126
127
129
130
131
132
133
128
99
98
97
96
95
100
94
93
92
102
91
90
89
88
72
71
70
69
68
18
19
20
67
66
65
24
22
21
23
25
64
74
73
63
29
27
26
28
30
31
32
62
75
76
61
60
59
77
87
86
78
58
57
79
80
81
82
56
55
54
53
51
50
48
47
49
46
45
44
42
43
41
40
39
38
37
36
35
34
33
17
16
15
14
13
12
11
10
9
8
7
6
5
4

PP_SECTION
0
3
4
5
6
7
0
9
10
11
12
13
14
15
0
17
0
0
20
0
0
0
0
25
26
27
28
29
0
0
32
33
34
35
36
0
38
39
40
41
42
0
44
0
46
47
48
49
50
51
0
53
0
0
56
57
0
59
60
61
62
63
0
65
0
67
68
69
70
71
72
73
74
0
0
77
0
0
80
81
82
83
0
0
86
87
0
0
90
91
92
93
94
95
96
97
0
99
100
0
102
0
0
0
0
0
108
0
0
0
0
113
114
0
0
117
0
119
120
121
122
123
124
0
0
0
0
129
130
131
132
0
134
135
136
0
0
0
140
0
142
143
0
0
0
147
148
0
0
0
0
0
0
155
156
0
158
0
160
0
0
163
164
0
0
0
168
0
170
171
0
173
0
175
0
0
178
0
180
0
0
0
184
185
0
0
188
189
190
191
192
0
0
0
0
197
198
0
0
201
0
203
204
0
0
0
208
0
0
0
212
213
214
0
0
217
0
0
0
0
222
223
0
0
226
227
0
0
230
231
232
0
234
0
236
0
0
0
240
0
0
243
244
0
246
0
0
249
0
0
252
0
0
0
0
257
0
259
0
261
0
0
264
265
266
0
268
269
270
0
0
273
0
0
0
0
0
279
0
0
282
0
284
0
0
0
0
0
0
0
292
293
0
295
0
0
0
0
0
0
302
0
0
0
0
0
308
0
0
311
0
313
314
315
0
0
318
0
0
0
322
0
0
0
0
0
0
329
330
0
0
0
334
0
0
0
0
0
340
0
0
0
344
0
0
0
0
0
0
0
0
0
0
0
0
0
0
0
360
361
362
0
0
365
0
0
0
0
370
0
0
0
0
0
0
0
0
0
0
0
0
0
0
385
0
0
0
0
0
391
392
393
394
395
0
0
0
0
0
0
0
403
0
0
0
407
0
0
0
0
0
0
0
0
416
0
0
419
420
421
0
0
0
425
426
427
0
429
430
0
0
433
0
0
436
0
0
0
EOF
