DIMENSION : 783
NUMBER OF ITEMS : 782

TOUR_SECTION
1
17
23
2
7
18
12
9
33
29
10
3
5
19
30
8
20
36
31
35
22
14
32
26
16
21
27
24
28
34
4
11
13
6
40
38
43
66
75
87
84
79
101
106
109
114
96
91
73
60
55
44
51
42
54
62
50
61
59
68
86
82
72
92
103
93
69
78
90
104
113
119
122
134
135
149
142
148
145
168
170
194
181
177
171
193
199
218
214
223
207
192
178
174
166
158
131
132
141
130
129
154
167
159
150
144
124
121
126
118
138
128
140
116
112
108
105
102
99
85
71
64
48
39
63
74
77
89
95
98
76
94
83
65
58
53
47
46
41
67
81
70
80
100
107
111
120
133
137
143
152
161
187
204
202
208
224
240
232
233
225
217
206
190
200
198
179
176
163
169
157
164
165
173
182
209
211
212
219
253
251
262
275
257
237
226
221
213
210
201
183
188
197
191
189
203
220
228
229
244
260
263
271
272
241
252
245
261
247
238
234
254
285
280
265
264
279
284
298
309
296
297
304
314
315
329
341
355
357
367
394
406
404
413
399
396
374
369
379
378
398
412
427
421
428
442
451
454
447
440
450
465
475
488
493
489
480
474
487
497
496
494
476
464
470
469
467
477
483
491
500
501
507
505
521
542
541
536
535
556
577
570
565
558
575
571
572
573
559
553
543
527
522
524
514
520
537
544
528
525
509
502
498
478
468
471
481
479
461
444
462
490
504
516
523
503
510
532
545
549
546
538
550
555
574
567
582
592
595
608
583
585
602
620
623
625
635
643
663
656
658
677
682
687
696
703
694
702
708
716
724
742
752
756
764
751
728
715
717
714
711
712
729
744
753
767
771
775
783
782
781
780
770
763
746
741
723
730
731
727
750
749
762
766
774
773
777
779
768
757
759
776
758
760
765
772
761
778
769
747
738
734
725
704
697
683
672
665
659
652
648
645
655
660
675
680
690
706
685
679
671
678
688
709
705
718
735
745
736
732
743
739
722
733
737
754
755
748
740
726
721
720
719
707
713
698
691
692
681
657
649
661
666
669
684
699
695
686
710
700
701
689
693
673
664
667
668
674
676
670
647
637
616
606
593
581
604
615
629
632
642
650
662
654
653
646
651
636
630
633
631
639
618
610
589
605
614
601
600
584
591
609
622
621
628
617
607
603
587
564
563
566
578
588
599
613
619
641
644
634
627
612
590
598
597
586
580
594
611
626
638
640
624
596
576
568
560
548
533
526
511
499
472
482
484
485
466
458
453
452
445
436
429
423
395
384
363
352
359
356
343
328
344
358
366
371
365
376
393
377
370
372
391
411
418
417
419
410
409
408
420
424
430
426
433
422
405
392
389
397
382
387
390
401
407
425
443
438
455
463
486
492
508
512
517
506
530
534
551
554
562
579
569
561
539
531
540
547
557
552
529
515
513
519
518
495
473
460
449
456
457
439
431
435
441
448
434
437
459
446
432
416
402
400
414
415
403
388
385
368
373
383
364
381
386
380
375
360
354
351
348
340
338
337
349
361
362
342
331
334
324
320
308
310
288
283
282
287
301
312
318
326
336
330
311
295
292
303
322
321
333
345
347
350
332
346
353
339
325
323
319
327
335
317
294
302
313
305
289
266
270
277
276
278
273
274
286
299
291
306
316
293
307
300
290
281
269
250
259
258
268
267
256
243
249
248
227
222
231
230
255
246
239
236
242
235
215
216
185
172
180
186
205
195
196
184
162
156
151
136
127
153
175
160
155
147
139
146
125
117
123
115
110
97
88
56
49
52
57
45
37
25
15

PP_SECTION
2
0
4
0
0
0
8
9
0
11
12
13
0
15
16
17
18
19
0
0
22
0
24
25
26
0
28
0
30
31
32
0
34
35
0
37
0
0
0
41
42
43
0
45
46
0
48
49
0
0
52
0
54
55
56
57
0
0
60
0
62
63
64
0
66
67
0
0
0
0
72
73
74
75
76
77
78
0
0
81
0
0
84
0
0
87
88
89
0
0
0
0
0
95
0
97
98
0
100
101
0
103
104
105
106
107
0
109
110
111
0
0
114
115
116
117
118
0
0
121
0
123
0
125
126
127
0
129
130
0
132
133
0
135
136
137
138
139
0
141
142
143
0
0
146
147
0
0
0
151
0
153
154
155
156
157
158
159
160
161
162
0
164
165
166
167
168
169
0
0
172
173
174
175
0
177
0
0
180
181
182
183
184
0
186
187
188
0
190
191
0
193
194
195
196
197
0
199
200
0
0
203
0
205
206
207
0
209
210
211
0
0
0
215
216
0
0
219
220
221
222
0
0
225
226
227
228
0
230
231
0
233
234
0
236
237
0
239
0
0
242
243
0
0
246
247
248
249
250
251
0
253
254
255
256
257
258
259
260
261
262
263
264
265
0
267
268
269
270
0
272
273
274
275
276
277
278
0
280
281
282
283
0
285
286
0
288
289
0
291
292
293
294
295
296
297
298
299
0
301
302
303
0
0
306
307
308
309
310
311
312
313
314
0
316
317
318
319
320
321
0
323
0
325
326
327
328
0
330
331
332
0
0
335
336
0
0
339
340
0
0
343
344
345
346
347
348
349
350
351
352
0
354
0
356
0
358
359
360
361
362
363
364
0
366
0
368
369
370
371
372
373
374
375
376
377
378
379
380
381
382
383
384
385
0
387
388
389
390
391
0
393
394
0
396
397
398
0
400
401
402
0
404
0
0
407
408
409
410
411
412
413
414
415
0
417
418
419
420
0
422
423
424
0
0
0
428
429
430
431
432
433
434
435
436
0
438
439
0
441
442
443
0
445
0
0
448
449
450
451
452
453
454
455
0
457
458
459
460
0
462
463
464
465
466
467
0
0
470
471
0
473
0
475
476
477
0
479
480
481
482
483
484
485
486
487
488
489
490
491
492
493
0
495
496
0
498
499
0
501
502
0
504
505
506
507
508
0
510
511
512
513
514
515
516
0
518
0
520
0
522
523
524
525
526
527
0
529
0
531
532
0
534
0
0
537
538
539
540
541
542
543
544
545
0
547
548
549
550
551
552
0
554
555
0
557
558
559
560
0
562
563
564
0
566
567
0
569
0
571
572
573
0
575
576
577
0
579
580
581
582
583
584
0
586
587
588
589
0
0
592
593
594
595
0
0
598
599
0
0
602
603
604
605
606
607
0
609
610
0
0
0
614
615
616
0
618
0
620
621
622
0
624
0
626
0
628
629
0
0
0
633
634
635
0
0
0
0
640
0
642
643
644
645
646
647
648
0
0
0
0
653
0
655
656
657
658
659
660
0
0
0
664
665
666
0
668
669
670
671
672
0
674
675
676
677
0
0
680
681
682
683
684
685
0
0
0
689
0
0
692
0
694
695
696
0
698
699
700
701
702
703
704
705
706
707
708
709
710
711
0
713
714
715
716
717
718
719
720
0
722
723
0
0
0
0
728
729
0
731
732
0
734
735
0
737
738
0
740
741
742
743
744
745
0
747
748
749
750
0
0
753
754
755
0
757
758
0
0
761
762
763
764
765
766
767
768
769
0
771
772
773
0
775
776
0
778
779
780
781
782
0
EOF
