DIMENSION : 783
NUMBER OF ITEMS : 782

TOUR_SECTION
1
15
25
37
45
57
52
49
56
88
97
100
80
70
81
67
41
46
47
53
58
65
83
94
107
111
120
133
137
143
152
161
162
156
151
136
153
127
115
110
123
117
125
146
139
147
155
160
175
184
196
195
205
186
180
172
185
216
215
235
242
236
239
246
255
230
231
248
249
227
222
204
187
202
208
224
243
256
267
268
258
259
240
232
217
206
190
200
198
179
176
163
169
157
164
165
173
182
209
211
212
219
225
233
250
269
281
292
303
295
311
326
318
312
301
310
308
288
283
282
287
275
257
262
253
251
237
226
221
213
210
201
183
188
197
191
189
203
220
228
229
244
260
263
271
272
241
252
245
261
279
284
296
297
304
309
298
320
324
334
331
342
362
361
349
337
338
340
348
351
354
360
336
330
322
321
333
345
347
350
332
316
307
300
290
293
306
291
299
286
274
273
278
276
277
270
266
289
305
313
302
294
317
335
327
319
323
325
339
346
353
365
371
366
358
344
328
343
356
359
352
363
384
395
423
429
436
445
452
453
458
466
485
484
482
472
499
511
526
533
548
560
568
576
596
624
640
638
626
611
594
580
586
597
598
590
612
627
634
644
641
619
613
599
588
578
566
563
564
587
603
607
617
628
621
622
609
591
584
600
601
614
605
589
610
618
639
631
633
630
636
651
646
653
654
662
650
642
632
629
615
604
581
593
606
616
637
647
670
676
674
668
667
664
673
693
689
701
700
710
686
695
699
684
669
666
661
649
657
681
692
691
698
713
707
719
720
721
726
740
748
755
754
737
733
722
739
743
732
736
745
735
718
705
709
688
678
671
679
685
706
690
680
675
660
655
645
648
652
659
665
672
683
697
704
725
738
734
747
769
778
761
772
765
760
758
776
759
757
768
779
777
773
774
766
762
749
750
727
731
730
723
741
746
763
770
780
781
782
783
775
771
767
753
744
729
712
711
714
717
715
728
751
764
756
752
742
724
716
708
702
694
703
696
687
682
677
658
656
663
643
635
625
623
620
602
585
583
608
595
592
582
567
574
555
550
538
546
549
545
532
544
537
528
525
509
502
498
510
503
523
516
504
490
462
444
461
479
481
471
478
468
454
451
442
428
421
427
447
440
450
465
475
488
493
514
520
524
522
527
543
553
559
573
572
571
575
558
565
570
577
556
535
536
541
542
521
505
507
501
500
491
483
477
473
495
518
519
513
515
529
552
557
547
540
531
539
561
569
579
562
554
551
534
530
506
517
512
508
492
486
463
455
460
449
456
457
467
469
470
464
476
494
496
497
487
489
480
474
459
446
432
415
414
400
402
416
434
437
448
441
435
439
431
419
417
418
411
391
410
409
408
420
424
430
426
433
422
438
443
425
407
401
390
387
382
397
389
392
405
376
393
377
370
372
375
380
386
381
364
383
373
368
385
388
403
412
398
378
379
369
374
396
399
413
406
404
394
367
357
355
341
329
314
315
285
280
265
264
247
238
254
234
218
214
223
207
192
178
174
166
158
131
132
141
130
129
154
167
159
150
144
124
121
126
118
138
128
140
116
112
108
105
102
77
74
89
95
98
76
63
39
48
64
71
99
85
86
82
68
59
61
50
62
54
42
51
72
92
103
93
90
78
69
44
55
60
73
96
91
104
113
119
145
148
168
170
177
181
194
199
193
171
135
134
149
142
122
114
109
106
101
79
84
87
75
66
43
38
40
6
13
11
4
34
28
24
27
26
21
16
32
14
22
35
31
36
20
8
30
19
5
3
10
29
33
9
12
18
7
2
23
17

PP_SECTION
2
3
4
5
6
7
8
9
10
11
12
13
14
0
16
17
18
19
20
21
22
23
24
0
26
27
28
29
30
31
32
33
34
35
36
0
38
39
40
0
42
43
44
0
0
0
48
0
50
51
52
0
54
55
0
57
0
59
60
61
62
63
64
65
66
67
68
69
0
71
72
73
74
75
76
77
78
79
0
0
82
0
84
85
86
87
88
89
90
91
92
93
0
95
96
0
98
99
0
101
102
103
104
105
106
107
108
109
0
0
112
113
114
0
116
0
118
119
0
121
122
0
124
0
126
127
128
129
130
131
132
0
134
135
0
0
138
0
140
141
142
0
144
145
0
0
148
149
150
151
152
153
154
0
0
0
158
159
160
161
162
0
0
0
166
167
168
0
170
171
0
0
174
0
0
177
178
0
0
181
182
183
0
0
0
0
0
0
0
0
192
193
194
0
0
0
0
199
0
0
0
0
0
0
0
207
0
0
0
211
212
213
214
215
216
217
218
0
0
221
222
223
224
225
226
0
0
0
0
0
0
0
234
0
0
0
238
0
0
0
0
0
0
0
0
247
0
0
0
0
0
0
254
0
256
257
258
0
0
0
0
0
264
265
0
0
0
0
0
0
0
0
0
0
0
0
0
0
280
0
0
0
0
285
0
0
0
289
290
291
292
0
0
0
296
297
0
0
300
301
302
303
304
305
306
307
0
0
0
0
0
313
314
315
316
317
318
319
320
321
322
323
324
0
0
0
0
329
330
331
332
333
0
0
0
0
0
0
0
341
342
343
0
0
0
0
0
0
0
0
0
0
0
355
0
357
0
0
0
0
0
0
364
0
0
367
368
369
370
0
372
373
374
375
376
377
378
379
380
381
382
383
0
385
386
387
388
389
390
391
392
393
394
0
396
397
398
399
400
401
402
403
404
405
406
407
408
409
410
411
412
413
414
415
416
417
418
419
420
0
422
0
424
425
426
427
428
0
430
431
432
433
434
435
436
437
438
439
440
441
0
443
0
0
446
0
448
449
450
451
0
0
454
455
456
457
0
459
460
461
462
463
464
465
466
467
0
469
470
0
0
0
474
475
476
477
478
479
480
0
0
0
0
0
486
487
0
489
0
491
492
0
494
495
496
497
498
0
500
501
0
503
504
505
506
507
508
509
510
511
512
513
514
515
516
517
518
519
0
521
0
523
524
525
0
527
528
529
530
531
0
0
534
0
0
0
538
539
540
541
0
0
0
0
0
0
0
0
0
551
552
0
554
0
556
557
558
559
0
561
562
563
564
565
0
0
0
569
570
571
572
0
0
575
0
577
0
579
580
581
582
0
0
0
0
0
0
0
0
0
0
0
0
0
0
0
0
0
600
601
602
603
604
0
0
607
608
609
610
611
0
0
0
0
0
0
0
0
0
0
0
0
0
625
0
0
0
0
0
0
0
0
0
635
636
637
638
0
0
0
0
643
0
0
0
0
0
0
0
0
652
653
654
655
0
0
0
0
0
0
662
663
0
665
0
0
0
0
0
0
0
0
0
0
676
677
678
0
680
681
0
0
0
0
0
687
0
0
0
0
0
0
0
0
0
0
0
699
700
701
702
0
0
0
0
0
708
0
0
711
712
0
714
715
716
0
0
0
0
0
0
0
724
725
726
0
728
729
730
731
0
0
734
735
736
737
738
739
740
0
742
743
744
745
0
0
748
749
750
0
0
753
754
755
756
757
0
0
0
0
0
0
0
0
0
0
0
0
0
0
0
0
0
0
0
0
0
0
780
781
782
783
EOF
