DIMENSION : 783
NUMBER OF ITEMS : 7820

TOUR_SECTION
1
15
25
37
45
57
52
49
56
88
97
110
115
123
117
125
146
139
147
155
160
175
153
127
136
151
156
162
184
196
195
205
186
180
172
185
216
215
235
236
242
266
270
289
305
313
302
294
317
335
327
319
323
325
339
353
346
332
316
307
300
290
293
306
291
299
286
274
273
278
276
277
255
246
239
230
231
222
227
248
249
243
256
267
268
258
259
250
269
281
292
303
295
311
326
318
312
301
287
282
283
288
310
308
320
324
334
331
342
362
361
349
337
338
340
348
351
354
360
336
330
322
321
333
345
347
350
370
377
393
376
365
371
366
358
344
328
343
356
359
352
363
384
395
423
429
436
445
452
453
458
466
485
484
482
472
499
511
526
533
548
560
568
576
596
624
640
638
626
611
594
580
586
597
598
590
612
627
634
641
644
649
657
681
691
692
698
713
707
719
720
721
726
740
748
755
754
737
733
722
739
743
732
736
745
735
718
705
709
688
678
671
679
685
706
690
680
675
660
655
645
648
652
659
665
672
683
697
704
725
738
734
747
769
778
761
772
765
760
758
776
759
757
768
779
777
773
774
766
762
749
750
727
731
730
723
741
746
763
770
780
781
782
783
775
771
767
753
744
729
712
711
714
717
715
728
751
764
756
752
742
724
716
708
702
694
703
696
687
682
677
658
656
663
670
676
674
668
667
664
673
693
701
700
689
710
686
695
699
684
661
669
666
651
646
653
654
662
650
642
632
629
615
604
581
593
606
616
637
647
643
635
625
623
620
602
585
583
608
595
592
582
567
574
555
550
538
546
549
545
532
544
537
528
525
509
502
498
510
503
523
516
504
490
462
444
461
479
481
471
478
468
454
451
442
428
421
427
447
440
450
465
475
488
493
514
520
524
522
527
543
553
559
573
572
571
575
558
565
570
577
584
591
600
601
614
605
589
610
618
639
631
633
630
636
622
609
603
587
607
621
628
617
619
613
599
588
578
566
563
564
556
535
536
541
542
521
505
507
501
500
491
483
477
467
469
470
464
476
494
496
497
487
489
480
474
459
446
432
415
414
400
402
416
434
437
448
441
435
431
439
457
456
449
460
473
495
518
519
513
515
529
552
557
547
540
531
539
561
569
579
562
554
551
534
530
506
517
512
508
492
486
463
455
438
443
425
407
401
390
387
382
397
389
392
405
422
433
426
430
424
420
408
409
410
419
417
418
411
391
372
375
380
386
381
364
383
373
368
385
388
403
412
398
378
379
369
374
396
399
413
406
404
394
367
357
355
341
329
315
314
304
297
296
309
298
284
279
264
265
280
285
254
234
238
247
261
245
252
241
272
271
263
260
244
229
228
220
203
189
191
197
188
183
201
210
213
221
226
237
257
275
262
251
253
219
212
211
209
182
173
165
164
157
169
163
176
179
198
200
190
206
217
225
233
232
240
224
208
202
204
187
161
152
143
137
133
120
111
107
100
80
70
81
67
41
46
47
53
58
65
83
94
76
98
95
89
77
74
63
39
48
64
71
85
99
102
105
108
112
116
140
128
138
118
126
121
124
144
150
159
167
154
129
130
141
132
131
158
166
174
178
192
207
223
214
218
199
193
171
177
181
194
170
168
145
148
142
149
135
134
122
114
109
106
101
79
84
87
75
66
43
38
40
6
13
11
4
34
28
24
27
21
16
26
32
14
22
35
50
62
54
42
51
44
55
60
73
91
96
119
113
104
90
78
69
93
103
92
72
82
86
68
61
59
36
31
20
8
30
19
5
3
10
29
33
9
12
18
7
2
23
17

PP_SECTION
2
3
4
5
6
7
8
9
10
11
12
13
14
0
16
17
18
19
20
21
22
23
24
0
26
27
28
29
30
31
32
33
34
35
36
0
38
39
40
41
42
43
44
0
46
47
48
0
50
51
52
53
54
55
0
57
58
59
60
61
62
63
64
65
66
67
68
69
70
71
72
73
74
75
76
77
78
79
80
81
82
83
84
85
86
87
88
89
90
91
92
93
94
95
96
0
98
99
100
101
102
103
104
105
106
107
108
109
0
111
112
113
114
0
116
0
118
119
120
121
122
0
124
0
126
127
128
129
130
131
132
133
134
135
0
137
138
0
140
141
142
143
144
145
0
0
148
149
150
151
152
153
154
0
0
157
158
159
0
161
0
163
164
165
166
167
168
169
170
171
0
173
174
0
176
177
178
179
0
181
182
183
0
0
0
187
188
189
190
191
192
193
194
0
0
197
198
199
200
201
202
203
204
0
206
207
208
209
210
211
212
213
214
215
216
217
218
219
220
221
222
223
224
225
226
0
228
229
0
0
232
233
234
0
0
237
238
0
240
241
0
0
244
245
0
247
0
0
0
251
252
253
254
0
256
257
258
0
260
261
262
263
264
265
0
0
0
0
0
271
272
0
0
275
0
0
0
279
280
0
0
0
284
285
0
0
0
289
290
291
292
0
0
0
296
297
298
0
300
301
302
303
304
305
306
307
0
309
0
0
0
0
314
315
0
0
318
319
320
321
322
323
324
0
0
0
0
329
330
331
332
333
0
0
0
0
0
0
0
341
342
343
0
0
0
0
0
0
0
0
0
0
0
355
0
357
0
0
0
0
0
0
364
0
0
367
368
369
370
0
372
373
374
375
0
0
378
379
0
0
382
383
0
385
386
387
388
0
0
0
0
0
394
0
396
397
398
399
400
401
402
403
404
0
406
407
408
409
410
411
412
413
414
415
416
417
418
419
420
0
422
0
0
0
0
427
428
0
430
431
432
433
434
435
436
437
438
439
440
441
0
0
0
0
0
0
448
449
0
0
0
0
0
455
456
457
0
0
0
461
462
463
464
465
466
467
0
0
0
0
0
0
474
475
476
0
0
0
480
0
0
0
0
0
486
487
0
0
0
0
0
0
0
495
496
497
498
0
0
0
0
503
504
505
0
507
508
509
510
511
512
513
514
515
0
517
518
0
0
0
0
0
0
0
0
527
528
529
530
531
0
0
534
0
0
0
538
539
540
541
0
0
0
0
0
0
0
0
0
0
0
0
0
0
0
0
0
0
0
561
562
563
564
0
0
0
0
569
570
571
572
0
0
0
0
0
0
579
580
581
582
0
0
0
0
0
0
0
0
0
0
0
0
0
0
0
0
599
600
601
602
603
604
0
0
607
608
609
610
611
0
613
0
0
0
0
0
0
0
0
0
0
0
0
0
0
628
0
0
0
0
0
0
635
636
637
638
639
0
0
0
0
0
0
0
0
0
0
0
0
0
653
654
655
0
0
0
0
0
0
662
663
0
0
0
0
0
0
0
0
0
0
0
0
676
677
678
0
0
0
0
0
0
0
0
0
0
0
0
0
0
0
0
0
0
0
0
699
0
0
0
0
0
0
0
0
0
0
0
711
712
0
0
0
0
0
0
0
0
0
0
0
724
725
726
0
728
729
730
0
0
0
734
735
736
737
738
739
740
0
742
743
744
745
0
0
0
0
0
0
0
753
754
755
756
757
0
0
0
0
0
0
0
0
0
0
0
0
0
0
0
0
0
0
0
0
0
0
780
781
782
783
2
3
4
5
6
7
8
9
10
11
12
13
14
0
16
17
18
19
20
21
22
23
24
0
26
27
28
29
30
31
32
33
34
35
36
0
38
39
40
41
42
43
44
0
46
47
48
0
50
51
0
53
54
55
0
0
58
59
60
61
62
63
64
65
66
67
68
69
70
71
72
73
74
75
76
77
78
79
80
81
82
83
84
85
86
87
0
89
90
91
92
93
94
95
96
0
98
99
100
101
102
103
104
105
106
107
108
109
0
111
112
113
114
0
116
117
118
119
120
121
122
123
124
0
126
0
128
129
130
131
132
133
134
135
0
137
138
0
140
141
142
143
144
145
146
147
148
149
150
151
152
153
154
0
0
157
158
159
0
161
0
163
164
165
166
167
168
169
170
171
0
173
174
0
176
177
178
179
0
181
182
183
0
185
186
187
188
189
190
191
192
193
194
0
0
197
198
199
200
201
202
203
204
0
206
207
208
209
210
211
212
213
214
0
0
217
218
219
220
221
222
223
224
225
226
0
228
229
0
231
232
233
234
0
0
237
238
0
240
241
0
0
244
245
0
247
0
0
0
251
252
253
254
0
0
257
258
259
260
261
262
263
264
265
0
0
268
269
270
271
272
273
274
275
0
0
0
279
280
281
282
283
284
285
0
0
0
0
290
291
292
293
0
0
296
297
298
0
0
0
0
0
304
0
0
0
0
309
0
0
0
0
314
315
0
0
318
319
320
321
0
0
0
0
0
0
328
329
0
0
0
0
0
0
0
0
0
0
0
341
0
0
0
0
0
0
0
0
0
0
0
0
0
355
0
357
358
359
360
361
362
363
364
365
366
367
368
369
0
0
372
373
374
375
376
377
378
379
380
381
382
383
0
385
386
387
388
0
390
391
392
0
394
395
396
397
398
399
400
401
402
403
404
405
406
407
408
409
410
411
412
413
414
415
416
417
0
0
0
0
422
0
424
425
426
0
0
0
430
0
0
433
434
435
0
437
438
439
440
441
442
443
0
0
0
0
0
0
0
0
452
453
454
0
0
0
0
0
0
0
0
463
464
465
0
0
0
0
470
0
0
473
474
0
476
477
0
0
480
0
482
483
484
0
486
0
0
0
0
0
492
0
0
495
496
497
498
0
0
0
0
503
504
505
506
0
0
0
0
0
0
0
0
0
0
0
0
0
520
521
522
523
0
0
0
527
528
0
0
0
0
0
0
0
0
0
0
0
0
0
542
543
0
0
0
547
548
549
550
551
552
553
554
555
556
557
558
559
560
561
562
563
564
565
566
0
0
0
570
0
0
0
0
0
0
0
578
579
0
581
582
583
584
0
0
0
0
0
0
591
592
593
0
0
0
0
0
599
600
0
0
0
0
605
606
607
608
609
610
0
0
0
0
0
0
0
0
0
0
0
0
0
0
0
0
0
0
0
630
0
0
0
0
0
0
0
638
639
640
0
0
0
0
645
646
647
648
649
0
0
0
0
654
655
656
657
658
659
660
661
0
0
0
665
666
667
0
0
0
0
0
0
0
675
676
677
678
679
680
0
682
0
0
0
0
0
688
689
690
691
0
0
0
0
0
0
0
0
0
701
702
703
704
0
0
0
0
0
710
0
0
0
0
715
716
0
718
719
720
721
722
723
724
0
0
727
728
729
0
0
0
0
734
735
736
737
738
739
740
0
0
0
0
0
746
0
0
0
0
0
0
0
0
0
0
0
0
0
0
0
0
0
0
0
0
0
0
0
0
0
0
0
0
0
0
0
0
0
0
0
782
783
2
3
4
5
6
7
8
9
10
11
12
13
14
0
16
17
18
19
20
21
22
23
24
25
26
27
28
29
30
31
32
33
34
35
36
0
38
39
40
41
42
43
44
0
46
47
48
49
50
51
0
53
54
55
0
0
58
59
60
61
62
63
64
65
66
67
68
69
70
71
72
73
74
75
76
77
78
79
80
81
82
83
84
85
86
87
0
89
90
91
92
93
94
95
96
97
98
99
100
101
102
103
104
105
106
107
108
109
0
111
112
113
114
0
116
0
118
119
120
121
122
0
124
0
126
0
128
129
130
131
132
133
134
135
136
137
138
139
140
141
142
143
144
145
146
147
148
149
150
0
152
0
154
155
156
157
158
159
0
161
0
163
164
165
166
167
168
169
170
171
172
173
174
0
176
177
178
179
0
181
182
183
0
0
0
187
188
189
190
191
192
193
194
0
0
197
198
199
200
201
202
203
204
0
206
207
208
209
210
211
212
213
214
0
216
217
218
219
220
221
222
223
224
225
226
0
228
229
0
0
232
233
234
235
236
237
238
0
240
241
0
0
244
245
0
247
0
0
0
251
252
253
254
0
0
257
258
259
260
261
262
263
264
265
0
0
0
0
0
271
272
0
0
275
276
277
278
279
280
0
0
0
284
285
0
0
0
0
0
0
0
0
0
0
296
297
298
299
0
0
0
0
304
0
0
307
308
309
0
0
0
313
314
315
316
317
0
0
0
0
0
0
0
0
0
0
328
329
330
0
0
0
0
0
0
0
0
0
340
341
342
0
0
0
0
0
0
0
0
0
0
0
0
355
0
357
0
0
0
0
0
0
364
0
0
367
0
0
0
0
372
373
374
375
0
0
378
379
380
381
382
383
0
385
386
387
388
389
390
391
392
393
394
395
396
397
398
399
0
0
0
403
404
0
406
0
408
0
410
411
412
413
414
415
416
417
418
419
420
0
422
0
0
0
0
0
0
0
0
431
0
433
0
0
0
0
438
439
440
441
442
443
0
0
0
0
0
0
0
0
0
0
454
455
456
0
0
0
0
0
0
0
464
465
466
467
468
469
470
471
472
473
474
475
476
477
0
0
0
0
0
0
0
0
486
0
0
489
490
491
492
493
494
495
496
497
0
0
0
0
0
503
504
505
506
507
508
509
0
0
512
513
514
515
516
517
518
519
520
521
522
0
524
0
0
0
0
0
0
0
0
533
534
0
0
0
0
539
540
0
0
0
0
0
546
547
548
0
0
551
0
0
0
0
0
0
0
0
0
0
0
563
564
0
0
0
568
569
570
571
572
573
574
0
0
0
578
579
580
0
582
583
584
585
586
587
0
0
0
591
0
0
0
595
0
0
0
599
600
601
602
0
0
0
0
607
608
609
610
0
0
0
0
0
0
0
618
619
620
621
622
623
0
0
0
0
0
629
630
631
0
0
0
0
0
0
0
0
0
0
642
643
644
645
646
647
648
0
0
0
0
0
654
655
656
0
0
0
0
0
0
0
0
0
0
0
0
0
0
0
0
0
0
0
0
0
0
0
0
0
0
0
684
685
686
687
688
689
0
0
0
0
0
0
0
0
0
0
0
0
0
0
0
0
706
707
708
709
710
711
712
0
0
0
716
717
718
0
0
721
722
723
0
0
0
727
728
729
0
0
0
0
734
735
0
0
0
0
0
0
742
743
744
0
0
0
0
0
0
0
0
0
0
755
756
757
758
0
0
0
0
0
0
0
766
767
768
769
770
771
0
0
0
775
776
777
0
0
0
0
0
0
2
3
4
5
6
7
8
9
10
11
12
13
14
0
16
17
18
19
20
21
22
23
24
0
26
27
28
29
30
31
32
33
34
35
36
0
38
39
40
41
42
43
44
0
46
47
48
0
50
51
0
53
54
55
56
57
58
59
60
61
62
63
64
65
66
67
68
69
70
71
72
73
74
75
76
77
78
79
80
81
82
83
84
85
86
87
88
89
90
91
92
93
94
95
96
97
98
99
100
101
102
103
104
105
106
107
108
109
0
111
112
113
114
0
116
117
118
119
120
121
122
123
124
125
126
0
128
129
130
131
132
133
134
135
136
137
138
0
140
141
142
143
144
145
0
0
148
149
150
151
152
0
154
0
0
157
158
159
0
161
0
163
164
165
166
167
168
169
170
171
0
173
174
0
176
177
178
179
0
181
182
183
0
0
186
187
188
189
190
191
192
193
194
0
0
197
198
199
200
201
202
203
204
0
206
207
208
209
210
211
212
213
214
215
0
217
218
219
220
221
0
223
224
225
226
227
228
229
0
0
232
233
234
0
0
237
238
0
240
241
0
0
244
245
246
247
0
0
0
251
252
253
254
0
0
257
0
0
260
261
262
263
264
265
0
0
0
0
0
271
272
0
0
275
0
0
0
279
280
281
282
283
284
285
0
0
0
0
0
0
0
0
0
0
296
297
298
0
0
0
0
0
304
0
0
0
0
309
0
0
0
0
314
315
0
0
0
0
0
0
0
0
0
0
0
0
328
329
0
0
0
0
0
0
0
0
0
0
0
341
0
0
344
345
346
0
0
0
0
0
0
0
0
355
0
357
0
0
0
0
0
0
364
0
0
367
368
369
0
0
0
0
374
375
0
0
378
379
0
0
0
383
0
385
386
387
388
0
0
391
392
0
394
0
396
397
398
0
0
0
0
403
404
0
406
0
408
409
410
411
412
413
414
415
416
417
418
419
0
0
422
423
424
425
426
427
428
0
430
431
432
433
0
0
0
0
0
439
440
441
442
443
444
445
0
0
0
449
0
0
0
0
0
455
456
457
0
459
0
0
0
0
0
465
466
467
0
0
0
0
0
473
474
0
476
477
478
479
480
481
0
0
0
0
486
0
0
0
0
491
492
0
494
495
496
497
498
499
500
501
0
0
0
0
506
507
508
509
510
0
0
0
0
515
516
517
518
519
0
0
0
0
0
525
526
0
0
0
530
531
532
0
534
535
536
537
538
539
540
0
0
0
0
0
0
547
0
549
550
551
552
553
554
0
556
557
558
559
560
0
562
0
564
565
566
567
568
0
0
0
572
573
574
575
0
0
0
0
0
0
0
0
0
0
0
587
588
589
590
591
592
593
594
0
0
0
0
0
0
601
602
603
0
605
606
0
0
0
0
0
612
613
614
615
0
0
0
0
0
0
0
0
0
625
626
0
628
0
630
631
0
0
0
0
636
0
0
0
0
0
0
0
0
0
0
0
0
0
650
651
652
653
654
0
0
0
0
659
660
661
0
0
0
0
0
0
0
0
0
0
0
0
0
0
0
0
678
679
680
681
0
0
0
685
686
687
688
0
0
0
692
693
694
0
0
0
0
699
700
701
702
0
0
0
0
707
708
709
0
0
0
0
0
0
0
0
0
0
0
0
0
723
724
725
0
0
0
0
0
0
0
0
734
0
0
0
0
0
0
741
742
0
0
0
0
0
0
0
0
0
0
0
0
0
0
0
0
0
0
0
0
0
0
0
0
0
0
0
0
0
0
0
0
0
0
0
0
0
0
0
0
0
2
3
4
5
6
7
8
9
10
11
12
13
14
0
16
17
18
19
20
21
22
23
24
0
26
27
28
29
30
31
32
33
34
35
36
0
38
39
40
41
42
43
44
0
46
47
48
49
50
51
52
53
54
55
0
0
58
59
60
61
62
63
64
65
66
67
68
69
70
71
72
73
74
75
76
77
78
79
80
81
82
83
84
85
86
87
0
89
90
91
92
93
94
95
96
0
98
99
100
101
102
103
104
105
106
107
108
109
110
111
112
113
114
0
116
117
118
119
120
121
122
0
124
0
126
127
128
129
130
131
132
133
134
135
0
137
138
0
140
141
142
143
144
145
0
0
148
149
150
0
152
0
154
0
0
157
158
159
0
161
0
163
164
165
166
167
168
169
170
171
0
173
174
0
176
177
178
179
180
181
182
183
0
0
0
187
188
189
190
191
192
193
194
0
0
197
198
199
200
201
202
203
204
0
206
207
208
209
210
211
212
213
214
0
0
217
218
219
220
221
222
223
224
225
226
0
228
229
0
231
232
233
234
0
0
237
238
0
240
241
0
0
244
245
0
247
0
0
0
251
252
253
254
0
0
257
0
0
260
261
262
263
264
265
0
0
268
0
0
271
272
0
0
275
0
277
278
279
280
281
282
283
284
285
0
0
0
0
290
291
0
0
0
0
296
297
298
0
0
0
0
303
304
305
306
307
308
309
0
0
312
313
314
315
0
0
318
319
320
321
322
323
324
325
326
327
0
329
0
0
0
0
0
0
336
337
338
339
340
341
0
0
0
0
0
0
0
0
0
0
0
0
0
355
0
357
358
359
360
0
0
0
364
365
366
367
368
369
0
0
372
373
374
375
0
0
378
379
380
381
382
383
0
385
386
387
388
389
390
391
392
393
394
395
396
397
0
0
400
401
402
403
404
405
406
407
408
409
410
411
412
413
0
0
416
417
418
419
420
0
422
0
424
425
426
427
428
0
430
0
0
433
0
0
0
0
438
439
0
441
0
443
0
0
0
447
448
449
450
451
452
453
454
455
456
457
0
0
0
0
0
463
464
465
0
467
468
469
0
0
0
473
474
0
0
0
0
0
0
0
0
0
0
0
486
0
0
0
490
491
492
0
494
495
496
497
498
499
500
501
0
0
0
505
506
0
0
0
0
0
512
0
0
0
0
517
518
519
0
0
0
0
0
0
0
0
528
529
530
531
0
0
534
0
0
0
538
539
540
541
542
543
544
545
0
547
548
549
550
0
0
0
554
555
0
0
558
559
560
0
0
0
0
0
0
0
0
0
570
571
572
573
574
0
0
0
0
579
580
581
582
0
0
0
0
0
0
0
0
0
0
0
0
0
596
597
598
0
0
0
0
0
0
0
606
607
608
609
610
0
0
613
0
0
0
0
0
0
0
0
0
0
0
0
0
0
628
0
0
0
0
0
0
0
0
637
638
639
640
0
0
0
644
0
0
0
0
649
650
651
652
653
654
655
656
0
0
0
0
0
0
0
0
0
0
0
0
0
0
0
0
673
674
675
676
677
678
679
680
0
0
0
0
0
0
0
0
0
0
691
0
0
694
695
696
0
0
0
700
701
702
703
0
0
0
0
0
0
0
0
0
0
0
0
0
0
718
0
0
0
0
0
724
0
0
0
0
0
0
0
0
0
0
0
736
737
738
739
740
741
742
743
744
0
0
0
0
0
0
0
0
0
0
755
756
757
758
759
760
761
762
0
0
0
0
0
0
0
0
0
0
0
0
0
0
0
0
0
0
0
0
783
2
3
4
5
6
7
8
9
10
11
12
13
14
0
16
17
18
19
20
21
22
23
24
0
26
27
28
29
30
31
32
33
34
35
36
37
38
39
40
41
42
43
44
0
46
47
48
0
50
51
0
53
54
55
0
0
58
59
60
61
62
63
64
65
66
67
68
69
70
71
72
73
74
75
76
77
78
79
80
81
82
83
84
85
86
87
0
89
90
91
92
93
94
95
96
97
98
99
100
101
102
103
104
105
106
107
108
109
0
111
112
113
114
0
116
0
118
119
120
121
122
0
124
0
126
0
128
129
130
131
132
133
134
135
0
137
138
0
140
141
142
143
144
145
146
0
148
149
150
0
152
0
154
0
0
157
158
159
0
161
0
163
164
165
166
167
168
169
170
171
0
173
174
0
176
177
178
179
180
181
182
183
0
0
0
187
188
189
190
191
192
193
194
0
0
197
198
199
200
201
202
203
204
0
206
207
208
209
210
211
212
213
214
0
0
217
218
219
220
221
222
223
224
225
226
0
228
229
0
0
232
233
234
0
0
237
238
0
240
241
242
243
244
245
0
247
0
0
250
251
252
253
254
0
0
257
0
0
260
261
262
263
264
265
0
0
0
0
0
271
272
273
0
275
0
0
0
279
280
281
282
283
284
285
0
0
0
0
0
0
0
293
294
295
296
297
298
0
0
0
0
0
304
0
0
0
0
309
0
0
0
0
314
315
0
0
0
0
0
0
0
323
324
325
326
327
328
329
0
0
0
0
0
0
0
0
0
0
0
341
0
0
0
0
0
347
348
349
350
351
352
353
354
355
0
357
0
0
0
0
0
0
0
0
0
367
0
369
0
0
372
373
374
0
0
0
378
379
380
381
382
383
0
385
386
387
388
389
390
391
0
0
394
0
396
0
398
399
400
401
402
0
404
405
406
407
408
0
0
0
412
413
414
0
0
417
418
419
420
421
422
0
0
0
426
0
0
0
0
0
0
433
434
435
436
0
0
0
0
0
0
0
0
0
0
0
0
449
450
451
452
453
454
455
0
0
0
459
460
0
0
0
0
0
0
0
0
0
0
0
0
0
0
0
0
0
0
0
0
481
482
483
484
485
486
487
0
489
0
491
492
493
494
495
0
0
0
499
500
501
0
0
0
0
0
0
0
509
510
511
512
513
514
515
0
517
0
0
0
0
0
0
0
0
526
527
528
0
0
0
0
533
0
0
0
537
538
539
540
0
0
0
0
0
0
547
548
549
550
551
552
0
0
0
0
0
0
0
0
561
562
563
564
0
0
0
0
569
0
0
0
0
574
0
0
0
0
0
0
0
0
0
0
0
0
587
588
589
0
0
0
593
594
595
596
0
0
599
0
0
0
603
604
605
606
0
0
609
610
611
612
613
614
615
0
0
0
0
0
621
622
623
624
625
626
627
628
629
630
631
0
0
0
0
0
0
0
0
0
0
0
0
0
0
0
0
0
0
0
0
0
0
0
0
0
0
0
0
0
0
0
663
664
665
666
667
668
0
0
0
0
0
0
0
0
0
0
0
0
0
682
683
684
685
0
0
0
0
0
0
0
0
0
0
0
0
0
0
700
701
0
0
0
0
0
0
708
709
0
0
0
0
0
0
0
0
0
0
0
0
722
723
724
725
726
727
728
729
730
731
0
0
0
0
0
0
0
0
0
0
0
0
0
0
0
0
0
0
0
0
0
753
754
755
756
0
0
0
760
761
762
763
764
765
766
767
768
769
770
771
0
0
0
0
776
777
778
0
0
0
0
0
2
3
4
5
6
7
8
9
10
11
12
13
14
15
16
17
18
19
20
21
22
23
24
0
26
27
28
29
30
31
32
33
34
35
36
37
38
39
40
41
42
43
44
0
46
47
48
0
50
51
0
53
54
55
0
0
58
59
60
61
62
63
64
65
66
67
68
69
70
71
72
73
74
75
76
77
78
79
80
81
82
83
84
85
86
87
88
89
90
91
92
93
94
95
96
97
98
99
100
101
102
103
104
105
106
107
108
109
110
111
112
113
114
115
116
117
118
119
120
121
122
0
124
0
126
0
128
129
130
131
132
133
134
135
0
137
138
139
140
141
142
143
144
145
0
0
148
149
150
0
152
0
154
0
0
157
158
159
0
161
0
163
164
165
166
167
168
169
170
171
0
173
174
0
176
177
178
179
0
181
182
183
0
0
0
187
188
189
190
191
192
193
194
0
0
197
198
199
200
201
202
203
204
0
206
207
208
209
210
211
212
213
214
0
0
217
218
219
220
221
222
223
224
225
226
0
228
229
0
0
232
233
234
0
0
237
238
239
240
241
0
0
244
245
0
247
248
249
250
251
252
253
254
0
0
257
0
0
260
261
262
263
264
265
0
0
0
0
0
271
272
0
0
275
0
0
0
279
280
281
282
283
284
285
0
0
0
0
0
0
0
0
0
0
296
297
298
0
300
301
302
303
304
0
0
0
0
309
0
0
0
0
314
315
0
0
0
0
0
0
322
323
324
0
0
0
0
329
0
0
0
0
0
0
0
0
0
0
0
341
0
0
0
0
0
0
0
0
0
0
0
0
354
355
356
357
358
359
360
361
362
363
364
0
0
367
368
369
370
371
0
0
374
0
0
0
378
379
380
381
382
383
0
385
386
387
388
389
0
0
0
393
394
395
396
0
0
399
0
0
0
403
404
0
406
0
0
409
410
411
412
413
0
0
0
0
0
419
420
421
422
423
424
425
426
427
0
0
430
431
432
433
0
0
0
437
438
439
0
441
442
443
444
0
0
0
0
449
450
451
0
0
454
0
0
0
0
459
460
461
462
463
0
0
0
467
0
469
470
471
0
0
0
0
0
477
478
479
480
481
482
483
484
485
486
487
488
489
490
491
492
0
0
0
0
0
498
499
500
501
0
0
0
505
506
507
508
509
510
0
512
513
514
515
516
517
518
519
520
521
522
523
0
0
0
527
528
529
530
531
532
533
534
535
536
537
538
539
540
0
0
0
0
0
0
0
0
549
550
551
552
553
554
0
556
557
558
0
0
561
562
563
0
565
566
567
568
0
0
0
0
0
574
575
576
577
0
0
0
0
0
0
584
0
0
0
0
0
0
0
0
0
0
0
0
0
0
599
600
0
0
0
0
0
606
607
608
609
0
0
0
0
0
0
616
617
618
619
0
0
0
623
624
625
0
0
628
629
630
631
0
0
0
0
0
637
638
639
0
0
0
0
0
0
0
0
0
0
0
0
0
0
0
0
0
0
0
0
0
0
0
0
0
0
0
0
0
0
0
0
672
673
674
0
0
0
0
0
0
0
0
683
684
0
0
0
688
689
690
691
692
693
694
695
696
0
0
0
700
701
702
0
0
0
706
707
708
709
710
0
0
0
0
0
0
0
0
0
0
0
0
0
0
0
726
727
728
729
0
0
0
0
0
0
736
737
738
739
740
741
0
0
0
0
0
0
0
0
0
0
0
0
0
0
0
0
0
0
0
0
762
763
0
0
0
0
0
0
0
0
0
0
0
0
0
0
0
0
0
0
0
0
2
3
4
5
6
7
8
9
10
11
12
13
14
0
16
17
18
19
20
21
22
23
24
0
26
27
28
29
30
31
32
33
34
35
36
0
38
39
40
41
42
43
44
0
46
47
48
0
50
51
0
53
54
55
0
0
58
59
60
61
62
63
64
65
66
67
68
69
70
71
72
73
74
75
76
77
78
79
80
81
82
83
84
85
86
87
0
89
90
91
92
93
94
95
96
0
98
99
100
101
102
103
104
105
106
107
108
109
0
111
112
113
114
0
116
117
118
119
120
121
122
0
124
0
126
127
128
129
130
131
132
133
134
135
0
137
138
0
140
141
142
143
144
145
0
0
148
149
150
0
152
153
154
155
156
157
158
159
0
161
0
163
164
165
166
167
168
169
170
171
172
173
174
0
176
177
178
179
0
181
182
183
0
0
0
187
188
189
190
191
192
193
194
0
0
197
198
199
200
201
202
203
204
205
206
207
208
209
210
211
212
213
214
0
0
217
218
219
220
221
222
223
224
225
226
227
228
229
230
231
232
233
234
0
0
237
238
239
240
241
0
0
244
245
246
247
248
0
0
251
252
253
254
0
0
257
0
0
260
261
262
263
264
265
0
0
268
269
270
271
272
0
0
275
0
0
0
279
280
281
282
0
284
285
0
0
0
0
0
0
0
0
0
0
296
297
298
0
300
0
0
0
304
0
0
0
0
309
0
311
312
313
314
315
0
0
0
0
0
0
0
0
0
0
0
0
0
329
0
0
0
0
0
0
0
0
0
0
0
341
0
0
0
0
0
0
0
0
0
0
0
0
0
355
0
357
358
359
360
361
0
0
364
0
0
367
0
369
0
0
372
373
374
375
0
0
378
379
380
381
382
383
0
385
386
387
388
389
0
0
0
0
394
0
396
397
398
399
400
401
402
403
404
405
406
407
408
409
0
0
0
413
0
0
416
417
418
419
420
421
422
0
424
425
0
0
0
0
430
431
0
433
0
435
0
437
438
439
440
441
0
443
444
0
446
0
448
0
0
0
452
453
0
455
0
0
0
0
0
461
462
463
464
465
466
467
0
0
0
471
0
473
474
0
0
0
0
479
480
481
0
483
0
0
486
0
0
0
490
491
492
0
0
495
496
497
0
0
500
501
0
0
0
0
0
0
0
0
0
0
0
0
0
0
0
517
518
519
0
521
522
523
524
0
0
0
528
529
530
531
532
533
534
535
536
0
0
0
0
0
0
0
0
0
0
0
0
0
0
551
0
0
554
555
556
557
558
559
0
561
562
0
0
0
0
0
0
569
0
0
0
0
0
575
0
0
0
0
0
0
0
583
584
585
0
0
0
0
0
0
0
0
0
0
0
0
0
599
600
601
602
603
604
605
606
607
608
0
0
0
0
0
0
0
0
0
0
619
0
621
0
0
0
0
0
0
0
0
0
0
632
633
0
635
636
637
638
0
0
0
0
0
0
0
0
0
0
0
0
651
652
653
654
655
656
657
0
0
0
661
662
663
0
0
0
0
0
0
670
671
672
673
674
675
676
0
0
0
0
0
0
0
684
0
0
0
0
0
690
691
692
693
0
0
0
697
0
0
0
701
702
703
0
0
0
0
0
0
710
0
0
0
714
715
0
0
0
719
720
721
722
0
0
0
0
0
0
0
0
0
0
0
0
0
0
0
738
739
740
0
0
0
0
0
746
0
0
0
750
751
752
0
0
0
0
757
758
759
760
761
762
763
0
0
0
0
0
0
0
771
772
773
0
0
0
0
0
0
0
0
782
783
2
3
4
5
6
7
8
9
10
11
12
13
14
15
16
17
18
19
20
21
22
23
24
0
26
27
28
29
30
31
32
33
34
35
36
0
38
39
40
41
42
43
44
0
46
47
48
0
50
51
52
53
54
55
0
0
58
59
60
61
62
63
64
65
66
67
68
69
70
71
72
73
74
75
76
77
78
79
80
81
82
83
84
85
86
87
0
89
90
91
92
93
94
95
96
0
98
99
100
101
102
103
104
105
106
107
108
109
0
111
112
113
114
0
116
0
118
119
120
121
122
0
124
125
126
127
128
129
130
131
132
133
134
135
136
137
138
139
140
141
142
143
144
145
0
0
148
149
150
0
152
0
154
0
0
157
158
159
160
161
0
163
164
165
166
167
168
169
170
171
0
173
174
0
176
177
178
179
0
181
182
183
0
0
0
187
188
189
190
191
192
193
194
195
0
197
198
199
200
201
202
203
204
0
206
207
208
209
210
211
212
213
214
0
0
217
218
219
220
221
0
223
224
225
226
0
228
229
230
231
232
233
234
0
0
237
238
0
240
241
0
0
244
245
0
247
248
249
250
251
252
253
254
0
0
257
258
259
260
261
262
263
264
265
0
0
0
0
0
271
272
0
0
275
0
0
0
279
280
0
0
0
284
285
286
0
0
0
0
0
0
0
0
0
296
297
298
0
0
0
0
0
304
0
0
0
0
309
0
0
0
0
314
315
0
0
0
0
0
0
0
0
0
0
0
0
0
329
0
331
332
333
334
335
0
0
0
0
0
341
0
0
0
0
346
0
0
0
0
0
0
0
0
355
0
357
0
0
360
361
362
363
364
365
366
367
368
369
0
0
372
373
374
375
376
377
378
379
380
381
382
383
0
385
386
0
0
0
0
391
392
393
394
0
396
397
398
399
400
401
402
0
404
0
406
407
408
409
410
411
412
413
414
0
0
0
418
419
420
421
422
423
0
0
0
0
0
0
430
431
432
433
434
435
436
0
0
0
0
0
0
443
0
0
0
0
0
449
450
451
0
0
0
0
456
457
0
459
460
461
462
463
464
465
0
467
468
0
0
0
0
473
474
0
0
0
0
0
0
0
0
483
0
0
486
487
0
0
0
0
0
0
0
495
0
0
0
0
0
0
0
0
0
505
506
507
0
0
0
0
0
0
0
0
0
517
518
0
0
0
0
0
0
0
0
527
528
529
530
531
0
0
0
0
0
0
0
539
540
0
0
0
0
545
546
547
0
0
0
0
552
553
0
555
556
557
558
0
0
561
562
563
564
565
566
567
0
569
570
0
0
0
0
0
0
0
578
579
580
581
582
583
584
0
0
0
0
0
0
0
0
593
594
595
596
0
0
0
0
0
0
0
0
0
0
0
608
609
610
0
0
0
614
615
616
0
0
0
0
0
0
0
0
0
0
0
628
0
0
0
632
633
634
635
636
637
0
639
0
0
642
643
644
645
646
0
0
0
0
0
0
0
0
0
0
0
0
0
0
661
662
0
0
0
0
667
668
0
0
0
0
0
0
675
676
677
678
679
680
681
682
0
0
0
0
0
0
0
0
0
692
693
694
0
696
0
0
0
0
0
0
0
0
0
0
0
0
0
0
0
0
713
714
0
0
0
0
0
0
0
0
723
724
725
0
0
0
0
0
0
0
0
734
735
736
737
738
0
0
0
742
743
744
0
0
0
0
0
0
0
0
0
0
0
0
0
0
0
0
0
0
0
0
0
0
0
0
0
0
0
0
0
0
0
0
0
0
779
780
781
782
0
2
3
4
5
6
7
8
9
10
11
12
13
14
0
16
17
18
19
20
21
22
23
24
0
26
27
28
29
30
31
32
33
34
35
36
0
38
39
40
41
42
43
44
0
46
47
48
0
50
51
0
53
54
55
0
0
58
59
60
61
62
63
64
65
66
67
68
69
70
71
72
73
74
75
76
77
78
79
80
81
82
83
84
85
86
87
88
89
90
91
92
93
94
95
96
0
98
99
100
101
102
103
104
105
106
107
108
109
110
111
112
113
114
0
116
0
118
119
120
121
122
0
124
0
126
0
128
129
130
131
132
133
134
135
0
137
138
139
140
141
142
143
144
145
0
0
148
149
150
0
152
0
154
0
0
157
158
159
0
161
0
163
164
165
166
167
168
169
170
171
0
173
174
0
176
177
178
179
0
181
182
183
0
0
0
187
188
189
190
191
192
193
194
0
0
197
198
199
200
201
202
203
204
205
206
207
208
209
210
211
212
213
214
0
0
217
218
219
220
221
0
223
224
225
226
0
228
229
0
0
232
233
234
0
0
237
238
0
240
241
0
0
244
245
0
247
0
0
0
251
252
253
254
255
256
257
0
0
260
261
262
263
264
265
266
267
268
0
0
271
272
0
0
275
0
0
0
279
280
0
0
0
284
285
0
287
288
0
0
0
0
0
0
295
296
297
298
0
0
0
0
0
304
0
306
307
308
309
310
0
0
0
314
315
316
0
0
0
0
0
0
0
0
0
0
0
0
329
0
0
0
0
0
0
0
0
0
0
0
341
0
0
0
0
0
0
0
0
0
0
352
353
354
355
0
357
0
359
360
361
362
0
364
0
366
367
368
369
0
0
372
373
374
375
0
0
378
379
380
381
0
383
0
385
386
387
388
389
390
391
0
0
394
0
396
0
398
399
400
401
0
403
404
0
406
407
408
409
410
411
412
413
414
415
416
417
418
419
420
421
422
423
424
425
426
427
428
429
430
431
432
433
0
0
0
0
438
0
0
0
0
0
0
0
0
0
0
0
0
0
0
0
0
0
0
0
0
459
460
461
462
463
464
0
0
467
468
469
470
0
0
0
474
0
0
0
0
0
0
481
482
483
0
0
486
0
0
0
0
0
492
493
494
495
496
497
498
0
500
501
502
503
504
505
506
0
508
509
510
0
0
0
0
0
0
517
518
519
520
521
522
523
524
0
0
0
0
0
0
0
0
0
534
535
536
537
538
539
540
541
542
543
544
545
546
0
0
0
550
551
552
0
554
0
0
0
0
0
560
561
562
563
564
565
566
567
568
569
570
0
0
0
0
0
0
0
0
0
580
581
582
583
584
0
0
0
0
589
0
591
0
0
0
0
0
0
598
599
600
601
602
603
604
605
606
607
0
0
0
0
0
0
0
0
0
617
618
619
0
0
0
623
0
625
0
0
628
629
630
631
0
0
0
635
636
637
0
0
0
0
642
643
644
645
0
0
0
0
0
0
0
0
0
0
0
0
0
659
660
661
662
663
664
0
0
0
0
0
0
0
0
673
674
675
0
0
0
0
0
0
682
683
684
685
686
687
688
0
0
0
0
693
694
0
0
697
698
699
700
701
702
0
0
0
706
707
0
0
0
0
0
713
0
0
0
0
0
0
0
0
0
0
724
725
0
0
0
0
0
0
0
0
0
0
0
0
738
739
0
0
0
0
0
0
746
747
748
0
0
0
752
0
0
0
0
0
0
0
0
0
0
0
0
0
0
0
0
0
0
0
0
0
0
0
0
0
778
779
780
781
782
783
EOF
