DIMENSION : 783
NUMBER OF ITEMS : 7820

TOUR_SECTION
1
15
25
37
45
57
52
49
56
88
97
100
80
70
81
67
41
46
47
53
58
65
83
94
107
111
120
136
151
156
162
153
127
115
110
123
117
125
146
139
147
155
160
175
184
196
195
205
186
180
172
185
215
216
235
242
236
239
246
255
230
231
227
222
249
248
274
273
278
276
277
270
266
289
305
313
302
294
317
335
327
319
323
299
286
291
306
293
290
300
307
316
332
325
339
353
346
350
347
345
333
321
322
330
336
326
318
312
295
311
303
292
281
269
250
253
251
262
275
257
237
226
221
213
201
210
219
212
211
209
182
173
164
165
150
144
124
121
126
118
138
157
169
163
176
179
198
200
190
206
217
225
233
232
240
259
258
268
267
256
243
224
208
202
204
187
161
152
143
137
133
116
140
128
112
108
105
102
77
74
89
95
98
76
63
39
48
64
71
85
99
86
82
68
59
61
50
62
54
42
51
72
92
103
93
90
78
69
44
55
60
73
96
91
104
113
119
122
142
148
145
131
132
141
130
129
154
167
159
183
188
197
191
189
203
220
228
229
244
260
263
271
272
288
283
282
287
301
310
308
320
324
334
331
342
362
361
349
337
338
340
348
351
354
360
375
380
386
381
364
383
373
368
385
388
403
415
414
400
402
416
432
446
459
437
434
448
441
435
431
439
457
456
449
460
473
495
518
519
513
515
529
552
557
547
540
531
539
561
569
579
562
554
551
534
530
506
517
512
508
492
486
463
455
438
443
425
407
401
390
387
382
397
389
392
405
422
433
426
430
424
420
408
409
410
419
417
418
411
391
372
370
377
393
376
365
371
366
358
344
328
343
356
359
352
363
384
395
423
429
436
445
452
453
458
466
485
484
482
472
499
511
526
533
548
560
576
568
580
596
624
640
638
626
611
594
586
597
598
590
599
588
578
566
563
564
556
535
536
541
542
521
505
507
501
500
491
483
477
467
469
470
464
476
494
496
497
487
474
480
489
493
488
475
465
450
440
447
451
454
468
478
498
502
509
525
528
544
537
520
514
524
522
527
543
553
559
573
572
571
575
558
565
570
577
584
591
600
601
614
605
589
610
618
639
631
633
630
636
622
609
603
587
607
621
628
617
619
613
612
627
634
641
644
657
649
661
684
669
666
651
646
653
654
662
650
642
632
629
615
604
581
593
606
616
637
647
670
676
674
668
667
664
673
693
701
700
689
710
686
695
699
720
721
726
740
748
755
754
737
733
719
707
713
698
692
691
681
675
660
655
645
648
652
659
665
672
683
697
704
725
738
734
747
769
778
761
772
765
760
745
736
735
718
705
709
688
678
671
679
685
680
690
706
722
732
739
743
758
776
759
757
768
779
777
773
774
766
762
749
750
727
731
730
723
741
746
763
770
780
781
782
783
775
771
767
753
744
729
712
711
714
717
715
728
751
764
756
752
742
724
716
708
702
694
703
696
687
682
677
658
656
663
643
635
625
623
620
602
585
583
608
595
592
582
567
574
555
550
538
546
549
545
532
510
503
523
516
504
490
479
481
471
461
462
444
442
428
421
427
412
398
378
379
369
374
396
399
413
404
406
394
367
357
355
341
329
315
314
304
297
296
309
298
284
279
261
252
241
245
247
238
264
265
280
285
254
234
218
214
223
207
192
178
158
166
174
168
170
177
181
194
199
193
171
149
134
135
114
109
106
101
79
84
87
75
66
43
38
40
6
13
11
4
34
28
24
27
26
21
16
32
14
22
35
31
36
20
8
30
19
5
3
10
29
33
9
12
18
7
2
23
17

PP_SECTION
2
3
4
5
0
7
8
9
10
11
12
13
14
0
16
17
18
19
20
21
22
23
24
0
26
27
28
29
30
31
32
33
34
35
36
0
0
0
0
0
0
0
44
0
0
0
0
0
50
51
52
0
0
0
0
0
0
0
0
0
0
0
0
0
66
67
68
69
0
0
0
0
0
0
0
0
0
79
0
0
0
0
0
85
86
87
88
0
0
0
0
0
0
0
0
0
0
0
0
101
0
0
0
0
0
107
108
109
0
0
0
0
0
0
0
0
0
0
0
0
0
0
0
0
0
0
0
0
0
0
0
0
134
0
0
0
0
0
0
0
0
0
0
0
0
0
0
0
0
0
0
0
0
0
0
0
158
0
0
0
0
0
0
0
0
167
168
0
0
0
0
0
0
0
0
0
0
0
0
0
182
183
0
0
0
0
0
0
0
0
0
0
0
0
0
0
0
0
0
0
0
0
0
0
0
0
0
0
0
0
0
0
214
215
216
217
0
0
0
221
222
223
0
0
0
0
0
0
0
0
0
0
0
0
0
0
0
0
0
0
0
0
0
0
0
0
0
0
0
0
0
0
0
0
0
0
258
0
0
0
0
0
0
0
0
0
0
0
0
0
0
0
0
0
0
0
0
0
280
0
0
0
0
0
0
0
0
0
0
0
0
0
0
0
296
297
0
0
300
301
0
0
304
0
0
0
0
0
0
0
0
0
314
315
0
0
0
0
0
0
0
0
0
0
0
0
0
0
330
331
332
333
0
0
0
0
0
0
0
341
342
343
0
0
0
0
0
0
0
0
0
0
0
0
0
0
0
0
0
0
0
0
0
0
0
367
368
369
370
0
0
0
0
0
0
0
0
0
0
0
0
0
0
0
0
0
0
0
0
0
0
0
0
0
0
0
398
399
0
0
0
0
404
0
0
407
408
0
0
0
412
413
0
0
0
0
0
0
0
0
0
0
0
0
0
427
428
0
0
0
0
0
0
435
436
437
438
0
0
0
0
0
0
0
0
0
0
0
0
0
0
0
0
0
0
0
0
0
0
461
462
463
464
465
466
467
0
0
0
0
0
0
474
475
476
0
0
0
0
0
0
0
0
0
0
0
0
0
0
0
0
0
0
495
496
497
498
0
0
0
0
503
504
505
0
507
508
509
510
0
0
0
0
0
0
0
0
0
0
0
0
0
0
0
0
527
528
529
0
0
0
0
0
0
0
0
538
539
0
0
0
0
0
0
0
0
0
0
0
0
0
0
0
0
0
0
0
0
0
0
562
563
564
0
0
0
0
0
570
571
572
0
0
0
0
0
0
0
580
581
582
0
0
0
0
0
0
0
0
0
0
0
0
0
0
0
0
0
0
601
602
603
604
0
0
0
608
0
610
611
0
0
0
0
0
0
0
0
0
0
0
0
0
0
0
0
0
0
0
0
0
0
0
635
636
637
638
0
0
0
0
0
0
0
0
0
0
0
0
0
0
653
654
655
0
0
0
0
0
0
662
663
0
0
0
0
0
0
0
0
0
0
0
0
0
677
678
0
0
0
0
0
0
0
0
0
0
0
0
0
0
0
0
0
0
0
0
0
0
0
0
0
0
0
0
0
0
0
0
711
712
0
0
0
0
0
0
0
0
0
0
0
724
725
726
0
728
729
730
0
0
0
734
735
736
737
738
739
740
0
0
0
0
0
0
0
0
0
0
0
0
753
754
755
756
757
0
0
0
0
0
0
0
0
0
0
0
0
0
0
0
0
0
0
0
0
0
0
780
781
782
783
2
3
4
5
6
7
8
9
10
11
12
13
14
0
16
17
18
19
20
21
22
23
24
0
26
27
28
29
30
31
32
33
34
35
36
0
38
0
40
0
0
43
0
0
0
47
0
0
0
0
0
0
0
0
0
0
0
0
0
0
0
0
0
0
66
0
0
0
0
0
0
0
0
0
0
0
0
79
0
0
0
0
84
85
0
87
0
0
0
0
0
0
0
0
0
0
0
0
0
0
0
0
0
0
106
0
0
0
0
0
0
0
0
0
0
0
0
0
120
121
122
123
0
0
0
0
0
0
0
0
0
0
0
135
0
0
0
0
0
0
0
0
0
145
146
147
148
149
0
0
0
0
154
0
0
0
0
0
0
0
0
0
0
0
0
0
0
0
170
171
0
0
174
0
0
177
0
0
0
0
0
0
0
185
186
0
0
0
0
0
0
193
194
0
0
0
0
0
0
0
0
203
204
0
0
207
0
0
0
0
0
0
0
0
0
0
0
0
220
221
222
223
0
0
0
0
0
0
0
231
232
233
234
0
0
0
238
0
0
241
0
0
244
245
0
247
0
0
0
0
0
0
0
0
0
0
0
0
0
0
0
0
0
0
0
0
268
269
270
271
272
273
274
275
0
0
0
279
280
281
282
283
284
0
0
0
0
0
0
0
0
0
0
0
0
0
0
0
0
0
0
0
0
0
0
0
0
0
0
0
0
0
0
0
0
0
0
0
0
0
0
0
0
0
0
0
0
329
0
0
0
0
0
0
0
0
0
0
0
0
0
0
0
0
0
0
0
0
0
0
0
0
0
0
0
0
358
359
360
361
362
363
364
365
0
367
0
369
0
0
0
0
374
0
376
377
0
0
0
381
382
0
0
0
0
0
0
0
0
0
0
0
394
395
396
397
398
399
400
401
402
403
404
405
406
407
408
0
0
0
412
413
0
0
0
0
0
0
0
0
0
0
0
0
0
0
0
0
0
0
0
0
0
0
0
0
0
0
0
0
442
0
0
0
0
0
0
0
0
0
0
0
0
0
0
0
0
0
0
0
0
0
0
0
0
0
0
0
0
0
0
0
0
0
0
0
0
0
0
0
482
483
484
0
0
0
0
0
0
0
0
0
0
495
496
497
498
0
0
0
0
503
504
505
506
0
0
0
0
0
0
0
0
0
0
0
0
0
520
521
522
523
0
0
0
0
0
0
0
0
0
0
0
0
0
0
0
0
0
0
0
0
0
0
0
0
548
549
550
0
0
0
0
0
0
0
0
0
560
561
562
563
564
565
566
0
0
0
0
0
0
0
0
0
0
0
0
0
0
0
582
583
0
0
0
0
0
0
0
591
592
593
0
0
0
0
0
0
0
0
0
0
0
0
0
0
608
609
610
0
0
0
0
0
0
0
0
0
0
0
0
0
0
0
0
0
0
0
0
0
0
0
0
0
0
0
638
639
640
0
0
0
0
645
646
647
648
649
0
0
0
0
0
0
0
0
658
0
0
0
0
0
0
665
666
667
0
0
0
0
0
0
0
0
0
677
678
679
680
0
0
0
0
0
0
0
0
0
0
0
0
0
0
0
0
0
0
0
0
0
702
703
0
0
0
0
0
0
710
0
0
0
0
715
716
0
718
719
0
0
0
0
0
0
0
0
0
0
0
0
0
0
734
735
736
0
0
739
740
0
0
0
0
0
0
0
0
0
0
0
0
0
0
0
0
0
0
0
0
0
0
0
0
0
0
0
0
0
0
0
0
0
0
0
0
0
0
0
0
0
782
783
2
3
4
5
6
7
8
9
10
11
12
13
14
0
16
17
18
19
20
21
22
23
24
25
26
27
28
29
30
31
32
33
34
35
36
0
38
0
40
0
0
43
0
0
0
0
0
49
0
0
0
0
0
0
0
0
0
0
0
0
62
63
64
65
0
0
0
0
0
0
72
0
0
0
0
0
0
79
0
0
0
0
84
0
0
0
0
0
0
0
0
0
0
0
96
97
98
99
100
101
102
0
0
0
106
0
0
109
0
0
0
0
114
0
0
0
0
0
0
0
0
0
0
0
0
0
0
0
0
0
0
133
134
135
136
0
0
0
140
141
142
0
0
0
146
147
148
149
0
0
0
0
0
155
156
157
0
0
0
0
0
0
0
0
166
0
168
0
170
171
0
0
0
0
0
0
0
0
0
0
0
0
0
0
0
0
0
0
0
0
0
0
0
0
0
0
0
199
0
0
0
0
0
0
0
0
0
0
0
0
0
0
214
0
0
0
218
0
220
221
222
223
0
0
0
0
0
0
0
0
0
233
234
235
236
0
0
0
0
0
0
0
0
0
0
0
0
0
0
0
0
0
0
0
0
0
258
259
260
261
0
0
0
0
0
0
0
0
0
0
0
0
0
275
276
277
278
0
0
0
0
0
0
0
0
0
0
0
0
0
0
0
0
0
0
297
298
0
0
0
0
0
0
0
0
0
0
309
0
0
0
313
314
315
316
317
0
0
0
0
0
0
0
0
0
0
328
329
0
0
0
0
0
0
0
0
0
0
340
341
342
0
0
0
0
0
0
0
0
0
0
0
0
0
0
0
0
0
0
0
0
0
0
0
0
367
0
0
0
0
0
373
374
0
0
0
378
379
380
381
0
0
0
0
0
0
0
0
0
0
392
393
394
395
0
0
0
0
0
0
0
0
0
0
0
0
0
0
0
0
0
0
414
415
416
0
0
0
0
0
0
0
0
0
0
0
0
0
0
0
0
0
0
0
0
0
0
0
0
0
442
0
0
0
0
0
0
0
0
0
0
0
0
0
0
0
0
0
0
0
0
0
0
0
466
467
468
469
470
471
472
473
474
475
476
0
0
0
0
0
0
0
0
0
0
0
0
0
490
0
492
0
0
0
0
0
0
0
0
0
0
503
504
505
506
507
508
509
0
0
0
0
0
515
516
517
0
0
0
0
0
0
0
0
0
0
0
0
0
0
0
533
534
0
0
0
0
0
0
0
0
0
0
0
546
0
548
0
0
0
0
0
0
0
0
0
0
0
0
0
0
0
0
0
0
0
568
569
570
571
572
0
0
0
0
0
578
579
580
0
0
0
0
585
586
587
0
0
0
0
0
0
0
0
0
0
0
0
0
0
0
0
0
0
0
607
608
609
610
0
0
0
0
0
0
0
0
0
0
0
622
0
0
0
0
0
0
0
0
0
0
0
0
0
0
0
0
0
0
0
0
643
0
0
0
0
0
0
0
0
0
0
654
655
656
0
0
0
0
0
0
0
0
0
0
0
0
0
0
0
0
0
0
0
0
0
0
0
0
0
0
0
0
0
686
687
688
689
0
0
0
0
0
0
0
0
0
0
0
0
0
0
0
0
706
0
708
709
710
711
712
0
0
0
716
717
718
0
0
0
0
0
0
0
0
0
0
0
0
0
0
0
0
0
0
0
0
0
0
0
742
743
744
0
0
0
0
0
0
0
0
0
0
0
756
757
758
0
0
0
0
0
0
0
766
767
768
769
770
771
0
0
0
775
776
777
0
0
0
0
0
0
2
3
4
5
6
7
8
9
10
11
12
13
14
0
16
17
18
19
20
21
22
23
24
0
26
27
28
29
30
31
32
33
34
35
36
0
38
0
0
0
0
0
0
0
0
0
0
0
0
0
0
0
0
0
56
57
58
59
60
61
62
63
64
0
0
0
0
0
0
0
0
0
0
75
0
0
0
0
0
0
0
0
84
0
86
87
88
89
0
0
0
0
0
0
96
0
0
0
0
101
0
0
0
0
106
0
0
0
0
0
0
0
114
0
0
0
0
0
0
0
0
123
124
125
0
0
0
0
0
0
0
0
134
135
0
0
0
0
0
0
0
0
0
0
0
0
0
149
0
151
0
0
0
0
0
0
0
0
0
0
0
0
0
0
0
0
0
0
170
171
0
0
0
0
0
0
0
0
0
181
0
0
0
0
186
187
188
189
190
191
192
193
194
0
0
0
0
199
0
0
0
0
0
0
206
207
0
0
0
0
0
213
214
215
0
0
0
0
0
0
0
0
0
0
226
227
228
229
0
0
0
0
0
0
0
0
0
0
0
241
0
0
0
245
246
0
0
0
0
0
0
0
254
0
0
0
0
0
0
0
0
0
264
265
0
0
0
0
0
0
0
0
0
0
0
0
0
0
0
281
282
283
0
0
0
0
0
0
0
0
0
0
0
0
0
0
0
0
0
0
0
0
0
0
0
0
0
0
0
0
0
0
0
0
0
0
0
0
0
0
0
0
0
0
0
0
0
0
0
0
0
0
0
0
0
0
0
0
0
0
0
0
344
345
346
0
0
0
0
0
0
0
0
0
0
0
0
0
0
0
0
0
0
0
0
0
0
369
0
0
0
0
0
0
0
0
378
379
0
0
0
0
0
0
0
0
0
0
0
0
0
0
0
0
396
0
398
0
0
0
0
0
0
0
0
0
0
0
0
0
0
0
0
0
416
417
418
419
0
0
0
423
424
0
0
427
0
0
0
0
0
0
0
0
0
0
0
439
440
441
442
443
444
445
0
0
0
0
0
0
0
0
0
0
0
0
0
0
0
0
0
0
0
465
466
467
0
0
0
0
0
0
0
0
0
0
0
479
0
481
0
0
0
0
0
0
0
0
0
0
0
0
0
0
0
0
0
0
0
0
0
0
0
0
0
0
0
0
510
0
0
0
0
0
516
0
0
0
0
0
0
0
0
525
526
0
0
0
530
531
532
0
0
0
536
537
538
539
0
0
0
0
0
0
0
0
0
0
0
0
0
0
0
0
0
0
0
0
0
0
0
0
0
0
0
567
568
0
0
0
572
573
574
575
0
0
0
0
0
0
0
0
0
0
0
0
0
0
0
0
592
0
0
0
0
0
0
0
0
0
0
0
0
0
606
0
0
0
0
0
0
0
0
0
0
0
0
0
0
0
0
0
0
625
626
0
0
0
630
631
0
0
0
0
0
0
0
0
0
0
0
0
0
0
0
0
0
0
650
651
652
653
654
0
0
0
0
659
660
661
0
0
0
0
0
0
0
0
0
0
0
0
0
0
0
0
0
0
0
0
0
0
0
0
0
687
0
0
0
0
692
693
694
0
0
0
0
699
700
701
702
0
0
0
0
707
708
709
0
0
0
0
0
0
0
0
0
0
0
0
0
723
724
725
0
0
0
0
0
0
0
0
0
0
0
0
0
0
0
741
742
0
0
0
0
0
0
0
0
0
0
0
0
0
0
0
0
0
0
0
0
0
0
0
0
0
0
0
0
0
0
0
0
0
0
0
0
0
0
0
0
0
2
3
4
5
0
7
8
9
10
11
12
0
14
0
16
17
18
19
20
21
22
23
24
0
26
27
28
29
30
31
32
33
34
35
36
0
0
0
40
0
0
0
0
0
0
0
0
49
50
51
52
0
0
0
0
0
0
0
0
0
0
0
0
0
66
0
0
0
0
71
72
73
74
75
0
0
0
79
0
0
0
0
84
0
0
87
0
89
90
91
92
0
0
0
0
0
0
0
0
0
0
0
0
0
106
0
0
109
110
111
112
0
114
0
0
117
118
119
0
0
0
0
0
0
0
127
128
129
0
0
0
0
134
135
0
0
0
0
0
0
0
0
0
0
0
0
0
0
0
0
0
0
0
0
0
0
0
0
0
0
0
0
0
0
166
0
0
0
0
0
0
0
0
0
0
0
178
0
0
0
0
0
0
0
0
0
0
0
0
0
192
0
0
0
0
0
0
199
0
201
0
0
0
0
0
0
0
0
0
0
0
0
0
0
0
0
218
0
0
221
222
223
0
0
0
0
0
0
0
0
0
0
0
0
0
0
238
0
0
0
0
0
0
0
0
247
0
0
0
0
0
0
0
0
0
0
0
0
0
0
0
0
0
0
0
0
0
0
0
0
0
0
0
0
0
277
278
279
280
281
0
0
284
285
0
0
0
0
0
0
0
0
0
0
296
297
298
0
0
0
0
303
304
305
306
307
308
0
0
0
0
0
0
0
0
0
318
319
320
321
322
323
324
325
326
327
0
0
0
0
0
0
0
0
0
0
338
339
340
341
0
0
0
0
0
0
0
0
0
0
0
0
0
0
0
357
358
359
360
0
0
0
364
365
366
0
0
0
0
0
0
0
0
0
0
0
0
0
380
381
382
0
0
0
0
0
0
0
390
391
392
393
394
395
396
397
0
0
400
401
402
0
0
0
406
0
0
0
0
0
0
0
0
0
0
0
0
0
0
0
0
0
0
425
426
427
428
0
0
0
0
0
0
0
0
0
0
0
0
0
0
0
0
0
0
0
0
0
0
451
452
453
454
0
0
0
0
0
0
0
0
0
0
0
0
467
468
469
0
0
0
0
0
0
0
0
0
0
0
0
0
0
0
0
0
0
0
0
490
0
0
0
0
0
0
0
498
499
500
501
0
0
0
0
0
0
0
0
0
0
0
0
0
0
0
0
0
0
0
0
0
0
0
0
0
0
0
0
0
0
0
0
0
0
0
0
0
0
0
541
542
0
0
545
0
0
0
549
550
0
0
0
554
555
0
0
0
0
0
0
0
0
0
0
0
0
0
0
0
0
0
0
574
0
0
0
0
579
580
581
582
0
0
0
0
0
0
0
0
0
0
0
0
0
596
597
598
0
0
0
0
0
0
0
0
0
608
0
0
0
0
0
0
0
0
0
0
0
0
0
0
0
0
0
0
0
0
0
0
0
0
0
0
0
0
637
638
639
640
0
0
0
644
0
0
0
0
0
0
0
0
653
654
655
656
0
0
0
0
0
0
0
0
0
0
0
0
0
0
0
0
0
0
0
0
677
678
679
680
0
0
0
0
0
0
0
0
0
0
691
0
0
694
695
696
0
0
0
0
0
0
0
0
0
0
0
0
0
0
0
0
0
0
0
0
0
718
0
0
0
0
0
0
0
0
0
0
0
0
0
0
0
0
0
736
737
738
739
740
741
742
743
744
0
0
0
0
0
0
0
0
0
0
755
756
757
758
759
760
761
762
0
0
0
0
0
0
0
0
0
0
0
0
0
0
0
0
0
0
0
0
783
2
3
4
5
6
7
8
9
10
11
12
13
14
0
16
17
18
19
20
21
22
23
24
0
26
27
28
29
30
31
32
33
34
35
36
0
38
0
40
0
0
43
0
0
0
0
48
0
0
0
0
0
0
0
0
0
0
0
0
0
0
0
0
0
66
0
0
0
0
0
0
0
74
75
0
0
0
79
0
0
0
83
84
0
0
0
0
0
0
0
92
93
94
95
96
97
98
99
0
0
0
0
0
105
106
0
0
0
0
0
0
0
0
0
0
0
0
0
0
0
0
0
0
0
0
0
0
0
0
0
0
0
134
0
0
0
0
0
0
0
0
0
144
145
146
0
0
0
0
0
0
0
0
0
0
0
0
0
0
0
0
0
0
0
166
0
168
169
0
0
0
0
0
0
0
177
178
0
180
181
0
0
0
0
0
0
0
0
0
0
0
0
0
0
0
0
0
0
0
201
202
203
0
0
0
0
0
0
0
0
0
0
0
0
0
0
0
0
0
221
222
223
0
0
0
0
0
0
0
0
0
0
0
0
0
0
0
0
0
241
242
243
244
245
0
0
0
0
250
251
252
0
0
0
0
0
0
0
0
261
0
0
0
0
0
0
0
0
0
0
0
0
0
0
0
0
0
279
280
0
0
0
0
0
0
0
0
0
0
0
0
293
294
295
296
0
0
0
0
0
0
0
0
0
0
0
0
0
0
0
0
0
0
0
0
0
0
0
0
0
0
0
0
0
326
327
328
329
0
0
0
0
0
0
0
0
0
0
0
341
0
0
0
0
0
0
0
0
0
0
352
0
0
0
0
0
0
0
0
0
0
0
0
0
0
0
0
0
0
0
0
0
374
0
0
0
0
0
0
0
0
0
0
0
0
0
0
0
0
0
0
0
0
0
0
0
0
399
0
0
0
0
0
0
0
0
0
0
0
0
412
413
414
0
0
0
0
419
420
421
0
0
0
0
0
0
0
0
0
0
0
0
0
0
0
0
0
0
0
0
0
0
0
0
0
0
0
449
450
451
0
0
454
0
0
0
0
0
0
0
0
0
0
0
0
0
0
0
0
0
0
0
0
0
0
0
0
0
0
481
0
0
0
485
0
0
0
0
0
0
0
493
494
495
0
0
0
499
500
0
0
0
0
0
0
0
0
0
510
0
0
0
0
0
0
0
0
0
0
0
0
0
0
0
0
0
0
0
0
0
0
533
0
0
0
0
538
0
0
0
0
0
0
0
0
547
548
549
550
551
552
0
0
0
0
0
0
0
0
0
0
0
0
0
0
0
0
0
0
0
0
0
574
0
0
0
0
0
0
0
0
0
0
0
0
0
0
0
0
0
0
593
594
595
596
0
0
0
0
0
0
0
0
0
0
0
0
0
0
0
612
613
614
615
0
0
0
0
0
621
622
623
624
625
626
627
628
629
630
631
0
0
0
0
0
0
0
0
0
0
0
0
0
0
0
0
0
0
0
0
0
0
0
0
0
0
0
0
0
0
0
663
664
665
666
667
668
0
0
0
0
0
0
0
0
0
0
0
0
0
682
683
684
685
0
0
0
0
0
0
0
0
0
0
0
0
0
0
0
0
0
0
0
0
0
0
708
709
0
0
0
0
0
0
0
0
0
0
0
0
0
0
0
0
0
0
728
729
730
731
0
0
0
0
0
0
0
0
0
0
0
0
0
0
0
0
0
0
0
0
0
0
0
0
0
0
0
0
0
0
0
0
764
765
766
767
768
769
770
771
0
0
0
0
776
777
778
0
0
0
0
0
2
3
4
5
6
7
8
9
10
11
12
13
14
0
16
17
18
19
20
21
22
23
24
0
26
27
28
29
30
31
32
33
34
35
36
37
38
39
40
0
0
43
0
0
0
0
0
0
0
0
0
0
0
0
0
0
0
0
0
0
0
0
0
0
66
0
0
0
0
0
0
0
0
75
0
0
0
79
0
0
0
0
0
0
86
87
0
0
0
0
0
0
0
0
96
97
98
0
0
101
0
0
0
0
0
0
0
109
0
0
0
0
0
0
0
0
0
0
0
0
0
0
0
0
0
0
0
0
0
0
0
0
134
135
0
137
138
139
0
141
142
143
144
0
0
0
0
149
0
0
0
0
0
0
0
0
0
0
0
0
0
0
0
0
166
0
168
0
170
171
0
0
174
0
0
0
0
0
0
181
0
0
0
0
0
0
0
0
0
0
0
0
194
0
0
0
0
199
0
0
0
0
0
0
0
207
0
0
0
0
0
0
214
0
0
0
0
0
0
221
222
223
0
0
0
0
0
0
0
0
0
0
234
0
0
0
238
239
240
241
0
0
0
0
0
0
248
249
250
0
0
0
0
0
0
0
0
0
0
0
0
0
0
0
0
0
0
0
0
0
0
0
0
0
0
0
0
0
0
281
282
283
0
0
0
0
0
0
0
0
0
0
0
0
0
0
0
0
300
301
302
303
0
0
0
0
0
0
0
0
0
0
314
315
0
0
0
0
0
0
322
323
324
0
0
0
0
0
0
0
0
0
0
0
0
0
0
0
0
0
0
0
0
0
0
0
0
0
0
0
0
0
354
355
356
357
358
359
360
361
362
0
0
0
0
367
0
369
370
371
0
0
0
0
0
0
0
0
0
0
0
0
0
0
0
0
0
0
0
0
0
393
394
395
396
0
0
0
0
0
0
0
0
0
0
0
0
0
0
0
0
0
0
0
0
0
0
0
0
421
0
423
424
0
0
0
0
0
0
0
0
0
0
0
0
0
0
0
0
0
442
443
444
0
0
0
0
449
450
0
0
0
0
0
0
0
0
0
0
461
462
463
0
0
0
0
0
0
0
0
0
0
0
0
0
477
478
479
480
481
482
483
484
485
486
487
488
489
0
0
0
0
0
0
0
0
0
499
500
501
0
0
0
0
0
0
0
0
0
0
0
513
514
515
516
0
0
0
0
0
0
523
0
0
0
0
0
0
0
0
532
533
534
0
0
0
538
0
0
0
0
0
0
0
0
0
0
549
550
0
552
553
554
0
0
0
0
0
0
0
0
0
0
565
566
567
568
0
0
0
0
0
574
575
576
0
0
0
0
0
0
0
0
0
0
0
0
0
0
0
0
0
0
0
0
0
0
0
0
0
0
0
0
0
0
0
0
0
0
0
0
0
0
0
0
0
0
0
0
0
0
623
0
625
0
0
0
0
0
0
0
0
0
0
0
0
0
0
0
0
0
0
0
0
0
0
0
0
0
0
0
0
0
0
0
0
0
0
0
0
0
0
0
0
0
0
0
0
0
0
0
0
0
0
0
0
0
0
0
0
0
683
684
0
0
0
688
689
690
691
692
693
694
695
696
0
0
0
700
701
702
0
0
0
0
0
0
709
710
0
0
0
0
0
0
0
0
0
0
0
0
0
0
0
0
0
0
0
0
0
0
0
0
0
736
737
738
739
740
741
0
0
0
0
0
0
0
0
0
0
0
0
0
0
0
0
0
0
0
0
762
763
0
0
0
0
0
0
0
0
0
0
0
0
0
0
0
0
0
0
0
0
2
3
4
5
6
7
8
9
10
11
12
13
14
0
16
17
18
19
20
21
22
23
24
0
26
27
28
29
30
31
32
33
34
35
36
0
0
0
0
0
0
43
0
0
0
0
0
0
0
0
0
0
0
0
0
0
0
0
60
61
62
63
0
0
66
0
0
69
70
71
0
0
0
75
0
0
0
79
0
0
0
0
84
0
0
0
0
0
0
0
0
0
0
0
0
0
0
0
0
101
0
0
0
0
106
0
0
109
0
0
0
0
114
0
0
117
118
119
0
0
0
0
0
0
0
127
128
129
130
0
0
0
134
135
0
0
0
0
0
0
0
143
144
0
0
0
0
0
0
0
152
153
154
155
156
157
0
0
0
0
0
0
0
0
166
0
0
0
170
171
172
0
0
0
0
177
178
0
0
0
0
0
0
0
0
0
0
0
0
0
0
193
0
0
0
0
0
0
0
0
0
0
0
0
0
0
0
0
0
0
0
0
0
0
0
0
0
0
0
0
0
223
0
0
0
227
228
229
230
231
232
0
0
0
0
237
238
239
0
0
0
0
0
245
0
247
0
0
0
0
0
253
254
0
0
0
0
0
0
0
0
0
0
0
0
0
268
269
270
271
0
0
0
0
0
0
0
0
280
0
0
0
0
0
0
0
0
0
0
0
0
0
0
0
0
0
0
0
300
0
0
0
0
0
0
0
0
309
0
311
312
0
314
315
0
0
0
0
0
0
0
0
0
0
0
0
0
0
0
0
0
0
0
0
0
0
0
0
0
0
0
0
0
0
0
0
0
0
0
0
0
0
0
0
0
0
0
0
0
0
0
0
0
0
0
0
0
0
0
0
0
0
0
0
0
0
0
0
380
381
382
0
0
0
0
0
0
0
0
0
0
0
394
0
0
0
0
0
0
0
0
0
404
0
406
0
0
409
0
0
0
0
0
0
0
0
0
0
0
0
0
0
0
0
0
0
0
0
0
0
0
0
0
0
0
0
0
0
440
441
0
0
444
0
0
0
0
0
0
0
452
453
0
0
0
0
0
0
0
461
462
463
464
465
466
467
0
0
0
0
0
0
0
0
0
0
0
479
480
481
0
0
0
0
486
0
0
0
490
0
0
0
0
0
0
497
0
0
0
0
0
0
0
0
0
0
0
0
0
0
0
0
0
0
0
0
0
0
0
0
522
523
524
0
0
0
0
0
0
0
532
0
0
0
0
0
0
0
0
0
0
0
0
0
0
0
0
0
0
0
0
0
0
555
0
0
558
559
0
0
0
0
0
0
0
0
0
0
0
0
0
0
0
0
0
0
0
0
0
0
0
0
0
0
0
0
0
0
0
0
0
0
0
0
0
0
0
0
0
0
602
603
604
0
606
0
608
0
0
0
0
0
0
0
0
0
0
0
0
0
0
0
0
0
0
0
0
0
0
0
0
0
0
635
636
637
638
0
0
0
0
0
0
0
0
0
0
0
0
651
652
653
654
655
656
657
0
0
0
661
662
663
0
0
0
0
0
0
0
0
0
0
0
0
0
0
0
0
0
0
0
0
0
0
0
0
0
0
690
0
0
0
0
0
0
0
0
0
0
701
702
703
0
0
0
0
0
0
0
0
0
0
714
715
0
0
0
0
0
0
0
0
0
0
0
0
0
0
0
0
0
0
0
0
0
0
738
739
740
0
0
0
0
0
0
0
0
0
0
0
0
0
0
0
0
757
758
759
760
761
762
763
0
0
0
0
0
0
0
771
772
773
0
0
0
0
0
0
0
0
0
0
2
3
4
5
6
7
8
9
10
11
12
13
14
15
16
17
18
19
20
21
22
23
24
0
26
27
28
29
30
31
32
33
34
35
36
0
0
0
40
0
0
43
0
0
0
0
0
0
0
51
52
53
54
0
0
0
0
0
0
0
0
0
0
0
0
0
0
0
0
71
72
73
74
0
0
77
78
0
0
0
0
0
84
85
86
87
0
0
0
0
0
0
0
0
0
0
0
0
0
101
0
0
0
0
0
0
0
109
0
0
0
0
114
0
0
0
0
0
0
0
0
0
124
125
126
127
128
129
130
0
0
0
0
135
0
0
0
0
0
0
0
0
0
0
0
0
148
149
150
0
0
0
0
0
0
0
158
159
160
161
0
0
0
165
166
0
168
0
0
0
0
0
0
0
0
177
178
0
0
0
0
0
0
0
0
0
0
0
0
191
192
193
194
0
0
0
0
199
0
0
0
0
0
0
0
0
0
0
0
0
0
0
0
0
0
0
218
219
220
0
0
0
0
0
0
0
0
0
0
0
0
0
0
0
0
0
0
0
0
241
0
0
0
0
0
247
0
0
0
0
0
0
254
0
0
0
258
259
260
261
0
0
0
265
0
0
0
0
0
0
0
0
0
0
0
0
0
0
0
0
0
0
284
285
286
0
0
0
0
0
0
0
0
0
296
297
298
0
0
0
0
0
304
0
0
0
0
0
0
0
0
0
0
0
0
0
0
0
0
0
0
0
0
0
0
0
0
0
0
331
332
333
334
335
0
0
0
0
0
0
0
0
0
0
0
0
0
0
0
0
0
0
0
0
0
357
0
0
360
361
362
363
364
0
0
367
0
0
0
0
0
0
0
0
0
0
378
0
0
0
0
0
0
0
0
0
0
0
0
391
392
393
394
0
0
0
0
399
0
0
0
0
0
0
0
0
0
0
0
0
0
0
0
0
0
0
0
0
0
421
0
0
0
0
0
0
0
0
0
0
0
0
434
435
436
0
0
0
0
0
0
0
0
0
0
0
0
0
0
0
0
0
0
0
0
0
0
0
0
461
462
463
464
0
0
0
0
0
0
0
0
0
0
0
0
0
0
0
0
0
0
0
0
0
0
0
0
0
0
0
0
0
0
0
0
0
0
0
0
0
0
0
0
0
0
0
0
0
0
0
0
0
0
0
0
0
0
0
0
0
0
0
0
0
0
0
0
0
0
0
0
0
0
0
0
0
0
0
0
0
0
0
0
545
546
0
0
0
0
0
552
553
0
555
556
557
558
0
0
0
0
0
564
565
566
0
0
0
0
0
0
0
0
0
0
0
0
0
580
0
0
0
0
0
0
0
0
0
0
0
0
593
594
595
596
0
0
0
0
0
0
0
0
0
0
0
608
0
0
0
0
0
614
615
616
0
0
0
0
0
0
0
0
0
0
0
0
0
0
0
632
633
634
635
0
0
0
0
0
0
0
0
644
645
646
0
0
0
0
0
0
0
0
0
0
0
0
0
0
0
0
0
0
0
0
667
668
0
0
0
0
0
0
0
0
0
678
679
680
681
682
0
0
0
0
0
0
0
0
0
692
693
694
0
0
0
0
0
0
0
0
0
0
0
0
0
0
0
0
0
0
713
714
0
0
0
0
0
0
0
0
723
724
725
0
0
0
0
0
0
0
0
0
0
736
737
738
0
0
0
742
743
744
0
0
0
0
0
0
0
0
0
0
0
0
0
0
0
0
0
0
0
0
0
0
0
0
0
0
0
0
0
0
0
0
0
0
779
780
781
782
0
2
3
4
5
6
7
8
9
10
11
12
13
14
0
16
17
18
19
20
21
22
23
24
0
26
27
28
29
30
31
32
33
34
35
36
0
0
0
0
0
0
43
0
0
0
0
0
0
0
0
0
0
0
0
0
0
0
0
0
0
0
0
0
0
66
0
0
0
0
0
0
0
0
75
0
0
0
0
0
0
0
0
0
0
0
87
0
0
0
0
92
93
94
0
0
0
0
0
0
0
0
0
0
0
106
0
0
109
110
111
112
0
0
0
0
0
0
0
0
0
0
0
0
0
0
0
0
0
0
0
0
0
0
0
0
137
138
139
140
141
0
0
0
0
0
0
0
149
0
0
0
0
0
0
0
0
158
0
0
0
0
0
0
0
166
167
168
0
0
0
0
0
0
0
0
0
0
0
0
0
0
0
0
0
0
0
0
0
0
0
192
193
194
0
0
0
0
199
0
0
0
0
204
205
0
0
0
0
0
0
0
0
0
0
0
0
218
0
0
0
0
223
0
0
0
0
0
0
0
0
0
0
0
0
0
0
0
0
0
241
0
0
0
0
0
0
0
0
0
0
0
0
254
0
0
0
0
0
0
261
262
263
264
265
0
0
0
0
0
0
0
0
0
0
0
0
0
0
0
0
0
0
0
0
0
287
288
0
0
0
0
0
0
0
296
297
298
0
0
0
0
0
0
0
306
307
308
309
310
0
0
0
314
315
0
0
0
0
0
0
0
0
0
0
0
0
0
329
0
0
0
0
0
0
0
0
0
0
0
0
0
0
0
0
0
0
0
0
0
0
352
353
354
0
0
0
0
0
0
0
0
0
0
0
366
367
368
369
0
0
0
0
0
0
0
0
0
0
0
0
0
0
0
0
0
0
0
0
0
0
0
0
0
0
0
0
398
399
0
0
0
0
0
0
0
0
0
0
0
0
0
413
414
415
0
0
0
0
420
421
422
423
424
425
426
427
428
429
0
0
0
0
0
0
0
0
0
0
0
0
0
0
0
0
0
0
0
0
0
0
0
0
0
0
0
0
0
459
460
461
462
0
0
0
0
0
0
469
470
0
0
0
474
0
0
0
0
0
0
481
0
0
0
0
0
0
0
0
0
0
492
493
494
495
0
0
0
0
0
0
0
0
0
0
0
0
0
0
0
0
0
0
0
0
0
0
0
0
520
521
0
523
0
0
0
0
0
0
0
0
0
0
0
0
0
537
538
539
540
541
542
543
544
545
546
0
0
0
550
551
0
0
0
0
0
0
0
0
560
561
562
0
0
565
566
567
0
0
0
0
0
0
0
0
0
0
0
0
580
581
582
583
584
0
0
0
0
0
0
0
0
0
0
0
0
0
0
0
0
0
602
603
604
605
0
0
0
0
0
0
0
0
0
0
0
0
0
0
0
0
0
0
0
0
0
0
0
0
630
631
0
0
0
0
0
0
0
0
0
0
0
643
0
0
0
0
0
0
0
0
0
0
0
0
0
0
0
659
660
661
0
0
0
0
0
0
0
0
0
0
0
673
674
675
0
0
0
0
0
0
682
683
684
685
686
687
688
0
0
0
0
693
694
0
0
697
698
699
700
701
702
0
0
0
706
707
0
0
0
0
0
713
0
0
0
0
0
0
0
0
0
0
724
725
0
0
0
0
0
0
0
0
0
0
0
0
738
739
0
0
0
0
0
0
746
747
748
0
0
0
0
0
0
0
0
0
0
0
0
0
0
0
0
0
0
0
0
0
0
0
0
0
0
0
0
0
778
779
780
781
782
783
EOF
