DIMENSION : 783
NUMBER OF ITEMS : 782

TOUR_SECTION
1
15
25
37
45
57
52
49
56
88
97
110
115
123
117
125
146
139
147
155
160
175
153
127
136
151
156
162
184
196
195
205
186
180
172
185
216
215
235
242
236
239
246
255
230
231
222
227
248
249
243
256
267
268
258
259
250
269
281
292
303
295
311
326
318
312
301
287
282
283
288
310
308
320
324
334
331
342
362
361
349
337
338
340
348
351
354
360
336
330
322
321
333
345
347
350
332
316
307
300
290
293
306
291
299
286
274
273
278
276
277
270
266
289
305
313
302
294
317
335
327
319
323
325
339
346
353
365
376
393
377
370
372
391
375
380
386
381
364
383
373
368
385
388
403
415
414
400
402
416
432
446
450
465
475
488
493
514
520
524
522
527
543
553
559
573
572
571
575
558
565
570
577
542
541
536
535
556
564
563
566
578
557
552
529
515
513
495
519
518
531
547
540
539
561
569
579
562
554
551
534
530
506
517
512
508
492
486
463
455
460
449
456
473
477
483
491
500
501
507
521
505
494
496
497
487
489
480
474
459
476
464
470
469
467
457
439
431
435
441
448
437
434
418
411
417
419
410
409
408
420
424
430
426
433
422
438
443
425
407
401
390
387
382
397
389
405
392
371
366
358
344
328
343
356
359
352
363
384
395
423
429
436
445
452
453
458
466
485
484
482
472
499
511
526
533
548
560
568
576
596
624
640
638
626
611
594
580
586
597
598
590
612
627
634
644
641
619
613
599
588
607
617
628
621
622
609
603
587
591
584
600
601
614
605
589
610
618
639
631
633
630
636
651
646
653
654
662
650
642
632
629
615
604
581
593
606
616
637
647
670
676
674
668
667
664
673
693
689
701
700
710
686
695
699
684
669
666
661
649
657
681
692
691
698
713
707
719
720
721
726
740
748
755
754
737
733
722
739
743
732
736
745
735
718
705
709
688
678
671
679
685
706
690
680
675
660
655
645
648
652
659
665
672
683
697
704
725
738
734
747
769
778
761
772
765
760
758
776
759
757
768
779
777
773
774
766
762
749
750
727
731
730
723
741
746
763
770
780
781
764
756
752
742
724
716
708
702
694
696
703
715
717
728
751
782
783
775
771
767
753
744
729
712
714
711
687
682
677
658
656
663
643
635
625
623
620
602
585
583
608
595
592
582
567
574
549
546
538
550
555
516
523
504
503
510
532
545
544
537
528
525
509
502
498
478
468
471
481
479
490
462
461
444
442
428
421
451
454
447
440
427
412
398
378
379
369
374
396
399
413
406
404
394
367
357
355
341
329
315
314
304
297
296
309
298
284
279
264
265
280
285
254
234
238
247
261
245
252
241
272
271
263
260
244
229
228
220
203
189
191
197
188
183
201
210
213
221
226
237
257
275
262
251
253
219
212
211
209
182
173
165
164
157
169
163
176
179
198
200
190
206
217
225
233
232
240
224
208
202
204
187
161
152
143
137
133
120
111
107
100
80
70
81
67
41
46
47
53
58
65
83
94
76
98
95
89
77
74
63
39
48
64
71
85
99
102
105
108
112
116
140
128
138
118
126
121
124
144
150
159
167
154
129
130
141
132
131
158
166
174
178
192
207
223
214
218
199
193
171
177
181
194
170
168
145
148
142
149
135
134
122
114
109
106
101
79
84
87
75
66
43
38
40
6
13
11
4
34
28
24
27
26
21
16
32
14
22
35
50
62
54
42
51
44
55
60
73
91
96
119
113
104
90
78
69
93
103
92
72
82
86
68
61
59
36
31
20
8
30
19
5
3
10
29
33
9
12
18
7
2
23
17

PP_SECTION
2
0
4
0
0
7
8
9
0
11
12
13
0
0
16
17
18
19
20
0
22
0
24
0
26
0
28
29
30
31
32
0
34
0
0
37
0
0
0
0
42
43
0
0
0
0
0
0
0
0
52
0
54
55
0
0
0
0
60
61
62
0
64
0
66
0
0
0
0
0
72
73
0
75
76
0
78
0
0
0
0
0
84
0
0
0
88
89
0
0
0
0
0
0
0
0
0
0
0
0
0
103
104
0
0
107
0
109
0
111
0
0
114
0
0
0
118
0
0
0
0
0
0
0
126
127
0
0
0
0
0
133
0
0
0
137
0
0
0
141
142
0
0
0
0
0
0
0
0
0
0
153
154
0
0
0
0
0
0
161
162
0
0
165
0
167
0
169
0
0
172
0
174
0
0
177
0
0
0
181
182
183
0
0
0
187
0
0
0
0
0
193
0
0
0
0
0
199
200
0
0
0
0
0
206
207
0
209
210
0
0
0
0
0
0
0
0
219
0
0
0
0
0
225
0
0
228
0
0
0
0
233
0
0
0
0
0
0
0
0
0
0
0
0
0
247
0
0
0
251
0
253
0
0
256
0
0
0
0
0
262
263
0
0
0
0
0
0
0
0
0
0
0
0
276
277
0
0
280
0
0
0
0
285
0
0
0
0
0
291
0
0
0
0
0
0
298
0
0
0
0
0
0
0
306
0
0
0
0
0
0
0
0
0
0
317
0
319
0
0
0
0
0
0
0
0
0
0
0
0
0
0
0
0
336
0
0
339
0
0
0
0
0
0
0
0
0
0
0
351
0
0
354
0
0
0
0
0
0
0
0
0
0
0
0
0
368
369
0
0
0
0
374
0
0
0
0
0
0
0
0
0
384
0
0
387
0
0
0
0
0
0
0
0
0
0
398
0
0
401
0
0
404
0
0
0
0
0
0
411
412
0
0
0
0
0
0
0
0
0
0
0
0
0
0
0
428
0
0
0
432
0
0
0
0
0
438
0
0
0
442
0
0
445
0
0
0
0
450
0
0
0
0
0
0
0
458
0
0
0
462
0
464
465
0
0
0
0
0
0
0
473
0
0
0
0
0
479
480
0
0
0
0
0
0
487
0
0
490
0
492
493
0
0
0
0
498
0
0
501
502
0
0
0
0
0
0
0
0
0
512
0
514
0
516
0
518
0
0
0
0
523
0
525
0
0
0
0
0
0
0
0
0
0
0
0
538
0
0
0
542
0
0
0
0
0
548
0
0
0
0
0
0
0
0
0
0
0
0
0
0
563
564
0
0
0
0
0
0
0
0
0
0
0
576
577
0
0
0
0
0
0
0
0
0
0
0
0
0
0
0
0
0
595
0
0
0
0
0
0
0
0
0
0
0
0
0
0
0
0
0
0
0
0
616
0
0
0
620
0
0
0
0
0
0
0
628
0
0
0
0
633
0
0
0
0
0
0
0
0
0
0
0
645
0
647
648
0
0
0
0
653
0
0
0
657
0
0
0
0
0
0
0
0
0
0
0
669
0
671
0
0
0
675
0
677
0
0
0
0
0
0
0
0
0
0
0
0
0
0
0
0
0
0
0
0
0
699
700
701
0
0
0
0
0
0
0
0
0
0
0
713
714
0
716
717
0
0
0
0
722
0
0
0
0
0
0
0
0
0
0
0
0
0
0
0
738
0
0
741
0
743
0
0
0
0
0
0
0
0
0
0
754
0
0
0
0
0
0
0
0
763
0
0
0
767
0
0
0
0
0
0
0
0
0
0
778
779
0
0
0
0
EOF
