DIMENSION : 783
NUMBER OF ITEMS : 782

TOUR_SECTION
1
15
25
37
45
57
52
49
56
88
97
110
115
123
117
125
146
139
147
155
160
175
153
127
136
151
156
162
184
196
195
205
186
180
172
185
216
215
235
242
236
239
246
255
230
231
222
227
248
249
243
256
267
268
258
259
250
269
281
292
303
295
311
326
318
312
301
287
282
283
288
310
308
320
324
334
331
342
362
361
349
337
338
340
348
351
354
360
336
330
322
321
333
345
347
350
332
316
307
300
290
293
306
291
299
286
274
273
278
276
277
270
266
289
305
313
302
294
317
335
327
319
323
325
339
346
353
365
376
393
377
370
372
375
380
386
381
364
383
373
368
385
388
403
415
414
400
402
416
432
446
459
437
434
448
441
435
439
431
419
417
418
411
391
410
409
408
420
424
430
426
433
422
438
443
425
407
401
390
387
382
397
389
392
405
371
366
358
344
328
343
356
359
352
363
384
395
423
429
436
445
452
453
458
466
485
484
482
472
499
511
526
533
548
560
576
568
580
596
624
640
638
626
611
594
586
597
598
590
612
627
634
644
641
619
613
599
588
607
617
628
621
622
609
603
587
591
584
600
601
614
605
589
610
618
639
631
633
630
636
651
646
653
654
662
650
642
632
629
615
604
581
593
606
616
637
647
670
676
674
668
667
664
673
693
701
700
689
710
686
695
699
684
669
666
661
649
657
681
691
692
698
713
707
719
720
721
726
740
748
755
754
737
733
722
739
743
732
736
745
735
718
705
709
688
678
671
679
685
706
690
680
675
660
655
645
648
652
659
665
672
683
697
704
725
738
734
747
769
778
761
772
765
760
758
776
759
757
768
779
777
773
774
766
762
749
750
727
731
730
723
741
746
763
770
780
781
782
783
775
771
767
753
744
729
712
711
714
717
715
728
751
764
756
752
742
724
716
708
702
694
703
696
687
682
677
658
656
663
643
635
625
623
620
602
585
583
608
595
592
582
567
574
555
550
538
546
549
545
532
510
503
523
516
504
490
479
481
471
461
462
444
442
428
421
451
454
468
478
498
502
509
525
528
544
537
520
514
524
522
527
543
553
559
573
572
571
575
558
565
570
577
556
564
563
566
578
557
552
529
535
536
541
542
521
505
507
501
500
491
483
477
473
495
515
513
519
518
531
547
540
539
561
569
579
562
554
551
534
530
506
517
512
508
492
486
463
455
460
449
456
457
467
469
470
464
476
494
496
497
487
474
480
489
493
488
475
465
450
440
447
427
412
398
378
379
369
374
396
399
413
404
406
394
367
357
355
341
329
315
314
304
297
296
309
298
284
279
264
265
280
285
254
234
238
247
261
245
252
241
272
271
263
260
244
229
228
220
203
189
191
197
188
183
201
210
213
221
226
237
257
275
262
251
253
219
212
211
209
182
173
165
164
157
169
163
176
179
198
200
190
206
217
225
233
232
240
224
208
202
204
187
161
152
143
137
133
120
111
107
100
80
70
81
67
41
46
47
53
58
65
83
94
76
98
95
89
77
74
63
39
48
64
71
85
99
102
105
108
112
116
140
128
138
118
126
121
124
144
150
159
167
154
129
130
141
132
131
158
166
174
178
192
207
223
214
218
199
193
171
177
181
194
170
168
145
148
142
149
134
135
122
114
109
106
101
79
84
87
75
66
43
38
40
6
13
11
4
34
28
24
27
26
21
16
32
14
22
35
50
62
54
42
51
44
55
60
73
91
96
119
113
104
90
78
69
93
103
92
72
82
86
68
61
59
36
31
20
8
30
19
5
3
10
29
33
9
12
18
7
2
23
17

PP_SECTION
0
3
4
5
6
7
0
9
10
11
12
13
14
0
0
17
18
0
20
0
22
23
0
0
26
27
28
29
0
31
32
33
0
35
36
0
38
39
40
41
42
0
44
0
46
47
48
0
50
51
0
53
0
55
56
0
0
59
60
61
62
63
0
65
66
67
68
69
70
71
72
73
74
0
0
77
0
0
80
81
82
83
84
85
86
87
0
0
90
91
92
93
94
95
96
0
0
99
100
0
102
0
104
0
0
0
108
0
0
0
0
113
114
0
116
0
0
119
120
121
122
0
124
0
0
0
128
129
130
131
132
0
134
135
0
0
0
0
140
0
142
143
0
0
0
0
148
0
150
0
0
0
0
155
0
157
158
159
160
0
0
163
164
0
166
0
168
0
170
171
0
173
0
0
0
0
178
0
0
181
0
0
0
185
0
0
188
189
190
191
192
0
194
0
0
197
198
0
0
201
202
203
204
0
0
0
208
0
0
0
212
213
214
0
0
217
218
0
0
0
0
223
0
0
226
0
0
0
0
0
232
0
234
0
236
0
238
0
240
0
0
243
244
0
0
0
0
0
0
0
252
0
0
0
0
257
0
0
0
261
0
0
264
265
266
0
0
269
0
0
0
0
0
275
0
0
0
279
0
0
282
0
284
0
0
0
0
0
0
0
292
293
0
0
296
0
0
0
0
0
302
0
0
0
0
0
0
309
0
311
0
313
314
315
0
0
318
0
0
0
0
0
0
0
0
0
0
329
0
0
0
0
0
0
0
0
0
0
340
0
0
0
344
0
0
0
0
0
0
0
0
0
0
355
0
0
0
0
360
0
362
0
0
0
0
367
0
0
370
0
0
0
0
0
0
0
378
0
0
0
0
0
0
385
0
0
0
0
0
391
392
393
394
395
0
0
0
0
0
0
0
0
0
0
0
0
0
0
0
0
0
413
0
0
0
0
0
419
0
421
0
0
0
0
426
427
0
429
430
0
0
433
0
0
436
0
0
0
440
0
0
0
444
0
446
447
448
449
0
0
0
0
454
455
456
457
0
0
0
0
0
0
0
0
466
0
468
0
0
471
0
0
0
0
476
477
0
0
0
481
482
483
484
485
486
0
488
0
0
491
0
0
494
0
0
497
0
0
0
0
0
0
0
0
506
507
508
0
0
0
0
513
0
515
0
0
0
519
0
521
0
0
0
0
526
0
528
529
530
531
532
533
534
535
536
0
0
0
540
0
0
543
0
0
0
547
0
0
550
551
0
0
0
0
0
0
0
0
0
0
562
0
0
565
0
0
568
0
570
0
0
573
0
575
0
0
0
0
0
0
0
0
0
585
586
0
0
0
0
0
0
0
0
0
0
0
0
0
600
0
0
603
0
0
0
0
608
0
0
611
0
0
0
0
0
0
0
619
0
621
622
0
0
625
626
627
0
0
630
0
0
0
0
635
0
637
0
0
0
0
0
0
644
0
646
0
0
649
650
651
0
0
654
655
656
0
658
0
660
0
662
663
0
0
0
667
0
0
0
0
0
0
0
0
0
0
678
679
680
681
682
0
0
0
686
687
0
0
0
0
0
693
694
0
0
697
698
0
0
0
0
0
0
705
0
707
0
0
0
0
712
0
0
0
0
0
0
0
0
721
0
0
0
725
726
0
0
0
730
731
732
0
0
735
736
0
0
0
740
0
0
0
744
0
0
0
748
0
0
0
752
0
0
0
0
0
758
759
760
0
0
0
0
765
766
0
768
769
770
771
0
0
774
0
0
0
0
0
780
781
0
783
EOF
