DIMENSION : 783
NUMBER OF ITEMS : 782

TOUR_SECTION
1
15
25
37
45
57
52
49
56
88
97
100
80
70
81
67
41
46
47
53
58
65
83
94
107
111
120
133
137
143
152
161
162
156
151
136
153
127
115
110
123
117
125
146
139
147
155
160
175
195
196
184
187
204
202
208
224
243
256
267
268
258
259
240
232
233
250
269
281
290
300
307
316
293
306
291
299
286
274
278
273
248
249
222
227
231
230
205
186
180
172
185
216
215
235
242
236
239
246
255
276
277
270
266
289
305
313
302
294
317
335
327
319
323
325
339
353
346
332
350
347
345
333
321
322
303
292
295
311
330
336
326
318
312
301
310
308
288
283
282
287
275
257
262
253
251
237
226
221
213
210
201
183
188
197
191
189
203
220
228
229
244
260
263
271
272
241
252
245
261
279
284
296
297
304
309
298
320
324
334
331
342
362
361
349
337
338
340
348
351
354
360
375
380
386
381
364
383
373
368
385
388
403
415
414
400
402
416
434
437
448
441
435
431
439
457
456
449
460
473
495
518
519
513
515
529
535
536
541
542
556
564
563
566
578
552
557
547
540
531
539
561
569
579
562
554
551
534
530
506
517
512
508
492
486
463
455
438
443
425
407
401
390
387
382
397
389
392
405
422
433
426
430
424
420
408
409
410
419
417
418
411
391
372
370
377
393
376
365
371
366
358
344
328
343
356
359
352
363
384
395
423
429
436
445
452
453
458
466
485
484
482
472
499
511
526
533
548
560
568
576
596
624
640
638
626
611
594
580
586
597
598
590
599
588
619
613
612
627
634
641
644
660
655
645
648
652
659
665
672
683
697
704
725
734
738
747
769
778
761
772
765
760
758
776
759
757
768
779
777
754
755
773
774
766
748
740
726
721
720
719
737
733
722
739
743
732
736
745
735
718
705
709
688
678
671
679
685
706
690
680
675
681
691
692
698
713
707
699
695
686
710
689
700
701
693
673
664
667
668
674
676
670
694
696
703
715
728
751
764
756
752
742
724
702
708
716
723
741
746
731
730
727
750
749
762
763
770
780
781
782
783
775
771
767
753
744
729
712
711
714
717
687
682
677
658
656
663
643
635
647
637
616
606
593
581
604
615
629
632
642
650
662
654
653
646
651
666
669
684
661
657
649
628
621
617
607
587
603
609
622
636
630
633
631
639
618
610
589
605
614
601
600
591
584
577
570
565
558
575
571
572
573
559
553
543
527
522
524
520
514
493
489
480
474
487
497
496
494
505
521
507
501
500
491
483
477
467
469
470
464
476
459
446
432
450
465
475
488
502
509
525
528
537
544
532
545
549
546
538
550
574
567
582
592
595
608
625
623
620
602
585
583
555
523
516
504
503
510
498
478
468
471
481
479
490
462
461
444
442
428
421
451
454
447
440
427
412
398
378
379
369
374
396
399
413
406
404
394
367
357
355
341
329
314
315
285
280
265
264
247
238
254
234
218
214
223
207
192
178
158
166
174
168
170
177
181
194
199
193
171
135
134
149
142
148
145
131
132
141
130
129
154
167
159
150
144
124
121
126
118
138
164
165
173
182
209
211
212
219
225
217
206
190
200
198
179
176
163
169
157
140
128
116
112
108
105
102
77
74
89
95
98
76
63
39
48
64
71
85
99
86
82
68
61
59
50
62
54
42
51
72
92
103
93
90
78
69
44
55
60
73
96
91
104
113
119
122
114
109
106
101
79
84
87
75
66
43
38
40
6
13
11
4
34
28
24
27
26
21
16
32
14
22
35
31
36
20
8
30
19
5
3
10
29
33
9
12
18
7
2
23
17

PP_SECTION
0
3
0
5
6
7
0
9
10
0
12
0
14
0
0
17
0
0
20
0
0
0
0
0
26
27
0
29
0
0
32
33
0
0
36
0
38
39
0
0
0
0
44
0
0
0
48
0
0
51
0
0
0
0
0
0
0
59
0
61
62
63
0
0
0
0
68
69
0
71
0
0
0
0
0
0
0
0
0
0
0
0
0
0
0
87
0
0
90
91
92
93
0
0
96
0
0
99
0
0
0
0
0
0
0
0
108
0
0
0
0
113
0
0
0
0
0
119
0
0
122
0
0
0
0
0
0
0
0
131
0
0
134
135
0
0
0
0
140
0
0
0
0
0
0
0
148
0
0
0
0
0
0
0
0
0
0
0
0
0
0
0
164
0
0
0
0
0
0
0
0
0
0
0
0
0
0
0
0
0
0
0
0
0
0
0
0
0
190
0
0
0
0
0
0
0
0
0
0
0
0
0
0
0
0
0
0
0
0
0
0
0
0
0
0
217
0
0
0
0
0
223
0
0
0
0
0
0
0
0
0
0
0
0
0
0
0
0
0
0
0
0
0
0
0
0
0
0
0
0
0
0
0
0
0
0
0
0
0
0
0
0
0
265
0
0
0
0
0
0
0
0
0
0
0
0
0
0
0
0
0
0
0
0
0
0
0
0
0
0
0
0
0
0
0
0
0
0
0
0
0
0
0
0
0
0
0
0
0
0
0
0
314
0
0
0
0
0
0
0
0
0
0
0
0
0
0
329
0
0
0
0
0
0
0
0
0
0
0
0
0
0
0
0
0
0
0
0
0
0
0
0
0
0
0
0
0
0
0
0
0
0
0
0
0
0
0
0
0
0
0
0
0
0
0
0
0
0
0
0
0
0
0
0
0
0
0
0
0
0
0
393
394
0
0
0
0
0
0
0
0
0
0
0
0
0
0
0
0
0
0
0
0
0
0
0
0
0
0
0
0
0
0
0
0
0
0
0
0
0
0
0
0
0
0
0
0
0
0
0
0
0
0
0
446
447
0
0
0
0
0
0
0
0
0
0
0
0
0
0
0
0
0
0
466
0
0
0
0
0
0
0
0
0
0
0
0
0
0
0
0
0
0
0
0
0
0
0
0
0
0
0
0
0
0
497
0
0
0
0
0
0
0
0
0
0
0
0
0
0
0
0
0
0
0
0
0
0
0
0
0
0
0
0
0
0
0
0
0
0
532
0
0
0
0
0
0
0
0
0
0
543
0
0
0
0
0
0
0
0
0
0
0
0
0
0
0
0
0
0
0
0
0
0
0
0
0
0
0
0
0
573
0
0
0
0
0
0
0
0
0
0
0
585
0
0
0
0
0
0
0
0
0
0
0
0
0
0
0
0
0
0
0
0
0
0
0
0
0
611
0
0
0
0
0
0
0
0
0
621
0
0
0
0
0
0
0
0
630
0
0
0
0
635
0
0
0
0
0
0
0
0
0
0
646
0
0
0
0
0
0
0
654
655
0
0
0
0
0
0
0
0
0
0
0
667
0
0
0
0
0
0
0
0
0
0
0
0
0
0
0
0
0
0
0
0
0
0
0
0
0
0
0
0
0
0
0
0
0
0
0
0
0
0
0
0
0
0
0
0
0
0
0
0
0
0
0
0
0
0
0
0
0
725
0
0
0
0
0
0
0
0
0
0
0
0
0
0
0
0
0
0
0
0
0
0
0
0
0
0
0
0
0
0
0
0
0
0
0
0
0
0
0
0
0
0
0
0
0
0
0
0
0
0
0
0
0
0
780
0
0
0
EOF
