DIMENSION : 783
NUMBER OF ITEMS : 7820

TOUR_SECTION
1
17
23
2
7
18
12
9
33
29
10
3
5
19
30
8
20
36
31
35
22
14
32
26
16
21
27
24
28
34
4
11
13
6
40
38
43
66
75
87
84
79
101
106
109
114
122
134
135
149
142
148
168
170
194
181
177
171
193
199
218
214
223
207
192
178
174
166
158
167
154
129
130
141
132
131
145
119
113
104
91
96
73
60
55
44
69
78
90
93
103
92
72
51
42
54
62
50
59
61
68
82
86
99
85
71
64
48
39
63
76
98
95
89
74
77
102
105
108
112
116
140
128
138
118
126
121
124
144
150
159
183
188
197
191
189
203
220
228
229
244
260
263
271
272
241
252
245
261
247
238
234
254
285
280
265
264
279
284
298
309
296
297
304
314
315
329
341
355
357
367
394
404
406
413
399
396
374
369
379
378
398
412
403
388
385
368
373
383
364
381
386
380
375
372
391
411
418
417
419
410
409
408
420
424
430
426
433
422
405
392
389
397
382
387
390
401
407
425
443
438
455
463
486
492
508
512
517
506
530
534
551
554
562
579
569
561
539
531
540
547
557
552
529
515
513
519
518
495
473
460
449
456
457
439
431
435
441
448
437
434
416
402
400
414
415
432
446
459
474
480
489
487
497
496
494
476
464
470
469
467
477
483
491
500
501
507
505
521
542
541
536
535
556
564
563
566
578
588
599
613
619
617
628
621
607
587
603
609
622
636
630
633
631
639
618
610
589
605
614
601
600
591
584
577
570
565
558
575
571
572
573
559
553
543
527
522
524
520
514
493
488
475
465
450
440
447
427
421
428
442
451
454
468
478
471
481
479
461
444
462
490
504
516
523
503
510
498
502
509
525
528
537
544
532
545
549
546
538
550
555
574
567
582
592
595
608
583
585
602
620
623
625
635
643
663
656
658
677
682
687
696
703
694
702
708
716
724
742
752
756
764
751
728
715
717
714
711
712
729
744
753
767
771
775
783
782
781
780
770
763
746
741
723
730
731
727
750
749
762
766
774
773
777
779
768
757
759
776
758
743
739
732
722
706
690
680
685
679
671
678
688
709
705
718
735
736
745
760
765
772
761
778
769
747
734
738
725
704
697
683
672
665
659
652
648
645
655
660
675
681
691
692
698
713
707
719
733
737
754
755
748
740
726
721
720
699
695
686
710
700
701
689
693
673
664
667
668
674
676
670
647
637
616
606
593
581
604
615
629
632
642
650
662
654
653
646
651
666
669
684
661
649
657
644
641
634
627
612
590
598
597
586
580
594
611
626
638
640
624
596
576
568
560
548
533
526
511
499
472
482
484
485
466
458
453
452
445
436
429
423
395
384
363
352
359
356
343
328
344
358
366
371
365
376
393
377
370
350
347
345
333
321
322
330
336
360
354
351
348
340
338
337
349
361
362
342
331
334
324
320
308
310
288
283
282
287
301
312
318
326
311
295
303
292
281
269
250
253
251
262
275
257
237
226
221
213
201
210
219
212
211
209
182
173
165
164
157
169
163
176
179
198
200
190
206
217
225
233
232
240
259
258
268
267
256
243
224
208
202
187
204
222
227
249
248
231
230
239
246
255
277
276
278
273
274
286
299
291
306
293
290
300
307
316
332
346
353
339
325
323
319
327
335
317
294
302
313
305
289
270
266
235
242
236
216
215
185
172
180
186
205
195
196
184
175
160
155
147
139
146
125
117
123
110
115
127
153
136
151
156
162
161
152
143
137
133
120
111
107
94
83
65
58
53
47
46
41
67
81
70
80
100
97
88
56
49
52
57
45
37
25
15

PP_SECTION
0
0
0
0
0
0
0
0
0
0
0
0
0
15
0
0
0
0
0
0
0
0
0
25
0
0
0
0
0
0
0
0
0
0
0
0
0
0
0
41
0
0
0
0
0
47
0
0
0
0
0
53
0
0
56
57
0
0
0
0
0
0
0
65
0
67
0
0
70
0
0
0
0
0
0
0
0
0
80
81
0
83
0
0
0
0
0
0
0
0
0
0
94
0
0
0
0
0
100
0
0
0
0
0
0
0
0
0
0
0
0
0
0
0
0
0
0
0
120
0
0
123
0
0
0
0
0
0
0
0
0
0
0
0
0
0
0
0
0
0
0
143
0
0
0
147
0
0
0
0
0
0
0
155
156
0
0
0
160
0
0
0
164
0
0
0
0
0
0
0
0
0
0
0
0
0
0
0
0
0
0
0
0
185
0
0
0
0
190
0
0
0
0
0
0
0
0
0
0
0
0
0
204
0
0
0
208
0
0
0
0
213
0
0
0
0
0
0
0
0
0
0
0
0
226
227
0
0
230
231
232
0
0
0
236
0
0
0
0
0
0
243
0
0
246
0
0
249
0
0
0
0
0
0
0
257
0
0
0
0
0
0
0
0
266
0
0
269
0
0
0
0
0
0
0
0
0
0
0
0
282
0
0
0
0
0
0
0
0
0
292
293
0
0
0
0
0
0
0
0
302
0
0
0
0
0
0
0
0
311
0
313
0
0
0
0
318
0
0
0
0
0
0
0
0
0
0
0
0
0
0
0
0
0
0
0
0
0
340
0
0
0
0
0
0
0
0
0
0
0
0
0
0
0
0
0
0
0
360
0
362
0
0
0
0
0
0
0
370
0
0
0
0
0
0
0
0
0
0
0
0
0
0
0
0
0
0
0
0
0
0
393
0
0
0
0
0
0
0
0
0
0
0
0
0
0
0
0
0
0
0
0
0
0
0
0
0
0
0
0
0
0
0
0
0
0
0
0
0
0
0
0
0
0
436
0
0
0
0
0
0
0
0
0
0
0
0
0
0
0
0
0
0
0
0
0
0
0
0
0
0
0
0
0
466
0
0
0
0
0
0
0
0
0
0
0
0
0
0
0
0
0
484
485
0
0
0
0
0
0
0
0
0
0
0
0
0
0
0
0
0
0
0
0
0
0
0
0
0
0
0
0
0
0
0
0
0
0
0
0
0
0
0
0
526
0
0
0
0
0
0
0
0
0
0
0
0
0
0
0
0
0
0
0
0
0
0
0
0
0
0
0
0
0
0
0
0
0
0
0
0
0
0
0
0
0
0
0
0
0
0
0
0
0
0
0
0
0
0
0
0
0
0
0
586
0
0
0
0
0
0
0
0
0
0
0
0
0
0
0
0
0
0
0
0
0
0
0
0
611
0
0
0
0
0
0
0
0
0
0
0
0
0
0
0
627
0
0
0
0
0
0
0
0
0
0
0
0
0
0
0
0
0
0
646
0
0
0
0
0
0
0
654
655
0
0
0
0
0
0
0
0
0
0
0
667
0
0
0
0
0
0
0
0
0
0
0
0
0
0
0
0
0
0
0
0
0
0
0
0
0
0
0
0
0
697
0
0
0
0
0
0
0
0
0
0
0
0
0
0
0
0
0
0
0
0
0
0
0
0
0
0
0
725
0
0
0
0
0
0
0
0
0
0
0
0
0
0
740
0
0
0
0
0
0
0
0
0
0
0
0
0
0
0
0
0
0
0
760
0
0
0
0
0
0
0
0
0
0
0
0
0
0
0
0
0
0
0
780
0
0
0
0
0
0
0
0
0
0
0
0
0
0
0
0
15
0
0
0
0
0
0
0
0
0
0
0
0
0
0
0
0
0
0
0
0
0
37
0
0
0
41
0
0
0
45
0
0
0
49
0
0
0
53
0
0
0
57
0
0
0
0
0
0
0
0
0
0
0
0
70
0
0
0
0
0
0
0
0
0
0
81
0
83
0
0
0
0
0
0
0
0
0
0
0
0
0
97
0
0
0
0
0
0
0
0
0
0
0
0
110
0
0
0
0
115
0
117
0
0
0
0
0
123
0
125
0
127
0
0
0
0
0
133
0
0
136
137
0
0
0
0
0
0
0
0
0
147
0
0
0
151
152
0
0
155
0
0
0
0
0
161
0
0
164
0
0
0
0
0
0
0
172
0
0
0
0
0
0
0
0
0
0
0
0
185
186
0
0
0
0
0
0
0
0
195
0
0
0
0
0
0
0
0
0
0
206
0
208
0
0
0
0
0
0
0
0
0
0
219
0
0
0
0
0
0
226
0
0
0
0
0
232
233
0
0
0
0
0
239
0
0
0
0
0
0
0
0
0
249
0
0
0
0
0
0
0
0
0
0
0
0
262
0
0
0
0
0
0
269
0
0
0
0
0
0
0
0
0
0
0
281
0
283
0
0
0
0
288
0
290
291
0
293
0
0
0
0
0
0
300
0
302
303
0
305
0
0
0
0
310
0
0
313
0
0
0
0
0
0
0
0
0
0
0
0
0
0
0
0
0
0
0
0
0
0
0
0
0
0
0
0
0
0
0
0
346
0
348
0
0
351
0
353
0
0
0
0
0
359
0
0
0
0
0
0
0
0
0
0
0
0
0
0
0
0
0
0
0
0
0
0
0
0
0
0
0
0
0
0
0
0
0
0
0
0
0
0
0
0
0
0
0
0
0
0
0
0
0
0
0
0
0
0
0
0
0
0
0
0
0
0
0
0
0
0
0
0
0
0
0
0
0
0
0
0
0
0
0
0
0
0
0
0
0
0
0
0
0
0
0
0
0
0
0
0
0
0
0
0
0
0
0
0
0
0
0
0
0
0
0
0
0
0
0
0
0
0
0
0
0
0
0
0
0
485
0
0
0
0
0
0
0
0
0
0
0
0
0
0
0
0
0
0
0
0
0
0
0
0
0
0
0
0
0
0
0
0
0
0
0
0
0
0
0
0
0
0
0
0
0
0
0
0
0
0
0
0
0
0
0
0
0
0
0
0
0
0
0
0
0
0
0
0
0
0
0
0
0
0
0
0
0
0
0
0
0
0
0
0
0
0
0
0
0
0
0
0
0
0
0
0
0
0
0
0
0
0
0
0
0
0
0
0
0
0
0
0
0
0
0
0
0
0
0
0
0
0
0
0
0
0
0
0
0
0
0
0
0
0
0
0
0
0
0
0
0
0
0
0
0
0
0
0
0
0
0
0
0
0
0
0
0
0
0
0
0
0
648
0
0
0
0
0
0
0
0
0
0
0
660
0
0
0
0
0
0
0
0
0
0
671
0
0
0
0
0
0
0
0
0
0
0
0
0
0
0
0
0
689
0
0
692
0
0
0
0
0
0
0
0
0
0
0
0
0
0
0
0
0
0
0
0
0
0
0
0
0
0
0
0
0
0
0
0
0
0
0
0
0
0
0
0
0
0
0
0
0
0
739
0
0
0
0
744
0
0
0
0
0
0
0
0
0
0
0
0
0
0
0
0
0
0
0
0
0
766
0
0
0
0
0
0
0
0
0
0
0
0
0
0
0
0
0
0
0
0
0
0
0
0
0
0
0
0
0
0
15
0
0
0
0
0
0
0
0
0
25
0
0
0
0
0
0
0
0
0
0
0
37
0
0
0
0
0
0
0
0
46
0
0
0
0
0
0
53
0
0
0
0
0
0
0
0
0
0
0
0
0
0
0
0
70
0
0
0
0
0
0
0
0
0
80
81
0
83
0
0
0
0
0
0
0
0
0
0
94
0
0
97
0
0
0
0
0
0
0
0
0
0
0
0
110
0
0
0
0
115
0
0
0
0
0
0
0
0
0
125
0
127
0
0
0
0
0
133
0
0
0
137
0
0
0
0
0
143
0
0
146
147
0
0
0
0
152
0
0
155
156
0
0
0
0
0
0
0
0
0
0
0
0
169
0
0
172
0
0
175
0
0
0
0
0
0
182
0
0
0
0
0
0
0
190
0
0
0
0
0
196
0
0
0
0
0
0
0
0
0
0
0
0
0
0
0
0
0
0
0
0
0
0
0
0
0
0
0
0
0
0
0
0
0
0
0
0
0
0
235
0
0
0
0
0
0
0
0
0
0
246
0
0
0
0
0
0
0
0
0
0
0
258
259
0
0
0
0
0
0
0
0
0
0
270
0
0
273
0
0
0
0
0
0
0
0
0
0
0
0
0
287
0
289
0
291
0
0
0
295
0
0
0
0
0
0
0
303
0
305
0
307
308
0
0
0
0
0
0
0
0
317
0
0
0
0
0
0
0
0
0
0
328
0
0
0
332
0
0
0
0
0
338
0
0
0
342
0
0
0
346
0
0
349
0
0
0
0
0
0
0
0
0
0
0
0
0
0
0
0
0
0
0
0
0
0
0
0
0
0
0
0
0
0
0
0
0
0
0
0
0
0
0
0
0
0
0
393
0
395
0
0
0
0
0
0
0
0
0
0
0
0
0
0
0
0
0
0
0
0
0
0
0
0
0
0
0
0
0
0
0
0
0
0
0
0
0
0
0
0
0
0
0
0
0
0
0
0
0
445
0
0
0
0
0
0
0
453
0
0
0
0
0
0
0
0
0
0
0
0
0
0
0
0
0
0
0
0
0
0
0
0
0
0
0
0
0
0
0
0
0
0
0
0
0
0
0
0
0
0
0
0
0
0
0
0
0
0
0
0
0
0
0
0
0
0
0
0
0
0
0
0
0
0
0
0
0
0
0
0
0
0
0
0
0
0
0
0
0
0
0
0
0
0
0
0
0
0
0
0
0
0
0
0
0
0
0
0
0
0
0
0
0
0
0
0
0
0
0
0
0
0
0
0
0
0
0
0
0
0
0
0
0
0
0
0
0
0
0
0
0
0
0
0
0
0
0
0
0
0
0
0
0
0
0
0
0
0
0
0
0
0
0
0
0
0
0
0
0
0
0
0
0
0
0
0
0
0
0
0
0
0
0
0
0
0
0
0
0
0
0
0
0
0
0
0
0
0
644
645
0
0
0
0
0
0
0
0
0
0
0
0
0
0
0
0
0
0
0
0
0
0
0
0
0
0
0
0
0
675
0
0
0
0
0
681
0
0
0
0
0
0
688
0
0
0
0
0
0
0
0
0
0
699
0
0
0
0
704
0
0
0
0
0
0
0
0
0
0
0
0
0
0
0
0
0
0
0
0
0
726
0
0
0
0
0
0
0
0
0
736
0
0
0
0
0
0
0
0
0
0
0
0
0
0
0
0
0
0
0
0
0
0
0
0
0
0
0
764
0
0
0
0
0
0
0
0
0
0
0
0
0
0
0
0
0
0
0
0
0
0
0
0
0
0
0
0
0
0
0
0
15
0
0
0
0
0
0
0
0
0
0
0
0
0
0
0
0
0
0
0
0
0
0
0
0
0
0
0
0
0
45
0
0
0
49
0
0
0
0
0
0
56
0
58
0
0
0
0
0
0
0
0
67
0
0
0
0
0
0
0
0
0
0
0
0
0
81
0
0
0
0
0
0
0
0
0
0
0
0
94
0
0
97
0
0
100
0
0
0
0
0
0
0
0
0
0
0
0
0
0
115
0
0
0
0
120
0
0
0
0
125
0
0
0
0
0
0
0
133
0
0
0
0
0
0
0
0
0
0
0
0
0
147
0
0
0
0
152
0
0
0
0
0
0
0
160
161
0
163
0
0
0
0
0
169
0
0
172
0
0
175
0
0
0
0
0
0
182
0
0
185
186
0
0
0
0
0
0
0
0
0
0
0
0
0
200
0
0
0
0
0
0
0
208
0
0
211
0
213
0
0
0
0
0
0
0
0
222
0
0
0
0
227
0
0
230
0
0
0
0
0
0
0
0
0
240
0
242
243
0
0
0
0
0
0
0
0
0
0
0
255
0
0
258
259
0
0
0
0
0
0
0
267
0
0
0
0
0
0
0
0
0
0
278
0
0
0
0
0
0
0
0
0
0
289
0
0
0
0
0
0
0
0
0
0
0
0
0
0
0
0
306
0
0
0
0
0
0
0
0
0
0
0
0
0
0
0
0
0
0
0
0
0
0
0
330
331
0
0
0
0
0
0
0
339
0
0
0
0
0
0
346
347
0
349
350
0
0
0
0
0
0
0
0
0
0
0
0
0
0
0
0
0
0
0
0
0
0
0
0
0
0
0
0
0
0
0
0
0
0
0
0
0
0
0
0
0
0
0
0
0
0
0
0
0
0
0
0
0
0
0
0
0
0
0
0
0
0
0
0
0
0
0
0
0
0
0
0
423
0
0
0
0
0
0
0
0
0
0
0
0
436
0
0
0
0
0
0
0
0
0
0
0
0
0
0
0
452
0
0
0
0
0
458
0
0
0
0
0
0
0
0
0
0
0
0
0
0
0
0
0
0
0
0
0
0
0
482
0
0
485
0
0
0
0
0
0
0
0
0
0
0
0
0
0
0
0
0
0
0
0
0
0
0
0
0
0
0
0
0
0
0
0
0
0
0
0
0
523
0
0
0
0
528
0
0
0
0
0
0
0
0
0
0
0
0
0
0
0
0
0
0
0
0
0
0
0
0
0
0
0
0
0
0
0
0
0
0
0
0
0
0
0
0
0
0
0
0
0
0
0
0
0
0
0
0
0
0
0
0
0
0
0
0
0
0
0
0
0
0
0
596
0
0
0
0
0
0
0
0
0
0
0
0
0
0
0
0
0
0
0
0
0
0
0
0
0
0
0
0
0
0
0
0
0
0
0
0
0
0
0
0
0
0
0
0
641
642
0
644
0
0
647
0
0
650
651
0
0
0
0
0
0
0
0
0
0
0
0
0
0
666
0
0
0
0
0
0
0
0
0
0
0
0
0
0
0
0
0
0
0
0
0
0
0
0
0
0
0
0
0
0
0
0
0
0
0
0
0
0
0
0
0
0
0
0
0
0
0
0
0
0
717
0
0
0
0
0
0
0
0
726
0
0
0
0
0
0
0
0
0
0
0
0
0
0
0
0
0
0
0
0
0
0
0
0
0
0
0
0
0
0
0
0
0
0
761
762
0
0
0
0
0
0
0
0
0
0
0
0
0
0
0
0
0
0
781
0
0
0
0
0
0
0
0
0
0
0
0
0
0
0
15
0
0
0
0
0
0
0
0
0
25
0
0
0
0
0
0
0
0
0
0
0
0
0
0
0
41
0
0
0
0
46
47
0
0
0
0
0
0
0
0
0
57
0
0
0
0
0
0
0
65
0
0
0
0
70
0
0
0
0
0
0
0
0
0
80
0
0
0
0
0
0
0
88
0
0
0
0
0
94
0
0
0
0
0
100
0
0
0
0
0
0
107
0
0
0
0
0
0
0
115
0
0
0
0
0
0
0
123
0
125
0
127
0
0
0
0
0
0
0
0
136
137
0
0
0
0
0
143
0
0
0
0
0
0
0
0
0
0
0
155
0
0
0
0
0
0
162
163
164
0
0
0
0
169
0
0
172
0
0
0
0
0
0
0
0
0
0
0
0
0
186
0
0
0
0
0
0
0
0
0
196
0
0
0
0
0
0
0
0
0
0
0
0
0
0
0
0
0
0
0
0
0
0
0
0
0
0
0
0
0
0
0
0
0
0
231
0
233
0
235
0
0
0
0
0
0
242
0
0
0
0
0
0
0
0
0
0
0
0
255
0
0
0
0
0
0
0
0
0
0
0
0
0
0
270
0
0
273
274
0
276
0
278
0
0
0
0
283
0
0
286
287
288
289
290
0
292
0
0
0
0
0
0
299
300
0
0
0
0
0
0
307
0
0
0
0
0
0
0
0
0
317
0
319
0
0
0
0
0
0
326
0
0
0
0
331
332
0
0
335
0
337
0
0
340
0
0
0
0
0
346
0
0
0
350
0
0
0
0
0
0
0
0
0
0
361
0
0
0
0
0
0
0
0
0
371
0
0
0
0
0
0
0
0
0
0
0
0
0
0
0
0
0
0
0
0
0
0
0
395
0
0
0
0
0
0
0
0
0
0
0
0
0
0
0
0
0
0
0
0
0
0
0
0
0
0
0
0
0
0
0
0
0
0
0
0
0
0
0
0
0
0
0
0
0
0
0
0
0
0
0
0
0
0
0
0
452
0
0
0
0
0
0
0
0
0
0
0
0
0
0
0
0
0
0
0
0
0
0
0
0
0
0
0
0
0
0
0
0
0
0
0
0
0
0
0
0
0
0
0
0
0
498
0
0
0
0
0
0
0
0
0
0
0
0
0
0
0
0
0
0
0
0
0
0
0
0
0
0
0
0
0
0
0
0
0
0
0
0
0
0
0
0
0
0
0
0
0
0
0
0
0
0
0
0
0
0
0
0
0
0
0
0
0
0
0
0
0
0
0
0
0
0
0
0
0
0
0
0
0
0
0
0
0
0
0
0
0
0
0
0
0
0
0
0
0
0
593
0
0
0
0
0
0
0
0
0
0
0
0
0
0
0
0
0
0
0
0
0
615
616
0
0
0
0
0
0
0
0
0
0
0
0
0
0
0
0
0
0
0
0
637
0
0
640
641
0
0
0
0
0
647
0
0
0
0
0
0
0
0
0
0
0
0
0
661
662
0
664
0
0
0
0
0
0
0
0
0
0
0
0
0
0
679
0
0
0
0
0
0
0
0
0
0
0
0
0
0
0
0
0
0
0
0
0
0
0
0
0
0
0
707
0
0
0
711
0
0
0
0
0
0
0
0
0
0
0
0
0
0
0
0
0
729
0
0
0
0
0
0
0
0
0
0
0
0
0
0
0
0
0
0
0
0
0
0
0
0
0
0
0
0
758
0
0
0
0
0
0
0
0
0
0
0
0
771
0
0
0
0
0
0
0
0
0
0
0
0
0
0
0
0
0
0
0
0
0
0
0
0
0
15
0
0
0
0
0
0
0
0
0
25
0
0
0
0
0
0
0
0
0
0
0
0
0
0
0
0
0
0
0
45
0
0
0
49
0
0
0
53
0
0
56
0
58
0
0
0
0
0
0
0
0
0
0
0
70
0
0
0
0
0
0
0
0
0
80
0
0
0
0
0
0
0
0
0
0
0
0
0
94
0
0
97
0
0
100
0
0
0
0
0
0
0
0
0
0
111
0
0
0
0
0
0
0
0
0
0
0
123
0
0
0
0
0
0
0
0
0
0
0
0
0
0
0
0
0
0
0
143
0
0
146
0
0
0
0
0
152
0
0
0
0
157
0
0
160
161
0
0
0
0
0
0
0
0
0
0
0
0
0
175
176
0
0
0
0
0
0
0
184
0
186
0
0
0
0
0
0
0
0
195
0
0
198
0
0
0
0
0
0
205
0
0
0
0
0
0
0
0
0
0
0
0
0
0
0
221
0
0
0
0
0
0
0
0
0
0
0
0
0
0
236
237
0
0
0
0
242
0
0
0
0
0
248
0
0
0
0
0
0
0
0
0
0
0
0
0
262
0
0
0
0
0
268
0
270
0
0
273
0
0
0
0
0
0
0
0
282
0
0
0
286
0
0
0
0
0
0
0
0
0
0
0
0
0
300
0
0
0
0
0
306
307
0
0
310
311
0
0
0
0
0
0
0
0
320
0
0
0
0
0
0
327
0
0
0
0
0
0
0
335
0
0
0
0
340
0
342
0
0
0
0
0
0
0
0
351
0
0
0
0
0
0
0
0
0
0
0
363
0
0
0
0
0
0
0
0
0
0
0
0
0
0
0
0
0
0
0
0
0
0
0
0
0
0
0
0
0
0
0
395
0
0
0
0
0
0
0
0
0
0
0
0
0
0
0
0
0
0
0
0
0
0
0
0
0
0
0
0
0
0
0
0
0
0
0
0
0
0
0
0
0
0
0
0
0
0
0
0
0
0
0
0
0
0
0
0
0
0
0
0
0
0
458
0
0
0
0
0
0
0
466
0
0
0
0
0
0
0
0
0
0
0
0
0
0
0
0
0
484
0
0
0
0
0
0
0
0
0
0
0
0
0
0
0
0
0
0
0
0
0
0
0
0
0
0
0
0
0
0
0
0
0
0
0
0
0
0
0
0
0
0
0
0
0
0
0
0
0
0
0
0
0
0
0
0
0
0
0
0
0
0
0
0
0
0
0
0
0
0
0
0
0
0
0
0
0
0
0
0
0
0
0
0
0
0
0
0
0
0
0
0
0
0
0
580
0
0
0
0
0
0
0
0
0
0
0
0
0
594
0
0
0
0
0
0
0
0
0
0
0
0
0
0
0
0
0
0
0
0
0
0
0
0
0
0
0
0
0
0
0
0
0
0
0
0
0
0
0
0
0
0
0
638
0
0
0
0
0
0
0
0
0
0
0
0
0
0
0
0
0
0
0
0
0
0
0
0
0
0
0
0
0
0
0
0
0
0
0
674
0
0
0
0
0
0
0
0
0
0
0
0
0
688
0
0
691
0
0
0
0
0
0
0
0
0
0
0
0
0
0
0
0
0
0
0
0
712
0
0
0
0
0
0
719
0
721
0
0
0
0
0
0
0
0
0
0
0
0
0
0
0
0
0
739
0
0
0
0
0
0
0
0
0
0
0
0
0
0
0
0
0
0
0
0
0
0
0
0
0
0
0
0
0
0
0
0
0
0
0
0
0
0
0
0
0
0
0
0
0
0
0
0
0
0
0
0
0
0
0
0
0
15
0
0
0
0
0
0
0
0
0
25
0
0
0
0
0
0
0
0
0
0
0
37
0
0
0
0
0
0
0
45
46
47
0
0
0
0
52
53
0
0
56
57
58
0
0
0
0
0
0
0
0
67
0
0
0
0
0
0
0
0
0
0
0
0
80
0
0
83
0
0
0
0
88
0
0
0
0
0
94
0
0
97
0
0
0
0
0
0
0
0
0
107
0
0
110
111
0
0
0
0
0
0
0
0
0
0
0
0
0
125
0
127
0
0
0
0
0
133
0
0
136
0
0
0
0
0
0
0
0
0
0
147
0
0
0
0
0
0
0
155
0
0
0
0
160
0
162
163
0
165
0
0
0
0
0
0
0
0
0
0
0
0
0
0
0
0
182
0
0
0
0
0
0
0
0
0
0
0
0
195
0
0
0
0
0
0
0
0
0
0
0
0
0
0
0
211
212
213
0
215
0
0
0
0
0
0
0
0
0
0
0
0
0
0
0
0
0
0
0
0
0
237
0
0
0
0
0
243
0
0
0
0
0
0
0
0
0
0
0
0
0
0
0
0
0
0
262
0
0
0
266
0
268
0
0
0
0
0
274
275
276
277
0
0
0
281
0
0
0
0
0
287
288
0
0
0
0
0
294
0
0
0
0
0
0
0
0
0
0
0
0
0
0
0
0
0
0
313
0
0
316
0
0
0
0
0
0
323
0
325
0
0
0
0
0
0
332
0
0
0
336
0
0
0
0
0
0
343
0
0
0
0
0
0
0
351
0
353
0
0
0
0
0
0
0
0
362
363
0
0
0
0
0
0
0
0
0
0
0
0
376
0
0
0
0
0
0
0
384
0
0
0
0
0
0
0
0
0
0
395
0
0
0
0
0
0
0
0
0
0
0
0
0
0
0
0
0
0
0
0
0
0
0
0
0
0
0
0
0
0
0
0
0
0
0
0
0
0
0
0
0
0
0
0
0
0
0
0
0
445
0
0
0
0
0
0
0
0
0
0
0
0
0
0
0
0
0
0
0
0
0
0
0
0
0
0
0
0
0
0
0
0
0
0
0
0
0
0
0
0
0
0
0
0
0
0
0
0
0
0
0
0
0
0
0
0
0
0
0
0
0
0
0
0
0
0
0
0
0
0
0
0
0
0
0
0
0
0
0
0
526
0
0
0
0
0
0
0
0
0
0
0
0
0
0
0
0
0
0
0
0
0
0
0
0
0
0
0
0
0
0
0
0
0
0
0
0
0
0
0
0
0
0
0
0
0
0
0
0
0
0
0
0
0
0
0
0
0
0
0
0
0
0
0
0
0
592
0
0
0
0
0
0
0
0
0
0
0
0
0
0
0
0
0
0
0
0
0
0
0
0
0
0
0
0
0
0
0
0
0
0
0
0
0
0
0
0
0
0
0
0
0
0
0
0
0
0
0
0
645
646
0
0
0
0
0
0
0
0
0
0
0
0
0
0
0
0
0
0
0
666
0
0
0
0
0
672
0
0
0
0
0
0
0
0
0
0
0
0
0
0
0
0
0
0
0
692
0
0
0
0
0
0
0
700
0
0
0
0
0
0
707
0
0
0
0
0
0
0
0
0
0
0
0
0
0
0
0
724
0
0
0
0
0
0
0
0
0
0
0
0
0
0
0
0
0
0
0
0
0
0
0
0
0
0
0
0
0
0
0
0
0
758
0
0
0
0
0
0
0
0
0
0
0
0
0
0
0
0
0
0
0
0
0
0
0
0
0
0
0
0
0
0
0
0
0
0
0
0
0
0
15
0
0
0
0
0
0
0
0
0
0
0
0
0
0
0
0
0
0
0
0
0
37
0
0
0
41
0
0
0
45
0
47
0
49
0
0
0
0
0
0
0
0
58
0
0
0
0
0
0
0
0
0
0
0
0
0
0
0
0
0
0
0
0
0
80
0
0
83
0
0
0
0
88
0
0
0
0
0
94
0
0
97
0
0
100
0
0
0
0
0
0
0
0
0
0
0
0
0
0
115
0
0
0
0
0
0
0
123
0
0
0
0
0
0
0
0
0
0
0
0
136
0
0
0
0
0
0
143
0
0
0
0
0
0
0
0
152
0
0
155
0
0
0
0
0
0
162
0
0
0
0
0
0
0
0
0
172
0
0
0
0
0
0
0
0
0
0
0
0
0
0
0
0
0
190
0
0
0
0
0
196
0
0
0
0
0
0
0
0
0
0
0
0
0
0
211
0
0
0
0
0
0
0
0
0
221
0
0
0
0
0
0
0
0
0
0
0
0
0
0
0
0
0
0
0
0
0
0
0
0
0
0
0
0
0
0
0
0
0
0
0
0
0
0
0
0
0
0
0
0
266
0
0
269
270
0
0
273
274
0
276
277
278
0
0
0
0
0
0
0
0
0
0
289
0
291
292
0
294
0
0
0
0
0
0
0
0
303
0
305
0
0
308
0
0
0
0
0
0
0
316
0
0
0
0
0
0
0
0
0
326
327
0
0
0
0
0
0
0
0
0
337
0
0
0
0
0
0
0
0
0
0
0
0
0
0
0
353
0
0
0
0
0
0
0
361
0
0
0
0
0
0
0
0
0
0
0
0
0
0
0
0
0
0
0
0
0
0
0
0
0
0
0
0
0
0
0
0
0
0
0
0
0
0
0
0
0
0
0
0
0
0
0
0
0
0
0
0
0
0
0
0
0
0
0
0
0
0
0
0
0
0
0
0
0
0
0
0
0
0
436
0
0
0
0
0
0
0
0
0
0
0
0
0
0
0
0
453
0
0
0
0
0
0
0
0
0
0
0
0
0
0
0
0
0
0
0
0
0
0
0
0
0
0
0
0
0
0
0
0
0
0
0
0
0
0
0
0
0
0
0
0
0
0
0
0
0
0
0
0
0
0
0
0
0
0
0
0
0
0
0
0
0
0
0
0
0
0
0
0
0
0
0
0
0
0
0
533
0
0
0
0
0
0
0
0
0
0
0
0
0
0
0
0
0
0
0
0
0
0
0
0
0
0
560
0
0
0
0
0
0
0
0
0
0
0
0
0
0
0
0
0
0
0
0
0
0
0
0
0
0
0
0
0
0
0
0
0
0
0
0
597
0
0
0
0
0
0
0
0
0
0
608
0
0
0
0
0
0
0
0
0
0
0
0
0
0
0
0
0
0
0
0
0
0
0
632
0
0
0
0
0
0
0
0
0
0
0
0
0
646
647
0
0
0
0
0
0
0
0
0
0
0
0
660
0
0
0
0
0
666
0
0
0
0
0
0
0
0
0
0
0
0
0
0
0
0
0
684
0
0
0
688
689
690
0
692
0
0
0
0
0
0
699
0
0
0
0
0
0
0
0
0
0
710
0
0
0
0
0
0
0
0
719
0
0
0
0
0
725
0
0
0
0
0
0
0
0
0
0
0
0
0
0
0
0
0
0
0
0
0
0
0
0
0
0
0
0
0
0
0
0
0
0
760
0
0
0
0
0
0
0
0
0
0
0
0
0
0
0
0
0
0
0
0
0
782
783
0
0
0
0
0
0
0
0
0
0
0
0
0
15
0
0
0
0
0
0
0
0
0
25
0
0
0
0
0
0
0
0
0
0
0
37
0
0
0
0
0
0
0
45
0
0
0
0
0
0
52
53
0
0
0
57
58
0
0
0
0
0
0
0
0
67
0
0
0
0
0
0
0
0
0
0
0
0
80
81
0
0
0
0
0
0
88
0
0
0
0
0
0
0
0
97
0
0
100
0
0
0
0
0
0
107
0
0
110
111
0
0
0
115
0
0
0
0
0
0
0
0
0
0
0
127
0
0
0
0
0
133
0
0
136
0
0
0
0
0
0
0
0
0
0
147
0
0
0
151
0
0
0
0
156
0
0
0
0
161
0
0
0
0
0
0
0
0
0
0
0
0
0
175
0
0
0
0
0
0
182
0
0
185
186
0
0
0
190
0
0
0
0
0
196
0
0
0
0
201
0
0
204
205
0
0
0
0
0
0
0
213
0
0
0
0
0
0
0
0
0
0
224
0
226
0
0
0
230
0
0
0
0
235
0
0
0
239
240
0
0
0
0
0
0
0
248
0
250
0
0
0
0
0
256
0
0
259
0
0
0
0
0
0
266
0
0
0
0
0
0
273
274
0
0
0
0
0
0
0
0
0
0
0
0
0
0
0
0
291
0
293
0
0
0
0
0
0
300
0
302
0
0
305
0
307
0
0
310
0
0
0
0
0
316
0
318
319
0
0
0
0
0
0
0
327
0
0
330
0
332
333
0
335
0
0
0
0
0
0
0
0
344
0
0
347
0
349
0
0
0
353
0
0
0
0
0
0
0
361
0
0
0
0
0
0
0
0
0
0
0
0
0
0
0
0
0
0
0
0
0
0
384
0
0
0
0
0
0
0
0
0
0
0
0
0
0
0
0
0
0
0
0
0
0
0
0
0
0
0
0
0
0
0
0
0
0
0
0
0
0
0
0
0
0
0
0
0
0
0
0
0
0
0
0
0
0
0
0
0
0
0
0
0
0
0
0
0
0
0
0
0
0
0
0
0
0
0
0
0
0
0
0
0
0
0
0
0
0
0
0
0
0
0
0
0
0
0
0
0
0
0
0
0
0
0
0
0
0
0
0
0
0
0
0
0
0
0
0
0
0
0
0
0
0
0
0
0
0
0
0
0
0
0
0
0
0
0
0
0
0
0
0
0
0
0
0
0
0
0
0
533
0
0
0
0
0
0
0
0
0
0
0
0
0
0
0
0
0
0
0
0
0
0
0
0
0
0
0
0
0
0
0
0
0
0
0
0
0
0
0
0
0
0
0
0
0
0
0
0
0
0
0
0
0
0
0
0
0
0
0
0
0
0
0
0
0
0
0
0
602
0
0
0
0
0
0
0
0
0
0
0
0
0
0
0
0
0
0
0
0
0
0
0
0
627
0
0
0
0
0
0
0
0
0
0
0
0
0
0
642
0
644
0
646
0
0
0
0
0
0
0
0
0
0
0
0
0
0
661
662
0
0
0
666
0
0
0
670
0
0
0
0
0
0
0
0
0
680
0
0
0
0
0
0
0
0
689
0
0
0
0
0
0
0
0
0
0
0
0
0
0
0
0
706
0
0
709
0
0
0
0
0
0
716
0
0
0
0
721
0
0
0
0
0
0
0
729
0
731
732
0
0
735
0
0
0
0
0
0
0
0
0
0
0
0
0
0
0
0
0
0
0
0
0
0
0
0
0
0
0
0
0
0
0
0
0
0
0
0
0
0
0
0
0
0
0
0
0
0
0
0
0
0
0
0
0
0
0
0
0
0
0
0
0
15
0
0
0
0
0
0
0
0
0
25
0
0
0
0
0
0
0
0
0
0
0
37
0
0
0
41
0
0
0
0
0
47
0
49
0
0
52
53
0
0
56
0
0
0
0
0
0
0
0
0
0
67
0
0
0
0
0
0
0
0
0
0
0
0
0
81
0
83
0
0
0
0
88
0
0
0
0
0
0
0
0
0
0
0
0
0
0
0
0
0
0
107
0
0
0
111
0
0
0
0
0
0
0
0
120
0
0
0
0
0
0
127
0
0
0
0
0
0
0
0
0
0
0
0
0
0
0
0
0
0
0
147
0
0
0
0
152
0
0
0
0
0
0
0
160
0
0
0
0
0
0
0
0
169
0
0
0
0
0
0
0
0
0
0
0
0
0
0
184
185
186
0
0
0
0
0
0
0
0
0
0
0
0
0
0
0
202
0
0
205
0
0
0
209
0
0
212
0
0
0
216
217
0
219
0
221
222
0
0
0
0
0
0
0
230
231
0
0
0
0
0
0
0
0
0
0
0
0
0
0
0
0
0
249
0
0
0
0
0
0
0
0
0
0
0
0
0
0
0
0
0
0
0
0
0
0
0
0
0
0
0
0
278
0
0
0
0
0
0
0
286
287
288
289
290
0
0
0
294
295
0
0
0
299
0
0
302
0
0
305
0
0
0
0
0
311
0
0
0
0
0
0
318
0
0
0
0
323
0
0
0
0
0
0
330
0
332
0
0
335
0
0
0
0
0
0
0
0
0
0
0
0
0
349
0
0
0
0
0
0
0
0
0
0
0
0
0
0
0
0
0
0
0
0
0
0
0
0
0
0
0
0
0
0
0
0
0
0
0
0
0
0
0
0
0
0
0
0
0
0
0
0
0
0
0
0
0
0
0
0
0
0
0
0
0
0
0
0
0
0
0
0
0
0
0
0
0
0
0
0
0
0
0
0
0
0
0
0
0
0
0
0
0
0
0
0
0
0
0
0
0
447
0
0
0
0
0
0
0
0
0
0
0
0
0
0
0
0
0
0
0
0
0
0
0
0
0
0
0
0
0
0
0
0
0
0
0
0
0
0
0
0
0
0
0
0
0
0
0
0
0
0
0
0
0
0
0
0
0
0
0
0
0
0
0
0
0
0
0
0
0
0
0
0
0
0
0
0
0
0
0
0
0
0
0
0
0
0
0
0
0
0
0
0
0
0
0
0
0
0
0
0
0
0
0
0
0
0
0
0
0
0
0
0
0
0
0
0
0
0
0
0
0
0
0
0
0
0
0
0
0
0
0
0
0
0
0
0
0
0
0
0
0
0
0
0
0
0
0
595
596
0
0
0
0
0
0
0
0
0
0
0
0
0
0
611
0
0
0
0
0
0
0
0
620
0
0
0
0
0
0
627
0
0
0
0
0
0
0
0
0
0
638
0
0
0
0
0
644
0
0
0
0
0
0
0
652
0
0
0
0
0
0
0
0
0
0
0
0
0
0
0
668
0
0
0
0
0
0
675
0
0
0
0
0
0
0
0
0
0
0
0
0
0
0
0
0
0
0
0
0
0
0
0
0
0
0
0
0
0
0
0
0
0
0
0
0
0
0
0
0
0
0
0
0
0
0
0
0
725
0
0
0
0
0
0
0
0
0
0
0
0
0
0
0
0
0
0
0
0
0
0
0
0
0
0
0
0
0
0
0
0
0
0
0
0
0
0
0
0
0
0
0
0
0
0
0
0
0
0
0
0
0
0
0
0
0
0
EOF
