DIMENSION : 783
NUMBER OF ITEMS : 7820

TOUR_SECTION
1
15
25
37
45
57
52
49
56
88
97
110
115
123
117
125
146
139
147
155
160
175
153
127
136
151
156
162
184
196
195
205
186
180
172
185
215
216
235
242
236
239
246
255
230
231
222
227
248
249
243
256
267
268
258
259
250
269
281
290
300
307
293
316
306
291
299
286
274
273
278
276
277
270
266
289
305
313
302
294
317
335
327
319
323
325
339
353
346
332
350
347
345
333
321
322
303
292
295
311
330
336
326
318
312
301
287
282
283
288
310
308
320
324
334
331
342
362
361
349
337
338
340
348
351
354
360
375
380
386
381
364
383
373
368
385
388
403
415
414
400
402
416
432
446
459
437
434
448
441
435
431
439
457
456
449
460
473
495
513
515
519
518
531
547
540
539
561
569
579
562
554
551
534
530
506
517
512
508
492
486
463
455
438
443
425
407
401
390
387
382
397
389
392
405
422
433
426
430
424
420
408
409
410
419
417
418
411
391
372
370
377
393
376
365
371
366
358
344
328
343
356
359
352
363
384
395
423
429
436
445
452
453
458
466
485
484
482
472
499
511
526
533
548
560
576
568
580
596
624
640
638
626
611
594
586
597
598
590
599
588
619
613
612
627
634
641
644
657
649
661
684
669
666
651
646
653
654
662
650
639
631
633
630
636
622
621
628
617
607
609
603
587
591
584
600
601
614
605
589
610
618
642
632
629
615
604
581
593
606
616
637
647
670
676
674
668
667
664
673
693
689
701
700
710
686
695
699
720
721
726
740
748
755
754
737
733
719
707
713
698
692
691
681
675
660
655
645
648
652
659
665
672
683
697
704
725
734
738
747
769
778
761
772
765
760
745
736
735
718
705
709
688
678
671
679
685
680
690
706
722
732
739
743
758
776
759
757
768
779
777
773
774
766
762
749
750
727
731
730
723
741
746
763
770
780
781
782
783
775
771
767
753
744
729
712
711
714
717
715
728
751
764
756
752
742
724
716
708
702
694
703
696
687
682
677
658
656
663
643
635
625
623
620
602
585
583
608
595
592
582
567
574
555
550
538
546
549
545
532
510
503
523
516
504
490
462
444
461
479
481
471
468
478
498
502
509
525
528
544
537
520
514
524
522
527
543
553
559
573
572
571
575
558
565
570
577
556
564
563
566
578
557
552
529
535
536
541
542
521
505
507
501
500
491
483
477
467
469
470
464
476
494
496
497
487
474
480
489
493
488
475
465
450
440
447
454
451
442
428
421
427
412
398
378
379
369
374
396
399
413
406
404
394
367
357
355
341
329
315
314
304
297
296
309
298
284
279
264
265
280
285
254
234
238
247
261
245
252
241
272
271
263
260
244
229
228
220
203
189
191
197
188
183
201
210
213
221
226
237
257
275
262
251
253
219
212
211
209
182
173
165
164
157
169
163
176
179
198
200
190
206
217
225
233
232
240
224
208
202
204
187
161
152
143
137
133
120
111
107
100
80
70
81
67
41
46
47
53
58
65
83
94
76
98
95
89
77
74
63
39
48
64
71
85
99
102
105
108
112
116
140
128
138
118
126
121
124
144
150
159
167
154
129
130
141
132
131
158
166
174
178
192
207
223
214
218
199
193
171
177
181
194
170
168
145
148
142
149
135
134
122
119
113
104
90
78
69
93
103
92
72
82
86
68
59
61
50
62
54
42
51
44
55
60
73
91
96
114
109
106
101
79
84
87
75
66
43
38
40
6
13
11
4
34
28
24
27
21
16
26
32
14
22
35
31
36
20
8
30
19
5
3
10
29
33
9
12
18
7
2
23
17

PP_SECTION
2
0
4
0
0
7
8
9
0
11
12
13
0
0
16
17
18
19
0
0
22
0
24
0
26
0
28
29
30
31
32
0
34
35
0
37
0
0
0
0
42
43
0
0
0
0
0
0
0
0
52
0
54
55
0
0
0
0
60
0
0
0
64
0
66
0
0
0
0
0
0
0
0
75
76
0
78
0
0
0
0
0
84
0
0
87
88
89
0
0
0
0
0
0
0
0
0
0
0
101
0
103
0
0
0
0
0
109
0
111
0
0
114
0
0
0
118
0
0
0
0
0
0
0
126
127
0
0
0
0
0
133
0
0
0
137
0
0
0
141
0
0
0
0
0
0
0
0
0
0
0
153
154
0
0
0
0
0
0
161
162
0
0
165
0
167
0
0
0
0
172
0
174
0
0
177
0
0
0
181
182
183
0
0
0
187
0
0
0
0
0
193
0
0
0
0
0
199
200
0
0
0
0
0
206
207
0
209
210
0
0
0
0
0
0
0
0
219
0
0
0
0
0
225
0
0
228
0
0
0
0
233
0
0
0
0
0
0
0
0
0
0
0
0
0
247
0
0
0
251
0
253
0
0
256
0
0
0
0
0
262
263
0
0
0
0
0
0
0
0
0
0
0
0
0
277
0
0
280
0
0
0
0
0
0
0
0
0
0
291
0
0
0
0
0
0
298
0
0
0
0
0
0
0
306
0
0
0
0
0
0
0
0
0
0
317
0
319
0
0
0
0
0
0
0
0
0
0
0
0
0
0
0
0
336
0
0
339
0
0
0
0
0
0
0
0
0
0
0
351
0
0
354
0
0
0
0
0
0
0
0
0
0
0
0
0
368
369
0
0
0
0
374
0
0
0
0
0
0
0
0
0
384
0
0
387
0
0
0
0
0
0
0
0
0
0
398
0
0
401
0
0
404
0
0
0
0
0
0
0
412
0
0
0
0
0
0
0
0
0
0
0
0
0
0
0
428
0
0
0
432
0
0
0
0
0
438
0
0
0
0
0
0
445
0
0
0
0
450
0
0
0
0
0
0
0
0
0
0
0
462
0
464
465
0
0
0
0
0
0
0
473
0
0
0
0
0
0
480
0
0
0
0
0
0
487
0
0
490
0
492
493
0
0
0
0
498
0
0
501
502
0
0
505
0
0
0
0
0
0
512
0
514
0
516
0
0
0
520
0
0
523
0
525
0
0
0
0
0
0
0
0
0
0
0
0
538
0
0
0
542
0
0
0
0
0
548
0
0
0
552
0
0
0
0
0
558
0
0
0
0
563
564
0
0
0
0
0
0
571
572
0
0
0
576
577
0
0
0
0
0
0
0
0
0
0
0
0
0
0
0
0
0
595
0
0
0
0
0
0
0
0
0
0
0
0
0
0
0
0
0
0
0
0
616
0
0
0
620
0
0
0
0
0
0
0
628
0
0
0
0
633
0
0
0
0
0
0
0
0
0
0
0
645
0
647
648
0
0
0
0
653
0
0
0
657
0
0
0
0
0
0
0
0
0
0
0
669
0
671
0
0
0
0
0
677
0
0
0
0
0
0
0
0
0
0
0
0
0
0
0
0
0
0
0
0
0
699
700
701
0
0
0
0
0
0
0
0
0
0
0
713
714
0
716
717
0
0
0
0
722
0
0
0
0
0
0
0
0
0
0
0
0
0
0
0
738
0
0
741
0
0
0
0
0
0
0
0
0
0
0
0
754
0
0
0
0
0
0
0
0
763
0
0
0
767
0
0
0
0
0
0
0
0
0
0
778
0
0
0
0
0
2
3
0
5
6
7
0
9
10
11
0
0
14
0
0
17
0
19
0
0
22
23
0
25
26
0
0
0
30
0
32
0
34
0
36
0
0
0
0
0
0
0
0
0
46
47
48
0
0
51
0
0
0
55
56
0
0
0
60
0
62
63
0
0
66
67
68
69
0
0
72
73
0
75
0
0
0
79
80
0
82
0
0
0
0
0
0
0
0
91
0
93
94
95
0
0
0
99
100
0
102
0
104
0
106
0
0
109
0
111
0
113
0
0
116
0
118
0
120
121
0
0
0
0
126
0
0
0
0
0
0
0
0
0
0
0
0
0
140
0
0
143
144
0
0
0
0
149
0
0
0
0
154
0
0
157
0
0
0
0
0
163
0
0
0
0
0
0
170
0
0
0
174
0
176
0
0
179
180
0
0
0
0
0
0
187
0
0
0
0
0
0
0
0
0
0
0
199
0
0
202
0
0
0
0
207
0
209
210
0
212
0
0
0
0
0
218
0
0
221
222
0
224
0
0
0
0
0
0
0
0
0
234
0
0
0
238
0
0
0
242
0
244
245
0
0
0
0
0
0
252
253
254
255
0
0
0
0
0
0
0
263
0
265
0
267
268
0
0
0
272
0
0
0
0
0
0
0
0
0
0
0
0
285
0
0
0
0
0
0
0
0
0
0
0
0
0
0
0
301
0
0
0
0
0
0
0
0
0
311
0
0
0
0
0
317
0
0
0
0
0
0
324
0
0
327
328
0
0
331
0
0
0
0
0
337
0
0
340
0
0
343
0
345
0
0
0
0
0
0
0
0
354
0
0
0
358
0
0
0
0
0
0
365
0
0
0
0
0
0
372
0
374
0
0
377
0
379
0
0
0
383
0
0
0
0
0
0
0
0
0
393
394
395
0
0
0
0
0
401
402
0
404
0
406
407
408
0
0
0
0
0
0
0
0
0
0
419
0
421
0
0
0
0
0
0
428
429
430
0
432
0
0
0
0
0
0
0
440
0
442
0
0
0
0
0
0
449
0
0
0
0
454
0
0
0
0
0
0
0
0
0
0
465
0
467
0
0
0
0
0
0
0
475
476
0
478
0
480
0
482
0
484
0
0
0
0
0
0
491
0
0
0
0
0
0
0
499
0
0
502
503
0
0
0
0
0
0
0
511
0
0
514
0
0
0
518
0
0
0
0
0
0
525
0
0
0
529
0
531
0
0
0
0
0
0
538
0
0
0
0
0
0
545
546
0
0
0
0
551
552
553
0
0
0
0
0
0
0
0
0
563
0
0
0
0
568
0
0
0
0
573
0
0
576
0
0
0
0
0
0
0
584
0
586
587
0
0
590
591
0
593
594
0
0
0
0
0
0
0
0
0
0
0
0
0
0
0
0
0
0
0
0
0
0
0
0
0
0
0
622
623
0
0
0
0
0
0
0
631
0
0
0
0
0
637
0
0
0
0
0
643
644
0
646
0
0
0
0
0
0
0
0
0
0
657
658
0
0
0
662
0
0
0
0
0
0
0
0
0
0
0
674
0
0
0
0
679
0
0
0
0
0
0
0
0
0
0
0
691
0
0
0
0
0
0
0
0
0
0
0
0
0
0
706
0
0
0
0
0
0
0
0
0
0
0
0
719
0
0
0
0
0
0
0
0
0
0
0
731
732
0
0
735
0
737
0
0
0
0
0
0
0
0
746
0
0
749
0
0
752
0
0
755
0
0
0
0
0
0
0
0
0
765
0
0
0
0
0
0
772
0
0
775
0
0
0
779
0
0
0
783
2
3
0
5
6
0
8
9
10
0
12
0
14
0
16
17
18
0
20
0
0
23
0
0
0
27
28
29
0
31
32
33
0
0
0
0
0
0
40
0
0
43
0
45
0
0
48
0
0
51
0
0
0
0
56
57
0
0
0
0
0
0
0
0
0
67
68
0
0
0
72
73
0
0
0
0
78
79
0
0
82
0
84
0
86
0
88
0
90
0
92
0
0
95
0
0
0
0
100
101
0
103
0
0
0
0
0
0
0
0
112
113
0
0
0
0
0
0
120
0
0
0
124
0
126
0
128
0
0
131
0
0
0
135
0
0
138
0
0
141
0
0
0
0
0
0
0
0
0
0
0
0
0
0
0
0
158
0
0
0
0
0
164
165
0
0
0
0
0
0
0
173
0
0
176
177
178
0
0
181
0
0
0
0
0
187
0
189
0
0
0
0
0
0
0
0
198
199
0
0
202
0
204
0
206
0
208
209
0
0
212
0
214
0
0
217
218
219
220
221
0
0
0
225
226
0
0
0
0
231
0
233
0
0
0
0
238
0
240
0
0
0
244
245
0
0
0
249
0
0
252
0
0
0
0
0
0
0
0
261
0
0
0
0
0
0
0
0
0
271
0
0
0
0
0
0
0
0
0
0
0
0
0
0
0
0
0
0
0
0
0
293
294
0
296
0
298
0
0
0
0
0
0
0
0
0
0
309
310
0
0
0
0
0
0
0
0
0
0
0
0
0
0
0
0
0
0
0
0
0
0
0
0
0
0
0
0
0
0
0
0
0
0
345
0
0
348
0
0
0
0
0
0
0
0
0
0
359
0
0
0
0
364
0
0
367
0
0
0
0
0
373
0
0
0
377
0
0
0
0
382
0
0
0
0
0
0
0
0
0
0
0
394
0
0
0
0
0
0
0
0
403
404
0
406
0
0
409
0
0
412
0
0
0
0
0
0
419
0
0
422
0
0
0
0
0
0
429
0
0
0
433
0
0
0
0
0
0
0
0
0
0
0
0
0
0
0
0
0
0
0
0
0
0
0
457
0
0
0
0
0
0
464
465
466
467
0
0
0
0
0
0
0
0
0
0
478
0
0
0
0
483
0
485
0
0
0
489
0
0
0
0
0
0
0
0
498
0
500
0
0
503
504
0
0
0
0
0
510
0
512
0
0
515
0
0
0
0
0
0
0
0
0
525
0
0
0
0
0
0
0
0
0
0
0
0
0
0
540
541
542
0
0
0
0
0
0
0
0
0
552
0
0
0
0
0
558
559
0
561
0
0
564
565
0
0
0
0
0
571
0
573
0
575
0
577
0
579
0
0
0
0
0
0
0
0
0
0
0
0
0
0
594
595
0
0
598
0
0
0
602
0
0
0
0
0
0
0
0
611
612
0
0
0
0
0
0
0
0
0
0
0
0
625
0
627
0
629
0
0
632
0
0
0
636
0
0
639
0
0
0
0
0
0
0
647
0
0
650
0
0
0
0
655
0
0
658
659
0
661
0
0
0
665
0
0
0
0
670
671
0
0
0
0
0
0
0
0
680
0
0
0
0
0
0
0
0
0
0
691
0
693
0
0
0
0
0
0
0
701
0
0
0
705
0
0
0
0
0
0
0
0
0
0
0
717
718
0
0
0
0
723
0
0
0
0
728
0
0
0
0
0
0
0
0
0
738
0
0
0
0
0
0
0
0
0
0
0
0
0
0
753
0
0
0
0
0
0
0
0
762
0
0
0
0
0
0
0
0
0
0
0
0
0
0
0
0
0
0
0
0
0
0
3
0
5
6
7
0
9
10
11
12
13
14
0
0
17
0
19
20
21
0
23
24
25
0
27
0
29
0
31
0
0
34
35
0
37
38
0
40
41
0
43
0
0
46
0
48
0
50
0
52
0
0
0
0
0
0
59
0
0
62
0
0
65
0
0
68
69
0
0
0
73
74
0
0
77
0
0
0
0
0
83
84
85
86
87
88
0
0
91
0
93
0
0
0
0
98
0
0
0
0
103
0
0
0
0
0
0
0
0
0
0
114
0
0
0
0
119
0
0
0
0
124
0
0
0
128
129
0
131
0
0
134
0
0
137
138
0
0
141
142
0
144
0
0
0
0
0
0
0
0
0
154
0
0
157
0
159
0
0
0
0
0
165
166
0
168
0
170
0
0
0
0
0
176
0
178
179
180
0
0
0
0
0
0
187
0
0
190
0
0
193
194
0
0
0
198
0
0
201
0
0
0
0
0
0
0
0
210
0
212
0
214
0
216
0
0
0
0
0
0
223
0
0
0
0
228
0
0
0
0
233
234
235
236
0
238
239
0
0
0
0
0
0
0
0
0
0
0
0
0
253
0
0
256
257
0
0
0
261
0
263
0
0
0
0
0
269
270
0
0
0
0
275
276
277
0
279
0
0
0
0
284
285
0
0
0
0
290
291
0
0
0
0
0
0
298
299
0
0
0
0
0
0
0
0
0
309
0
0
0
0
0
0
0
0
0
0
0
321
0
0
0
325
0
0
0
329
0
0
0
0
0
335
0
0
0
0
0
0
0
0
0
0
0
0
0
0
0
351
0
0
354
0
0
0
0
0
0
0
0
0
364
365
0
0
0
0
370
0
0
0
0
0
376
377
0
0
0
381
0
0
0
385
0
387
0
389
0
0
0
0
0
0
0
0
398
399
0
401
0
0
0
405
0
407
0
0
0
0
0
0
0
0
0
0
0
0
0
0
0
0
424
0
0
0
0
0
0
0
432
0
0
0
0
0
438
439
0
0
0
443
0
0
0
0
0
0
0
451
0
0
0
0
456
0
0
0
0
461
0
0
464
0
0
0
0
469
470
0
0
0
474
0
476
0
0
0
480
0
0
0
0
0
486
0
0
0
0
0
0
0
0
0
0
0
0
0
500
0
0
503
0
0
0
0
0
0
0
0
0
0
514
0
0
0
0
519
0
0
0
0
0
0
526
0
0
0
530
0
0
0
534
0
0
0
0
0
0
541
542
543
0
0
0
0
548
0
0
0
0
0
0
0
0
0
0
0
0
561
0
0
0
565
0
0
0
0
0
0
572
0
0
0
0
577
578
0
0
0
0
0
0
0
0
0
0
0
0
0
0
0
594
0
0
0
598
0
0
0
602
0
604
0
606
0
0
0
0
0
0
0
0
0
0
617
618
619
0
0
0
0
0
0
0
0
0
0
0
0
632
0
0
635
0
0
0
0
0
0
0
0
0
0
0
0
0
649
0
0
0
653
0
655
0
657
0
0
660
0
0
0
0
0
0
0
0
0
0
0
0
0
0
0
0
0
0
0
0
0
682
0
0
0
0
0
0
0
0
0
0
0
0
0
0
697
0
0
0
0
0
0
704
0
0
0
0
0
0
0
0
0
0
715
0
0
0
0
0
0
0
0
0
725
0
0
728
0
730
0
0
733
0
0
736
737
0
739
0
0
0
743
0
0
0
0
0
749
0
0
0
0
0
0
0
757
0
0
0
0
0
0
0
0
0
0
0
0
0
0
0
773
0
0
776
0
0
779
0
0
0
0
2
3
4
0
0
7
8
9
10
0
12
0
14
15
16
17
0
19
0
21
22
23
0
0
0
27
0
29
30
31
0
33
34
35
0
0
38
0
40
0
0
0
0
0
0
0
0
0
0
0
0
0
0
0
0
0
58
59
0
61
62
0
0
0
66
67
68
69
0
71
72
0
0
75
0
77
78
79
0
0
82
0
0
0
0
0
0
89
0
0
0
93
0
0
96
0
0
99
0
0
102
103
0
0
0
0
108
0
0
0
112
0
114
0
0
0
0
0
120
121
122
0
0
0
126
0
128
129
0
131
0
0
134
0
0
0
138
0
0
0
0
0
0
0
0
147
0
0
0
0
0
153
154
0
0
0
0
0
0
161
0
0
0
0
166
0
0
0
170
0
0
0
0
0
0
177
178
0
180
0
0
0
0
0
0
0
0
0
0
0
0
193
0
0
0
0
0
199
0
201
0
203
0
0
206
0
0
0
0
0
0
213
0
0
0
0
0
0
0
0
222
0
224
225
0
0
0
0
230
0
0
0
234
0
236
0
0
0
0
0
0
0
0
0
0
0
0
249
0
251
252
0
0
0
0
0
0
0
260
0
0
0
264
0
0
0
0
0
0
0
0
0
0
0
0
0
0
0
0
0
0
0
284
285
0
0
0
0
0
0
0
0
0
0
0
0
298
0
0
0
0
0
0
0
0
0
0
309
0
0
312
0
0
0
316
0
318
0
320
321
0
0
0
0
0
0
0
0
0
0
0
0
0
0
0
0
338
0
0
0
0
343
0
345
0
0
348
0
0
0
0
353
0
0
0
0
0
0
360
0
0
363
0
0
0
367
0
369
0
0
0
0
374
0
0
0
0
379
0
0
0
383
0
0
0
0
0
0
390
0
0
0
0
0
0
0
398
399
400
0
402
0
404
0
0
0
0
0
0
0
0
0
0
415
0
0
0
0
0
421
0
0
0
0
426
0
0
429
0
0
0
0
0
435
0
0
0
0
0
0
0
0
444
0
0
0
0
0
450
0
0
0
0
0
0
0
0
0
0
0
462
463
0
465
466
0
468
469
0
0
472
0
0
0
0
0
0
0
0
481
0
0
484
0
486
0
0
0
0
0
0
0
494
0
0
0
0
0
0
501
0
503
0
0
0
0
0
0
0
511
0
0
0
515
0
517
518
0
0
521
522
0
0
0
0
0
0
529
0
0
0
0
0
0
0
537
0
0
0
0
0
0
0
0
0
0
0
549
550
0
0
0
0
0
0
0
0
0
0
0
0
0
0
565
0
0
0
0
0
0
0
0
0
0
0
577
578
0
0
0
0
0
0
0
0
587
0
0
590
0
592
0
0
0
0
0
0
0
0
0
0
0
0
0
606
0
0
0
0
611
0
0
0
0
0
0
0
619
0
0
622
0
0
0
0
0
0
0
0
0
0
633
0
0
636
0
0
0
0
0
0
0
644
0
0
0
648
0
0
0
0
653
654
655
656
0
0
0
0
0
0
663
0
0
666
0
668
0
670
0
0
0
0
0
0
0
0
0
0
0
0
0
0
0
0
0
0
0
0
0
692
0
0
0
0
0
0
0
0
701
0
0
0
0
0
0
0
0
0
0
0
0
714
715
0
0
718
0
0
721
0
0
0
0
0
0
0
0
0
0
0
733
734
735
736
0
0
0
0
0
0
0
0
0
0
747
0
0
0
0
0
0
0
0
0
0
0
0
0
0
0
0
0
0
0
0
0
0
0
0
0
0
774
0
0
0
778
0
0
781
782
0
2
0
0
5
0
0
0
9
0
0
0
0
14
0
16
17
18
0
20
21
0
23
24
0
0
0
28
0
30
31
32
33
34
35
0
0
0
0
0
41
0
43
44
0
0
47
0
0
0
0
0
0
54
55
0
0
0
0
0
61
0
0
0
65
0
0
68
69
0
0
72
0
74
75
76
0
0
0
0
0
0
83
0
0
0
87
0
89
90
0
0
0
0
0
0
0
98
0
0
0
0
103
0
105
106
107
108
0
0
0
112
0
0
0
0
0
0
0
0
121
122
0
124
0
0
0
0
129
0
0
0
133
0
0
0
137
138
0
0
141
142
0
144
0
0
147
148
149
0
0
0
0
0
0
0
0
158
0
0
0
0
163
164
0
0
0
0
0
0
171
0
0
174
0
0
0
0
179
180
0
0
183
0
0
0
187
188
0
190
0
192
0
0
0
0
0
0
0
0
201
202
203
204
0
0
0
208
209
210
0
0
213
0
0
0
217
0
219
0
0
0
0
0
225
0
227
0
0
0
0
0
0
234
0
0
0
0
0
240
0
0
0
244
245
0
247
0
0
0
251
0
0
0
0
0
0
0
0
0
0
0
0
0
0
0
267
0
0
0
0
272
0
0
0
0
0
0
0
0
0
0
0
284
285
0
0
0
0
0
0
0
0
0
0
0
297
0
0
0
0
302
0
0
0
0
0
0
309
0
0
312
313
0
0
316
0
0
0
0
0
0
0
0
0
0
0
0
0
0
0
332
0
0
0
0
337
0
0
0
0
0
343
0
0
346
0
0
0
0
0
0
0
0
0
356
0
0
0
0
361
0
0
0
0
0
0
0
369
0
371
0
0
0
0
0
0
0
0
0
0
382
0
0
0
0
0
0
0
0
0
0
393
394
0
0
0
0
0
0
401
0
0
0
0
0
407
408
0
410
0
0
0
0
0
0
0
0
0
0
0
0
0
0
425
0
0
428
0
0
0
0
0
0
0
0
0
0
0
0
0
442
0
444
0
0
0
0
0
0
0
0
0
0
0
0
0
0
0
460
0
0
0
464
465
0
0
0
0
0
0
0
0
0
475
476
0
478
0
0
0
0
0
0
0
0
0
0
0
490
0
0
0
0
0
0
0
498
0
500
501
502
503
504
505
0
0
0
0
0
511
0
0
514
0
0
0
518
0
0
0
0
0
0
0
526
0
0
529
0
531
0
0
0
0
0
0
538
0
0
0
0
0
0
0
0
547
548
0
0
0
0
553
0
0
0
0
0
0
0
0
0
0
0
0
0
0
0
569
0
0
572
0
0
0
576
0
0
0
0
0
0
0
0
0
586
0
0
0
0
0
592
0
0
0
0
0
598
0
0
0
0
0
0
605
606
0
0
0
0
0
0
0
0
615
0
0
0
619
620
0
0
0
0
625
626
0
0
629
630
0
0
0
0
0
0
0
0
0
0
641
0
0
0
0
0
647
0
649
650
0
652
0
0
0
0
0
0
0
0
0
662
0
0
0
666
0
0
0
0
0
672
0
0
0
0
0
0
0
0
0
682
0
0
0
0
0
0
0
690
0
0
693
694
0
0
0
698
0
0
0
0
0
0
0
0
0
0
0
0
0
0
713
714
0
0
717
0
0
720
0
0
0
0
0
0
727
728
729
0
0
0
0
0
735
736
737
0
0
740
0
0
0
744
745
0
0
748
0
750
751
0
753
754
0
0
0
0
0
0
0
0
0
0
765
0
0
0
769
0
0
0
0
0
0
0
0
778
0
0
0
0
0
2
3
4
5
0
7
0
9
10
11
0
13
14
0
16
17
18
19
0
21
22
23
0
0
0
27
0
29
30
31
32
33
34
35
36
0
38
39
40
0
0
0
0
0
0
0
0
0
0
0
0
0
54
0
0
0
0
59
0
0
62
0
0
0
66
0
68
69
0
0
0
0
74
75
0
0
0
79
0
0
82
0
84
0
86
0
0
89
0
0
0
93
0
0
0
0
98
0
0
101
102
0
0
0
0
0
108
0
0
0
0
0
114
0
0
117
0
0
120
0
0
0
124
0
0
0
128
129
0
131
132
0
0
135
0
0
0
0
0
0
142
143
0
0
146
0
0
149
0
0
0
0
0
0
156
157
158
0
0
161
0
0
0
0
0
0
0
0
170
0
0
173
174
0
0
0
0
0
0
0
0
0
0
0
0
187
0
0
0
0
0
0
0
0
0
0
0
0
0
0
0
0
0
0
206
0
208
0
0
0
0
0
0
0
216
0
218
0
0
221
0
0
0
0
0
0
0
0
0
0
0
0
0
235
0
0
0
0
0
0
0
0
0
245
0
0
248
0
0
0
252
253
0
0
0
257
0
0
260
261
0
0
0
265
0
0
0
0
0
0
0
0
0
0
0
0
0
0
0
0
0
0
0
0
0
0
0
0
290
0
0
0
0
0
0
0
0
0
0
0
0
0
0
0
0
307
308
0
0
311
0
0
0
0
0
0
0
0
0
0
0
0
0
0
326
327
0
0
0
0
0
0
334
0
0
0
338
0
0
341
0
0
344
0
0
0
0
0
0
0
352
0
0
0
0
0
0
0
360
0
0
0
0
0
366
367
0
0
0
0
0
0
0
0
0
0
378
0
0
0
0
0
0
0
0
0
388
0
390
0
0
0
0
0
0
0
398
0
0
0
402
0
0
0
0
0
0
0
0
0
0
413
414
0
0
0
0
0
0
421
0
0
0
0
0
427
0
0
430
0
0
0
0
0
0
0
0
0
0
0
442
443
0
0
0
0
0
0
0
451
0
0
0
0
0
0
0
0
0
0
462
0
0
0
0
0
0
0
0
0
0
0
0
0
0
0
0
0
0
0
0
0
0
0
0
0
488
0
0
0
0
493
0
0
0
0
0
0
0
0
0
0
504
0
0
0
0
509
0
0
0
513
514
0
0
0
0
0
0
0
0
0
0
0
0
0
528
529
0
0
0
0
0
0
0
537
0
0
540
0
542
0
0
0
0
547
0
0
0
551
0
0
0
555
556
557
0
559
0
0
0
0
0
0
0
0
0
569
0
0
0
573
0
0
0
0
578
0
0
0
0
0
0
0
0
0
0
0
0
0
0
0
0
0
0
0
0
0
0
601
0
603
0
0
0
0
608
609
0
0
0
0
0
615
0
0
618
0
0
0
622
0
0
0
0
0
0
0
630
0
0
0
0
0
0
0
638
0
0
641
0
0
0
0
0
0
0
0
0
0
0
0
0
0
656
0
0
0
0
0
662
0
0
665
0
0
0
0
0
0
0
0
0
0
0
0
0
0
0
0
0
0
684
0
0
0
688
0
690
0
0
0
0
0
0
0
0
0
0
0
0
0
0
0
0
0
0
0
0
0
0
0
714
715
0
717
0
719
0
0
722
0
0
0
726
0
0
0
0
0
0
0
0
735
736
0
0
0
0
0
0
0
0
0
0
0
0
749
0
0
0
0
0
755
0
0
0
0
760
761
0
0
0
0
0
767
0
0
0
0
0
0
0
0
0
0
778
779
0
0
0
783
2
0
4
0
0
7
8
9
10
11
12
0
0
0
16
17
0
19
20
0
22
23
0
0
0
27
28
0
0
31
0
33
34
0
0
0
38
0
40
0
0
0
44
0
46
0
0
0
50
0
52
0
0
0
0
0
0
59
60
0
0
0
64
0
66
67
0
69
0
0
0
0
74
75
0
0
0
0
0
0
82
0
84
85
0
0
0
89
90
0
0
93
0
0
96
0
0
0
0
0
0
103
0
0
106
107
0
0
0
0
0
0
0
0
0
0
0
119
0
0
0
0
0
0
0
0
0
129
0
0
0
133
0
135
0
137
0
139
140
0
0
0
0
145
0
0
0
0
150
0
0
0
0
0
156
0
158
0
0
161
0
163
0
0
166
167
0
0
170
0
0
173
0
0
0
0
0
179
0
181
0
0
184
0
0
187
188
0
0
0
0
0
0
0
0
0
0
0
0
0
202
0
204
0
0
207
208
0
0
0
212
0
0
0
0
0
0
0
0
0
0
0
224
0
226
0
228
229
230
231
232
0
0
0
236
237
0
0
0
0
0
243
0
0
246
0
248
0
0
251
0
0
0
0
0
0
0
0
260
0
0
0
264
0
0
0
0
0
0
0
0
0
0
0
0
0
0
0
0
281
0
283
0
0
0
0
0
0
290
0
0
0
0
0
0
0
0
0
0
301
302
0
0
0
306
307
0
0
0
0
0
0
0
0
0
0
0
0
0
321
0
0
0
0
0
0
0
0
0
0
0
0
0
0
0
0
338
339
0
341
0
343
0
0
0
0
0
0
0
0
0
0
0
0
0
0
0
0
0
0
0
0
0
0
0
0
0
0
0
0
0
0
0
0
0
0
0
0
0
0
382
0
0
0
0
0
0
0
390
0
0
0
0
0
0
0
0
0
0
401
402
0
404
0
0
0
0
0
0
411
0
0
0
0
0
0
0
0
420
0
422
0
0
0
0
0
0
0
0
0
0
0
434
0
0
0
438
439
0
0
442
0
0
0
0
0
0
0
0
0
452
0
0
0
0
0
0
0
0
0
462
0
0
0
0
0
0
0
0
0
0
0
0
0
0
477
0
0
0
0
0
0
0
0
0
0
0
0
490
0
0
0
0
0
0
0
0
499
0
0
0
0
0
0
0
0
0
0
510
0
0
0
0
0
0
0
0
519
0
0
522
0
0
525
0
0
0
0
0
531
532
0
534
535
0
0
0
0
0
0
0
0
544
545
0
547
0
549
0
551
552
0
0
0
0
0
0
0
0
0
562
0
564
0
0
0
0
0
0
0
0
573
0
575
0
0
0
0
580
0
0
0
0
0
0
587
0
0
0
0
0
0
0
0
0
0
0
0
0
0
0
0
604
0
606
0
0
0
610
611
0
0
0
0
0
0
0
0
0
0
0
0
0
0
0
0
0
0
0
631
0
0
0
0
0
0
0
0
0
0
0
643
0
0
0
0
0
649
650
651
0
0
0
0
0
0
0
659
0
0
662
663
0
0
0
0
0
669
0
671
0
0
674
0
0
0
0
679
0
0
0
0
0
0
0
0
0
0
0
0
0
0
0
0
0
0
698
0
0
0
702
0
0
0
0
0
0
709
0
0
712
0
0
0
0
0
0
0
0
0
722
723
724
0
726
727
0
729
0
0
0
0
0
0
0
0
0
0
0
0
0
743
0
0
0
0
0
0
0
0
0
0
754
755
0
0
758
0
0
761
0
0
0
0
0
0
0
0
0
0
772
773
0
0
0
0
778
0
0
0
0
0
2
3
4
5
6
7
0
0
10
0
12
13
0
0
16
17
18
19
20
21
22
23
24
0
0
27
0
29
0
31
32
33
34
35
36
0
0
0
40
0
0
0
0
0
0
0
0
49
50
0
0
0
54
0
0
0
0
0
60
61
0
0
0
0
0
0
68
0
0
0
72
73
0
0
0
0
0
0
0
0
0
83
0
0
0
0
0
0
0
0
0
0
94
95
96
0
0
99
0
101
0
0
0
0
106
0
108
109
0
0
112
0
0
0
116
117
0
0
120
121
122
0
0
0
0
0
0
0
0
131
132
0
0
0
0
137
138
0
140
141
0
143
144
145
0
0
0
149
0
0
152
0
154
0
0
0
158
159
160
0
0
0
0
165
0
167
0
169
170
0
0
0
0
0
0
177
0
179
0
0
0
0
0
0
0
0
0
189
0
0
192
0
194
0
0
0
0
0
0
0
0
0
0
0
206
0
0
0
210
0
212
0
214
0
0
0
0
0
0
0
0
0
0
225
0
0
0
229
0
231
232
0
0
0
0
0
238
0
0
241
0
0
244
0
0
0
0
0
0
251
0
253
254
0
0
257
0
0
0
0
0
0
0
265
0
0
0
269
0
0
0
0
0
275
0
0
0
0
0
281
0
0
284
285
0
0
0
0
0
0
0
0
0
295
0
0
0
0
0
301
0
0
304
0
0
0
0
0
0
0
312
0
314
0
0
0
0
0
0
0
322
323
0
0
0
0
328
0
0
0
0
0
0
0
0
0
0
0
0
0
0
0
0
0
346
0
0
0
350
351
352
0
0
0
0
357
358
0
0
0
0
0
0
0
0
0
368
369
0
0
0
373
374
0
376
0
0
0
0
381
382
383
0
0
0
387
0
0
0
0
0
0
0
0
396
0
398
0
400
0
0
0
0
0
0
0
0
0
0
0
412
0
0
0
416
0
0
0
0
0
0
0
0
0
426
427
428
0
0
431
0
433
0
0
0
0
0
0
0
0
0
0
444
0
0
0
0
449
0
0
0
453
0
0
0
0
458
459
0
461
462
0
464
0
0
0
468
0
470
0
0
0
0
475
0
0
0
479
480
0
482
0
0
0
486
487
488
0
0
0
0
0
0
0
496
497
498
499
0
0
0
0
0
0
0
0
0
0
0
0
0
513
0
0
516
0
0
0
0
0
0
0
0
0
0
0
528
0
0
0
0
0
0
0
0
0
538
0
0
0
542
0
0
0
0
0
0
0
0
0
0
0
0
0
556
557
0
0
0
561
0
0
0
0
0
0
0
0
0
0
0
0
0
0
0
0
0
0
0
581
0
0
0
0
0
0
0
589
0
0
0
0
0
0
0
0
0
0
0
0
0
0
0
0
0
0
0
0
0
611
0
0
0
615
0
0
618
0
0
0
0
0
0
0
0
0
0
629
630
631
0
633
0
0
0
0
0
0
0
0
0
0
0
0
0
0
0
0
650
0
0
0
654
655
0
0
0
0
0
0
0
0
0
0
0
0
0
0
0
0
0
0
0
0
676
0
0
0
0
0
0
0
0
0
0
0
0
0
0
691
0
0
0
0
696
0
0
0
0
701
0
0
704
0
0
0
0
0
0
0
0
0
0
0
0
0
0
0
0
0
0
723
724
0
0
0
0
0
0
0
0
0
0
0
0
0
0
0
0
0
0
0
0
0
0
0
748
0
0
0
0
753
0
755
0
0
758
0
0
0
0
0
0
765
0
0
0
0
0
0
0
0
0
0
0
0
778
0
0
0
0
0
0
3
0
0
6
7
0
9
0
0
12
13
0
0
16
17
18
19
0
21
22
23
24
0
26
0
0
0
0
31
0
0
0
0
36
0
0
39
40
0
0
43
44
0
46
0
0
0
50
51
0
0
54
55
0
0
58
0
60
0
62
63
64
65
66
0
0
69
0
0
72
73
74
75
0
0
78
79
80
0
0
0
0
0
86
0
0
0
90
0
92
93
94
0
96
0
0
0
0
0
0
103
0
0
0
0
108
0
0
0
0
113
0
0
0
0
0
0
0
0
0
0
124
0
126
0
128
129
0
131
132
133
0
135
0
137
138
0
0
141
142
0
0
0
146
0
148
149
0
0
0
0
154
0
156
0
0
0
0
0
0
163
0
0
166
0
0
0
170
171
172
0
0
175
176
0
0
179
0
0
182
0
0
0
0
187
0
0
190
0
192
193
0
0
0
0
0
0
0
0
0
0
0
0
0
0
0
0
210
0
0
213
0
0
0
0
0
0
220
0
0
0
0
225
0
0
228
229
0
0
232
0
0
235
0
0
238
0
0
0
0
0
0
0
246
0
0
0
0
0
0
0
0
0
0
0
0
0
0
0
0
0
0
265
266
0
268
0
0
271
0
0
0
275
0
277
0
279
0
0
0
0
0
0
0
0
0
0
0
0
292
0
0
0
0
0
0
0
300
301
0
0
0
0
0
307
0
309
310
0
312
0
314
0
316
317
0
319
0
0
0
0
324
325
0
0
0
0
0
0
0
0
0
0
0
0
0
339
0
0
0
0
0
0
0
0
0
0
0
0
0
0
0
0
0
0
0
0
0
0
0
0
0
0
0
367
0
0
370
0
0
0
0
0
0
0
0
379
380
0
0
0
0
0
0
387
0
0
0
391
0
0
0
395
0
0
398
0
0
0
0
0
0
0
0
0
0
0
0
0
412
0
0
0
416
417
0
0
0
421
0
0
0
0
0
0
0
0
0
0
0
0
0
0
0
437
0
0
0
0
0
0
0
0
0
0
0
0
0
0
452
0
0
0
0
0
458
0
0
461
0
0
0
0
466
0
468
469
0
0
0
473
474
0
476
0
0
0
480
481
0
483
0
485
0
0
488
0
0
0
492
0
0
0
0
0
498
499
0
0
0
0
504
0
0
507
508
0
510
0
0
0
0
0
0
0
0
519
520
0
0
0
0
0
0
527
0
0
0
0
0
0
534
0
0
0
538
0
0
0
0
543
0
0
0
0
0
0
0
0
0
0
0
555
0
0
0
0
0
0
0
563
0
565
0
0
0
0
0
0
572
0
0
0
0
0
0
0
0
0
582
0
0
0
0
0
0
0
0
0
592
0
0
0
0
0
0
0
0
0
0
0
0
605
0
0
0
0
0
0
0
0
0
0
0
0
618
0
0
621
0
0
0
0
0
0
0
0
0
631
632
0
0
0
0
637
0
0
640
0
0
0
0
645
0
0
0
0
0
0
0
653
654
0
0
0
658
0
0
0
662
663
0
0
0
0
0
0
0
671
0
0
0
0
0
677
678
0
0
681
682
0
0
0
0
0
688
0
690
0
692
0
0
695
0
0
698
0
0
701
702
703
0
0
0
0
0
0
0
0
0
0
714
715
0
717
0
719
0
0
0
0
0
0
0
0
728
0
730
731
0
0
0
0
0
0
0
0
0
0
742
0
744
0
0
747
0
0
750
0
752
0
0
755
756
0
0
0
0
761
0
763
0
0
766
0
0
0
0
771
0
0
0
775
776
0
0
0
0
781
0
783
EOF
