DIMENSION : 783
NUMBER OF ITEMS : 7820

TOUR_SECTION
1
15
25
37
45
57
52
49
56
88
97
100
80
70
81
67
41
46
47
53
58
65
83
94
107
111
120
136
151
156
162
153
127
115
110
123
117
125
146
139
147
155
160
175
184
196
195
205
186
180
172
185
216
215
235
242
236
239
246
255
230
231
222
227
248
249
243
256
267
268
258
259
250
269
281
290
300
307
316
293
306
291
299
286
274
273
278
276
277
270
266
289
305
313
302
294
317
335
327
319
323
325
339
353
346
332
350
347
345
333
321
322
303
292
295
311
330
336
326
318
312
301
287
282
283
288
310
308
320
324
334
331
342
362
361
349
337
338
340
348
351
354
360
375
380
386
381
364
383
373
368
385
388
403
415
414
400
402
416
432
446
459
437
434
448
441
435
431
439
457
456
449
460
473
495
518
519
513
515
529
552
557
547
540
531
539
561
569
579
562
554
551
534
530
506
517
512
508
492
486
463
455
438
443
425
407
401
390
387
382
397
389
392
405
422
433
426
430
424
420
408
409
410
419
417
418
411
391
372
370
377
393
376
365
371
366
358
344
328
343
356
359
352
363
384
395
423
429
436
445
452
453
458
466
485
484
482
472
499
511
526
533
548
560
568
576
596
624
640
638
626
611
594
580
586
597
598
590
599
588
578
566
563
564
556
535
536
541
542
521
505
507
501
500
491
483
477
467
469
470
464
476
494
496
497
487
474
480
489
493
488
475
465
450
440
447
451
454
468
478
498
502
509
525
528
544
537
520
514
524
522
527
543
553
559
573
572
571
575
558
565
570
577
584
591
600
601
614
605
589
610
618
639
631
633
630
636
622
609
603
587
607
621
628
617
619
613
612
627
634
641
644
657
649
661
684
669
666
651
646
653
654
662
650
642
632
629
615
604
581
593
606
616
637
647
670
676
674
668
667
664
673
693
689
701
700
710
686
695
699
720
721
726
740
748
755
754
737
733
719
707
713
698
691
692
681
675
660
655
645
648
652
659
665
672
683
697
704
725
734
738
747
769
778
761
772
765
760
745
736
735
718
705
709
688
678
671
679
685
680
690
706
722
732
739
743
758
776
759
757
768
779
777
773
774
766
762
749
750
727
731
730
723
741
746
763
770
780
781
782
783
775
771
767
753
744
729
712
711
714
717
715
728
751
764
756
752
742
724
716
708
702
694
703
696
687
682
677
658
656
663
643
635
625
623
620
602
585
583
608
595
592
582
567
574
555
550
538
546
549
545
532
510
503
523
516
504
490
479
481
471
461
462
444
442
428
421
427
412
398
378
379
369
374
396
399
413
404
406
394
367
357
355
341
329
315
314
304
297
296
309
298
284
279
264
265
280
285
254
234
238
247
261
245
252
241
272
271
263
260
244
229
228
220
203
189
191
197
188
183
201
210
213
221
226
237
257
275
262
251
253
219
212
211
209
182
173
165
164
157
169
163
176
179
198
200
190
206
217
225
233
232
240
224
208
202
204
187
161
152
143
137
133
116
140
128
112
108
105
102
77
74
89
95
98
76
63
39
48
64
71
85
99
86
82
68
59
61
50
62
54
42
51
72
92
103
93
90
78
69
44
55
60
73
96
91
104
113
119
145
131
132
141
130
129
124
121
126
118
138
150
144
159
154
167
158
166
174
178
192
207
223
214
218
199
193
171
177
181
194
170
168
148
142
149
135
134
122
114
109
106
101
79
84
87
75
66
43
38
40
6
13
11
4
34
28
24
27
26
21
16
32
14
22
35
31
36
20
8
30
19
5
3
10
29
33
9
12
18
7
2
23
17

PP_SECTION
2
3
4
0
6
7
8
9
10
11
12
13
14
0
16
17
18
19
20
21
22
23
24
25
26
27
28
29
30
31
32
33
34
35
36
37
38
39
40
41
42
43
44
0
46
0
48
49
0
51
52
0
54
55
0
0
0
59
60
61
62
63
64
0
66
67
68
69
0
71
72
73
74
75
76
77
78
0
0
81
0
0
84
85
0
87
88
89
90
0
92
0
0
95
96
0
98
0
100
101
102
103
104
105
106
107
0
109
0
111
112
113
114
115
116
117
118
119
0
121
122
123
0
125
126
127
128
129
130
131
132
133
134
135
136
137
138
139
140
141
142
143
144
145
146
0
148
149
150
0
152
153
154
0
0
157
158
159
0
161
162
0
164
165
166
167
168
169
170
0
172
173
174
175
0
177
0
179
0
181
182
183
0
0
0
187
188
0
190
191
192
193
194
195
196
197
0
199
200
0
202
203
0
0
206
207
208
209
210
211
212
0
214
215
0
217
218
219
220
221
222
223
224
225
226
0
228
229
0
231
232
233
234
0
0
237
0
0
0
241
242
0
0
245
0
247
0
0
250
251
0
253
254
0
256
257
258
259
260
261
262
263
264
265
0
0
0
269
0
0
272
0
274
275
276
277
278
279
280
281
0
283
0
285
286
0
0
289
0
291
292
0
294
0
296
297
298
0
0
301
302
303
0
0
306
307
308
309
310
0
312
0
314
315
316
317
318
319
0
0
0
323
0
325
0
0
328
329
330
331
0
0
0
335
336
0
0
339
340
0
0
343
344
345
346
347
0
0
350
351
0
0
354
355
356
357
358
359
0
361
362
363
364
0
366
367
368
369
370
371
372
373
374
375
376
377
378
379
0
381
382
383
384
0
0
387
388
389
390
391
0
0
394
0
396
397
398
0
400
401
0
0
404
0
0
407
408
409
410
411
412
413
414
415
0
417
418
0
420
0
422
0
424
0
0
427
428
429
430
431
432
433
434
435
0
0
438
439
0
441
442
443
0
445
0
447
448
449
450
451
452
453
454
0
0
457
458
459
460
461
462
463
464
465
466
467
0
0
470
471
0
473
0
475
476
477
0
479
480
481
0
483
484
485
0
487
488
489
490
491
492
493
0
495
496
0
498
499
0
501
502
503
504
505
0
507
0
509
510
511
512
513
514
0
516
0
518
0
520
0
522
523
524
525
526
527
0
529
0
531
532
0
534
0
0
537
538
539
540
541
542
543
544
545
0
547
548
549
550
0
552
0
0
555
0
557
558
559
560
0
562
563
564
0
566
567
0
569
0
571
572
573
0
575
576
577
0
579
580
581
582
583
584
585
586
587
588
589
0
0
592
593
594
595
0
0
598
0
0
0
602
603
604
605
606
0
0
609
610
0
0
0
614
615
616
0
618
0
620
621
622
0
624
0
0
0
628
629
0
0
0
633
634
635
0
0
0
0
640
0
642
643
644
645
0
647
648
0
0
0
0
653
0
655
656
657
658
659
660
0
0
663
664
665
666
0
668
669
670
671
672
0
674
675
676
677
0
0
680
681
682
683
0
685
0
0
0
689
0
0
692
0
694
695
696
0
698
699
700
701
702
703
704
705
706
707
708
709
710
711
0
713
714
715
716
717
718
719
720
0
722
723
724
0
0
0
728
729
0
731
732
0
734
735
0
737
738
0
740
741
742
743
744
745
0
747
748
749
750
0
0
753
754
755
0
757
758
0
0
761
762
763
764
765
766
767
768
769
0
771
772
773
774
775
776
0
778
779
780
781
782
783
2
3
0
5
6
7
8
9
10
11
12
13
14
0
16
17
18
19
20
21
22
23
24
25
26
27
28
29
30
0
32
33
34
35
36
0
38
0
40
0
42
43
44
0
46
47
48
0
50
51
0
0
54
55
56
0
58
59
60
61
62
63
64
65
66
67
68
69
0
71
72
73
0
75
76
77
78
79
80
0
82
0
84
85
86
0
0
89
90
91
92
93
94
95
0
0
98
99
100
101
102
103
104
105
106
0
108
109
0
111
112
113
114
0
116
0
118
119
120
121
0
0
124
125
126
0
128
0
0
0
0
133
134
0
0
137
138
139
140
141
142
143
144
145
146
147
148
149
150
0
152
153
154
0
156
157
158
159
0
0
162
163
164
165
166
167
168
169
170
171
0
0
174
175
176
177
178
179
180
181
182
183
184
0
186
187
0
0
190
0
192
193
0
0
0
197
198
199
200
201
202
0
204
205
206
207
0
209
210
211
212
213
214
215
216
217
218
219
220
221
222
223
224
225
226
227
228
229
230
231
0
233
234
235
0
237
238
0
240
241
242
0
244
245
246
247
0
249
250
251
252
253
254
255
256
257
0
259
260
261
0
263
0
265
0
267
268
269
0
0
272
273
274
275
0
277
278
279
280
0
282
0
0
285
0
0
0
289
0
0
292
0
294
0
296
297
0
0
300
301
0
0
0
305
306
307
308
309
0
311
312
0
314
315
316
317
318
319
320
321
0
323
324
0
326
327
328
329
0
331
0
0
0
335
0
337
338
339
340
0
342
343
0
345
0
347
348
0
0
0
0
353
354
355
356
0
358
0
0
0
362
0
364
365
0
367
0
0
370
0
372
0
374
375
376
377
0
379
0
0
0
383
0
0
0
0
388
389
390
391
392
393
394
395
396
397
398
0
400
401
402
0
404
405
406
407
408
409
0
0
0
413
0
0
0
417
0
419
420
421
0
0
424
0
426
0
428
429
430
0
432
0
0
0
436
437
0
0
440
0
442
0
444
0
0
447
448
449
0
0
0
453
454
455
0
457
458
0
460
461
462
0
464
465
0
467
0
0
0
0
472
0
474
475
476
477
478
479
480
481
482
483
484
0
486
0
488
489
490
491
0
493
0
0
496
0
498
499
0
501
502
503
0
505
0
0
508
509
510
511
512
0
514
515
516
517
518
0
520
0
522
523
524
525
526
0
0
529
0
531
532
0
0
535
536
0
538
539
540
0
0
543
544
545
546
547
548
0
0
551
552
553
0
555
556
0
0
0
560
561
562
563
0
0
566
567
568
0
0
571
572
573
574
575
576
577
578
579
580
581
582
0
584
0
586
587
588
589
590
591
592
593
594
595
596
597
598
0
0
601
0
603
604
605
0
607
608
0
0
611
612
613
0
0
616
617
618
619
0
621
622
623
624
625
626
627
628
0
0
631
632
633
634
0
0
637
638
639
640
0
0
643
644
645
646
647
0
649
650
0
652
0
654
655
656
657
658
659
0
0
662
663
664
0
666
667
668
0
670
671
672
673
674
675
0
0
678
679
680
681
682
683
684
685
686
0
688
0
0
691
0
693
694
695
696
697
698
699
0
701
702
703
704
0
706
707
708
709
0
711
712
713
714
715
716
0
718
719
720
721
0
723
0
725
726
0
728
0
0
731
732
733
734
735
0
737
738
739
740
741
742
743
744
0
746
0
748
749
750
751
752
753
754
755
0
0
758
759
760
0
762
763
0
765
766
0
0
769
770
771
772
773
774
775
776
777
0
779
0
0
0
783
2
3
4
5
6
7
8
9
10
11
12
13
14
0
16
17
18
19
20
21
22
23
24
0
0
27
28
29
30
31
32
33
34
35
0
0
38
39
40
41
0
43
0
45
0
47
48
49
50
51
52
0
54
55
56
57
58
59
60
0
62
63
0
65
66
67
68
69
0
71
72
73
74
75
76
77
78
79
80
0
82
0
84
85
86
87
88
89
90
91
92
93
0
95
0
97
98
99
100
101
102
103
0
105
0
0
0
0
110
0
112
113
114
0
116
117
0
0
120
121
122
123
124
0
126
0
128
129
130
131
132
133
134
135
136
0
138
139
140
141
142
143
0
0
0
0
148
149
150
151
152
153
154
155
0
157
158
159
0
161
162
163
164
165
166
167
168
0
170
171
0
173
174
0
176
177
178
0
0
181
182
183
0
185
0
187
188
189
0
191
192
193
194
195
0
197
198
199
0
201
202
0
204
0
206
207
208
209
210
211
212
213
214
0
216
217
218
219
220
221
222
223
224
225
226
0
0
229
230
231
232
233
234
235
236
237
238
239
240
241
0
243
244
245
0
247
248
249
250
0
252
253
0
0
256
257
0
259
0
261
262
0
264
265
266
267
0
269
270
271
0
0
274
275
0
277
278
279
280
281
282
283
284
285
0
0
288
0
290
291
292
293
294
0
296
0
298
0
0
301
302
0
0
0
306
0
308
309
310
311
0
313
314
315
316
0
318
0
320
0
322
323
0
325
326
0
328
329
0
0
332
333
0
335
0
337
0
339
0
341
0
343
344
345
0
347
348
349
350
0
352
353
0
355
0
0
358
359
360
361
0
0
364
365
366
367
368
369
0
371
0
373
0
0
376
377
0
0
380
381
382
383
0
0
0
0
388
389
390
391
0
0
394
0
0
0
398
399
400
401
402
403
404
405
406
0
0
409
0
411
412
0
0
0
416
417
418
419
0
421
422
0
424
0
0
0
0
429
0
431
0
433
434
435
436
0
0
0
0
0
442
0
444
0
446
0
0
0
0
451
452
453
454
0
456
457
458
459
0
461
0
463
464
465
466
467
468
469
0
0
0
473
474
0
476
0
478
479
0
481
482
483
484
485
486
487
488
489
490
491
0
0
494
495
496
0
498
0
500
0
502
503
504
505
0
0
0
509
510
511
512
0
514
515
0
517
0
0
520
0
522
0
0
525
526
527
0
529
530
531
532
0
0
0
536
537
0
539
540
541
542
543
544
0
0
547
548
549
550
551
552
553
554
555
0
0
558
559
0
561
0
563
564
565
566
567
568
569
570
571
572
573
574
575
576
577
0
579
0
0
582
583
584
0
586
587
0
589
0
591
592
593
594
595
596
0
598
599
600
0
602
0
604
605
606
607
0
609
610
611
612
0
0
0
616
0
0
619
0
0
0
623
624
625
626
627
628
629
630
631
632
0
0
635
636
637
638
639
0
641
642
643
644
645
646
647
648
0
650
651
0
0
0
655
656
657
658
659
660
661
662
663
664
665
0
0
668
0
670
671
672
673
674
675
0
0
678
679
680
0
0
683
684
0
686
687
0
689
0
691
692
693
694
695
0
697
0
0
700
701
0
703
704
705
0
707
708
709
710
711
712
713
0
715
0
717
718
719
720
721
0
723
724
725
0
727
728
729
730
731
0
733
734
735
736
737
738
739
740
0
0
743
0
745
746
0
748
749
0
0
752
753
754
755
756
757
758
759
760
0
762
763
764
0
0
767
768
769
770
771
772
773
0
775
776
777
778
779
0
0
782
783
2
3
4
5
6
7
8
9
10
11
12
13
14
15
16
17
18
19
20
21
22
23
24
25
26
27
0
29
30
31
32
33
34
35
0
37
38
0
40
41
0
43
44
45
46
0
48
0
50
0
52
53
54
0
0
57
0
59
60
0
62
0
64
65
66
67
68
69
70
0
72
73
74
75
76
77
78
79
0
0
82
83
84
85
86
87
88
0
90
91
92
93
94
0
96
97
98
0
100
101
0
103
104
105
106
0
108
109
110
0
0
113
114
0
116
117
118
119
0
121
0
0
124
125
126
127
128
129
0
131
132
0
134
135
136
137
138
0
140
141
142
143
144
145
146
0
148
149
150
151
152
0
154
155
0
157
158
159
0
161
0
0
164
165
166
167
168
169
170
171
0
173
174
0
176
177
178
179
180
181
182
183
0
0
0
187
188
189
190
0
0
193
194
195
196
197
198
199
0
201
202
0
204
205
206
207
208
209
210
211
212
213
214
0
216
217
218
219
220
221
0
223
224
0
226
227
228
229
0
231
232
233
234
235
236
237
238
239
0
241
0
0
244
245
246
247
248
0
250
251
252
253
254
0
256
257
0
0
260
261
0
263
0
265
266
0
0
269
270
271
272
273
0
275
276
277
278
279
280
0
282
283
284
285
0
287
288
0
290
291
292
293
294
0
0
297
298
299
300
0
302
0
0
0
306
0
0
309
310
0
0
313
0
0
316
317
318
319
320
321
0
0
0
325
0
327
328
329
0
0
0
0
0
335
0
0
0
0
340
341
342
0
344
345
346
0
348
0
0
351
0
353
354
355
356
357
358
359
360
361
362
0
364
365
0
0
368
369
370
371
372
0
0
375
376
377
378
379
380
381
0
0
384
385
0
387
388
389
0
0
392
393
0
395
396
0
398
399
400
401
402
0
404
405
406
407
0
409
0
411
412
0
414
415
416
417
418
419
0
421
422
423
424
0
0
427
0
429
430
0
432
0
434
0
0
437
438
439
440
0
0
443
0
0
446
0
0
0
450
451
0
453
0
455
456
0
0
0
460
461
0
463
464
0
0
0
0
469
470
471
0
473
474
0
476
477
478
479
480
481
482
483
0
485
486
0
488
489
490
491
492
0
0
0
0
0
0
499
500
501
0
503
0
0
0
507
508
0
510
511
0
0
514
0
516
0
0
519
0
521
522
523
0
525
526
527
0
0
530
531
532
533
534
535
536
537
0
539
540
541
542
543
544
545
0
547
548
549
550
0
0
553
554
0
0
0
0
0
560
561
562
563
564
565
566
567
0
569
0
0
572
573
574
0
576
577
578
579
580
0
582
583
584
585
586
587
588
589
590
591
592
593
594
595
0
597
598
599
600
601
602
0
604
0
606
607
608
609
610
611
612
613
0
615
616
617
618
619
0
0
0
623
624
0
626
627
628
629
630
631
632
0
0
635
636
637
0
0
0
0
642
0
0
645
646
0
648
649
0
0
0
653
654
655
656
657
658
659
660
0
0
0
664
665
0
667
668
669
0
0
0
673
0
675
676
677
0
679
680
681
682
683
684
685
0
0
688
689
690
691
692
693
0
0
696
697
698
699
700
701
702
703
704
705
706
0
0
709
0
711
712
713
714
715
716
717
0
0
720
721
0
723
0
725
0
0
728
729
730
0
732
733
734
735
736
737
738
739
740
0
742
743
0
0
0
747
748
749
750
751
752
753
754
0
756
757
0
759
760
0
0
763
764
765
766
0
768
769
0
771
0
773
0
0
776
0
778
779
0
0
0
783
2
3
4
5
6
7
8
9
10
11
12
13
14
15
16
17
18
19
20
21
22
23
24
25
26
27
28
29
30
31
32
33
34
35
36
37
38
39
40
0
42
43
44
0
46
47
48
49
0
51
52
0
54
55
56
0
58
59
0
61
62
63
64
0
66
67
68
69
0
71
72
73
74
75
76
77
78
79
0
0
82
0
0
85
0
87
88
89
0
91
0
93
94
95
96
0
0
99
0
101
102
103
104
105
0
0
108
0
110
0
112
113
114
0
116
0
118
119
120
121
122
0
124
0
126
127
128
129
130
131
132
133
134
135
0
0
138
139
140
141
142
143
0
145
146
147
148
149
150
151
152
153
154
0
156
0
158
0
160
161
0
163
164
0
166
167
168
0
170
171
0
0
174
175
176
177
178
179
180
181
182
183
184
185
0
187
0
189
190
191
0
193
194
0
0
197
198
199
200
201
202
203
204
0
206
207
0
209
210
211
212
213
214
0
216
217
218
219
220
221
222
223
224
225
226
0
228
0
230
231
232
233
234
0
236
237
238
0
240
241
0
243
244
245
246
0
248
249
250
251
252
253
254
0
256
0
258
259
260
261
262
263
264
265
266
267
0
269
270
271
272
273
274
0
0
0
0
279
280
0
282
0
284
285
0
0
0
0
0
0
0
0
294
295
0
297
298
0
0
0
302
0
304
305
306
0
308
309
310
0
312
0
314
0
316
317
318
0
320
321
322
323
0
325
0
0
328
329
330
0
0
333
0
335
0
337
338
0
0
341
342
343
344
345
0
347
348
349
0
351
0
353
354
0
0
357
358
0
360
0
362
363
364
365
0
367
0
369
0
371
372
0
374
0
0
377
378
379
0
381
0
383
0
0
386
387
388
389
390
391
0
393
394
395
396
397
398
399
400
401
402
403
404
0
406
407
0
409
0
411
412
413
414
415
0
417
0
419
0
421
422
423
424
425
426
427
428
429
0
0
0
433
434
435
0
0
0
439
440
0
442
443
444
445
0
0
0
0
450
451
0
0
454
0
0
0
0
0
460
0
462
463
464
465
466
467
468
469
470
471
472
473
0
475
0
0
478
479
0
481
0
0
484
0
486
487
488
489
0
491
492
0
494
495
496
0
0
499
0
501
0
503
0
0
506
0
0
509
0
511
0
513
514
515
516
517
518
0
520
521
522
523
524
0
526
527
528
529
530
531
532
0
534
0
536
537
538
539
0
541
542
0
544
545
0
0
548
549
550
551
0
553
0
555
0
557
558
0
560
561
562
0
564
565
566
567
568
569
570
0
0
0
0
0
576
577
578
579
0
581
582
583
584
585
0
587
0
589
590
591
592
593
0
595
596
0
598
0
0
601
602
603
0
605
606
607
0
609
610
611
612
613
614
615
0
617
618
619
0
0
622
0
624
625
0
0
0
629
630
0
632
633
0
635
636
637
638
639
640
641
642
643
644
645
646
0
648
0
0
0
652
653
654
655
656
0
658
659
660
0
662
663
0
0
666
0
668
669
670
0
672
673
674
675
0
677
678
679
680
681
682
683
0
0
0
0
688
0
690
691
692
693
0
0
696
0
0
699
700
701
702
703
0
705
0
707
0
709
0
711
0
713
714
715
716
717
718
719
720
721
722
0
0
0
726
727
728
729
730
731
732
733
734
735
736
0
0
0
0
741
742
0
744
745
746
747
0
749
750
751
0
753
0
755
756
0
0
759
0
761
762
0
764
765
766
767
768
0
770
771
772
773
774
775
776
0
778
0
0
781
782
0
2
3
4
5
6
7
8
9
0
11
12
13
14
15
16
17
18
0
20
21
22
23
24
25
26
0
28
29
30
31
32
33
34
35
36
37
38
0
40
41
42
43
44
0
0
47
48
0
50
0
52
0
54
55
0
57
58
59
60
61
62
0
64
65
66
0
68
69
70
71
72
73
74
75
76
77
0
79
0
81
82
83
84
85
86
87
88
89
90
91
0
93
0
95
96
97
98
0
100
101
0
103
104
105
106
107
108
109
0
0
112
113
0
0
116
117
118
0
0
121
122
0
124
125
0
127
128
129
130
0
132
133
0
135
136
137
138
139
140
141
142
143
144
145
146
147
148
149
150
0
152
153
154
0
156
0
158
159
0
161
162
163
164
165
166
167
168
0
170
171
172
173
174
175
176
0
178
179
180
181
0
183
0
185
0
187
188
0
190
0
192
0
0
0
196
197
0
199
200
201
202
203
204
205
206
207
208
209
210
211
212
213
214
0
0
217
218
219
220
221
222
223
224
225
226
227
228
229
230
231
232
0
234
235
0
237
0
239
240
0
0
0
244
245
246
247
0
0
250
251
252
253
254
255
256
257
258
259
260
261
262
263
264
265
266
267
0
269
0
271
272
0
0
0
276
277
278
279
0
0
0
0
284
285
0
287
0
289
290
0
292
293
294
0
296
297
298
299
0
301
302
303
304
0
0
307
308
309
0
0
312
313
314
0
316
317
318
319
0
0
322
323
324
325
326
0
328
329
0
0
332
333
0
335
0
337
0
339
340
0
342
343
0
345
346
0
0
0
350
351
0
353
354
0
356
357
358
0
360
361
0
0
0
365
0
367
368
369
0
371
372
0
374
0
376
0
378
379
380
0
382
0
0
385
386
0
388
389
0
391
0
393
394
395
0
0
398
0
0
401
402
0
404
405
406
407
408
409
410
411
0
413
414
415
0
417
0
0
0
421
0
423
0
425
0
427
428
429
430
0
432
433
434
0
436
0
0
439
440
441
442
0
444
0
446
447
448
449
450
0
452
0
0
0
0
0
0
0
460
461
462
463
464
465
0
467
468
0
470
0
472
473
0
475
476
477
478
0
480
0
482
0
484
485
486
487
488
0
490
0
492
0
0
495
496
0
498
0
500
501
502
503
504
505
0
0
508
0
0
511
512
0
514
515
516
517
518
519
520
521
522
523
0
525
526
0
0
529
530
531
532
533
534
535
0
537
538
539
540
541
0
543
544
545
546
547
548
549
550
551
552
553
0
555
556
0
558
559
0
0
0
0
0
0
566
0
568
569
0
571
572
573
0
575
576
0
578
0
580
581
582
583
584
585
586
587
0
589
0
0
592
593
0
595
0
597
598
599
0
0
0
0
604
605
606
607
608
0
610
0
0
613
0
615
616
617
0
619
620
621
622
0
624
625
626
627
0
629
630
0
0
633
634
0
0
637
0
0
640
641
0
643
644
645
646
647
0
649
650
651
652
0
0
655
0
0
658
659
660
661
662
663
0
665
666
667
0
669
670
671
672
0
0
0
0
677
678
679
680
0
682
683
684
0
0
0
688
689
690
691
0
693
694
0
0
0
698
699
700
701
702
703
704
705
706
0
0
0
710
0
0
713
714
0
716
717
718
719
720
0
722
723
724
725
0
727
728
729
730
731
0
0
734
735
736
737
738
739
740
741
742
743
744
745
0
0
748
0
750
751
0
753
754
755
756
0
0
759
760
0
762
763
0
765
0
767
768
769
0
771
772
773
774
0
776
0
778
779
0
0
782
783
2
3
4
5
0
7
8
9
10
11
12
13
14
15
16
17
18
19
20
21
22
23
24
25
0
27
28
29
30
31
32
33
34
35
36
0
38
39
40
41
42
43
44
45
0
47
0
49
50
51
52
0
54
55
0
0
0
59
60
61
62
0
64
65
66
0
68
69
70
0
72
0
74
75
76
77
78
79
0
0
82
83
84
0
86
87
88
89
90
91
92
93
94
0
0
0
98
0
0
101
102
0
0
105
106
107
108
109
0
0
112
113
114
0
116
117
118
119
120
121
122
123
124
125
126
0
128
129
0
131
132
133
134
135
136
137
138
0
140
141
142
143
144
145
146
147
148
149
150
151
0
153
0
0
156
157
158
159
0
161
162
163
164
165
166
167
168
169
170
171
0
173
174
175
176
177
178
179
180
181
0
183
184
185
0
187
188
189
0
191
0
193
194
0
0
197
198
199
200
201
202
203
204
205
206
207
208
209
210
211
212
213
0
215
216
217
218
219
220
221
222
223
224
225
226
0
0
0
0
0
232
0
0
235
236
237
238
239
0
241
242
243
244
245
0
247
248
0
250
251
252
253
254
255
0
257
258
259
260
261
262
263
264
265
0
267
0
0
270
271
0
0
0
0
0
0
278
279
280
0
282
283
0
285
286
0
0
0
290
291
0
0
294
0
296
297
298
299
0
301
302
303
0
0
306
307
308
309
0
311
0
0
0
315
0
317
0
0
0
0
322
0
324
0
326
327
328
329
0
0
0
0
334
335
0
0
338
339
340
341
342
0
344
345
346
0
348
0
350
0
352
0
354
355
356
357
358
0
360
0
0
0
0
0
366
367
368
369
370
371
372
373
374
375
376
0
378
379
0
381
382
383
384
385
386
387
388
389
390
0
392
0
394
0
396
397
398
399
400
401
402
403
404
0
406
0
0
409
410
411
412
413
414
415
416
417
418
419
420
421
422
423
424
425
426
427
428
0
430
0
432
0
434
435
0
0
0
0
440
441
442
443
0
0
446
0
448
449
0
451
452
0
454
455
0
457
458
0
0
461
462
0
464
465
0
467
468
469
470
0
472
473
0
0
476
477
478
0
480
481
0
0
0
0
486
487
488
489
490
0
492
493
494
495
0
497
498
499
500
501
502
0
504
505
0
507
508
509
0
0
512
513
514
515
516
0
518
519
520
521
0
0
0
525
526
0
528
529
530
531
0
0
0
535
536
537
538
539
540
0
542
0
0
545
546
547
548
549
550
551
552
0
554
555
556
557
0
559
560
561
562
0
564
0
566
567
568
569
570
0
0
573
0
575
576
577
578
0
580
581
582
0
584
585
586
0
0
589
0
591
0
0
594
0
596
597
598
599
0
601
602
603
604
605
606
0
608
609
610
0
0
613
614
615
616
0
618
619
620
621
622
623
624
625
0
0
628
629
630
631
632
0
634
635
636
0
638
639
640
641
642
0
644
645
0
0
0
0
0
651
652
653
0
0
656
0
658
659
0
661
662
663
0
665
666
0
668
669
670
0
0
673
0
675
676
677
678
0
680
681
682
0
684
685
686
687
688
689
690
691
0
0
694
695
696
697
0
0
0
701
702
703
704
705
0
0
708
0
0
711
712
713
714
715
716
717
0
719
720
0
722
0
0
725
726
0
0
729
0
0
732
0
0
735
736
737
738
739
0
741
742
0
0
745
746
0
0
749
750
751
752
753
0
755
756
757
0
759
760
761
762
0
0
0
766
767
768
0
0
771
0
0
774
775
776
777
778
779
780
781
782
783
2
3
4
5
0
7
8
9
10
11
12
13
14
0
16
17
0
19
20
21
22
23
24
25
26
27
28
29
0
31
32
33
34
35
36
37
38
39
40
0
42
43
44
0
46
0
48
0
50
51
52
53
54
0
56
57
58
59
60
61
62
63
64
65
66
67
68
69
70
71
0
73
74
75
76
0
78
79
80
0
82
83
84
85
0
87
0
89
90
0
0
93
0
95
96
0
0
99
100
101
102
103
104
105
106
107
108
0
110
0
112
0
114
0
116
117
118
119
120
121
122
123
0
125
126
127
128
129
130
131
132
133
134
135
0
137
0
139
140
0
142
143
144
145
0
147
148
149
150
151
0
153
154
0
156
0
158
0
160
161
0
163
0
165
166
167
168
0
170
0
172
173
174
0
0
177
178
179
180
181
182
183
184
185
186
187
188
0
0
0
192
193
194
195
0
0
198
199
200
201
202
203
204
205
206
207
208
209
0
0
212
213
214
215
216
0
218
0
220
221
0
223
224
225
226
227
228
229
230
231
232
0
234
0
236
237
238
0
240
241
242
243
0
245
246
247
248
0
0
251
0
0
254
255
0
257
258
0
260
0
262
263
264
265
266
267
0
0
270
271
272
273
0
275
0
0
0
279
280
281
0
283
284
0
286
287
0
0
290
0
0
293
0
0
296
0
298
299
0
301
302
0
304
0
306
307
0
0
310
311
312
0
314
0
0
317
318
319
320
321
0
323
324
0
326
0
0
0
330
331
0
333
0
0
336
0
338
339
340
341
342
343
344
345
346
347
348
0
0
351
352
0
354
355
356
357
358
359
360
0
0
363
364
365
366
0
368
369
370
371
372
373
374
0
0
377
378
0
380
0
382
0
384
0
0
387
388
389
390
0
392
393
0
395
0
397
0
399
400
401
402
0
404
405
406
407
0
0
0
411
412
413
414
0
416
417
418
0
420
421
422
0
424
425
426
427
428
0
0
431
432
433
434
0
0
0
438
439
0
0
442
0
0
0
446
0
0
449
0
451
452
453
454
0
0
457
458
0
0
0
462
0
464
465
466
467
0
469
0
0
0
473
474
0
0
477
0
479
480
0
482
0
484
485
486
487
488
0
490
491
0
493
494
495
496
0
0
499
500
0
502
0
504
505
506
507
508
509
510
0
0
513
514
0
516
0
518
519
520
0
522
523
524
525
0
0
528
529
530
531
532
533
534
535
536
0
538
0
0
541
0
543
544
545
546
547
548
549
550
551
552
0
0
0
0
0
0
559
0
0
562
0
564
565
0
567
0
0
0
571
0
573
574
575
576
0
578
579
580
581
582
0
584
585
586
587
588
589
0
591
0
593
594
595
596
597
598
599
600
0
602
603
604
0
606
0
0
609
610
611
612
613
0
0
616
0
0
619
0
621
622
623
0
625
626
0
0
0
630
631
0
633
634
635
636
637
638
0
0
641
0
643
644
645
0
647
648
649
650
651
652
653
654
655
0
657
0
659
0
661
662
663
664
665
666
667
668
669
670
671
0
673
674
0
676
677
0
679
680
0
682
0
0
685
0
0
0
0
0
691
692
693
0
695
696
697
698
699
700
0
702
0
0
705
706
707
0
709
0
711
712
713
714
0
716
717
718
0
720
721
722
723
724
0
726
727
0
729
730
731
0
0
734
735
0
737
738
739
740
741
742
743
0
0
746
747
0
0
0
0
0
753
754
755
756
757
758
759
760
761
762
0
764
0
0
767
768
769
770
771
772
773
774
0
776
777
778
779
0
0
0
783
2
3
4
5
6
7
8
9
10
11
12
13
14
15
16
17
18
19
20
21
22
23
24
0
0
27
28
29
30
31
32
33
34
35
36
37
38
39
40
0
42
43
44
0
46
0
0
49
50
51
0
0
54
0
56
0
58
59
60
61
62
63
64
0
66
0
68
69
0
71
72
73
74
75
76
77
78
79
0
81
82
83
84
85
86
87
0
89
90
91
92
93
94
95
96
97
98
99
0
101
102
103
104
105
106
107
108
109
0
0
112
113
114
115
116
117
118
119
120
121
122
123
124
0
126
127
128
129
130
131
132
133
134
135
0
137
138
139
140
141
142
143
144
145
146
0
148
149
0
0
152
0
154
155
156
0
158
159
160
161
0
163
164
165
0
167
168
169
170
171
0
173
174
0
0
177
178
179
0
0
0
183
184
0
0
187
188
189
190
191
192
193
194
195
0
197
0
199
200
201
0
203
204
0
206
207
0
209
210
211
212
213
214
0
216
217
218
219
220
0
222
223
224
225
226
227
228
229
230
231
232
233
234
0
236
237
238
0
240
241
242
243
244
245
246
247
0
249
0
251
252
253
254
255
0
257
0
259
260
261
0
0
264
265
266
267
268
269
270
271
272
273
0
275
276
277
278
0
280
281
0
283
284
285
286
287
288
289
290
291
0
0
294
295
296
297
0
0
0
301
0
0
304
305
306
0
308
0
0
311
312
313
314
0
0
317
0
0
0
0
322
323
324
0
326
0
328
0
0
331
0
333
334
0
336
0
338
339
340
0
0
0
0
0
346
0
348
0
350
351
352
0
0
355
0
357
358
0
0
0
362
363
364
365
366
367
368
369
370
0
0
373
374
375
376
377
378
379
0
381
382
383
384
0
386
387
388
389
0
0
392
0
394
395
396
397
398
399
400
0
402
403
404
0
406
0
408
0
0
411
412
413
0
0
416
0
418
419
0
0
0
423
0
0
426
427
428
429
430
431
432
433
0
0
0
0
438
0
0
0
442
0
444
0
0
0
448
449
450
0
0
453
454
455
0
457
458
459
460
461
462
463
464
465
0
467
468
0
470
471
472
0
0
475
0
477
478
479
480
481
482
483
0
0
486
487
488
0
490
491
492
0
0
0
496
497
498
499
500
0
502
503
504
505
0
507
0
0
510
511
0
513
0
0
516
517
518
0
0
521
522
0
524
525
0
527
528
529
530
0
0
533
534
0
0
0
538
0
0
541
542
0
0
545
0
0
0
549
0
0
552
553
0
555
556
557
558
0
560
561
562
563
564
0
566
0
568
569
570
571
572
573
574
575
0
0
578
579
0
581
582
0
0
0
586
587
0
589
590
0
592
593
0
0
0
0
598
599
600
601
602
603
604
0
606
607
0
0
0
611
0
613
0
615
616
0
618
619
0
621
622
623
624
0
0
0
0
629
630
631
0
633
0
0
0
637
638
0
640
0
0
643
0
0
0
647
648
0
650
0
652
0
654
655
656
657
0
0
660
0
0
663
664
665
0
667
0
0
0
671
0
673
674
675
676
0
678
0
0
681
0
0
684
685
0
687
0
0
0
691
0
693
694
695
696
0
698
699
700
701
0
703
704
0
706
707
708
709
0
711
0
713
714
715
716
0
718
719
720
0
722
723
724
725
0
727
728
729
730
0
732
0
0
0
0
737
0
0
0
741
742
743
744
745
746
747
748
749
0
751
0
753
0
755
756
757
758
759
760
761
762
763
0
765
766
767
0
0
770
771
772
0
774
775
776
0
778
0
0
0
0
0
2
3
4
5
6
7
8
9
10
11
12
13
14
15
16
17
18
19
20
21
22
23
24
0
26
27
28
29
30
31
32
33
34
35
36
37
38
39
40
41
42
43
44
0
46
0
48
49
50
51
52
53
54
55
0
57
58
59
60
61
62
63
64
65
66
0
68
69
0
71
72
73
74
75
76
0
78
79
80
0
0
0
84
85
86
87
0
89
90
0
92
93
94
95
96
97
98
99
0
101
102
103
0
0
106
0
108
109
0
111
0
113
114
115
0
0
118
119
0
121
122
123
124
0
126
0
128
129
130
131
132
133
134
135
136
137
138
139
0
141
142
143
144
145
146
0
148
149
150
151
152
0
154
0
156
157
158
159
0
161
162
163
164
165
166
167
168
169
170
171
172
173
174
175
176
177
178
179
0
181
182
0
0
185
0
187
188
189
190
191
192
193
194
195
196
197
0
199
200
201
202
203
204
0
206
207
208
209
210
211
212
213
214
215
0
217
218
219
220
221
0
223
224
225
226
0
228
229
0
0
232
233
0
235
236
0
238
239
240
241
242
0
244
245
246
247
0
0
0
251
252
253
254
0
0
0
258
259
260
261
0
263
264
265
266
0
268
0
270
271
0
0
274
275
0
277
0
279
280
281
0
0
284
0
0
0
0
0
0
0
292
0
0
0
0
0
298
0
300
301
0
0
304
0
306
307
0
309
310
0
312
313
314
315
316
317
318
319
0
0
0
0
324
325
326
0
0
0
0
331
0
0
0
335
0
337
338
339
340
341
0
343
0
345
0
0
348
0
0
351
0
353
354
355
356
357
358
359
0
361
362
363
0
365
366
367
0
369
370
371
372
0
374
0
0
377
378
379
380
0
0
383
0
385
0
387
388
389
0
391
392
0
394
395
396
397
398
399
400
401
0
403
404
405
406
407
408
0
410
411
412
413
0
415
416
417
418
419
0
421
422
423
424
0
0
427
428
429
430
431
432
433
434
435
0
437
0
439
440
441
442
443
444
0
0
0
0
449
450
451
452
0
0
455
456
0
458
459
460
461
462
0
0
0
466
467
468
469
470
471
472
473
474
0
476
0
478
479
480
481
482
483
0
485
486
0
488
489
490
0
492
0
494
495
496
0
498
499
500
0
502
503
504
0
506
507
508
0
510
511
0
0
514
0
516
517
518
519
520
521
0
523
0
525
526
527
0
0
530
0
532
0
534
0
0
0
538
0
540
541
542
543
544
545
546
0
548
549
550
551
552
0
0
555
0
0
558
0
560
561
562
563
0
565
566
567
568
569
570
571
572
0
574
0
576
0
578
579
580
581
582
583
584
585
586
587
588
589
0
0
592
593
594
595
0
597
0
0
0
601
602
603
0
605
606
607
608
609
610
0
0
613
614
615
0
0
618
619
620
621
622
623
624
625
626
0
0
0
630
631
632
633
0
635
636
637
0
639
640
641
642
0
644
645
0
647
648
649
0
0
652
653
654
655
656
657
658
659
660
661
662
663
0
665
0
667
0
669
670
671
0
0
674
0
676
677
678
679
680
681
682
683
684
0
686
687
688
0
690
691
692
0
694
695
696
697
698
699
0
701
702
703
704
0
0
0
708
709
0
711
712
0
714
715
716
717
718
719
0
0
0
0
724
725
726
727
728
729
730
731
732
0
0
0
736
0
738
0
740
741
742
743
744
0
746
747
748
749
750
0
752
0
754
755
756
0
0
759
760
761
0
763
764
765
766
767
768
769
0
771
0
0
0
775
776
777
0
779
0
781
782
783
EOF
