DIMENSION : 783
NUMBER OF ITEMS : 3910

TOUR_SECTION
1
17
23
2
7
18
12
9
33
29
10
3
5
19
30
8
20
36
31
35
22
14
32
16
21
26
27
24
28
34
4
11
13
6
40
38
43
66
75
87
84
79
101
106
109
114
122
119
113
104
91
96
73
60
55
44
69
78
90
93
103
92
72
51
42
54
62
50
59
61
68
82
86
99
85
71
64
48
39
63
76
98
95
89
74
77
102
105
108
112
116
140
128
138
118
126
121
124
144
150
159
167
154
129
130
141
132
131
145
148
142
149
134
135
171
193
199
194
181
177
170
168
174
166
158
178
192
207
223
214
218
234
254
238
247
264
265
280
285
315
314
329
341
355
357
367
394
404
406
413
399
396
374
369
379
378
398
412
427
421
428
442
444
462
461
471
481
479
490
504
516
523
503
510
532
545
549
546
538
550
555
574
567
582
592
595
608
583
585
602
620
623
625
635
643
663
656
658
677
682
687
696
703
694
702
708
716
724
742
752
756
764
751
728
715
717
714
711
712
729
744
753
767
771
775
783
782
781
780
770
763
746
741
723
730
731
727
750
749
762
766
774
773
777
779
768
757
759
776
758
760
765
772
761
778
769
747
734
738
725
704
697
683
672
665
659
652
648
645
655
660
675
680
690
706
685
679
671
678
688
709
705
718
735
745
736
732
743
739
722
733
737
754
755
748
740
726
721
720
719
707
713
698
691
692
681
657
649
661
666
669
684
699
695
686
710
700
701
689
693
673
664
667
668
674
676
670
647
637
616
606
593
581
604
615
629
632
642
650
662
654
653
646
651
636
630
633
631
639
618
610
589
605
614
601
600
591
584
577
570
565
558
575
571
572
573
559
553
537
544
528
525
509
502
498
478
468
451
454
447
440
450
465
475
488
493
514
520
524
522
527
543
542
541
556
535
536
521
505
507
501
500
491
483
477
473
460
449
456
457
467
469
470
464
476
494
496
497
487
489
480
474
459
446
432
416
402
400
414
415
403
388
385
368
373
383
364
381
386
380
375
391
372
370
377
376
393
408
409
410
419
417
411
418
434
437
448
441
435
431
439
420
424
430
426
433
422
405
392
389
397
382
387
390
401
407
425
443
438
455
463
486
492
508
512
517
506
530
534
551
554
562
579
569
561
539
540
547
531
518
519
495
513
515
529
552
557
578
566
563
564
587
603
609
622
621
628
617
607
588
599
613
619
641
644
634
627
612
590
598
597
586
594
611
626
638
640
624
596
580
568
576
560
548
533
526
511
499
472
482
484
485
466
458
453
452
445
436
429
423
395
384
363
352
359
356
343
328
344
358
366
371
365
353
346
339
325
323
319
327
335
317
294
302
313
305
289
266
270
277
276
255
246
239
236
242
235
216
215
185
172
180
186
205
230
231
227
222
249
248
273
278
274
286
299
291
306
293
290
300
307
316
332
350
347
345
333
321
322
330
336
360
354
351
348
340
338
337
349
361
362
342
331
334
324
320
298
309
304
297
296
284
279
261
245
252
241
272
271
263
260
244
229
228
220
203
189
191
197
188
183
201
210
213
221
226
237
251
253
262
257
275
287
282
283
288
308
310
301
312
318
326
311
295
303
292
281
269
250
233
225
219
212
211
209
182
173
165
164
157
169
163
176
179
198
200
190
206
217
232
240
259
258
268
267
256
243
224
208
202
204
187
184
196
195
175
160
155
147
139
146
125
117
123
110
115
127
153
136
151
156
162
161
152
143
137
133
120
111
107
94
83
65
58
53
47
46
41
67
81
70
80
100
97
88
56
49
52
57
45
37
25
15

PP_SECTION
2
3
4
5
0
0
0
0
0
0
0
0
0
15
0
0
0
19
20
21
22
0
0
25
0
0
0
0
0
0
0
0
0
0
0
37
0
0
0
41
0
0
44
45
46
47
0
49
50
51
52
53
0
0
56
57
58
0
0
0
0
0
0
65
66
67
68
69
70
0
0
0
0
0
0
0
0
0
80
81
0
83
0
85
86
87
88
0
0
0
0
0
94
0
0
97
0
0
100
0
0
0
0
0
0
107
108
109
110
111
0
0
0
115
0
117
0
0
120
0
0
123
0
125
0
127
0
0
0
0
0
133
0
0
136
137
0
0
0
0
0
143
0
0
0
0
0
0
0
151
152
153
0
155
156
0
0
0
160
161
162
0
0
0
0
167
168
0
0
0
0
173
0
0
0
0
0
0
0
0
182
183
0
0
0
187
0
0
0
0
0
0
0
0
0
0
0
0
0
0
0
0
0
0
206
0
208
209
0
211
212
213
214
215
216
217
0
0
0
221
222
0
224
225
226
0
0
0
0
0
0
0
0
0
0
0
0
0
0
0
0
243
0
0
0
0
0
0
250
0
0
0
0
0
256
257
258
0
0
0
0
0
0
0
0
0
0
0
0
0
0
0
0
0
0
0
0
0
0
281
0
0
0
0
0
0
0
289
290
291
292
0
0
0
296
297
0
0
300
301
302
303
304
305
306
307
0
0
0
0
312
0
0
0
316
0
318
319
320
321
322
323
324
0
0
0
0
0
330
331
332
333
0
0
0
0
0
0
0
341
342
343
0
0
0
0
0
0
0
0
0
0
0
0
0
0
0
0
0
0
0
0
0
0
0
0
368
369
370
0
0
0
0
0
0
0
0
0
0
0
0
0
0
0
0
0
0
0
0
0
0
0
0
0
0
0
0
0
0
401
0
403
0
0
0
407
408
0
0
0
0
0
0
0
0
0
0
0
0
0
0
0
0
0
0
0
0
0
0
0
0
0
0
435
436
437
438
0
0
0
0
0
0
0
0
0
0
0
0
0
0
0
0
0
0
0
0
0
0
461
462
463
464
465
466
467
0
0
0
0
0
0
474
475
476
0
0
0
0
0
0
0
0
0
0
0
0
0
0
0
0
0
0
495
496
497
498
0
0
0
0
503
504
505
0
507
508
509
510
511
512
513
0
0
0
0
0
0
0
0
0
0
0
0
0
527
528
529
0
0
0
0
0
0
0
0
538
539
0
0
0
0
0
0
0
0
0
0
0
0
0
0
0
0
0
0
0
0
0
0
562
563
564
0
0
0
0
0
570
571
572
0
0
0
0
0
0
0
580
581
582
0
0
0
0
0
0
0
0
0
0
0
0
0
0
0
0
0
0
601
602
603
604
0
0
607
0
609
610
611
0
0
0
0
0
0
0
0
0
0
0
0
0
0
0
0
0
0
0
0
0
0
0
635
636
637
638
0
0
0
0
0
0
0
0
0
0
0
0
0
0
653
654
655
0
0
0
0
0
0
662
663
0
0
0
0
0
0
0
0
0
0
0
0
0
0
0
0
0
0
0
0
0
0
0
0
0
0
0
0
0
0
0
0
0
0
0
0
0
0
0
0
0
0
0
0
0
0
0
711
712
0
0
0
0
0
0
0
0
0
0
0
724
725
726
0
0
0
0
0
0
0
0
0
0
737
738
739
740
0
0
0
0
0
0
0
0
0
0
0
0
753
754
755
756
757
0
0
0
0
0
0
0
0
0
0
0
0
0
0
0
0
0
0
0
0
0
0
0
0
0
0
0
0
0
0
6
7
8
9
0
0
12
13
14
15
0
0
0
0
0
0
0
0
0
25
0
0
0
0
0
0
0
0
0
0
0
37
0
0
0
41
0
0
0
45
46
47
0
49
0
0
52
53
0
0
56
57
58
0
0
0
0
0
0
65
0
67
0
0
70
0
0
0
0
0
0
0
0
0
80
81
0
83
0
85
0
0
88
0
0
0
0
0
94
0
0
97
0
0
100
0
0
0
0
0
0
107
0
0
0
111
0
0
0
115
0
117
0
0
120
121
122
123
0
125
0
127
0
0
0
0
0
133
0
0
136
137
0
139
0
0
0
143
0
145
146
147
148
0
0
151
152
153
0
0
156
0
0
0
0
161
162
163
164
0
0
0
0
0
0
0
0
173
0
175
176
0
0
0
0
0
182
0
184
185
186
0
0
0
190
0
0
0
0
195
196
0
0
0
0
0
0
203
204
0
206
0
0
0
0
0
0
0
0
0
0
0
0
0
220
221
222
223
0
0
0
0
0
0
0
231
232
233
234
0
0
0
0
0
240
0
0
243
244
245
0
0
0
0
0
0
0
0
0
0
256
257
258
259
0
0
0
0
0
0
0
0
268
269
270
271
272
273
274
275
0
0
0
279
0
281
282
283
284
0
0
0
0
0
290
291
292
293
0
0
0
0
0
0
0
0
0
0
0
0
0
0
0
0
310
311
312
0
0
0
0
0
318
319
320
321
0
0
0
0
326
0
328
0
0
0
0
0
0
0
0
0
0
0
0
0
0
0
0
0
0
0
0
0
0
0
0
0
0
0
0
0
358
359
360
361
362
363
364
365
366
0
0
0
0
0
372
373
0
375
376
377
0
0
0
381
382
0
0
0
0
0
0
0
0
0
0
0
0
395
0
397
0
0
400
401
402
403
404
405
406
407
408
0
0
0
0
0
0
0
0
0
0
0
0
0
0
0
0
0
0
0
0
0
0
0
0
0
0
0
0
0
0
0
0
0
0
0
0
0
0
0
0
0
0
0
452
453
0
0
0
0
0
0
0
0
0
0
0
0
0
0
0
0
0
0
0
0
0
0
0
0
0
0
0
0
482
483
484
0
0
0
0
0
0
0
0
0
0
495
496
497
498
0
0
0
0
503
504
505
506
0
0
0
0
0
0
0
0
0
0
0
0
0
520
521
522
0
0
0
0
0
0
0
0
0
0
0
0
0
0
0
0
0
0
0
0
0
0
0
0
0
548
0
0
551
0
0
0
0
0
0
0
0
560
561
562
563
564
565
566
0
0
0
0
0
0
0
0
0
0
0
0
0
0
0
0
0
0
0
0
0
0
0
0
591
592
593
0
0
0
0
0
0
0
0
0
0
0
0
0
0
608
609
610
0
0
0
0
0
0
0
0
0
0
0
0
0
0
0
0
0
0
0
0
0
0
0
0
0
0
0
638
639
640
0
0
0
0
0
646
647
648
649
0
0
0
0
0
0
0
0
0
0
0
0
0
0
0
665
666
667
0
0
0
0
0
0
0
0
0
0
678
679
680
0
0
0
0
0
0
0
0
0
0
0
0
0
0
0
0
0
0
0
0
0
0
0
0
0
0
0
0
0
710
0
0
0
0
0
0
0
718
719
0
0
0
0
0
0
0
0
0
0
0
0
0
0
734
735
0
0
0
739
740
0
0
0
0
0
0
0
0
0
0
0
0
0
0
0
0
0
0
0
0
0
0
0
0
0
0
0
0
0
0
0
0
0
0
0
0
0
0
0
0
0
782
783
0
0
0
0
0
0
0
0
0
0
0
0
0
15
0
0
0
0
0
0
0
0
0
25
26
27
28
0
0
0
0
0
0
0
0
37
0
0
0
41
0
0
0
45
46
47
0
49
0
0
52
53
0
0
56
57
58
0
0
0
62
63
64
65
0
67
0
0
70
0
72
0
0
0
0
0
0
0
80
81
0
83
0
0
0
0
88
0
0
0
0
0
94
0
96
97
98
99
100
101
102
0
0
0
0
107
0
0
110
111
0
0
0
115
0
117
0
0
120
0
0
0
0
0
0
0
0
0
0
0
0
133
134
135
136
137
0
139
0
0
0
143
0
0
146
147
148
149
0
151
152
153
0
155
156
157
0
0
160
161
162
0
0
0
0
0
0
169
0
0
172
0
0
0
0
0
0
0
0
0
0
0
184
0
0
187
0
0
190
0
0
0
0
195
196
0
198
0
0
0
0
0
0
0
0
0
0
0
0
211
212
213
0
215
216
217
0
219
220
221
222
223
224
225
226
0
0
0
0
0
0
233
234
235
236
0
0
0
0
0
0
243
0
0
0
0
0
0
0
0
0
0
0
0
0
0
258
259
260
261
0
0
0
0
0
0
0
0
0
0
0
0
0
275
276
277
278
0
0
0
0
0
0
0
0
0
0
0
0
0
0
0
0
295
0
297
298
299
0
0
0
303
0
0
0
307
308
309
0
0
0
313
314
315
316
317
0
0
0
0
0
0
0
0
0
0
328
0
330
0
0
0
0
0
0
0
0
0
340
341
342
0
0
0
0
0
0
0
0
0
0
0
0
0
0
0
0
0
0
0
0
0
0
0
0
367
0
0
0
0
0
373
374
0
0
0
0
379
380
381
0
0
0
0
0
0
0
0
0
0
392
393
394
395
0
0
0
0
0
0
0
0
0
0
0
0
0
0
0
0
0
0
414
415
416
0
0
0
0
0
0
0
0
0
0
0
0
0
0
0
0
0
0
0
0
0
0
0
0
0
0
0
0
0
0
0
0
0
0
0
0
0
0
0
0
0
0
0
0
0
0
0
0
0
466
467
468
469
470
471
472
473
474
475
476
0
0
0
0
0
0
0
0
0
0
0
0
0
0
0
492
0
0
0
0
0
0
0
0
0
0
503
504
505
506
507
508
509
0
0
0
513
0
515
516
517
0
0
0
0
0
0
0
0
0
0
0
0
0
0
0
533
534
0
0
0
0
0
0
0
0
0
0
0
0
547
548
0
0
0
0
0
0
0
0
0
0
0
0
0
0
0
0
0
0
0
568
569
570
571
572
0
0
0
0
0
578
579
580
0
0
0
0
585
586
587
0
0
0
0
0
0
0
0
0
0
0
0
0
0
0
0
0
0
0
607
608
609
610
0
0
0
0
0
0
0
0
0
0
0
622
0
0
0
0
0
0
0
0
0
0
0
0
0
0
0
0
0
0
0
0
0
0
0
0
0
0
0
0
0
0
0
654
655
656
0
0
0
0
0
0
0
0
0
0
0
0
0
0
0
0
0
0
0
0
0
0
0
0
0
0
0
0
0
686
687
688
689
0
0
0
0
0
0
0
0
0
0
0
0
0
0
0
0
0
0
0
0
0
0
0
0
0
0
716
717
718
0
0
0
0
0
0
0
0
0
0
0
0
0
0
0
0
0
0
0
0
0
0
0
0
0
0
0
0
0
0
0
0
0
0
0
0
0
0
0
0
0
0
0
0
0
0
0
766
767
768
0
0
0
0
0
0
775
776
777
0
0
0
0
0
0
0
0
0
0
0
0
0
0
0
0
0
0
0
15
0
0
0
0
0
0
0
0
0
25
0
0
0
0
0
0
0
0
0
0
0
37
0
0
0
41
0
0
0
45
46
47
0
49
0
0
52
53
0
0
56
57
58
59
60
61
62
63
64
65
0
67
0
0
70
0
0
0
0
0
0
0
0
0
80
81
0
83
0
0
86
87
88
89
0
0
0
0
94
0
96
97
0
0
100
0
0
0
0
0
0
107
0
0
110
111
0
0
0
115
0
117
0
0
120
0
0
123
124
125
0
127
0
0
0
0
0
133
0
0
136
137
0
139
0
0
0
143
0
0
0
0
0
0
0
151
152
153
0
155
156
157
0
0
160
161
162
0
0
0
0
0
0
0
0
0
0
0
0
0
0
0
0
179
0
0
0
0
0
0
186
187
188
189
190
191
192
193
0
195
196
197
198
0
0
0
0
0
0
0
206
0
208
209
210
0
0
213
214
215
0
0
0
0
220
221
0
0
0
0
226
227
228
229
0
0
232
0
0
0
0
0
0
0
240
0
0
0
0
245
246
0
0
0
0
0
0
0
0
0
0
0
0
0
0
0
0
263
0
0
0
267
268
269
0
0
0
0
0
0
0
0
0
0
0
281
282
283
0
0
0
0
0
0
0
0
0
0
0
0
0
0
0
0
0
0
0
0
0
0
0
0
0
0
0
0
0
0
0
0
0
0
0
0
0
0
0
0
0
0
326
0
0
0
0
0
0
0
0
0
0
0
0
0
0
0
0
0
344
345
346
0
0
0
0
0
0
0
0
0
0
0
0
0
0
0
0
0
0
0
0
0
0
0
0
0
0
0
0
0
0
0
0
0
0
0
0
0
0
0
0
0
0
0
0
0
0
0
0
0
0
0
0
0
0
0
0
0
0
0
0
0
0
0
0
0
0
0
0
0
416
417
418
419
0
0
0
423
424
0
0
0
0
0
0
0
0
0
0
0
0
0
0
439
440
441
442
443
444
445
0
0
0
0
0
0
0
0
0
0
0
0
0
0
0
0
0
0
0
465
466
467
0
0
0
0
0
0
0
0
0
0
0
0
0
0
0
0
0
0
0
0
0
0
0
0
0
0
0
0
0
0
0
499
0
0
0
0
0
0
0
0
0
0
0
0
0
0
0
0
0
0
0
0
0
0
0
0
0
525
526
0
0
0
530
531
532
0
0
0
536
537
538
539
0
0
0
0
0
0
0
0
0
0
0
0
0
0
0
0
0
0
0
0
0
0
0
0
0
0
0
0
568
0
0
0
572
573
574
575
0
0
0
0
0
0
0
0
0
0
0
0
0
0
590
0
0
0
0
0
0
0
0
0
0
0
0
0
0
0
0
0
0
0
0
0
0
0
0
0
0
0
0
0
0
0
0
0
0
625
626
0
0
0
630
631
0
0
0
0
0
0
0
0
0
0
0
0
0
0
0
0
0
0
650
651
652
653
654
0
0
0
0
0
0
0
0
0
0
0
0
0
0
0
0
0
0
0
0
0
0
0
0
0
0
0
0
0
0
0
0
0
0
0
0
0
692
693
694
0
0
0
0
699
700
701
702
0
0
0
0
707
0
709
0
0
0
0
0
0
0
0
0
0
0
0
0
723
724
725
0
0
0
0
0
0
0
0
0
0
0
0
0
0
0
741
742
0
0
0
0
0
0
0
0
0
0
0
0
0
0
0
0
0
0
0
0
0
0
0
0
0
0
0
0
0
0
0
0
0
0
0
0
0
0
0
0
0
0
0
0
0
0
0
0
0
0
0
0
0
0
15
0
0
0
0
0
0
0
0
0
25
0
0
0
0
0
0
0
33
0
0
0
37
0
0
0
41
0
0
0
45
46
47
0
49
50
51
52
53
0
0
56
57
58
0
0
0
0
0
0
65
0
67
0
0
70
71
72
73
74
0
0
0
0
0
80
81
0
83
0
0
0
0
88
0
0
0
0
0
94
0
0
97
0
0
100
0
0
0
0
0
0
107
0
109
110
111
112
0
0
115
0
117
118
119
120
0
0
0
0
125
0
127
128
129
0
0
0
133
0
0
136
137
0
139
0
0
0
143
0
0
146
147
0
0
0
151
152
153
0
0
156
0
0
0
0
161
162
163
164
165
0
0
0
0
0
0
0
0
0
0
0
0
0
179
180
0
0
0
0
0
0
187
0
0
190
0
0
0
0
0
0
0
198
0
200
201
202
0
0
0
0
0
0
0
0
0
0
213
0
0
0
217
0
0
0
221
222
223
224
225
226
0
0
0
0
231
232
0
0
0
0
237
0
0
0
0
0
0
0
0
0
0
0
0
250
0
0
0
0
0
0
0
0
0
0
0
0
0
0
0
0
267
268
0
0
0
0
0
0
0
0
277
278
279
280
281
282
283
284
0
0
0
0
0
290
291
0
0
0
0
0
0
0
0
0
0
0
303
304
305
306
307
308
0
0
0
312
313
0
0
0
0
318
319
320
321
322
323
324
325
326
327
0
0
0
0
0
0
0
0
336
337
338
339
340
341
0
0
0
0
0
0
0
0
0
0
0
0
0
0
0
357
358
359
360
0
0
0
364
365
366
0
0
0
0
0
0
0
0
0
0
0
0
0
380
381
382
0
0
0
0
0
0
0
390
391
392
393
394
395
396
397
0
0
400
401
402
0
0
0
0
0
0
0
0
0
0
0
0
0
0
0
0
0
0
0
0
0
0
425
426
427
428
0
0
0
0
0
0
0
0
0
0
0
0
0
0
0
0
0
0
0
0
0
0
451
452
453
454
0
0
0
0
0
0
0
0
0
0
0
0
467
468
469
0
0
0
0
0
0
0
0
0
0
0
0
0
0
0
0
0
0
0
0
0
0
0
0
0
495
0
0
498
499
500
501
0
0
0
0
0
0
0
0
0
0
0
0
0
0
0
0
0
0
0
0
0
0
0
0
0
0
0
0
0
0
0
0
0
0
0
0
0
0
0
541
542
0
0
0
0
0
0
0
0
0
0
0
554
555
0
0
0
0
0
0
0
0
0
0
0
0
0
0
0
0
0
0
574
0
0
0
0
579
580
581
582
0
0
0
0
0
0
0
0
0
0
0
0
0
596
597
598
0
0
0
0
0
0
0
0
0
0
0
0
0
0
0
0
0
0
0
0
0
0
0
0
0
0
0
0
0
0
0
0
0
0
0
0
0
0
637
638
639
640
0
0
0
644
0
0
0
0
0
0
0
0
653
654
655
656
0
0
0
0
0
0
0
0
0
0
0
0
0
0
0
0
0
0
0
0
677
678
679
680
0
0
0
0
0
0
0
0
0
0
691
0
0
694
695
696
0
0
0
0
0
0
0
0
0
0
0
0
0
0
0
0
0
0
0
0
0
0
0
0
0
0
0
0
0
0
0
0
0
0
0
0
0
0
0
736
737
0
739
740
741
742
743
744
0
0
0
0
0
0
0
0
0
0
755
756
757
758
759
760
761
762
0
0
0
0
0
0
0
0
0
0
0
0
0
0
0
0
0
0
0
0
783
EOF
