DIMENSION : 783
NUMBER OF ITEMS : 782

TOUR_SECTION
1
17
23
2
7
18
12
9
33
29
10
3
5
19
30
8
20
31
36
59
61
68
86
82
72
92
103
93
69
78
90
104
113
119
96
91
73
60
55
44
51
42
54
62
50
35
22
14
32
16
21
26
27
24
28
34
4
11
13
6
40
38
43
66
75
87
84
79
101
106
109
114
122
142
149
134
135
171
193
199
194
181
177
170
168
148
145
131
132
141
130
129
154
167
158
166
174
178
192
207
223
214
218
234
254
238
247
264
265
280
285
315
314
329
341
355
357
367
394
406
404
413
399
396
374
369
379
378
398
412
427
421
428
442
444
462
461
471
481
479
490
504
516
523
503
510
532
545
549
546
538
550
555
574
567
582
592
595
608
583
585
602
620
623
625
635
643
663
656
658
677
682
687
696
703
694
702
708
716
724
742
752
756
764
751
728
715
717
714
711
712
729
744
753
767
771
775
783
782
781
780
770
763
746
741
723
730
731
727
750
749
762
766
774
773
777
779
768
757
759
776
758
743
739
732
722
706
690
680
685
679
671
678
688
709
705
718
735
736
745
760
765
772
761
778
769
747
734
738
725
704
697
683
672
665
659
652
648
645
655
660
675
681
692
691
698
713
707
719
733
737
754
755
748
740
726
721
720
699
695
686
710
700
701
689
693
673
664
667
668
674
676
670
647
637
616
606
593
581
604
615
629
632
642
650
662
654
653
646
651
666
669
684
661
657
649
644
641
634
627
612
613
619
617
628
621
607
587
603
609
622
636
630
633
631
639
618
610
589
605
614
601
600
591
584
577
570
565
558
575
571
572
573
559
553
543
527
522
524
514
520
537
544
528
525
509
502
498
478
468
451
454
447
440
450
465
475
488
493
489
480
474
487
497
496
494
476
464
470
469
467
477
483
491
500
501
507
505
521
542
541
536
535
556
564
563
566
578
588
599
590
598
597
586
594
611
626
638
640
624
596
580
568
576
560
548
533
526
511
499
472
482
484
485
466
458
453
452
445
436
429
423
395
384
363
352
359
356
343
328
344
358
366
371
365
376
393
377
370
372
391
411
418
417
419
410
409
408
420
424
430
426
433
422
405
392
389
397
382
387
390
401
407
425
443
438
455
463
486
492
508
512
517
506
530
534
551
554
562
579
569
561
539
531
540
547
557
552
529
515
513
519
518
495
473
460
449
456
457
439
431
435
441
448
434
437
459
446
432
416
402
400
414
415
403
388
385
368
373
383
364
381
386
380
375
360
354
351
348
340
338
337
349
361
362
342
331
334
324
320
298
309
304
297
296
284
279
261
245
252
241
272
271
263
260
244
229
228
220
203
189
191
197
188
183
159
150
144
124
121
126
118
138
128
140
116
112
108
105
102
99
85
71
64
48
39
63
74
77
89
95
98
76
94
83
65
58
53
47
46
41
67
81
70
80
100
107
111
120
133
137
143
152
161
187
204
202
208
224
240
232
233
225
217
206
190
200
198
179
176
163
169
157
164
165
173
182
209
211
212
219
210
201
213
221
226
237
251
253
262
257
275
287
282
283
288
308
310
301
312
295
311
318
326
336
330
322
303
292
281
269
250
259
258
268
267
256
243
249
248
227
222
231
230
239
246
255
277
276
278
273
274
286
299
291
306
316
293
290
300
307
321
333
345
347
350
332
346
353
339
325
323
319
327
335
317
294
302
313
305
289
270
266
242
236
235
216
215
185
172
180
186
205
195
196
184
162
156
151
136
127
153
175
160
155
147
139
146
125
117
123
115
110
97
88
56
49
52
57
45
37
25
15

PP_SECTION
0
3
0
0
0
7
0
0
0
0
0
0
14
15
0
0
0
0
0
0
0
0
0
25
0
0
0
29
0
0
0
0
0
0
0
0
0
39
0
41
0
0
0
45
46
47
48
49
0
51
52
53
0
0
56
57
0
59
0
0
62
63
0
65
0
67
0
69
70
71
0
0
0
0
0
77
0
0
80
81
0
83
0
85
0
0
88
0
90
0
0
93
94
95
0
97
0
99
100
0
102
0
0
0
0
0
108
0
110
0
0
113
0
0
0
117
0
0
120
121
0
123
124
125
0
0
0
0
0
131
0
0
0
0
136
0
0
139
140
0
0
143
0
0
146
147
148
0
0
151
0
0
0
155
156
157
0
159
160
0
0
163
164
0
0
0
0
0
0
0
0
173
0
175
0
0
0
179
180
0
0
0
184
185
0
0
188
189
190
191
0
0
0
195
0
197
198
0
0
201
202
203
204
205
0
0
208
0
0
0
212
213
0
215
216
217
0
0
0
221
222
223
0
0
226
227
0
0
230
231
232
0
0
235
236
237
0
239
240
0
242
243
244
0
246
0
248
249
250
0
252
0
0
0
0
257
0
259
0
261
0
0
0
265
266
267
268
269
270
0
0
273
0
275
0
0
278
279
0
281
282
0
284
0
286
287
288
289
290
0
292
293
294
295
296
0
0
299
300
0
302
0
0
305
0
307
308
309
310
311
312
313
314
0
316
0
318
0
0
321
322
323
0
325
0
0
0
329
330
0
332
333
334
0
0
337
0
0
340
0
0
0
344
0
346
347
348
349
350
0
352
353
0
0
0
0
0
0
360
361
362
0
0
365
0
0
0
0
370
0
0
373
0
0
376
0
0
0
380
0
0
383
0
385
0
0
388
0
0
391
392
393
394
395
0
0
0
0
0
0
0
403
0
405
0
407
0
0
0
0
0
0
0
0
416
417
0
419
420
0
0
0
0
425
426
0
0
429
430
0
0
433
0
0
436
0
0
0
0
441
0
0
0
0
446
447
448
449
0
0
0
0
454
455
456
457
0
0
0
0
0
0
0
0
466
0
468
0
0
0
0
0
0
0
0
477
0
0
0
0
482
483
484
485
486
0
0
0
0
491
0
0
494
0
0
497
0
499
0
0
0
0
0
0
506
0
508
0
0
0
0
513
0
515
0
0
0
519
0
521
0
0
0
0
526
0
0
529
530
531
532
533
534
535
536
0
0
0
540
0
0
543
0
0
0
547
0
0
550
551
0
0
0
0
0
0
0
0
0
0
562
0
0
565
0
0
568
0
570
0
0
573
0
575
0
0
0
0
0
581
0
0
0
585
586
0
0
0
0
0
0
0
0
0
596
0
0
0
600
0
0
603
0
0
0
0
0
0
610
611
0
0
0
0
0
0
0
619
0
621
622
0
0
0
626
627
0
0
630
0
0
0
0
635
636
637
0
0
0
0
0
0
644
0
646
0
0
649
650
651
0
0
654
655
656
0
0
0
0
0
662
663
0
0
0
667
0
0
0
0
0
0
0
0
0
0
678
0
0
681
0
0
0
0
686
687
0
0
0
0
0
693
694
0
0
697
698
0
0
0
0
0
0
705
0
707
0
0
0
0
712
0
0
0
0
0
0
0
0
721
0
0
0
725
726
0
0
0
0
0
732
0
0
735
736
0
0
0
740
0
0
0
744
0
0
0
748
0
0
0
752
0
0
0
0
0
758
759
760
0
0
0
0
765
766
0
768
769
770
771
0
0
774
0
0
0
0
0
780
0
0
0
EOF
