DIMENSION : 783
NUMBER OF ITEMS : 7820

TOUR_SECTION
1
15
25
37
45
57
52
49
56
88
97
110
115
123
117
125
146
139
147
155
160
175
153
127
136
151
156
162
184
196
195
205
186
180
172
185
215
216
235
242
236
239
246
255
230
231
222
227
248
249
243
256
267
268
258
259
250
269
281
290
300
307
316
293
306
291
299
286
274
273
278
276
277
270
266
289
305
313
302
294
317
335
327
319
323
325
339
353
346
332
350
347
345
333
321
322
303
292
295
311
330
336
326
318
312
301
287
282
283
288
310
308
320
324
334
331
342
362
361
349
337
338
340
348
351
354
360
375
380
386
381
364
383
373
368
385
388
403
415
414
400
402
416
432
446
459
437
434
448
441
435
431
439
457
456
449
460
473
495
518
519
513
515
529
552
557
547
540
531
539
561
569
579
562
554
551
534
530
506
517
512
508
492
486
463
455
438
443
425
407
401
390
387
382
397
389
392
405
422
433
426
430
424
420
408
409
410
419
417
418
411
391
372
370
377
393
376
365
371
366
358
344
328
343
356
359
352
363
384
395
423
429
436
445
452
453
458
466
485
484
482
472
499
511
526
533
548
560
568
576
596
624
640
638
626
611
594
580
586
597
598
590
599
588
578
566
563
564
556
535
536
541
542
521
505
507
501
500
491
483
477
467
469
470
464
476
494
496
497
487
474
480
489
493
488
475
465
450
440
447
451
454
468
478
498
502
509
525
528
544
537
520
514
524
522
527
543
553
559
573
572
571
575
558
565
570
577
584
591
600
601
614
605
589
610
618
639
631
633
630
636
622
609
603
587
607
621
628
617
619
613
612
627
634
641
644
657
649
661
684
669
666
651
646
653
654
662
650
642
632
629
615
604
581
593
606
616
637
647
670
676
674
668
667
664
673
693
689
701
700
710
686
695
699
720
721
726
740
748
755
754
737
733
719
707
713
698
692
691
681
675
660
655
645
648
652
659
665
672
683
697
704
725
738
734
747
769
778
761
772
765
760
745
736
735
718
705
709
688
678
671
679
685
680
690
706
722
732
739
743
758
776
759
757
768
779
777
773
774
766
762
749
750
727
731
730
723
741
746
763
770
780
781
782
783
775
771
767
753
744
729
712
711
714
717
715
728
751
764
756
752
742
724
716
708
702
694
703
696
687
682
677
658
656
663
643
635
625
623
620
602
585
583
608
595
592
582
567
574
555
550
538
546
549
545
532
510
503
523
516
504
490
479
481
471
461
462
444
442
428
421
427
412
398
378
379
369
374
396
399
413
404
406
394
367
357
355
341
329
315
314
304
297
296
309
298
284
279
264
265
280
285
254
234
238
247
261
245
252
241
272
271
263
260
244
229
228
220
203
189
191
197
188
183
201
210
213
221
226
237
257
275
262
251
253
219
212
211
209
182
173
165
164
157
169
163
176
179
198
200
190
206
217
225
233
232
240
224
208
202
204
187
161
152
143
137
133
120
111
107
100
80
70
81
67
41
46
47
53
58
65
83
94
76
98
95
89
77
74
63
39
48
64
71
85
99
102
105
108
112
116
140
128
138
118
126
121
124
144
150
159
167
154
129
130
141
132
131
158
166
174
178
192
207
223
214
218
199
193
171
177
181
194
170
168
145
148
142
149
134
135
122
119
113
104
90
78
69
93
103
92
72
82
86
68
59
61
50
62
54
42
51
44
55
60
73
91
96
114
109
106
101
79
84
87
75
66
43
38
40
6
13
11
4
34
28
24
27
26
21
16
32
14
22
35
31
36
20
8
30
19
5
3
10
29
33
9
12
18
7
2
23
17

PP_SECTION
0
3
0
5
6
7
0
9
10
0
12
0
14
0
0
17
0
0
20
0
0
0
0
0
26
27
0
29
0
0
32
33
0
0
36
0
0
39
0
0
0
0
44
0
0
0
0
0
0
51
0
0
0
0
0
0
0
59
0
61
62
63
0
65
0
67
68
69
0
71
0
0
0
0
0
0
0
0
0
0
0
83
0
0
0
87
0
0
90
91
0
93
94
0
96
0
0
99
100
0
0
0
0
0
0
0
108
0
0
0
0
113
0
0
0
0
0
119
0
0
0
0
0
0
0
0
0
0
0
131
0
0
134
135
0
0
0
0
0
0
0
0
0
0
0
0
148
0
0
0
0
0
0
0
0
0
0
0
0
0
0
0
164
0
0
0
168
0
0
0
0
0
0
0
0
0
0
0
0
0
0
0
0
0
0
0
188
189
0
0
0
0
0
0
0
197
0
0
0
0
0
0
0
0
0
0
208
0
0
0
0
213
0
0
0
0
0
0
0
0
0
223
0
0
226
0
0
0
0
0
232
0
0
0
0
0
0
0
0
0
0
0
0
0
0
0
0
0
0
0
252
0
0
0
0
257
0
0
0
0
0
0
0
265
0
0
0
0
0
0
0
0
0
0
0
0
0
279
0
0
0
0
284
0
0
0
0
0
0
0
0
0
0
0
0
0
0
0
0
0
0
0
0
0
0
0
0
0
0
0
0
0
314
0
0
0
0
0
0
0
0
0
0
0
0
0
0
329
0
0
0
0
0
0
0
0
0
0
0
0
0
0
0
0
0
0
0
0
0
0
0
0
0
0
0
0
0
0
0
0
0
0
0
0
0
0
0
0
0
0
0
0
0
0
0
0
0
0
0
0
0
0
0
0
0
0
0
0
0
0
0
0
394
0
0
0
0
0
0
0
0
0
0
0
0
0
0
0
0
0
0
0
0
0
0
0
0
0
0
0
0
0
0
0
0
0
0
0
0
0
0
0
0
0
0
0
0
0
0
0
0
0
0
0
0
0
0
0
0
0
0
0
0
0
0
0
0
0
0
0
0
0
0
0
0
0
0
0
0
0
0
0
0
0
0
0
0
0
0
0
0
0
0
0
0
0
0
0
0
0
0
0
0
0
0
0
0
0
0
0
0
0
0
0
0
0
0
0
0
0
0
0
0
0
0
0
0
0
0
0
0
0
0
0
0
0
0
0
0
0
0
0
0
0
0
0
0
0
0
0
0
0
0
0
0
0
0
0
0
0
0
0
0
0
0
0
0
0
0
0
0
0
0
0
0
0
0
0
0
0
0
0
0
0
0
0
0
0
0
0
0
0
0
585
0
0
0
0
0
0
0
0
0
0
0
0
0
0
0
0
0
0
0
0
0
0
0
0
0
0
0
0
0
0
0
0
0
0
0
0
0
0
0
0
0
0
0
0
0
0
0
0
0
635
0
0
0
0
0
0
0
0
0
0
0
0
0
0
0
0
0
0
0
655
0
0
0
0
0
0
0
0
0
0
0
667
0
0
0
0
0
0
0
0
0
0
0
0
0
0
0
0
0
0
0
0
0
0
0
0
0
0
694
0
0
0
0
0
0
0
0
0
0
0
0
0
0
0
0
0
0
0
0
0
0
0
0
0
0
0
0
0
0
725
0
0
0
0
0
0
0
0
0
0
0
0
0
0
0
0
0
0
0
0
0
0
0
0
0
0
0
0
0
0
0
0
0
0
760
0
0
0
0
0
0
0
0
0
0
0
0
0
0
0
0
0
0
0
780
0
0
0
0
0
4
0
0
0
8
0
10
0
12
13
0
0
16
17
18
0
20
21
0
0
24
0
0
27
28
29
30
0
0
33
0
35
36
0
38
0
40
41
42
0
0
0
0
0
0
0
0
0
0
0
54
0
0
0
0
0
0
0
0
0
0
0
0
0
0
0
0
71
0
0
0
75
0
77
0
0
0
0
0
83
0
0
86
87
0
0
90
0
92
0
0
0
0
0
0
0
0
101
0
103
0
105
0
0
0
0
0
0
112
0
114
0
0
0
0
119
0
0
0
0
124
0
0
0
0
129
130
0
0
0
134
0
0
0
0
0
0
0
142
0
0
145
0
0
0
0
0
0
152
0
0
0
0
0
158
0
0
0
0
0
164
0
166
0
0
0
0
171
0
0
0
0
0
0
178
0
0
0
0
0
0
0
0
0
188
0
0
0
0
193
0
0
0
197
0
0
0
0
0
203
0
0
0
0
208
0
0
0
0
0
0
0
0
0
0
0
0
0
0
0
0
0
226
0
228
0
0
0
232
233
0
0
0
0
0
0
0
0
0
0
0
0
0
0
0
0
0
0
0
0
0
0
0
0
0
0
0
0
262
0
0
0
0
0
0
0
0
271
0
0
0
0
0
0
0
0
0
0
0
0
0
0
0
0
0
0
0
0
0
0
0
0
0
0
0
0
0
0
0
0
304
0
0
0
0
0
0
0
0
0
0
315
0
0
0
0
0
0
0
0
0
0
0
0
0
0
0
0
0
0
0
0
0
0
0
0
0
0
0
0
0
0
0
0
0
0
0
0
0
0
0
355
0
0
0
0
0
0
0
0
0
0
0
0
0
0
0
0
0
0
0
0
0
0
378
0
0
0
0
0
0
0
0
0
0
0
0
0
0
0
0
0
0
0
0
0
0
0
0
0
0
0
0
0
0
0
0
0
0
0
0
0
0
0
0
0
0
0
0
0
0
0
0
0
0
0
0
0
0
0
0
0
0
0
0
0
0
0
0
0
0
0
0
0
0
0
0
0
0
0
0
0
0
0
0
0
0
0
0
0
0
0
0
0
0
0
0
0
0
0
0
0
0
0
0
0
0
0
0
0
0
0
0
0
0
0
0
0
0
0
0
0
0
0
0
0
0
0
0
0
0
0
0
0
0
0
0
0
0
0
0
0
0
0
0
0
0
0
0
0
0
0
0
0
0
0
0
0
532
0
0
0
0
0
0
0
0
0
0
0
0
0
0
0
0
0
0
0
0
0
0
0
0
0
0
0
0
0
0
0
0
0
0
0
0
0
0
0
0
0
0
0
0
0
0
0
0
0
582
0
0
0
0
0
0
0
0
0
0
0
0
0
0
0
0
0
0
0
0
0
0
0
0
0
0
0
0
0
0
0
0
0
0
0
0
0
0
0
0
0
0
625
0
0
0
0
0
0
0
0
0
0
0
0
0
0
0
0
0
0
0
0
0
0
648
0
0
0
0
0
0
0
0
0
0
0
660
0
0
0
0
0
0
0
0
0
0
671
0
0
0
0
0
0
0
0
0
0
0
0
0
0
0
0
0
0
0
0
0
0
0
0
0
0
0
0
0
0
0
0
0
0
0
0
0
0
0
0
0
0
0
0
716
0
0
0
0
0
0
0
0
0
0
0
0
0
0
0
0
0
0
0
0
0
0
739
0
0
0
0
744
0
0
0
0
0
0
0
0
0
0
0
0
0
0
0
0
0
0
0
0
0
766
0
0
0
0
0
0
0
0
0
0
0
0
0
0
0
0
0
0
3
0
0
0
7
8
9
10
11
12
0
0
0
0
17
0
19
0
21
22
23
24
0
0
27
0
29
0
0
0
0
0
35
0
0
38
39
0
0
42
0
44
0
0
0
0
0
0
0
0
0
0
55
0
0
0
0
0
0
62
63
0
0
0
0
0
0
0
0
0
0
74
0
0
0
0
0
0
0
0
83
0
0
0
87
0
0
0
91
0
93
0
0
96
0
0
99
0
0
0
0
0
0
106
0
0
109
0
0
0
0
114
0
0
0
0
0
0
0
122
0
0
0
0
0
0
0
130
0
132
0
134
0
0
0
0
0
140
0
0
143
144
0
0
0
148
149
150
0
152
0
0
0
0
0
0
0
0
0
0
0
0
0
0
0
0
169
170
171
0
0
174
0
0
0
0
0
0
0
182
183
0
0
0
0
188
0
190
0
192
193
0
0
0
0
0
0
0
0
0
0
0
0
0
0
0
0
0
0
0
0
0
0
0
0
0
0
0
0
0
0
0
0
0
0
0
0
0
0
0
0
0
0
0
0
0
0
0
0
0
0
0
0
0
0
0
0
0
0
0
0
0
0
0
0
0
0
260
0
0
263
0
265
0
0
0
0
0
0
0
0
0
0
0
0
0
0
0
0
0
0
0
285
0
0
0
0
0
0
0
0
0
0
0
0
0
0
0
0
0
0
0
0
0
0
0
0
0
0
0
0
0
0
0
0
0
0
0
0
0
0
0
0
0
0
0
0
0
0
0
0
0
0
0
0
0
0
0
341
0
0
0
0
0
0
0
0
0
0
0
0
0
0
0
357
0
0
0
0
0
0
0
0
0
0
0
0
0
0
0
0
0
0
0
0
378
0
0
0
0
0
0
0
0
0
0
0
0
0
0
0
0
0
0
0
0
0
0
0
0
0
0
0
0
0
0
0
0
0
0
0
0
0
0
0
0
0
0
0
0
0
0
0
0
0
0
0
0
0
0
0
0
0
0
0
0
0
0
0
0
0
0
0
0
0
0
0
0
0
0
0
0
0
0
0
0
0
0
0
0
0
0
0
0
0
0
0
0
0
0
0
0
0
0
0
0
0
0
0
0
0
0
0
0
0
0
0
0
0
0
0
0
0
0
0
0
0
0
0
0
0
0
0
0
0
0
0
0
0
0
0
0
0
0
0
0
0
0
0
0
523
0
0
0
0
0
0
0
0
0
0
0
0
0
0
0
0
0
0
0
0
0
0
0
0
0
0
0
0
0
0
0
0
0
0
0
0
0
0
0
0
0
0
0
0
0
0
0
0
0
0
0
0
0
0
0
0
0
0
0
0
0
0
0
0
0
0
0
0
0
0
0
0
0
0
0
0
0
0
0
0
0
0
0
0
608
0
0
0
0
0
0
0
0
0
0
0
0
0
0
0
0
0
0
0
0
0
0
0
0
0
0
0
0
0
0
0
0
0
0
0
0
0
0
0
0
0
0
0
0
0
0
0
0
0
0
0
0
0
0
0
0
0
0
0
0
0
0
0
0
0
0
675
0
0
0
0
0
681
0
0
0
0
0
0
688
0
0
0
0
0
0
0
0
0
0
699
0
0
0
0
704
0
0
0
0
0
0
0
0
0
0
0
0
0
0
0
0
0
0
0
0
0
0
0
0
0
0
0
0
0
0
0
736
0
0
0
0
0
0
0
0
0
0
0
0
0
0
0
0
0
0
0
0
0
0
0
0
0
0
0
764
0
0
0
0
0
0
0
0
0
0
0
0
0
0
0
0
0
0
0
2
3
0
5
0
0
8
0
10
0
12
0
0
0
16
17
18
0
0
0
0
23
0
0
26
0
28
0
30
0
32
33
0
0
36
0
0
39
0
0
0
0
44
0
0
0
0
0
0
0
0
0
54
0
0
0
58
0
60
0
0
63
64
0
66
0
0
0
0
71
72
0
0
75
0
0
0
0
0
81
0
0
0
0
0
87
0
0
0
0
0
0
0
0
96
0
0
99
0
0
102
103
104
105
106
0
108
109
0
0
0
0
0
0
0
0
0
0
0
121
0
0
0
0
0
0
0
0
130
0
0
133
0
0
0
0
0
0
0
0
0
0
0
0
0
0
148
149
150
0
0
0
0
0
0
0
0
0
0
0
0
0
0
0
0
0
0
0
0
0
0
0
174
0
0
177
0
0
0
0
182
0
0
0
0
0
0
0
0
191
192
0
0
0
0
0
0
199
200
0
0
203
0
0
0
0
208
0
0
211
0
213
0
0
0
0
0
0
0
0
0
0
0
0
0
0
0
0
0
0
0
0
0
0
0
0
0
0
0
0
0
0
0
245
0
0
0
0
0
0
0
0
0
0
0
0
0
0
260
0
0
0
0
0
0
0
0
0
0
0
0
0
0
0
0
0
0
0
0
0
0
0
0
0
0
0
0
0
0
0
0
0
0
0
0
0
0
0
0
0
0
0
0
0
0
0
0
0
0
0
0
0
0
0
0
0
0
0
0
0
0
0
0
0
0
0
0
0
0
0
0
0
0
0
0
0
0
0
0
0
0
0
0
0
0
0
0
0
0
0
0
0
0
0
0
0
0
0
0
0
0
0
0
0
0
0
0
0
0
0
0
0
0
0
0
0
0
379
0
0
0
0
0
0
0
0
0
0
0
0
0
0
0
0
0
0
0
0
0
0
0
0
0
0
0
0
0
0
0
0
0
0
0
0
0
0
0
0
0
0
0
0
0
0
0
0
0
0
0
0
0
0
0
0
0
0
0
0
0
0
0
0
0
0
0
0
0
0
0
0
0
0
0
0
0
0
0
0
0
0
462
0
0
0
0
0
0
0
0
0
0
0
0
0
0
0
0
0
0
0
0
0
0
0
0
0
0
0
0
0
0
0
0
0
0
0
0
0
0
0
0
0
0
0
0
0
0
0
0
0
0
0
0
0
0
0
0
0
0
0
0
523
0
0
0
0
0
0
0
0
0
0
0
0
0
0
0
0
0
0
0
0
0
0
0
0
0
0
0
0
0
0
0
0
0
0
0
0
0
0
0
0
0
0
0
0
0
0
0
0
0
0
0
0
0
0
0
0
0
0
582
0
0
585
0
0
0
0
0
0
0
0
0
0
0
0
0
0
0
0
0
0
0
0
0
0
0
0
0
0
0
0
0
0
0
0
0
0
0
0
0
0
0
0
0
0
0
0
0
0
0
0
0
0
0
0
0
0
0
0
642
0
0
0
0
0
0
0
650
651
0
0
0
0
0
0
0
0
0
0
0
0
0
0
0
0
0
0
0
0
0
0
0
0
0
0
0
0
0
0
0
0
0
0
0
0
0
0
0
0
0
0
0
0
0
0
0
0
0
0
0
0
0
0
0
0
0
0
0
0
0
0
0
0
0
717
0
0
0
0
0
0
0
0
0
0
0
0
0
0
0
0
0
0
0
0
0
0
0
741
0
0
0
0
0
0
0
0
0
0
0
0
0
0
0
0
0
0
0
761
762
0
0
0
0
0
0
0
0
0
0
0
0
0
0
0
0
0
0
781
0
0
2
3
0
5
6
0
0
0
10
0
0
0
0
0
0
17
18
19
20
21
0
0
24
0
0
0
28
29
0
0
0
0
0
35
36
0
0
0
0
41
42
43
44
0
46
0
0
0
50
51
0
0
0
55
0
0
0
0
60
0
0
63
0
0
66
0
0
0
0
0
0
73
0
0
76
0
0
0
0
0
0
0
84
85
86
87
0
0
0
91
92
0
0
0
0
0
0
0
0
101
0
0
104
0
106
107
0
109
0
0
0
0
0
0
116
0
0
0
0
0
0
0
124
0
0
0
0
0
0
0
132
0
0
135
0
137
0
0
140
0
0
0
144
145
0
0
0
149
150
0
0
0
0
0
0
0
0
0
0
0
0
163
0
0
0
0
168
169
0
171
0
0
0
0
0
0
0
0
0
0
0
0
0
0
0
0
0
0
0
191
0
0
0
0
0
0
0
0
0
0
0
0
0
0
0
0
0
0
0
0
0
0
214
0
0
0
218
0
0
0
0
223
0
0
0
0
228
229
0
0
0
233
0
0
0
0
238
0
0
0
0
0
0
0
0
0
0
0
0
0
0
0
0
0
0
0
0
0
0
0
0
0
0
0
0
0
0
0
0
0
0
0
0
0
0
0
0
0
0
0
0
0
0
0
0
0
0
0
0
0
0
0
0
0
0
0
0
0
0
0
0
0
0
0
0
0
0
0
0
0
0
0
0
315
0
0
0
0
0
0
0
0
0
0
0
0
0
0
0
0
0
0
0
0
0
0
0
0
0
341
0
0
0
0
0
0
0
0
0
0
0
0
0
0
0
0
0
0
0
0
0
0
0
0
0
0
0
0
0
0
0
0
0
0
0
0
0
0
0
0
0
0
0
0
0
0
0
0
0
0
0
0
0
0
0
0
0
0
0
0
0
0
0
0
0
0
0
0
0
0
0
0
0
0
0
0
0
0
0
0
0
0
0
0
0
0
0
0
0
0
0
0
0
0
0
0
0
0
0
0
0
0
0
0
0
0
0
0
0
0
0
0
0
0
0
0
0
0
0
0
0
0
0
0
0
0
0
0
0
0
0
0
0
0
0
0
0
0
0
0
0
0
0
0
0
0
0
0
0
0
0
0
0
0
0
0
0
0
0
0
0
0
0
0
0
0
0
0
0
0
0
0
0
0
0
0
0
0
0
0
0
0
0
0
0
0
0
0
0
0
532
0
0
0
0
0
538
0
0
0
0
0
0
0
0
0
0
0
0
0
0
0
0
0
0
0
0
0
0
0
0
0
0
0
0
0
0
0
0
0
0
0
0
0
0
0
0
0
0
0
0
0
0
0
0
0
0
0
0
0
0
0
0
0
0
0
0
0
0
0
0
0
0
0
0
0
0
0
0
0
0
0
0
0
0
0
0
0
0
0
0
0
0
0
0
0
0
0
0
0
0
0
0
0
0
0
0
0
0
0
0
0
0
0
0
0
0
0
0
0
0
0
0
0
0
0
0
0
0
0
0
0
664
0
0
0
0
0
0
0
0
0
0
0
0
0
0
679
0
0
0
0
0
0
0
687
0
0
0
0
0
0
694
0
0
0
0
0
0
0
0
0
0
0
0
0
0
0
0
711
0
0
0
0
0
0
0
0
0
0
0
0
0
0
0
0
0
729
0
0
0
0
0
0
0
0
0
0
0
0
0
0
0
0
0
0
0
0
0
0
0
0
0
0
0
0
758
0
0
0
0
0
0
0
0
0
0
0
0
771
0
0
0
0
0
0
0
0
0
0
0
783
0
3
0
5
0
7
8
0
10
0
12
13
0
0
0
17
0
0
0
0
0
0
0
0
26
27
0
29
0
0
0
33
0
0
36
0
38
39
0
0
42
0
0
0
0
0
0
0
50
51
0
0
0
0
0
0
0
59
60
0
62
0
64
0
0
0
0
0
0
71
0
0
0
0
0
0
78
79
0
0
82
0
84
0
0
0
0
0
0
91
92
93
94
0
96
0
0
0
100
0
0
0
104
0
0
0
0
109
0
111
0
113
114
0
0
0
118
119
0
0
0
0
0
0
126
0
0
0
0
131
132
0
0
0
0
0
0
0
0
0
0
143
0
0
0
0
0
0
0
0
152
0
154
0
0
157
0
0
0
161
0
0
0
0
0
0
0
0
170
0
0
0
0
0
176
0
0
0
0
181
0
0
0
0
0
0
0
0
0
191
0
193
0
0
0
197
198
0
0
0
0
0
0
0
0
207
0
0
0
0
0
0
214
0
0
0
0
0
0
221
0
0
0
0
0
0
0
0
0
0
0
0
0
0
0
237
238
0
0
241
0
0
0
0
0
0
0
0
0
0
0
0
0
0
0
0
0
0
0
0
262
0
0
0
0
0
0
0
0
0
0
0
0
0
0
0
0
0
280
0
0
0
0
0
0
0
0
0
0
0
0
0
0
0
0
0
0
0
0
0
0
0
0
0
0
0
0
0
0
0
0
0
0
0
0
0
0
0
0
0
0
0
0
0
0
0
0
0
0
0
0
0
0
0
0
0
0
0
0
0
0
0
0
0
0
0
0
0
0
0
0
0
0
0
0
357
0
0
0
0
0
0
0
0
0
367
0
0
0
0
0
0
0
0
0
0
0
0
0
0
0
0
0
0
0
0
0
0
0
0
0
0
0
0
396
0
0
399
0
0
0
0
0
0
0
0
0
0
0
0
412
0
0
0
0
0
0
0
0
0
0
0
0
0
0
0
0
0
0
0
0
0
0
0
0
0
0
0
0
0
0
0
0
0
0
0
0
0
0
0
0
0
0
0
0
0
0
0
0
0
0
0
0
0
0
0
0
0
0
0
0
0
0
0
0
0
0
0
0
0
0
0
0
0
0
0
0
0
0
0
0
0
0
0
0
0
0
0
0
0
0
0
0
0
0
0
0
0
0
0
0
0
0
0
0
0
0
0
0
0
0
523
0
0
0
0
0
0
0
0
0
0
0
0
0
0
0
0
0
0
0
0
0
0
0
0
0
0
0
0
0
0
0
0
0
0
0
0
0
0
0
0
0
0
0
0
0
0
0
0
0
0
0
0
0
0
0
0
0
0
0
0
0
0
0
0
0
0
0
0
0
0
0
0
0
0
0
0
0
0
0
0
0
0
0
0
0
0
0
0
0
0
0
0
0
0
0
0
0
0
0
0
0
0
0
0
628
0
0
0
0
0
0
0
0
0
0
0
0
0
0
0
0
0
0
0
0
0
0
0
0
0
0
0
0
0
0
0
0
0
0
0
0
0
0
0
0
0
0
0
0
0
0
0
0
677
0
0
0
0
0
0
0
0
0
0
0
0
0
691
0
0
0
0
0
0
0
0
0
0
0
0
0
0
0
0
0
0
0
0
712
0
0
0
0
0
0
719
0
721
0
0
0
0
0
0
0
0
0
0
0
0
0
0
0
0
0
739
0
0
0
0
0
0
0
0
0
0
0
0
0
0
0
0
0
0
0
0
0
0
0
0
0
0
766
0
0
0
0
0
0
0
0
0
0
0
0
0
0
0
0
0
2
3
0
0
0
7
8
9
10
0
12
0
0
0
0
17
18
0
20
0
0
23
24
0
26
0
0
29
0
0
0
0
0
35
0
0
0
0
0
0
42
0
0
0
0
0
48
0
50
51
0
53
0
55
0
0
0
0
60
61
0
0
64
0
66
0
0
0
0
71
72
0
0
0
0
77
0
0
80
0
0
83
0
0
0
0
0
0
90
91
0
0
0
0
0
0
0
0
0
0
0
103
104
0
106
107
0
109
0
111
0
113
0
0
116
0
118
119
0
0
122
0
0
0
0
0
0
0
0
0
0
0
0
0
0
0
0
0
0
0
0
0
0
0
0
0
148
0
0
0
0
0
154
0
0
0
0
0
0
0
0
163
0
165
166
0
168
0
0
171
0
0
0
0
0
0
178
0
0
181
182
0
0
0
0
0
0
0
0
0
192
0
0
0
0
0
0
199
0
0
0
0
0
0
0
0
0
0
0
211
212
213
0
0
0
0
0
0
0
0
0
223
0
0
0
0
0
229
0
0
0
0
0
0
0
237
0
0
0
0
0
0
0
0
0
0
0
0
0
0
0
0
0
0
0
0
0
0
0
0
0
0
0
0
0
0
0
0
0
0
0
0
0
275
0
0
0
0
0
0
0
0
0
0
0
0
0
0
0
0
0
0
0
0
0
0
298
0
0
0
0
0
304
0
0
0
0
0
0
0
0
0
314
0
0
0
0
0
0
0
0
0
0
0
0
0
0
0
0
0
0
0
0
0
0
0
0
0
0
0
0
0
0
0
0
0
0
0
0
0
0
0
0
0
0
0
0
0
0
0
0
0
0
0
0
0
0
0
0
0
0
0
374
0
0
0
0
0
0
0
0
0
0
0
0
0
0
0
0
0
0
0
0
0
0
0
0
0
0
0
0
0
0
0
0
0
0
0
0
0
412
0
0
0
0
0
0
0
0
0
0
0
0
0
0
0
0
0
0
0
0
0
0
0
0
0
0
0
0
0
0
0
0
0
0
0
0
0
0
0
0
0
0
0
0
0
0
0
0
0
0
0
0
0
0
0
0
0
0
0
0
0
0
0
0
0
0
479
0
0
0
0
0
0
0
0
0
0
0
0
0
0
0
0
0
0
0
0
0
0
0
0
0
0
0
0
0
0
0
0
0
0
0
0
516
0
0
0
0
0
0
0
0
0
0
0
0
0
0
0
0
0
0
0
0
0
538
0
0
0
0
0
0
0
0
0
0
0
550
0
0
0
0
0
0
0
0
0
0
0
0
0
0
0
0
0
0
0
0
0
0
0
0
0
0
0
0
0
0
0
0
0
0
0
0
0
0
0
0
0
592
0
0
0
0
0
0
0
0
0
602
0
0
0
0
0
0
0
0
0
0
0
614
0
0
0
0
0
0
0
0
0
0
0
0
0
0
0
0
0
0
0
0
0
0
0
0
0
0
0
0
0
0
645
0
0
0
0
0
0
0
0
0
0
0
0
0
0
0
0
0
0
0
0
0
0
0
0
0
0
672
0
0
0
0
0
0
0
0
0
0
0
0
0
0
0
0
0
0
0
0
0
0
0
0
0
0
0
0
0
0
0
0
0
0
707
0
0
0
0
0
0
0
0
0
0
0
0
0
0
0
0
724
0
0
0
728
0
0
0
0
0
0
0
0
0
0
0
0
0
0
0
0
0
0
0
0
0
0
0
0
0
0
0
0
0
758
0
0
0
0
0
764
0
0
0
0
0
0
0
0
0
0
0
0
0
0
0
0
0
0
0
0
3
0
5
0
0
8
9
0
0
12
0
0
0
0
17
18
19
0
0
0
23
0
0
26
0
0
29
30
31
0
0
0
0
36
0
0
39
0
0
42
0
0
0
0
47
0
0
0
51
0
0
0
0
0
0
0
0
0
61
62
0
0
0
0
0
68
0
0
0
0
0
0
0
0
0
78
0
0
0
0
83
0
0
0
0
0
0
0
91
0
0
94
0
0
0
0
0
0
101
0
0
0
0
0
0
0
109
0
0
0
0
114
0
0
0
0
0
0
0
0
0
124
0
0
0
0
0
0
0
0
0
134
0
0
0
138
0
0
141
142
143
0
0
0
0
148
149
0
0
0
0
154
0
0
0
0
0
0
0
0
0
0
0
0
0
0
0
0
171
0
0
174
0
0
0
0
0
0
0
0
0
0
0
0
0
0
0
190
0
0
0
0
0
0
0
0
0
0
0
0
0
0
0
0
0
0
0
0
211
0
0
0
0
0
0
0
0
0
221
0
0
0
0
0
0
0
0
0
0
0
0
0
0
0
0
0
0
0
241
0
0
0
0
0
0
0
0
0
0
0
0
0
0
0
0
0
0
0
0
0
0
0
0
0
0
0
0
0
0
0
0
0
0
0
0
0
0
0
0
0
0
284
285
0
0
0
0
0
0
0
0
0
0
0
0
0
0
0
0
0
0
304
0
0
0
0
0
0
0
0
0
0
0
0
0
0
0
0
0
0
0
0
0
0
0
0
0
0
0
0
0
0
0
0
0
0
0
0
0
0
0
0
0
0
0
0
0
0
0
0
0
0
0
0
0
0
0
0
0
0
0
0
0
0
367
0
0
0
0
0
0
0
0
0
0
0
0
0
0
0
0
0
0
0
0
0
0
0
0
0
0
394
0
0
0
0
399
0
0
0
0
0
0
0
0
0
0
0
0
0
413
0
0
0
0
0
0
0
0
0
0
0
0
0
427
0
0
0
0
0
0
0
0
0
0
0
0
0
0
0
0
0
0
0
0
0
0
0
0
0
0
0
0
0
0
0
0
0
461
0
0
0
0
0
0
0
0
0
0
0
0
0
0
0
0
0
0
0
0
0
0
0
0
0
0
0
0
0
0
0
0
0
0
0
0
0
0
0
0
0
0
0
0
0
0
0
0
0
0
0
0
0
0
0
0
0
0
0
0
0
523
0
0
0
0
0
0
0
0
0
0
0
0
0
0
0
0
0
0
0
0
0
0
0
0
0
0
0
0
0
0
0
0
0
0
0
0
0
0
0
0
0
0
0
0
0
0
0
0
0
0
0
0
0
0
0
0
0
0
582
0
0
0
0
0
0
0
0
0
0
0
0
0
0
0
0
0
0
0
602
0
0
0
0
607
608
0
0
0
0
0
0
0
0
0
0
0
0
0
0
0
0
0
0
0
0
0
0
0
632
0
0
0
0
0
0
0
0
0
0
0
0
0
0
0
0
0
0
0
0
0
0
0
0
0
0
0
660
0
0
0
0
0
0
0
0
0
0
0
0
0
0
0
0
0
0
0
0
0
0
0
684
0
0
0
0
689
690
0
692
0
0
0
0
0
0
699
0
0
0
0
0
0
0
0
0
0
710
0
0
0
714
0
0
0
0
0
0
0
0
0
0
725
0
0
0
0
0
0
0
0
0
0
0
0
0
0
0
0
742
0
0
0
0
0
0
0
0
0
0
0
0
0
0
0
0
0
760
0
0
0
0
0
0
0
0
0
0
0
0
0
0
0
0
0
0
0
0
0
782
783
2
0
0
5
0
0
8
9
10
0
0
13
0
0
0
17
0
19
0
0
22
23
0
0
26
0
28
0
30
0
0
0
0
35
36
0
38
0
40
0
0
43
44
0
0
0
0
0
0
51
0
53
0
55
0
0
0
59
0
0
62
63
0
0
0
67
0
0
0
0
0
0
0
0
76
0
0
79
0
0
0
0
0
0
86
0
0
0
0
91
0
93
0
0
0
0
0
0
100
0
102
103
0
0
0
0
0
109
0
0
0
0
114
0
0
0
0
119
0
0
0
0
0
0
0
0
128
129
0
0
0
0
134
135
0
0
0
0
0
0
142
0
0
0
0
0
0
0
0
0
0
0
0
0
0
0
0
0
0
161
0
0
0
0
166
0
0
0
0
0
0
0
0
0
0
0
0
0
0
181
0
0
0
0
0
0
188
0
190
0
0
0
0
0
0
0
0
0
0
201
0
0
204
0
0
0
0
0
0
0
0
213
0
0
0
0
0
0
0
0
0
223
224
0
0
0
0
0
0
0
0
0
0
0
0
0
0
0
0
0
0
0
0
0
0
0
0
0
0
0
0
0
0
0
0
0
0
0
0
0
0
0
0
0
0
0
0
0
0
0
0
0
0
0
0
0
0
0
0
0
0
0
0
0
0
0
0
0
0
0
0
0
0
0
0
0
298
0
0
0
0
0
0
0
0
0
0
0
0
0
0
0
0
0
0
0
0
0
0
0
0
0
0
0
0
0
0
0
0
0
0
0
0
0
0
0
0
0
0
0
0
0
0
0
0
0
0
0
0
0
0
0
0
0
0
0
0
0
0
0
0
0
0
0
0
0
0
0
0
0
0
0
0
0
0
0
378
0
0
0
0
0
0
0
0
0
0
0
0
0
0
0
0
0
0
0
0
0
0
0
0
0
0
0
0
0
0
0
0
0
0
0
0
0
0
0
0
0
0
0
0
0
0
0
0
0
0
0
0
0
0
0
0
0
0
0
0
0
0
0
0
0
0
0
0
0
0
0
0
0
0
0
0
0
0
0
0
0
0
0
0
0
0
0
0
0
0
0
0
0
0
0
0
0
0
0
0
0
0
0
0
0
0
0
0
0
0
0
0
0
0
0
0
0
0
0
0
0
0
0
0
0
0
0
0
0
0
0
0
0
0
0
0
0
0
0
0
0
0
0
0
0
0
0
0
0
0
0
0
0
0
0
0
0
0
0
0
0
0
0
0
0
0
0
0
0
0
0
0
0
0
0
0
0
0
0
0
0
0
0
0
0
0
0
0
0
0
0
0
0
0
0
0
0
0
0
0
0
0
0
0
0
0
0
0
0
0
0
0
0
0
0
0
0
0
0
0
0
0
0
602
0
0
0
0
0
0
0
0
0
0
0
0
0
0
0
0
0
0
0
0
0
0
0
0
0
0
0
0
0
0
0
0
0
0
0
0
0
0
0
642
0
0
0
0
0
0
0
0
0
0
0
0
0
0
0
0
0
0
661
0
0
0
0
666
0
0
0
0
0
0
0
0
0
0
0
0
0
680
0
0
0
0
0
0
687
0
0
0
0
0
0
0
0
0
0
0
0
0
0
0
0
0
0
706
0
0
709
0
0
0
0
0
0
716
0
0
0
0
0
0
0
0
0
0
0
0
729
0
731
732
0
0
735
0
0
0
0
0
0
0
0
0
0
0
0
0
0
0
0
0
0
0
0
0
0
0
0
0
0
0
0
0
0
0
0
0
0
0
0
0
0
0
0
0
0
0
0
0
0
0
0
2
0
4
0
0
0
8
9
10
0
12
0
0
0
0
17
0
0
20
0
22
0
0
0
0
27
28
29
30
0
32
0
34
35
36
0
38
0
0
0
0
0
0
0
0
0
0
0
0
0
0
53
0
0
0
0
0
59
0
0
0
0
0
0
0
67
0
0
0
0
0
0
0
0
0
77
0
0
0
0
82
0
84
0
0
0
0
0
0
91
0
0
0
0
0
0
0
99
0
101
0
0
104
0
106
107
0
0
0
0
112
0
114
0
116
0
118
0
0
0
0
0
0
0
0
0
0
0
130
0
0
0
0
0
0
0
0
0
0
0
0
0
0
0
0
0
0
0
150
0
0
0
0
0
0
0
0
0
0
0
0
0
0
0
0
0
168
169
0
0
0
0
174
0
0
177
178
0
0
0
0
0
0
0
0
0
0
0
0
0
0
0
0
0
0
197
0
199
0
0
202
0
0
0
0
0
0
209
0
0
0
0
214
0
0
217
0
219
0
0
0
0
0
0
0
0
0
0
0
0
0
0
0
0
0
0
0
0
0
0
0
0
0
0
0
0
0
0
0
0
0
0
0
0
0
0
0
0
0
0
0
0
0
0
0
0
0
0
0
0
0
0
0
0
0
0
0
0
0
0
0
0
0
285
0
0
0
0
0
0
0
0
0
0
0
297
0
0
0
0
0
0
0
0
0
0
0
0
0
0
0
0
0
315
0
0
0
0
0
0
0
0
0
0
0
0
0
0
0
0
0
0
0
0
0
0
0
0
0
0
0
0
0
0
0
0
0
0
0
0
0
0
0
355
0
0
0
0
0
0
0
0
0
0
0
0
0
0
0
0
0
0
0
0
0
0
0
0
0
0
0
0
0
0
0
0
0
0
0
0
0
0
0
0
396
0
0
0
0
0
0
0
0
0
0
0
0
0
0
0
0
0
0
0
0
0
0
0
0
0
0
0
0
0
0
0
0
0
0
0
0
0
0
0
0
0
0
0
0
0
0
0
0
0
0
0
0
0
0
0
0
0
0
0
0
0
0
0
0
0
0
0
0
0
0
0
0
0
0
0
0
0
0
0
0
0
0
0
0
0
0
0
0
0
0
0
0
0
0
0
0
0
0
0
0
0
0
0
0
0
0
0
0
0
0
0
0
0
0
0
0
0
0
0
0
0
0
0
0
0
0
0
0
0
0
0
0
0
0
0
0
0
0
0
0
0
0
0
0
0
0
0
0
0
0
0
0
0
550
0
0
0
0
0
0
0
0
0
0
0
0
0
0
0
0
0
0
0
0
0
0
0
0
0
0
0
0
0
0
0
0
0
0
0
0
0
0
0
0
0
0
0
0
595
0
0
0
0
0
0
0
0
0
0
0
0
0
0
0
0
0
0
0
0
0
0
0
0
620
0
0
0
0
0
0
0
0
0
0
0
0
0
0
0
0
0
0
0
0
0
0
0
0
0
0
0
0
0
0
0
0
0
0
0
0
0
0
0
0
0
0
0
0
0
0
0
0
0
0
0
0
0
0
675
0
0
0
0
0
0
0
0
0
0
0
0
0
0
0
0
0
0
0
0
0
0
0
0
0
0
0
0
0
0
0
0
0
0
0
0
0
0
0
0
0
0
0
0
0
0
0
0
0
0
0
0
0
0
0
0
0
0
0
0
0
0
0
0
0
0
0
0
0
0
0
0
0
0
0
0
0
0
0
0
0
0
0
0
0
0
0
0
0
0
0
0
0
0
0
0
0
0
0
0
0
0
0
0
0
0
0
0
EOF
