DIMENSION : 783
NUMBER OF ITEMS : 3910

TOUR_SECTION
1
17
23
2
7
18
12
9
33
29
10
3
5
19
30
8
20
36
31
35
22
14
32
26
16
21
27
24
28
34
4
11
13
6
40
38
43
66
75
87
84
79
101
106
109
114
122
119
113
104
91
96
73
60
55
44
69
78
90
93
103
92
72
51
42
54
62
50
61
59
68
82
86
99
85
71
64
48
39
63
76
98
95
89
74
77
102
105
108
112
116
140
128
138
118
126
121
124
144
150
159
167
154
129
130
141
132
131
145
148
142
149
134
135
171
193
199
194
181
177
170
168
174
166
158
178
192
207
223
214
218
234
254
238
247
264
265
280
285
315
314
329
341
355
357
367
394
404
406
413
399
396
374
369
379
378
398
412
403
388
385
368
373
383
364
381
386
380
375
360
354
351
348
340
338
337
349
361
362
342
331
334
324
320
298
309
304
297
296
284
279
261
245
252
241
272
271
263
260
244
229
228
220
203
189
191
197
188
183
201
210
213
221
226
237
257
275
262
251
253
219
212
211
209
182
173
165
164
157
169
163
176
179
198
200
190
206
217
225
233
232
240
224
208
202
187
204
222
227
231
230
248
249
243
256
267
268
258
259
250
269
281
292
303
311
295
287
282
283
288
308
310
301
312
318
326
336
330
322
321
333
345
347
350
376
393
377
370
372
391
411
418
417
419
410
409
408
420
424
430
426
433
422
405
392
389
397
382
387
390
401
407
425
443
438
455
463
486
492
508
512
517
506
530
534
551
554
562
579
569
561
539
531
540
547
557
552
529
515
513
519
518
495
473
460
449
456
457
439
431
435
441
448
437
434
416
402
400
414
415
432
446
459
474
480
489
487
497
496
494
476
464
470
469
467
477
483
491
500
501
507
505
521
542
541
536
535
556
564
563
566
578
588
599
613
619
617
628
621
607
587
603
609
622
636
630
633
631
639
618
610
589
605
614
601
600
591
584
577
570
565
558
575
571
572
573
559
553
543
527
522
524
520
514
493
488
475
465
450
440
447
427
421
428
442
451
454
468
478
471
481
479
461
444
462
490
504
516
523
503
510
498
502
509
525
528
537
544
532
545
549
546
538
550
555
574
567
582
592
595
608
583
585
602
620
623
625
635
643
663
656
658
677
682
687
696
703
694
702
708
716
724
742
752
756
764
751
728
715
717
714
711
712
729
744
753
767
771
775
783
782
781
780
770
763
746
741
723
730
731
727
750
749
762
766
774
773
777
779
768
757
759
776
758
743
739
732
722
706
690
680
685
679
671
678
688
709
705
718
735
736
745
760
765
772
761
778
769
747
734
738
725
704
697
683
672
665
659
652
648
645
655
660
675
681
692
691
698
713
707
719
733
737
754
755
748
740
726
721
720
699
695
686
710
700
701
689
693
673
664
667
668
674
676
670
647
637
616
606
593
581
604
615
629
632
642
650
662
654
653
646
651
666
669
684
661
657
649
644
641
634
627
612
590
598
597
586
594
611
626
638
640
624
596
580
568
576
560
548
533
526
511
499
472
482
484
485
466
458
453
452
445
436
429
423
395
384
363
352
343
359
356
344
328
317
319
327
335
358
366
371
365
353
346
339
323
325
332
316
307
300
290
293
306
291
299
286
274
273
278
294
302
313
305
289
266
270
277
276
255
246
239
236
242
235
216
215
185
172
180
186
205
195
196
184
175
160
155
147
139
146
125
117
123
110
115
127
153
136
151
156
162
161
152
143
137
133
120
111
107
94
83
65
58
53
47
46
41
67
81
70
80
100
97
88
56
49
52
57
45
37
25
15

PP_SECTION
0
3
0
5
6
7
0
0
10
0
12
0
14
15
0
0
0
0
20
0
0
0
0
25
26
27
0
29
0
0
32
33
0
0
36
37
38
39
0
41
0
0
44
45
46
47
48
49
0
51
52
53
0
0
56
57
58
59
0
61
62
63
0
65
0
67
68
69
70
71
72
0
0
0
0
77
0
0
80
81
82
83
0
85
0
87
88
0
90
91
92
93
94
95
96
97
0
99
100
0
102
0
0
0
0
107
108
0
110
111
0
113
114
0
0
117
0
119
120
121
122
123
124
125
0
0
0
129
130
131
132
133
134
135
136
137
0
139
140
0
142
143
0
0
146
147
148
0
0
151
152
0
0
155
156
157
158
159
160
0
0
163
164
0
166
0
168
0
170
171
0
173
0
175
0
0
178
0
180
0
0
0
184
185
0
0
188
189
190
191
192
0
194
195
0
197
198
0
0
201
202
203
204
205
0
0
208
0
0
0
212
213
214
215
216
217
218
0
0
0
222
223
0
0
226
227
0
0
230
231
232
0
234
235
236
0
238
239
240
0
242
243
244
245
246
0
0
249
250
0
252
0
0
255
0
257
0
259
0
261
0
0
264
265
266
267
268
269
270
0
0
273
0
275
276
0
278
279
0
0
282
0
284
0
286
287
288
289
290
0
292
293
294
295
296
297
0
299
300
0
302
0
0
305
0
307
308
309
310
311
312
313
314
315
316
317
318
0
320
321
322
323
324
325
0
0
0
329
330
0
332
333
334
335
0
337
0
0
340
0
342
343
344
0
346
347
348
349
350
0
352
353
0
355
356
0
0
359
360
361
362
363
0
365
366
367
0
0
370
371
0
373
0
0
376
0
378
379
380
0
0
383
0
385
0
0
388
389
390
391
392
393
394
395
0
0
0
0
0
0
0
403
0
405
0
407
408
0
0
0
0
413
0
0
416
417
0
419
420
421
422
423
0
425
426
427
0
429
430
431
0
433
434
435
436
437
0
439
440
441
0
443
444
0
446
447
448
449
0
0
452
453
454
455
456
457
458
459
0
461
0
0
0
0
466
467
468
0
0
471
472
0
474
475
476
477
0
0
0
481
482
483
484
485
486
0
488
489
0
491
0
0
494
0
0
497
0
499
500
0
0
0
504
0
506
507
508
0
510
511
0
513
0
515
0
0
0
519
0
521
522
0
0
0
526
0
528
529
530
531
532
533
534
535
536
537
0
539
540
541
0
543
0
0
546
547
0
549
550
551
0
0
554
555
0
0
0
559
560
561
562
0
0
565
566
0
568
569
570
0
0
573
0
575
0
0
0
0
580
581
582
583
0
585
586
0
0
0
0
0
0
593
594
0
596
597
598
0
600
601
602
603
604
605
606
607
608
0
610
611
612
0
0
0
0
0
618
619
0
621
622
623
624
625
626
627
0
629
630
631
632
0
634
635
636
637
638
639
640
641
0
643
644
0
646
0
0
649
650
651
652
0
654
655
656
0
658
659
660
661
662
663
664
665
0
667
668
0
670
0
672
673
674
0
0
677
678
679
680
681
682
0
684
685
686
687
688
689
690
691
0
693
694
695
0
697
698
699
0
0
0
0
704
705
706
707
0
0
710
711
712
0
0
715
0
0
0
719
720
721
0
723
724
725
726
727
0
729
730
731
732
733
734
735
736
0
0
739
740
0
742
0
744
745
746
747
748
749
0
751
752
0
0
755
756
0
758
759
760
761
0
0
764
765
766
0
768
769
770
771
772
773
774
775
776
0
0
779
780
781
782
783
0
0
4
0
0
0
8
0
10
0
12
13
0
15
16
17
18
0
20
21
0
0
24
0
0
27
28
29
30
0
0
33
0
35
36
37
38
39
40
41
42
0
0
45
46
0
0
49
0
0
52
53
54
0
56
57
58
59
0
0
0
0
64
65
0
67
0
0
70
71
0
0
0
75
76
77
0
0
80
81
0
83
84
0
86
87
88
89
90
0
92
0
0
0
0
97
98
0
100
101
0
103
0
105
0
107
108
0
110
111
112
0
114
115
0
117
118
119
120
0
122
123
124
125
0
127
128
129
130
131
0
133
134
0
136
137
138
139
0
141
142
143
0
145
0
147
0
0
150
151
152
153
0
155
156
0
158
159
160
161
162
0
164
165
166
167
168
169
0
171
172
0
0
175
0
177
178
0
0
181
182
183
184
185
186
0
188
189
190
0
0
193
194
195
196
197
0
0
200
201
0
203
0
205
206
0
208
0
0
0
0
213
0
215
216
217
0
219
220
0
0
223
0
225
226
0
228
0
0
0
232
233
0
235
236
237
0
239
240
241
0
0
0
0
246
0
248
249
250
251
0
0
0
255
0
257
258
259
0
0
262
0
264
0
266
0
0
269
270
271
0
273
274
275
276
277
0
279
280
281
0
283
284
0
286
287
288
289
290
291
292
293
294
0
296
297
0
299
300
0
302
303
304
305
306
307
308
309
310
0
0
313
0
315
316
0
0
319
0
321
0
323
0
325
326
327
328
329
330
0
332
333
334
335
0
0
0
339
0
341
0
0
344
0
346
0
348
349
0
351
352
353
0
355
356
357
358
359
360
361
0
363
0
0
366
367
368
369
0
371
0
373
0
0
376
0
378
0
0
381
382
0
384
385
386
387
388
0
390
0
392
0
0
395
396
0
398
0
400
0
0
403
0
405
0
0
0
0
410
411
0
0
414
415
0
417
418
0
420
0
422
423
424
425
0
427
0
0
0
431
0
433
0
435
436
0
438
0
0
441
0
443
444
445
446
447
0
0
0
451
452
453
454
0
456
457
458
459
460
461
0
463
0
0
466
0
468
469
0
471
472
473
474
0
476
477
0
0
0
481
482
483
0
485
0
487
488
489
0
0
492
0
494
495
496
497
498
0
500
501
0
503
504
505
506
507
508
509
510
0
0
513
0
515
516
0
0
519
520
521
522
523
0
0
526
527
528
0
0
0
532
533
534
535
536
537
0
0
0
541
542
543
0
0
0
547
548
549
550
0
0
553
554
555
556
557
558
559
560
0
562
563
564
565
566
567
568
0
570
571
572
0
0
575
0
577
578
579
580
0
582
583
0
585
0
0
588
0
0
0
592
0
0
595
596
597
598
599
600
0
602
603
604
605
606
0
0
609
610
611
612
613
614
615
616
617
0
619
620
0
0
0
624
625
626
627
628
629
630
0
632
633
634
635
636
0
638
639
640
641
642
643
0
645
0
0
648
649
650
651
652
653
0
655
656
0
0
659
660
661
0
663
664
665
666
667
668
669
670
671
672
0
0
675
676
677
678
0
680
681
0
0
684
685
686
687
688
689
690
691
692
693
694
695
0
697
698
699
700
701
0
703
704
705
0
707
0
709
710
711
712
713
0
715
716
717
718
0
0
721
722
723
724
725
726
727
728
729
730
0
0
733
734
0
736
0
738
739
0
0
742
743
744
745
0
747
748
0
750
751
0
753
754
0
0
757
758
759
0
761
762
763
764
0
766
767
768
769
770
771
0
773
774
0
0
777
0
0
780
781
0
0
0
3
4
0
0
7
8
9
10
11
12
0
0
15
0
17
0
19
0
21
22
0
24
25
0
27
0
29
0
0
0
0
0
35
0
37
38
39
0
41
42
0
44
45
46
47
0
49
50
0
52
53
0
55
0
57
58
0
0
61
62
63
64
65
0
67
68
0
70
0
0
0
74
0
0
0
78
0
80
81
0
83
0
0
0
87
0
0
0
91
0
93
94
0
96
97
98
99
100
0
102
0
104
0
106
107
108
109
110
111
0
0
114
115
116
117
0
119
120
121
122
123
0
125
0
127
0
129
130
0
132
133
134
0
136
137
0
139
140
0
142
143
144
0
146
147
148
149
150
151
152
153
154
155
156
157
0
0
160
161
162
0
0
0
166
0
168
169
170
171
172
173
174
175
0
0
0
0
180
0
182
183
184
185
186
0
188
0
190
191
192
193
0
195
196
197
0
0
0
201
202
203
0
205
0
207
0
0
210
211
0
213
0
215
216
0
0
0
0
0
0
223
224
0
0
227
0
0
0
0
0
0
0
235
236
0
0
239
0
241
242
0
0
0
246
0
248
0
250
251
0
0
254
255
256
0
258
259
260
0
262
263
0
265
266
0
268
0
270
0
272
273
274
275
276
277
278
279
280
281
0
283
284
285
286
287
0
289
0
291
0
0
0
295
0
297
0
299
300
301
302
303
304
305
306
307
308
0
0
311
312
313
314
315
316
317
0
319
320
321
322
323
324
325
0
327
328
329
330
331
332
333
334
335
336
337
338
339
340
341
342
343
344
0
346
0
0
349
350
351
352
353
354
355
356
357
358
0
360
361
0
363
0
365
366
0
0
0
0
371
372
0
374
375
0
0
378
0
0
381
0
383
384
385
386
387
388
389
390
391
392
393
0
395
396
397
398
399
400
0
402
0
0
405
0
407
0
0
410
411
0
413
414
415
416
417
418
0
420
421
0
423
424
425
0
427
428
0
430
0
0
0
0
0
436
437
438
439
440
441
442
443
444
445
0
447
448
449
0
0
452
453
454
455
0
0
458
459
460
0
462
463
0
0
466
0
468
469
470
471
472
0
474
475
476
477
0
0
0
481
482
483
484
0
486
487
0
0
490
0
492
493
494
495
0
497
0
499
0
501
502
0
0
505
506
507
508
509
0
511
0
513
0
0
0
0
518
519
520
521
522
523
0
0
526
527
528
529
530
0
532
533
0
535
536
537
0
0
0
0
0
543
544
545
546
547
548
549
550
0
0
553
554
555
556
557
0
0
560
0
562
563
0
0
566
567
568
0
570
0
572
0
574
0
576
0
578
0
580
581
582
583
584
585
586
0
588
589
590
591
0
593
0
0
596
597
0
599
600
601
0
603
0
605
606
0
608
0
610
611
0
613
614
615
616
617
618
0
620
621
622
623
624
0
626
0
628
0
630
0
0
0
634
635
0
637
638
0
640
641
642
643
644
645
646
0
0
649
0
0
652
653
654
0
656
657
658
0
660
0
662
663
664
0
666
667
668
669
0
0
672
673
674
675
676
677
678
679
0
681
682
683
0
685
686
0
688
0
690
691
692
0
694
695
696
697
698
699
700
0
702
703
704
705
706
707
708
709
710
711
712
713
714
0
716
0
0
719
720
721
722
0
724
725
726
0
0
0
0
731
732
0
734
735
736
737
0
0
740
0
742
743
744
745
746
747
748
0
750
751
752
0
754
755
756
757
758
759
760
761
0
763
764
765
766
767
768
769
770
771
772
773
774
775
776
777
778
779
780
781
0
783
2
3
4
5
0
0
8
0
10
0
12
0
0
15
16
17
18
0
0
0
0
23
24
25
26
0
28
0
30
0
32
33
34
0
36
37
0
39
0
0
0
0
44
45
46
47
0
49
50
0
52
53
54
55
56
57
58
0
60
61
0
63
64
0
66
67
0
0
70
71
72
0
0
75
76
0
78
0
80
81
82
83
0
0
0
87
88
89
90
0
0
0
94
95
96
97
98
99
100
0
102
103
104
105
106
107
108
109
110
111
0
113
0
115
116
117
0
0
120
121
0
123
0
125
126
127
0
0
130
0
132
133
0
0
136
137
0
139
140
0
0
143
0
0
146
147
148
149
150
151
152
153
0
155
156
0
0
0
160
161
162
163
0
0
0
0
168
169
170
0
172
0
174
175
0
177
0
0
180
0
182
183
184
185
186
0
0
0
0
191
192
0
0
195
196
197
198
199
200
0
0
203
0
205
206
0
208
209
0
211
0
213
0
215
0
217
218
219
220
221
222
223
0
225
226
227
0
229
230
231
232
0
0
0
0
0
0
239
240
241
242
243
244
245
246
247
0
249
0
0
252
0
254
255
0
257
258
259
260
0
0
0
0
265
266
267
0
0
270
271
272
273
274
0
276
0
278
0
280
281
282
0
0
0
286
287
288
289
0
0
0
293
294
0
296
0
0
0
300
301
302
303
304
305
306
307
0
0
310
0
312
313
314
315
316
317
318
319
320
0
0
323
0
0
326
327
328
0
330
331
0
333
0
0
336
0
0
339
0
341
0
343
344
0
346
347
348
349
350
0
352
353
0
0
356
357
358
359
360
361
0
363
0
0
366
367
368
369
0
371
0
0
374
375
0
0
0
379
380
0
382
383
384
0
386
0
0
0
390
391
0
0
394
395
396
0
0
0
0
0
402
403
404
0
0
0
408
0
410
0
412
413
414
415
0
417
0
419
420
421
422
423
0
425
0
0
0
429
0
431
0
0
434
435
436
437
0
0
0
441
442
0
444
445
446
447
448
0
450
0
452
453
454
455
0
457
458
459
0
0
462
463
0
465
466
467
468
0
0
471
472
473
0
475
0
477
478
0
0
481
482
483
484
485
0
487
488
489
490
491
492
493
494
495
0
497
498
499
0
501
502
0
504
505
506
507
508
509
510
511
512
513
0
515
516
517
518
0
520
521
522
523
524
0
0
527
528
0
0
0
532
533
0
535
536
0
538
539
540
0
0
0
544
545
546
547
0
549
550
551
552
553
554
555
556
557
558
559
0
0
0
0
564
0
566
0
568
569
570
571
0
573
574
575
576
0
0
579
580
581
582
0
584
585
586
587
0
589
0
591
592
593
594
595
596
597
598
0
0
601
0
0
0
605
0
0
608
609
610
611
612
0
614
615
616
0
0
0
620
621
0
623
624
625
626
627
0
629
630
631
0
633
634
0
636
637
638
639
640
641
642
643
644
645
0
647
0
0
650
651
0
0
654
0
656
0
658
659
0
661
662
663
664
665
666
667
0
669
670
671
672
0
0
675
676
677
678
679
680
681
0
683
684
685
686
687
0
689
0
0
692
693
0
695
696
0
698
699
700
701
702
0
704
705
706
707
708
709
710
711
0
713
714
0
0
717
718
719
720
721
0
723
724
0
726
727
0
729
0
731
732
0
734
735
0
0
738
0
740
741
0
0
744
745
746
747
748
0
750
751
752
753
754
755
756
0
758
0
760
761
762
763
764
765
766
767
768
769
770
771
772
0
774
775
0
777
778
0
780
781
782
783
2
3
0
5
6
0
0
0
10
0
0
0
0
15
0
0
18
19
20
21
0
0
24
25
26
0
28
29
0
0
0
0
0
35
36
37
0
0
0
41
42
43
44
45
46
47
0
49
50
51
52
53
0
55
56
57
0
0
60
0
0
63
0
65
66
67
0
0
70
0
72
73
74
0
76
0
0
0
80
81
82
83
84
85
86
87
88
0
90
91
92
0
94
95
0
97
98
0
100
101
0
0
104
105
106
107
0
109
110
111
0
113
114
115
116
117
0
0
120
0
0
123
124
125
0
127
0
0
130
0
132
133
0
135
136
137
0
139
140
0
142
143
144
145
146
0
0
149
150
151
152
0
0
155
156
157
158
0
160
161
162
163
164
165
0
167
168
169
0
171
172
173
0
175
176
0
0
179
0
181
0
183
184
185
186
0
188
189
190
191
192
0
0
195
196
0
198
0
200
0
0
0
204
205
0
207
0
0
210
211
212
0
214
215
216
0
218
219
0
221
0
223
0
0
0
0
228
229
0
231
0
233
0
235
0
0
238
239
240
241
242
0
244
245
246
247
0
0
0
0
0
253
254
255
256
257
0
259
0
0
0
0
0
265
266
267
0
0
270
271
0
273
274
0
276
277
278
279
280
281
0
283
0
0
286
287
288
289
290
291
292
293
294
295
296
297
0
299
300
301
302
0
0
305
306
307
0
0
0
311
0
313
314
315
0
317
0
319
0
0
0
323
0
325
326
327
328
0
330
331
332
333
334
335
336
337
0
0
340
341
342
343
0
0
346
0
0
349
350
0
352
353
354
355
356
357
358
359
0
361
362
0
0
365
366
0
0
0
370
371
372
373
0
375
0
377
378
0
380
0
382
0
384
0
0
387
0
389
0
391
392
393
0
395
0
397
0
0
0
0
0
0
0
405
406
0
408
409
410
0
412
413
414
0
416
417
418
0
420
0
0
423
424
425
0
427
428
0
0
431
432
433
0
0
436
437
438
0
440
441
442
443
0
445
0
447
448
449
0
451
452
453
454
455
456
457
458
459
460
461
0
0
464
0
0
467
0
0
470
0
0
0
474
475
476
477
478
479
480
0
0
483
0
485
0
487
488
489
0
491
0
493
0
0
496
497
498
499
500
0
0
0
504
505
0
507
508
509
510
0
512
0
514
0
516
0
0
519
520
0
0
523
524
525
526
527
528
0
0
0
532
533
0
535
536
0
538
539
540
541
542
543
544
545
546
0
548
0
0
551
0
0
554
555
0
557
0
559
560
561
0
563
564
0
566
567
568
569
0
571
572
573
574
575
576
0
0
579
580
581
582
583
584
585
586
0
588
589
0
591
0
593
594
595
596
597
598
599
0
601
0
603
604
605
0
607
608
609
610
0
0
613
614
615
616
617
618
0
620
621
0
623
0
625
626
627
628
629
630
631
632
0
634
635
0
637
0
639
640
641
642
643
0
645
646
647
0
649
650
651
0
0
0
0
0
657
658
659
660
661
662
0
664
665
0
667
0
669
0
671
0
673
674
675
0
0
678
679
680
681
0
683
684
685
686
687
688
689
690
691
0
693
694
695
696
697
698
699
700
0
702
703
704
705
706
707
708
709
710
711
0
713
0
0
716
717
0
719
720
0
0
723
0
725
726
727
728
729
730
731
732
0
734
0
0
0
738
739
740
741
742
743
744
0
746
0
748
749
0
751
752
753
754
0
756
757
758
759
760
761
762
763
764
0
766
767
768
769
770
771
772
0
0
775
776
777
0
779
780
0
0
783
EOF
