DIMENSION : 783
NUMBER OF ITEMS : 3910

TOUR_SECTION
1
15
25
37
45
57
52
49
56
88
97
100
80
70
81
67
41
46
47
53
58
65
83
94
107
111
120
133
137
143
152
161
162
156
151
136
153
127
115
110
123
117
125
146
139
147
155
160
175
195
196
184
187
204
202
208
224
243
256
267
268
258
259
240
232
233
250
269
281
290
300
307
316
293
306
291
299
286
274
278
273
248
249
222
227
231
230
205
186
180
172
185
215
216
235
242
236
239
246
255
276
277
270
266
289
305
313
302
294
317
335
327
319
323
325
339
353
346
332
350
347
345
333
321
322
303
292
295
311
330
336
326
318
312
301
310
308
288
283
282
287
275
257
262
253
251
237
226
221
213
210
201
183
188
197
191
189
203
220
228
229
244
260
263
271
272
241
252
245
261
279
284
296
297
304
309
298
320
324
334
331
342
362
361
349
337
338
340
348
351
354
360
375
380
386
381
364
383
373
368
385
388
403
415
414
400
402
416
432
446
459
437
434
448
441
435
431
439
457
456
449
460
473
495
518
519
513
515
529
552
557
547
540
531
539
561
569
579
562
554
551
534
530
506
517
512
508
492
486
463
455
438
443
425
407
401
390
387
382
397
389
392
405
422
433
426
430
424
420
408
409
410
419
417
418
411
391
372
370
377
393
376
365
371
366
358
344
328
343
356
359
352
363
384
395
423
429
436
445
452
453
458
466
485
484
482
472
499
511
526
533
548
560
576
568
580
596
624
640
638
626
611
594
586
597
598
590
599
588
578
566
563
564
556
535
536
541
542
521
505
507
501
500
491
483
477
467
469
470
464
476
494
496
497
487
474
480
489
493
488
475
465
450
440
447
454
451
468
478
498
502
509
525
528
544
537
520
514
524
522
527
543
553
559
573
572
571
575
558
565
570
577
584
591
600
601
614
605
589
610
618
639
631
633
630
636
622
609
603
587
607
621
628
617
619
613
612
627
634
641
644
649
657
661
684
669
666
651
646
653
654
662
650
642
632
629
615
604
581
593
606
616
637
647
670
676
674
668
667
664
673
693
701
700
689
710
686
695
699
720
721
726
740
748
755
754
737
733
719
707
713
698
691
692
681
675
660
655
645
648
652
659
665
672
683
697
704
725
734
738
747
769
778
761
772
765
760
745
736
735
718
705
709
688
678
671
679
685
680
690
706
722
732
739
743
758
776
759
757
768
779
777
773
774
766
762
749
750
727
731
730
723
741
746
763
770
780
781
782
783
775
771
767
753
744
729
712
711
714
717
715
728
751
764
756
752
742
724
716
708
702
694
703
696
687
682
677
658
656
663
643
635
625
623
620
602
585
583
608
595
592
582
567
574
555
550
538
546
549
545
532
510
503
523
516
504
490
479
481
471
461
462
444
442
428
421
427
412
398
378
379
369
374
396
399
413
406
404
394
367
357
355
341
329
314
315
285
280
265
264
247
238
254
234
218
214
223
207
192
178
158
166
174
168
170
177
181
194
199
193
171
135
134
149
142
148
145
131
132
141
130
129
154
167
159
150
144
124
121
126
118
138
164
165
173
182
209
211
212
219
225
217
206
190
200
198
179
176
163
169
157
140
128
116
112
108
105
102
77
74
89
95
98
76
63
39
48
64
71
85
99
86
82
68
61
59
50
62
54
42
51
72
92
103
93
90
78
69
44
55
60
73
96
91
104
113
119
122
114
109
106
101
79
84
87
75
66
43
38
40
6
13
11
4
34
28
24
27
21
16
26
32
14
22
35
31
36
20
8
30
19
5
3
10
29
33
9
12
18
7
2
23
17

PP_SECTION
2
3
4
5
6
7
8
9
10
11
12
13
14
0
16
17
18
19
20
21
22
23
24
0
26
27
28
29
30
31
32
33
34
35
36
0
38
39
40
0
42
43
44
0
0
0
48
0
50
51
52
0
54
55
0
57
0
59
60
61
62
63
64
65
66
67
68
69
0
71
72
73
74
75
76
77
78
79
0
0
82
0
84
85
86
87
88
89
90
91
92
93
0
95
96
0
98
99
0
101
102
103
104
105
106
107
108
109
0
0
112
113
114
0
116
0
118
119
0
121
122
0
124
0
126
127
128
129
130
131
132
0
134
135
0
0
138
0
140
141
142
0
144
145
0
0
148
149
150
151
152
153
154
0
0
157
158
159
160
0
162
163
164
165
166
167
168
169
170
171
0
173
174
0
176
177
178
179
0
181
182
183
0
0
0
0
0
0
190
0
192
193
194
0
0
0
198
199
200
0
0
0
0
0
206
207
0
209
0
211
212
213
214
215
216
217
218
219
0
221
222
223
224
225
226
0
0
0
0
0
0
0
234
0
0
0
238
0
0
0
0
0
0
0
0
247
0
0
0
0
0
0
254
0
256
257
258
0
0
0
0
0
264
265
0
0
0
0
0
0
0
0
0
0
0
0
0
0
280
0
0
0
0
285
0
0
0
289
290
291
292
0
0
0
296
297
0
0
300
301
302
303
304
305
306
307
0
0
0
0
0
0
314
315
0
0
318
319
320
321
322
323
324
0
0
0
0
329
330
331
332
333
0
0
0
0
0
0
0
341
342
343
0
0
0
0
0
0
0
0
0
0
0
355
0
357
0
0
0
0
0
0
0
0
0
367
368
369
370
0
0
0
374
0
0
0
378
379
0
0
0
0
0
0
0
387
0
0
0
0
0
0
394
0
396
397
398
399
0
401
402
403
404
0
406
407
408
0
0
0
412
413
414
0
0
417
418
419
0
421
0
0
0
0
0
427
428
0
0
0
0
433
0
435
436
437
438
0
440
0
442
0
444
0
0
0
0
0
0
0
0
0
0
0
0
0
0
0
0
461
462
463
464
465
466
467
0
0
0
471
0
0
474
475
476
0
0
479
480
481
0
0
484
485
0
487
0
0
490
0
0
0
0
495
496
497
498
0
0
0
0
503
504
505
0
507
508
509
510
511
512
513
514
0
516
0
0
0
0
0
0
523
0
0
0
527
528
529
530
531
532
0
0
0
0
0
538
539
540
541
0
0
0
545
546
0
0
549
550
0
0
0
0
555
0
0
0
0
0
0
562
563
564
0
0
567
0
0
570
571
572
0
574
0
0
0
0
579
580
581
582
583
0
585
0
0
0
0
0
0
592
0
0
595
0
0
0
599
600
601
602
603
604
0
0
607
608
609
610
611
612
613
0
0
0
0
0
0
620
0
0
623
0
625
0
627
628
0
0
0
0
0
0
635
636
637
638
639
0
641
642
643
644
645
646
0
0
0
0
0
652
653
654
655
656
0
658
0
0
0
662
663
664
665
666
667
0
0
0
0
0
0
0
0
676
677
678
0
680
681
682
0
0
685
686
687
688
689
690
0
0
0
694
0
696
0
0
699
700
701
702
703
0
0
0
0
708
0
0
711
712
713
714
715
716
717
0
0
0
721
722
723
724
725
726
0
728
729
730
731
732
733
734
735
736
737
738
739
740
0
742
743
744
745
746
0
748
749
750
751
752
753
754
755
756
757
758
759
0
0
0
0
764
0
766
767
768
0
770
771
0
0
0
0
0
777
0
779
780
781
782
783
2
3
4
5
6
7
8
9
10
11
12
13
14
0
16
17
18
19
20
21
22
23
24
0
26
27
28
29
30
31
32
33
34
35
36
0
38
39
40
0
42
43
44
0
0
47
48
0
50
51
0
0
54
55
0
0
0
59
60
61
62
63
64
0
66
67
68
69
0
71
72
73
74
75
76
77
78
79
0
0
82
0
84
85
86
87
0
89
90
91
92
93
0
95
96
0
98
99
0
101
102
103
104
105
106
0
108
109
0
0
112
113
114
0
116
117
118
119
120
121
122
123
124
0
126
0
128
129
130
131
132
0
134
135
0
0
138
0
140
141
142
0
144
145
146
147
148
149
150
151
152
153
154
0
0
157
158
159
0
0
0
163
164
165
166
167
168
169
170
171
0
173
174
0
176
177
178
179
0
181
182
0
0
185
186
0
0
0
190
0
192
193
194
0
0
0
198
199
200
0
0
203
204
0
206
207
0
209
0
211
212
0
214
0
0
217
218
219
220
221
222
223
0
225
0
0
0
0
0
231
232
233
234
0
0
0
238
0
0
0
0
0
244
0
0
247
0
0
0
0
0
0
254
0
0
257
258
259
0
0
0
0
264
265
0
0
268
269
270
271
272
273
274
275
0
0
0
279
280
281
282
283
284
285
0
0
0
0
290
291
292
293
0
0
0
0
0
0
0
0
0
0
0
0
0
0
0
0
310
0
0
0
314
315
0
0
318
319
320
321
0
0
0
0
0
0
328
329
0
0
0
0
0
0
0
0
0
0
0
341
0
0
0
0
0
0
0
0
0
0
0
0
0
355
0
357
358
359
360
361
362
363
364
365
366
367
368
369
370
371
372
373
374
375
376
377
378
379
0
381
382
0
0
0
0
0
0
0
0
0
0
0
394
395
396
397
398
399
400
401
402
403
404
405
406
407
408
0
0
0
412
413
414
415
416
417
0
0
0
421
0
0
0
0
0
427
428
0
0
0
0
0
0
0
0
0
0
0
440
0
442
443
444
0
0
0
0
0
0
0
452
453
454
0
0
0
0
0
0
461
462
463
464
465
0
0
0
0
0
471
0
0
0
0
0
0
0
479
0
481
482
483
484
0
0
0
0
0
490
0
0
0
0
495
496
497
498
0
0
0
0
503
504
505
506
0
0
0
510
0
0
0
0
0
516
0
0
0
520
521
522
523
0
0
0
527
528
0
0
0
532
0
0
0
0
0
538
0
0
0
542
543
0
545
546
0
548
549
550
551
0
553
0
555
556
0
558
559
560
561
562
563
564
565
566
567
0
0
0
0
0
0
574
0
0
0
578
0
580
581
582
583
584
585
0
0
0
0
0
591
592
593
0
595
0
0
0
599
600
0
602
0
0
605
606
607
608
609
610
0
0
0
0
0
0
0
0
0
620
0
0
623
0
625
0
0
0
0
630
0
0
0
0
635
0
637
638
639
640
0
0
643
0
645
646
647
648
649
0
0
0
0
654
655
656
657
658
659
660
661
0
663
0
665
666
667
0
0
0
671
672
673
674
675
676
677
678
679
680
681
682
683
684
685
686
687
688
689
690
691
0
0
694
0
696
697
0
0
0
701
702
703
704
705
706
707
708
709
710
711
712
0
714
715
716
717
718
719
720
721
722
723
724
0
0
727
728
729
730
731
732
733
734
735
736
737
738
739
740
0
742
0
744
745
746
747
748
749
750
751
752
753
0
0
756
0
0
0
0
0
0
763
764
0
0
767
768
0
770
771
0
0
0
0
0
0
778
779
780
781
782
783
2
3
4
5
6
7
8
9
10
11
12
13
14
0
16
17
18
19
20
21
22
23
24
25
26
27
28
29
30
31
32
33
34
35
36
0
38
39
40
0
42
43
44
0
0
0
48
49
50
51
0
0
54
55
0
0
0
59
60
61
62
63
64
65
66
0
68
69
0
71
72
73
74
75
76
77
78
79
0
0
82
0
84
85
86
87
0
89
90
91
92
93
0
95
96
97
98
99
100
101
102
103
104
105
106
0
108
109
0
0
112
113
114
0
116
0
118
119
120
121
122
0
124
0
126
0
128
129
130
131
132
133
134
135
136
0
138
139
140
141
142
143
144
145
146
147
148
149
150
0
152
153
154
155
156
157
158
159
0
0
0
163
164
165
166
167
168
169
170
171
172
173
174
0
176
177
178
179
0
181
182
0
0
0
0
0
0
0
190
0
192
193
194
0
0
0
198
199
200
0
0
0
0
0
206
207
0
209
0
211
212
0
214
215
216
217
218
219
220
221
222
223
0
225
0
0
0
0
0
0
0
233
234
235
236
0
238
0
0
0
0
0
0
0
0
247
0
0
0
0
0
0
254
0
0
0
258
259
260
261
0
0
264
265
0
0
0
0
0
0
0
0
0
275
276
277
278
0
280
0
0
0
0
285
0
0
0
0
0
0
0
0
0
0
0
297
298
299
0
0
0
0
0
0
0
307
308
309
0
0
0
313
314
315
316
317
0
0
0
0
0
0
0
0
0
0
328
329
330
0
0
0
0
0
0
0
0
0
340
341
342
0
0
0
0
0
0
0
0
0
0
0
0
355
0
357
0
0
0
0
0
0
0
0
0
367
0
369
370
371
372
373
374
0
376
377
378
379
380
381
0
0
384
0
0
0
388
389
390
391
392
393
394
395
396
0
398
399
0
0
0
0
404
0
406
0
0
0
0
0
412
413
414
415
416
0
0
0
0
421
0
0
0
0
0
427
428
0
0
0
0
0
0
0
0
0
0
0
440
441
442
443
444
0
0
0
0
0
0
0
0
0
454
455
0
0
0
0
0
461
462
0
464
465
466
467
468
469
470
471
472
473
474
475
476
477
0
479
0
481
0
0
484
485
0
0
0
489
490
491
492
493
494
495
496
0
0
0
0
0
0
503
504
505
506
507
508
509
510
0
0
513
514
515
516
517
518
519
520
521
522
523
524
525
0
0
0
0
0
0
532
533
534
0
0
0
538
0
0
0
0
0
0
545
546
547
548
549
550
0
0
0
0
555
0
0
0
0
0
0
0
0
0
0
0
567
568
569
570
571
572
573
574
0
0
0
578
579
580
581
582
583
584
585
586
587
0
0
0
591
592
593
0
595
596
597
598
599
600
601
602
0
0
0
0
607
608
609
610
0
0
0
0
0
0
0
618
619
620
621
622
623
624
625
0
0
0
629
630
631
0
0
0
635
0
0
0
0
0
641
642
643
644
645
646
647
648
0
0
0
0
0
654
655
656
0
658
0
0
0
0
663
0
0
0
0
0
0
670
671
672
0
0
0
0
677
678
679
680
681
682
683
684
685
686
687
688
689
690
691
692
693
694
0
696
0
0
0
700
701
702
703
0
0
706
707
708
709
710
711
712
0
714
715
716
717
718
719
720
721
722
723
724
0
0
727
728
729
730
731
0
0
734
735
0
0
0
0
0
741
742
743
744
0
0
0
0
749
750
751
752
753
0
755
756
757
758
759
760
761
0
0
764
0
766
767
768
769
770
771
0
773
774
775
776
777
778
779
780
0
0
0
2
3
4
5
6
7
8
9
10
11
12
13
14
0
16
17
18
19
20
21
22
23
24
0
26
27
28
29
30
31
32
33
34
35
36
0
38
39
40
0
42
43
44
0
0
0
48
0
50
51
0
0
54
55
56
57
58
59
60
61
62
63
64
0
66
0
68
69
70
71
72
73
74
75
76
77
78
79
0
0
82
0
84
85
86
87
88
89
90
91
92
93
0
95
96
97
98
99
100
101
102
103
104
105
106
0
108
109
0
0
112
113
114
115
116
117
118
119
0
121
122
123
124
125
126
0
128
129
130
131
132
133
134
135
136
0
138
0
140
141
142
0
144
145
0
0
148
149
150
151
0
0
154
0
0
157
158
159
0
0
0
163
164
165
166
167
168
169
170
171
0
173
174
0
176
177
178
179
0
181
182
0
0
0
186
187
188
189
190
191
192
193
194
0
0
0
198
199
200
0
0
0
0
0
206
207
0
209
210
211
212
213
214
215
0
217
218
219
220
221
0
223
0
225
226
227
228
229
0
0
0
0
234
0
0
0
238
0
0
0
0
0
0
245
246
247
0
0
0
0
0
0
254
0
0
0
0
0
0
0
0
263
264
265
0
0
0
0
0
0
0
0
0
0
0
0
0
0
280
281
282
283
0
285
0
0
0
0
0
0
0
0
0
0
0
0
0
0
0
0
0
0
0
0
0
0
0
0
0
0
0
0
314
315
0
0
0
0
0
0
0
0
0
0
326
0
328
329
0
0
0
0
0
0
0
0
0
0
0
341
0
0
344
345
346
0
0
0
0
0
0
0
0
355
0
357
0
0
0
0
0
0
0
0
0
367
368
369
370
371
0
0
374
375
376
377
378
379
0
0
0
0
0
0
0
0
0
0
0
0
0
0
394
395
396
397
398
399
0
0
0
0
404
0
406
0
0
0
0
0
412
413
0
0
416
417
418
419
0
421
0
423
424
425
426
427
428
0
430
0
0
0
0
0
0
0
0
439
440
441
442
443
444
445
0
0
0
0
0
0
0
0
0
0
0
457
458
459
0
461
462
0
0
465
466
467
0
0
0
471
0
0
0
0
476
477
478
479
480
481
0
0
0
0
0
0
0
0
490
0
0
0
494
0
496
497
498
499
500
501
0
503
504
0
0
507
508
509
510
0
0
0
0
515
516
517
518
0
0
0
0
523
0
525
526
0
0
0
530
531
532
0
0
0
536
537
538
539
0
0
0
0
0
545
546
0
0
549
550
551
552
553
0
555
0
0
558
559
560
0
0
0
564
565
566
567
568
0
0
0
572
573
574
575
0
0
0
0
0
581
582
583
0
585
0
587
0
589
590
591
592
593
594
595
0
0
0
0
0
601
602
603
604
605
606
0
608
0
0
0
612
613
614
615
0
0
0
0
620
0
0
623
0
625
626
627
628
629
630
631
0
0
634
635
636
0
0
0
0
0
0
643
0
645
0
0
0
0
650
651
652
653
654
655
656
657
658
659
660
661
662
663
664
665
0
0
0
0
0
671
0
673
674
675
676
677
678
679
680
681
682
0
0
685
686
687
688
0
690
0
692
693
694
695
696
697
698
699
700
701
702
703
0
705
0
707
708
709
710
711
712
0
714
715
716
717
718
719
720
721
722
723
724
725
726
727
728
729
730
731
0
733
734
735
736
0
0
739
0
741
742
743
744
745
746
747
748
0
0
751
752
753
0
0
756
757
0
0
0
761
762
763
764
0
0
767
768
769
770
771
772
773
774
775
776
777
778
779
780
781
782
783
2
3
4
5
6
7
8
9
10
11
12
13
14
0
16
17
18
19
20
21
22
23
24
0
26
27
28
29
30
31
32
33
34
35
36
0
38
39
40
41
42
43
44
0
0
0
48
49
50
51
52
0
54
55
0
0
0
59
60
61
62
63
64
65
66
67
68
69
0
71
72
73
74
75
76
77
78
79
0
81
82
83
84
85
86
87
0
89
90
91
92
93
0
95
96
0
98
99
0
101
102
103
104
105
106
0
108
109
110
111
112
113
114
0
116
117
118
119
0
121
122
0
124
0
126
127
128
129
130
131
132
133
134
135
0
0
138
0
140
141
142
0
144
145
0
0
148
149
150
0
0
0
154
0
0
157
158
159
0
0
0
163
164
165
166
167
168
169
170
171
0
173
174
0
176
177
178
179
180
181
182
0
0
0
0
0
0
0
190
0
192
193
194
0
0
0
198
199
200
201
0
0
0
0
206
207
0
209
0
211
212
0
214
0
0
217
218
219
0
221
222
223
0
225
226
0
0
0
0
231
232
0
234
0
0
0
238
0
0
0
0
0
0
0
0
247
0
0
0
0
0
0
254
0
0
0
0
0
0
0
0
0
264
265
0
0
0
0
0
0
0
0
0
0
0
277
278
279
280
281
282
283
284
285
0
0
0
0
290
291
0
0
0
0
0
0
0
0
0
0
0
303
304
305
306
307
308
0
0
0
312
313
314
315
0
0
318
319
320
321
322
323
324
325
326
327
0
329
0
0
0
0
0
0
336
337
338
339
340
341
0
0
0
0
0
0
0
0
0
0
0
0
0
355
0
357
358
359
360
0
0
0
364
365
366
367
0
369
0
0
0
0
374
0
0
0
378
379
380
381
382
0
0
0
0
387
388
389
390
391
392
393
394
395
396
397
398
399
400
401
402
0
404
0
406
407
408
0
0
0
412
413
0
0
416
417
418
0
0
421
422
423
424
425
426
427
428
0
0
0
0
0
0
0
0
0
0
0
0
0
442
0
444
0
0
447
0
0
450
451
452
453
454
455
0
0
0
0
0
461
462
463
464
465
0
467
468
469
0
471
0
0
0
0
0
0
0
479
0
481
0
0
0
0
0
0
0
0
490
491
0
0
0
495
496
497
498
499
500
501
502
503
504
505
0
0
0
0
510
0
512
0
0
0
516
0
0
0
0
0
0
523
0
0
0
0
528
529
530
0
532
0
0
0
0
0
538
539
540
541
542
543
544
545
546
547
548
549
550
0
0
0
554
555
0
0
558
559
560
0
0
0
0
0
0
567
0
0
570
571
572
573
574
0
0
0
0
579
580
581
582
583
0
585
0
0
0
0
0
0
592
0
0
595
596
597
598
0
0
0
602
0
0
0
606
607
608
609
610
611
612
613
0
0
0
0
0
0
620
0
0
623
0
625
0
627
628
0
0
0
0
0
0
635
0
637
638
639
640
641
642
643
644
0
0
0
0
649
650
651
652
653
654
655
656
0
658
0
0
0
0
663
0
0
0
0
0
0
670
671
672
673
674
675
676
677
678
679
680
681
682
683
0
685
686
687
0
0
0
691
692
693
694
695
696
0
0
0
700
701
702
703
704
705
706
0
708
0
0
711
712
0
714
715
716
717
718
719
720
721
722
723
724
725
0
727
728
729
0
0
0
0
0
0
736
737
738
739
740
741
742
743
744
0
746
0
748
749
750
751
752
753
754
755
756
757
758
759
760
761
762
763
764
765
766
767
768
0
770
771
0
0
774
775
0
777
0
779
780
781
782
783
EOF
