DIMENSION : 783
NUMBER OF ITEMS : 3910

TOUR_SECTION
1
15
25
37
45
57
52
49
56
88
97
110
115
123
117
125
146
139
147
155
160
175
153
127
136
151
156
162
184
196
195
205
186
180
172
185
215
216
235
236
242
266
270
289
305
313
302
294
317
335
327
319
323
325
339
353
346
332
350
347
345
333
321
322
330
336
326
318
312
301
310
308
288
283
282
287
295
311
303
292
281
290
300
307
293
316
306
291
299
286
274
273
278
276
277
255
246
239
230
231
222
227
248
249
243
256
267
268
258
259
250
269
253
251
262
275
257
237
226
221
213
201
210
219
212
211
209
182
173
165
164
157
169
163
176
179
198
200
190
206
217
225
233
232
240
224
208
202
204
187
161
152
143
137
133
120
111
107
100
80
70
81
67
41
46
47
53
58
65
83
94
76
98
95
89
77
74
63
39
48
64
71
85
99
102
105
108
112
116
140
128
138
118
126
121
124
144
150
159
183
188
197
191
189
203
220
228
229
244
260
263
271
272
241
252
245
261
279
284
296
297
304
309
298
320
324
334
331
342
362
361
349
337
338
340
348
351
354
360
372
370
377
393
376
365
371
366
358
344
328
343
356
359
352
363
384
395
423
429
436
445
452
453
458
466
485
484
482
472
499
511
526
533
548
560
568
576
596
624
640
638
626
611
594
580
586
597
598
590
612
627
634
644
641
619
613
599
588
578
566
563
564
587
603
607
617
628
621
622
609
591
584
600
601
614
605
589
610
618
639
631
633
630
636
651
646
653
654
662
650
642
632
629
615
604
581
593
606
616
637
647
670
676
674
668
667
664
673
693
701
700
689
710
686
695
699
684
669
666
661
649
657
681
692
691
698
713
707
719
720
721
726
740
748
755
754
737
733
722
739
743
732
736
745
735
718
705
709
688
678
671
679
685
706
690
680
675
660
655
645
648
652
659
665
672
683
697
704
725
738
734
747
769
778
761
772
765
760
758
776
759
757
768
779
777
773
774
766
762
749
750
727
731
730
723
741
746
763
770
780
781
764
756
752
742
724
716
708
702
694
703
696
715
717
728
751
782
783
775
771
767
753
744
729
712
714
711
687
682
677
658
656
663
643
635
625
623
620
602
585
583
608
595
592
582
567
574
555
550
538
546
549
545
532
544
537
528
525
509
502
498
510
503
523
516
504
490
462
444
461
479
481
471
478
468
454
451
442
428
421
427
447
440
450
465
475
488
493
514
520
524
522
527
543
553
559
573
572
571
575
558
565
570
577
556
535
536
541
542
521
505
507
501
500
491
483
477
467
469
470
464
476
494
496
497
487
489
480
474
459
446
432
415
414
400
402
416
434
437
448
441
435
431
439
457
456
449
460
473
495
518
519
513
515
529
552
557
547
540
531
539
561
569
579
562
554
551
534
530
506
517
512
508
492
486
463
455
438
443
425
407
401
390
387
382
397
389
392
405
422
433
426
430
424
420
408
409
410
419
417
418
411
391
375
380
386
381
364
383
373
368
385
388
403
412
398
378
379
369
374
396
399
413
406
404
394
367
357
355
341
329
314
315
285
280
265
264
247
238
254
234
218
214
223
207
192
178
174
166
158
167
154
129
130
141
132
131
145
148
168
170
177
181
194
199
193
171
135
134
149
142
122
119
113
104
90
78
69
93
103
92
72
82
86
68
59
61
50
62
54
42
51
44
55
60
73
91
96
114
109
106
101
79
84
87
75
66
43
38
40
6
13
11
4
34
28
24
27
26
21
16
32
14
22
35
31
36
20
8
30
19
5
3
10
29
33
9
12
18
7
2
23
17

PP_SECTION
2
3
4
5
6
7
8
9
10
11
12
13
14
0
16
17
18
19
20
21
22
23
24
0
26
27
28
29
30
31
32
33
34
35
36
37
38
0
40
0
42
43
44
0
46
47
48
49
50
51
52
0
54
55
0
57
58
59
60
61
62
63
64
65
66
67
68
69
0
0
72
73
0
75
0
0
78
79
80
0
82
0
84
85
86
87
88
89
90
91
92
93
0
0
96
0
0
99
100
101
102
103
104
105
106
107
108
109
0
0
0
113
114
0
0
0
118
119
120
0
122
0
124
0
126
127
128
129
130
131
132
133
134
135
0
0
0
0
140
141
142
143
144
145
0
0
148
149
150
151
152
153
154
0
0
0
158
159
160
161
162
0
0
0
166
167
168
0
170
171
0
173
174
0
0
177
178
0
0
181
182
183
0
0
0
187
0
0
0
0
192
193
194
0
0
0
0
199
0
0
0
0
0
0
206
207
208
209
210
211
212
213
214
215
216
217
218
0
0
221
222
223
224
225
226
0
0
0
0
0
0
0
234
0
0
0
238
0
0
0
0
0
244
245
0
247
0
249
250
251
0
0
254
0
256
257
258
0
0
0
0
0
264
265
0
0
0
0
0
0
0
0
0
0
0
0
0
279
280
281
282
0
0
285
0
0
0
289
290
291
292
0
0
0
296
297
298
0
300
301
302
303
304
305
306
307
0
0
0
0
312
313
314
315
316
317
318
319
320
321
322
323
324
0
0
0
328
329
330
331
332
333
334
0
336
337
338
0
340
341
342
343
0
0
0
0
0
0
0
0
352
0
354
355
356
357
0
0
0
0
0
0
364
365
366
367
368
369
370
371
372
373
374
375
376
377
378
379
380
381
382
383
384
385
386
387
388
389
390
391
392
0
394
395
396
397
398
399
400
401
402
403
404
405
406
407
408
409
410
411
412
413
414
415
416
417
418
419
420
421
422
423
424
425
426
427
428
429
430
431
432
433
434
435
436
437
438
439
440
441
442
443
444
0
446
447
448
449
450
451
452
453
454
455
456
457
0
459
460
461
462
463
464
465
466
467
468
469
470
471
0
473
474
475
476
477
478
479
480
481
0
483
484
485
486
487
488
489
490
491
492
493
494
495
496
497
498
499
500
501
502
503
504
505
506
507
508
509
510
511
512
513
514
515
516
517
518
519
520
521
522
523
524
525
526
527
528
529
530
531
532
533
534
535
536
537
538
539
540
541
542
543
544
545
546
547
0
549
550
551
552
553
554
555
556
557
558
559
560
561
562
563
564
565
566
567
568
569
570
571
572
573
574
575
576
577
578
579
580
581
582
583
584
585
586
587
588
589
590
591
592
593
594
595
596
597
598
599
600
601
602
603
604
605
606
607
608
609
610
611
612
613
614
615
616
617
618
619
620
621
622
623
624
625
626
627
628
629
630
631
632
633
634
635
636
637
638
639
640
641
642
643
644
645
646
647
648
649
650
651
652
653
654
655
656
657
658
659
660
661
662
663
664
665
666
667
668
669
670
671
672
673
674
675
676
677
678
679
680
681
682
683
684
685
686
687
688
689
690
691
692
693
694
695
696
697
698
699
700
701
702
703
704
705
706
707
708
709
710
711
712
713
714
715
716
717
718
719
720
721
722
723
724
725
726
727
728
729
730
731
732
733
734
735
736
737
738
739
740
741
742
743
744
745
746
747
748
749
750
751
752
753
754
755
756
757
758
759
760
761
762
763
764
765
766
767
768
769
770
771
772
773
774
775
776
777
778
779
780
781
782
783
2
3
4
5
6
7
8
9
10
11
12
13
14
0
16
17
18
19
20
21
22
23
24
0
26
27
28
29
30
31
32
33
34
35
36
0
38
0
40
0
42
43
44
0
0
47
0
0
50
51
0
0
54
55
0
0
0
59
60
61
62
63
64
65
66
67
68
69
0
0
72
73
74
75
0
77
78
79
80
81
82
83
84
85
86
87
88
89
90
91
92
93
0
0
96
0
0
99
0
101
0
103
104
105
106
0
0
109
0
0
0
113
114
115
116
117
0
119
120
121
122
123
124
0
126
0
0
129
130
131
132
0
134
135
136
137
138
0
140
141
142
0
144
145
146
147
148
149
150
151
152
153
154
0
0
0
158
0
0
161
162
163
164
0
166
167
168
0
170
171
172
173
174
175
176
177
178
0
0
181
182
183
0
185
186
0
0
189
190
191
192
193
194
0
0
197
0
199
0
0
0
203
204
0
206
207
0
0
0
0
0
0
214
0
0
0
218
0
220
221
222
223
0
0
0
0
0
0
0
231
232
233
234
0
0
0
238
239
240
241
242
243
244
245
246
247
0
0
0
0
0
0
254
0
0
257
258
259
0
261
262
263
264
265
0
0
268
269
270
271
272
273
274
275
0
0
0
279
280
281
282
283
284
285
0
0
0
0
290
291
292
293
0
0
296
297
298
299
0
0
0
0
304
0
0
0
0
0
310
311
312
313
314
315
0
0
318
319
320
321
0
0
0
325
326
327
328
329
0
331
0
0
334
0
0
337
338
0
0
341
0
0
0
0
0
0
0
0
0
0
0
0
0
355
0
357
358
359
360
361
362
363
364
365
366
367
368
369
370
371
372
373
374
375
376
377
378
379
380
381
382
383
384
385
386
387
388
389
390
391
392
393
394
395
396
397
398
399
400
401
402
403
404
405
406
407
408
409
410
411
412
413
414
415
416
417
418
419
420
421
422
423
424
425
426
427
428
429
430
431
432
433
434
435
436
437
438
439
440
441
442
443
444
0
446
447
448
449
450
451
452
453
454
455
456
457
0
459
460
461
462
463
464
465
0
467
468
469
470
471
472
473
474
475
476
477
478
479
480
481
482
483
484
485
486
487
488
489
490
491
492
493
494
495
496
497
498
499
500
501
502
503
504
505
506
507
508
509
510
0
512
513
514
515
516
517
518
519
520
521
522
523
524
525
526
527
528
529
530
531
532
0
534
535
536
537
538
539
540
541
542
543
544
545
546
547
548
549
550
551
552
553
554
555
556
557
558
559
560
561
562
563
564
565
566
567
0
569
570
571
572
573
574
575
576
577
578
579
580
581
582
583
584
585
586
587
588
589
590
591
592
593
594
595
596
597
598
599
600
601
602
603
604
605
606
607
608
609
610
611
612
613
614
615
616
617
618
619
620
621
622
623
0
625
0
627
628
629
630
631
632
633
634
635
636
637
638
639
640
641
642
643
644
645
646
647
648
649
650
651
652
653
654
655
656
657
658
659
660
661
662
663
664
665
666
667
668
669
670
671
672
673
674
675
676
677
678
679
680
681
682
683
684
685
686
687
688
689
690
691
692
693
694
695
696
697
698
699
700
701
702
703
704
705
706
707
708
709
710
711
712
713
714
715
716
717
718
719
720
721
722
723
724
725
726
727
728
729
730
731
732
733
734
735
736
737
738
739
740
741
742
743
744
745
746
747
748
749
750
751
752
753
754
755
756
757
758
759
760
761
762
763
764
765
766
767
768
769
770
771
772
773
774
775
776
777
778
779
780
781
782
783
2
3
4
5
6
7
8
9
10
11
12
13
14
15
16
17
18
19
20
21
22
23
24
25
26
27
28
29
30
31
32
33
34
35
36
0
38
39
40
41
42
43
44
0
46
47
48
49
50
51
0
0
54
55
56
0
58
59
60
61
62
63
64
65
66
0
68
69
0
71
72
73
0
75
76
77
78
79
0
0
82
83
84
85
86
87
0
0
90
91
92
93
0
0
96
97
98
99
100
101
102
103
104
105
106
107
108
109
0
0
0
113
114
0
116
0
118
119
120
0
122
0
0
0
0
0
0
129
130
131
132
133
134
135
136
137
138
139
140
141
142
143
144
145
146
147
148
149
150
0
152
153
154
155
156
157
158
0
0
0
0
0
0
0
166
167
168
169
170
171
172
0
174
0
0
177
178
0
0
181
0
183
0
0
0
187
188
189
190
0
192
193
194
0
196
197
198
199
0
0
0
0
0
0
0
207
0
0
0
211
212
213
214
215
216
217
218
219
220
221
222
223
224
225
226
227
228
229
230
0
0
233
234
235
236
0
238
0
0
0
0
0
244
245
0
247
248
249
0
0
0
0
254
0
0
0
258
259
260
261
0
263
264
265
0
0
0
0
0
271
272
273
274
275
276
277
278
279
280
0
0
0
0
285
0
0
0
0
0
0
0
293
294
295
0
297
298
299
300
301
302
303
0
0
0
307
308
309
0
0
0
313
314
315
316
317
0
0
0
0
0
0
0
0
0
0
328
329
330
0
0
0
0
0
0
0
0
0
340
341
342
343
344
0
0
0
348
0
0
0
352
0
354
355
0
357
0
0
0
0
0
363
364
365
366
367
368
369
370
371
372
373
374
375
376
377
378
379
380
381
382
383
384
385
386
387
388
389
390
391
392
393
394
395
396
397
398
399
400
401
402
403
404
405
406
407
408
409
410
411
412
413
414
415
416
417
418
419
420
421
422
0
424
425
426
427
428
0
430
431
432
433
434
435
436
437
438
439
440
441
442
443
444
0
446
447
448
449
450
451
452
453
454
455
456
457
0
459
460
461
462
463
464
465
466
467
468
469
470
471
472
473
474
475
476
477
478
479
480
481
0
483
484
485
486
487
488
489
490
491
492
493
494
495
496
497
498
0
500
501
502
503
504
505
506
507
508
509
510
511
512
513
514
515
516
517
518
519
520
521
522
523
524
525
526
527
528
529
530
531
532
533
534
535
536
537
538
539
540
541
542
543
544
545
546
547
548
549
550
551
552
553
554
555
556
557
558
559
0
561
562
563
564
565
566
567
568
569
570
571
572
573
574
575
0
577
578
579
580
581
582
583
584
585
586
587
588
589
590
591
592
593
594
595
596
597
598
599
600
601
602
603
604
605
606
607
608
609
610
611
612
613
614
615
616
617
618
619
620
621
622
623
624
625
626
627
628
629
630
631
632
633
634
635
636
637
0
639
0
641
642
643
644
645
646
647
648
649
650
651
652
653
654
655
656
657
658
659
660
661
662
663
664
665
666
667
668
669
670
671
672
673
674
675
676
677
678
679
680
681
682
683
684
685
686
687
688
689
690
691
692
693
694
695
696
697
698
699
700
701
702
703
704
705
706
707
708
709
710
711
712
713
714
715
716
717
718
719
720
721
722
723
724
725
726
727
728
729
730
731
732
733
734
735
736
737
738
739
740
741
742
743
744
745
746
747
748
749
750
751
752
753
754
755
756
757
758
759
760
761
762
763
764
765
766
767
768
769
770
771
772
773
774
775
776
777
778
779
780
781
782
783
2
3
4
5
6
7
8
9
10
11
12
13
14
0
16
17
18
19
20
21
22
23
24
0
26
27
28
29
30
31
32
33
34
35
36
0
38
0
40
0
42
43
44
0
0
47
48
0
50
51
0
0
54
55
56
57
58
59
60
61
62
63
64
0
66
0
68
69
70
71
72
73
74
75
76
0
78
79
0
0
82
0
84
85
86
87
88
89
90
91
92
93
0
0
96
97
98
99
100
101
102
103
104
105
106
0
0
109
0
111
112
113
114
115
116
117
118
119
120
121
122
123
124
125
0
0
0
129
130
131
132
133
134
135
136
137
138
0
0
141
142
0
0
145
0
0
148
149
150
151
152
153
154
155
156
157
158
159
0
0
162
0
0
0
166
167
168
0
170
171
0
0
174
0
0
177
178
179
180
181
0
0
0
0
186
187
188
189
190
191
192
193
194
0
0
197
198
199
0
0
0
0
0
0
206
207
208
209
210
0
0
213
214
215
0
0
218
0
220
221
222
223
0
0
226
227
228
229
0
0
232
233
234
0
0
0
238
239
240
241
0
0
0
245
246
247
0
0
0
0
0
0
254
0
0
0
0
0
0
0
0
263
264
265
266
267
268
269
0
0
0
0
0
0
0
0
0
0
280
281
282
283
0
285
0
0
0
0
0
0
0
0
0
0
0
0
0
0
0
0
0
0
0
0
0
0
0
309
0
0
0
0
314
315
0
0
0
0
0
0
0
0
324
325
326
327
328
329
0
0
332
333
334
335
336
337
338
339
0
341
0
0
344
345
346
0
0
0
350
351
352
353
354
355
356
357
358
0
0
0
0
0
364
0
366
367
368
369
370
371
0
373
374
375
376
377
378
379
380
381
382
383
384
385
386
387
388
389
390
391
392
393
394
395
396
397
398
399
400
401
402
403
404
405
406
407
408
409
410
411
412
413
414
415
416
417
418
419
420
421
422
423
424
425
426
427
428
429
430
431
432
433
434
435
0
437
438
439
440
441
442
443
444
445
446
447
448
449
450
451
452
453
454
455
456
457
458
459
460
461
462
463
464
465
466
467
468
469
470
471
472
473
474
475
476
477
478
479
480
481
0
483
0
485
486
487
488
489
490
491
492
493
494
495
496
497
498
499
500
501
502
503
504
505
506
507
508
509
510
0
512
513
514
515
516
517
518
519
520
521
522
523
524
525
526
527
528
529
530
531
532
533
534
535
536
537
538
539
540
541
542
543
544
545
546
547
548
549
550
551
552
553
554
555
556
557
558
559
560
561
562
563
564
565
566
567
568
569
570
571
572
573
574
575
576
577
578
579
580
581
582
583
584
585
586
587
588
589
590
591
592
593
594
595
0
0
0
599
600
601
602
603
604
605
606
607
608
609
610
611
612
613
614
615
616
617
618
619
620
621
622
623
624
625
626
627
628
629
630
631
632
633
634
635
636
637
638
639
0
0
642
643
644
645
646
647
648
649
650
651
652
653
654
655
656
657
658
659
660
661
662
663
664
665
666
667
668
669
670
671
672
673
674
675
676
677
678
679
680
681
682
683
684
685
686
687
688
689
690
691
692
693
694
695
696
697
698
699
700
701
702
703
704
705
706
707
708
709
710
711
712
713
714
715
716
717
718
719
720
721
722
723
724
725
726
727
728
729
730
731
732
733
734
735
736
737
738
739
740
741
742
743
744
745
746
747
748
749
750
751
752
753
754
755
756
757
758
759
760
761
762
763
764
765
766
767
768
769
770
771
772
773
774
775
776
777
778
779
780
781
782
783
2
3
4
5
6
7
8
9
10
11
12
13
14
0
16
17
18
19
20
21
22
23
24
25
26
27
28
29
30
31
32
33
34
35
36
37
38
0
40
41
42
43
44
0
46
47
48
49
50
51
52
53
54
55
56
0
0
59
60
61
62
0
0
65
66
67
68
69
70
71
72
73
74
75
76
77
78
79
0
81
82
83
84
85
86
87
0
89
90
91
92
93
0
0
96
0
98
99
100
101
0
103
104
105
106
107
108
109
110
111
112
113
114
115
116
117
118
119
0
0
122
0
124
0
126
127
128
129
130
131
132
133
134
135
0
0
0
139
140
141
142
0
0
145
0
0
148
149
150
0
152
0
154
0
0
0
158
0
0
0
0
163
164
165
166
167
168
0
170
171
0
0
174
0
0
177
178
179
180
181
0
0
0
0
0
0
188
189
190
191
192
193
194
0
0
197
198
199
200
201
202
0
0
0
0
207
0
0
0
0
0
213
214
0
0
217
218
0
0
221
222
223
224
225
226
0
0
0
0
231
232
0
234
235
236
237
238
239
0
0
0
0
0
0
0
247
248
249
250
0
0
0
254
0
0
0
0
0
260
261
0
0
264
265
0
0
268
0
0
0
272
0
0
0
0
277
278
279
280
281
282
283
284
285
0
0
0
0
290
291
0
0
0
0
296
297
298
299
0
0
0
303
304
305
306
307
308
0
0
0
312
313
314
315
0
0
318
319
320
321
322
323
324
325
326
327
328
329
330
0
0
0
0
0
336
337
338
339
340
341
0
0
344
0
0
347
348
0
0
0
0
0
0
355
0
357
358
359
360
0
0
363
364
365
366
367
368
369
370
371
372
373
374
375
0
0
378
379
380
381
382
383
384
385
386
387
388
389
390
391
392
393
394
395
396
397
398
399
400
401
402
403
404
405
406
407
408
409
410
411
412
413
414
415
416
417
418
419
420
421
422
423
424
425
426
427
428
429
430
431
432
433
434
435
436
437
438
439
440
441
442
443
444
0
446
447
448
449
450
451
452
453
454
455
456
457
0
459
460
461
462
463
464
465
466
467
468
469
470
471
0
473
474
475
476
477
478
479
480
481
0
483
484
485
486
487
488
489
490
491
492
493
494
495
496
497
498
499
500
501
502
503
504
505
506
507
508
509
510
511
512
513
514
515
516
517
518
519
520
521
522
523
524
525
526
527
528
529
530
531
532
533
534
535
536
537
538
539
540
541
542
543
544
545
546
547
548
549
550
551
552
553
554
555
556
557
558
559
560
561
562
563
564
565
566
567
568
569
570
571
572
573
574
575
0
577
578
579
580
581
582
583
584
585
586
587
588
589
590
591
592
593
0
595
596
597
598
0
600
601
602
603
604
605
606
607
608
609
610
611
612
613
614
615
616
617
618
619
620
621
622
623
624
625
626
627
628
629
630
631
632
633
634
635
636
637
638
639
640
641
642
643
644
645
646
647
648
649
650
651
652
653
654
655
656
657
658
659
660
661
662
663
664
665
666
667
668
669
670
671
672
673
674
675
676
677
678
679
680
681
682
683
684
685
686
687
688
689
690
691
692
693
694
695
696
697
698
699
700
701
702
703
704
705
706
707
708
709
710
711
712
713
714
715
716
717
718
719
720
721
722
723
724
725
726
727
728
729
730
731
732
733
734
735
736
737
738
739
740
741
742
743
744
745
746
747
748
749
750
751
752
753
754
755
756
757
758
759
760
761
762
763
764
765
766
767
768
769
770
771
772
773
774
775
776
777
778
779
780
781
782
783
EOF
