DIMENSION : 783
NUMBER OF ITEMS : 7820

TOUR_SECTION
1
17
23
2
7
18
12
9
33
29
10
3
5
19
30
8
20
36
31
35
22
14
32
26
16
21
27
24
28
34
4
11
13
6
40
38
43
66
75
87
84
79
101
106
109
114
122
119
113
104
91
96
73
60
55
44
69
78
90
93
103
92
72
51
42
54
62
50
59
61
68
82
86
99
85
71
64
48
39
63
76
98
95
89
74
77
102
105
108
112
128
140
116
133
137
143
152
161
187
204
202
208
224
240
232
233
225
217
206
190
200
198
179
176
163
169
157
138
118
126
121
124
144
150
164
165
173
182
209
211
212
219
210
201
213
221
226
237
251
253
262
257
275
287
282
283
288
308
310
301
312
318
326
311
295
303
292
281
269
250
259
258
268
243
256
267
286
299
291
306
293
290
300
307
316
332
350
347
345
333
321
322
330
336
360
354
351
348
340
338
337
349
361
362
342
331
334
324
320
298
309
304
297
296
284
279
261
245
252
241
272
271
263
260
244
229
228
220
203
189
191
197
188
183
159
167
154
129
130
141
132
131
145
148
142
149
134
135
171
193
199
194
181
177
170
168
174
166
158
178
192
207
223
214
218
234
254
238
247
264
265
280
285
315
314
329
341
355
357
367
394
404
406
413
399
396
374
369
379
378
398
412
403
388
385
368
373
383
364
381
386
380
375
372
370
377
393
376
405
392
389
397
382
387
390
401
407
425
443
438
422
433
426
430
424
420
408
409
410
391
411
418
417
419
431
439
435
441
448
437
434
416
402
400
414
415
432
446
459
474
480
489
487
497
496
494
476
464
470
469
467
457
456
449
460
455
463
486
492
508
512
517
506
530
534
551
554
562
579
569
561
539
531
540
547
557
552
529
515
513
519
518
495
473
477
483
491
500
501
507
505
521
542
541
536
535
556
564
563
566
578
588
599
613
619
617
628
621
607
587
603
609
622
636
630
633
631
639
618
610
589
605
614
601
600
591
584
577
570
565
558
575
571
572
573
559
553
543
527
522
524
520
514
493
488
475
465
450
440
447
427
421
428
442
451
454
468
478
471
481
479
461
444
462
490
504
516
523
503
510
498
502
509
525
528
537
544
532
545
549
546
538
550
555
574
567
582
592
595
608
583
585
602
620
623
625
635
643
663
656
658
677
682
687
696
703
694
702
708
716
724
742
752
756
764
751
728
715
717
714
711
712
729
744
753
767
771
775
783
782
781
780
770
763
746
741
723
730
731
727
750
749
762
766
774
773
777
779
768
757
759
776
758
743
739
732
722
706
690
680
685
679
671
678
688
709
705
718
735
736
745
760
765
772
761
778
769
747
738
734
725
704
697
683
672
665
659
652
648
645
655
660
675
681
692
691
698
713
707
719
733
737
754
755
748
740
726
721
720
699
695
686
710
700
701
689
693
673
664
667
668
674
676
670
647
637
616
606
593
581
604
615
629
632
642
650
662
654
653
646
651
666
669
684
661
657
649
644
641
634
627
612
590
598
597
586
580
594
611
626
638
640
624
596
576
568
560
548
533
526
511
499
472
482
484
485
466
458
453
452
445
436
429
423
395
384
363
352
359
356
343
328
344
358
366
371
365
353
346
339
325
323
319
327
335
317
294
302
313
305
289
266
270
277
276
278
273
274
248
249
222
227
231
230
255
246
239
236
242
235
216
215
185
172
180
186
205
195
196
184
175
160
155
147
139
146
125
117
123
110
115
127
153
162
156
151
136
120
111
107
94
83
65
58
53
47
46
41
67
81
70
80
100
97
88
56
49
52
57
45
37
25
15

PP_SECTION
0
0
0
0
0
0
0
0
0
0
0
0
0
15
0
0
0
0
0
0
0
0
0
25
0
0
0
0
0
0
0
0
0
0
0
0
0
0
0
41
0
0
0
0
0
47
0
0
0
0
0
53
0
0
56
57
0
0
0
0
0
0
0
65
0
67
0
0
70
0
0
0
0
0
0
0
0
0
80
81
0
83
0
0
0
0
0
0
0
0
0
0
94
0
0
0
0
0
100
0
0
0
0
0
0
0
0
0
0
0
0
0
0
0
0
0
0
0
120
0
0
123
0
0
0
0
0
0
0
0
0
0
0
0
136
0
0
0
0
0
0
0
0
0
0
147
0
0
0
0
0
0
0
155
156
0
0
0
160
0
0
0
0
0
0
0
0
0
0
0
0
0
0
175
0
0
0
0
180
0
0
0
0
185
0
0
0
0
0
0
0
0
0
0
0
0
0
0
0
0
0
0
0
0
0
0
0
0
0
0
0
0
0
0
0
0
0
0
0
0
0
0
0
0
0
227
0
0
230
231
0
0
0
0
236
0
0
0
0
0
0
0
0
0
246
0
0
249
0
0
0
0
0
0
0
0
0
0
0
0
0
0
0
0
266
0
0
0
0
0
0
0
0
0
0
0
0
0
0
0
0
0
0
0
0
0
0
0
0
0
0
0
0
0
0
0
0
0
0
0
302
0
0
0
0
0
0
0
0
0
0
313
0
0
0
0
0
0
0
0
0
0
0
0
0
0
0
0
0
0
0
0
0
0
0
0
0
0
0
0
0
0
344
0
0
0
0
0
0
0
0
0
0
0
0
0
0
0
0
0
0
0
0
365
0
0
0
0
0
0
0
0
0
0
0
0
0
0
0
0
0
0
0
0
0
0
0
0
0
0
0
0
0
395
0
0
0
0
0
0
0
0
0
0
0
0
0
0
0
0
0
0
0
0
0
0
0
0
0
0
0
0
0
0
0
0
0
429
0
0
0
0
0
0
436
0
0
0
0
0
0
0
0
0
0
447
0
0
0
0
0
0
0
0
0
0
0
0
0
0
0
0
0
0
466
0
0
0
0
0
0
0
0
0
0
0
0
0
0
0
482
0
484
485
0
0
0
0
0
0
0
0
0
0
0
0
0
0
0
0
0
0
0
0
0
0
0
0
0
0
0
0
0
0
0
0
0
0
0
0
0
0
0
0
526
0
0
0
0
0
0
533
0
0
536
0
0
0
0
0
0
543
0
0
0
0
0
0
0
0
0
0
0
0
0
0
0
0
0
0
0
0
0
0
0
0
0
0
0
0
0
0
0
0
0
0
0
0
0
0
0
0
0
585
586
0
0
0
0
0
0
0
0
0
0
0
0
0
0
0
0
0
0
0
0
0
0
0
0
611
0
0
0
0
0
0
0
0
0
0
0
0
0
0
626
627
0
0
0
0
0
0
0
635
0
637
0
0
0
0
0
0
644
0
646
0
0
0
650
0
0
0
654
655
0
0
0
0
0
0
662
0
0
0
0
667
0
0
0
0
0
0
0
0
0
0
678
0
0
0
0
0
0
0
686
0
0
0
0
0
0
0
0
0
0
697
698
0
0
0
0
0
0
0
0
0
0
0
0
0
0
0
0
0
0
0
0
0
0
721
0
0
0
725
726
0
0
0
0
0
732
0
0
0
0
0
0
0
740
0
0
0
0
0
0
0
0
0
0
0
0
0
0
0
0
0
0
0
760
0
0
0
0
765
0
0
0
0
0
771
0
0
0
0
0
0
0
0
780
0
0
0
0
0
0
0
0
0
0
0
0
0
0
0
0
15
0
0
0
0
0
0
0
0
0
0
0
0
0
0
0
0
0
0
0
0
0
37
0
0
0
41
0
0
0
45
0
0
0
49
0
0
0
53
0
0
0
57
0
0
0
0
0
0
0
0
0
0
0
0
70
0
0
0
0
0
0
0
0
0
0
81
0
83
0
0
0
0
0
0
0
0
0
0
0
0
0
97
0
0
0
0
0
0
0
0
0
0
0
0
110
0
0
0
0
115
0
117
0
0
0
0
0
123
0
125
0
127
0
0
0
0
0
0
0
0
136
0
0
0
0
0
0
0
0
0
0
147
0
0
0
151
0
0
0
155
0
0
0
0
0
0
0
0
0
0
0
0
0
0
0
0
172
0
0
0
0
0
0
0
0
0
0
0
0
185
186
0
0
0
0
0
0
0
0
195
0
0
0
0
0
0
0
0
0
0
0
0
0
0
0
0
0
0
0
0
0
0
0
0
0
0
0
0
0
0
0
0
0
0
0
0
0
0
0
0
0
0
0
239
0
0
0
0
0
0
0
0
0
249
0
0
0
0
0
0
0
0
0
0
0
0
0
0
0
0
0
0
0
0
0
0
0
0
0
0
0
0
0
0
0
0
0
0
0
0
0
0
0
0
0
0
0
0
0
0
0
0
0
0
0
0
302
0
0
305
0
0
0
0
0
0
0
313
0
0
0
0
0
0
0
0
0
0
0
0
0
0
0
0
0
0
0
0
0
0
0
0
0
0
0
0
0
0
0
0
346
0
0
0
0
0
352
0
0
0
0
0
0
359
0
0
0
0
0
0
0
0
0
0
0
0
0
0
0
0
0
0
0
0
0
0
0
0
384
0
0
0
0
0
0
0
0
0
0
0
0
0
0
0
0
0
0
0
0
0
0
0
0
0
0
0
0
0
0
0
0
0
0
0
0
0
0
0
0
0
0
0
0
0
0
0
0
0
0
0
436
0
0
0
0
0
0
0
0
0
0
0
0
0
0
451
0
0
0
0
0
0
0
0
0
0
0
0
0
0
0
0
0
0
0
0
0
0
0
0
0
0
0
0
0
0
0
0
0
485
0
0
0
0
0
0
0
0
0
0
0
0
0
0
0
0
0
0
0
0
0
0
0
0
0
0
0
0
0
0
0
0
0
0
0
521
0
0
0
0
0
0
0
0
0
0
0
0
0
0
0
0
0
0
0
0
0
543
0
0
0
0
0
0
0
0
0
0
0
0
0
0
0
0
0
0
0
0
0
0
0
0
0
0
0
0
0
0
0
0
0
0
0
0
0
0
0
0
0
0
0
0
0
0
0
0
0
0
0
0
0
0
0
0
0
0
0
0
0
0
0
0
0
0
0
0
0
0
0
0
0
0
0
0
0
0
0
0
0
0
0
0
0
629
0
0
0
0
634
0
0
0
638
0
0
641
0
0
0
0
0
0
648
0
0
0
0
0
0
0
0
0
0
0
660
0
0
0
0
0
0
0
0
0
0
671
672
0
0
0
0
0
0
0
0
0
0
0
0
0
0
0
688
689
0
0
692
0
0
0
0
0
0
699
0
701
0
0
0
705
0
0
0
0
710
0
0
0
0
0
716
0
0
0
0
0
722
0
0
0
0
0
0
0
0
0
0
0
0
0
0
0
0
739
0
0
0
0
744
0
0
747
0
0
0
0
0
0
0
0
0
0
0
0
0
0
0
0
0
0
766
0
0
0
0
0
0
0
0
0
0
0
0
0
0
0
0
0
0
0
0
0
0
0
0
0
0
0
0
0
0
15
0
0
0
0
0
0
0
0
0
25
0
0
0
0
0
0
0
0
0
0
0
37
0
0
0
0
0
0
0
0
46
0
0
0
0
0
0
53
0
0
0
0
0
0
0
0
0
0
0
0
0
0
0
0
70
0
0
0
0
0
0
0
0
0
80
81
0
83
0
0
0
0
0
0
0
0
0
0
94
0
0
97
0
0
0
0
0
0
0
0
0
0
0
0
110
0
0
0
0
115
0
0
0
0
0
0
0
0
0
125
0
127
0
0
0
0
0
0
0
0
0
0
0
0
0
0
0
0
0
0
146
147
0
0
0
0
0
0
0
155
156
0
0
0
0
0
0
0
0
0
0
0
0
0
0
0
172
0
0
175
0
0
0
0
0
0
0
0
0
0
0
0
0
0
0
0
0
0
0
0
196
0
0
0
0
0
0
0
0
0
0
0
0
0
0
0
0
0
0
0
0
0
0
0
0
0
0
0
0
0
0
0
0
0
0
0
0
0
0
235
0
0
0
0
0
0
242
0
0
0
246
0
0
0
0
0
0
0
0
255
0
0
0
0
0
0
0
0
0
0
0
0
0
0
270
0
0
273
0
0
0
0
0
0
0
0
0
0
0
0
0
0
0
289
0
0
0
0
0
0
0
0
0
0
0
0
0
0
0
305
0
0
0
0
0
0
0
0
0
0
0
317
0
0
0
0
0
0
0
0
0
0
328
0
0
0
0
0
0
0
0
0
0
0
0
0
0
0
0
0
346
0
0
0
0
0
0
0
0
0
0
0
0
0
0
0
0
0
0
0
0
0
0
0
0
0
0
0
0
0
0
0
0
0
0
0
0
0
0
0
0
0
0
0
0
0
0
0
0
395
0
0
0
0
0
0
0
0
0
0
0
0
0
0
0
0
0
0
0
0
0
0
0
0
0
0
0
423
0
0
0
0
0
0
0
0
0
0
0
0
436
0
0
0
0
0
0
0
0
445
0
0
0
0
0
0
0
453
0
0
0
0
0
0
0
0
0
0
0
0
0
0
0
0
0
0
0
0
0
0
0
0
0
0
0
0
0
0
0
0
0
0
0
0
0
0
0
0
0
0
0
0
0
0
0
0
0
0
0
0
0
0
0
0
0
0
0
0
0
0
0
0
0
0
0
0
0
0
0
0
0
0
0
0
0
0
0
0
0
0
0
0
0
0
0
0
0
0
0
0
0
0
0
0
0
0
0
0
0
0
0
0
0
0
0
0
0
0
0
0
566
0
0
0
0
0
0
0
0
0
0
0
0
0
0
0
0
0
0
0
0
0
0
0
0
0
0
593
0
0
0
597
0
0
0
0
0
0
0
0
0
0
0
0
0
0
0
613
0
0
0
0
0
0
0
0
0
0
0
0
0
0
0
0
0
0
0
0
0
0
0
0
0
0
0
0
0
0
644
645
0
0
0
0
0
0
0
0
0
0
0
0
0
0
0
0
0
0
0
0
0
0
0
0
0
0
0
0
0
675
0
0
0
0
0
681
0
0
0
0
686
0
688
0
0
0
0
0
0
0
0
0
0
699
0
0
0
0
704
0
0
0
0
0
0
0
0
0
0
0
0
0
0
0
0
0
722
0
0
725
726
0
0
0
0
0
0
0
0
0
736
737
0
0
0
0
0
743
0
0
0
0
0
0
750
0
0
0
0
0
0
0
0
759
0
0
0
0
764
0
0
0
0
0
0
0
0
0
0
0
0
0
0
0
0
0
0
0
0
0
0
0
0
0
0
0
0
0
0
0
0
15
0
0
0
0
0
0
0
0
0
0
0
0
0
0
0
0
0
0
0
0
0
0
0
0
0
0
0
0
0
45
0
0
0
49
0
0
0
0
0
0
56
0
58
0
0
0
0
0
0
0
0
67
0
0
0
0
0
0
0
0
0
0
0
0
0
81
0
0
0
0
0
0
0
0
0
0
0
0
94
0
0
97
0
0
100
0
0
0
0
0
0
0
0
0
0
0
0
0
0
115
0
0
0
0
120
0
0
0
0
125
0
0
0
0
0
0
0
0
0
0
0
0
0
0
0
0
0
0
0
0
0
147
0
0
0
0
0
0
0
0
156
0
0
0
160
0
0
0
0
0
0
0
0
0
0
0
172
0
0
175
0
0
0
0
0
0
0
0
0
185
186
0
0
0
0
0
0
0
0
0
0
0
0
0
0
0
0
0
0
0
0
0
0
0
0
0
0
0
0
0
0
0
0
0
0
0
222
0
0
0
0
227
0
0
230
0
0
0
0
0
0
0
0
0
0
0
242
0
0
0
0
0
0
0
0
0
0
0
0
255
0
0
0
0
0
0
0
0
0
0
0
0
0
0
0
0
0
0
0
0
0
0
278
0
0
0
0
0
0
0
0
0
0
289
0
0
0
0
0
0
0
0
0
0
0
0
0
0
0
0
0
0
0
0
0
0
0
0
0
0
0
0
0
0
0
0
0
0
0
0
0
0
0
0
0
0
0
0
0
0
0
0
0
339
0
0
0
0
0
0
346
0
0
0
0
0
0
0
0
0
0
0
0
0
0
0
0
363
0
0
0
0
0
0
0
371
0
0
0
0
0
0
0
0
0
0
0
0
0
0
0
0
0
0
0
0
0
0
0
0
0
0
0
0
0
0
0
0
0
0
0
0
0
0
0
0
0
0
0
0
0
0
0
0
0
0
0
423
0
0
0
0
0
0
0
0
0
0
0
0
436
0
0
0
0
0
0
0
0
0
0
0
0
0
0
0
452
0
0
0
0
0
458
0
0
0
0
0
0
0
0
0
0
0
0
0
472
0
0
0
0
0
0
0
0
0
482
0
0
485
0
0
0
0
0
0
0
0
0
0
0
0
0
0
0
0
502
0
0
0
0
0
0
0
0
0
0
0
0
0
0
0
0
0
520
0
0
523
0
0
0
0
528
0
0
0
0
0
0
0
0
0
0
0
0
0
0
0
0
0
0
0
0
0
0
0
0
0
0
0
0
0
0
559
0
0
0
0
0
0
0
0
0
0
0
0
0
0
0
0
0
0
0
0
0
0
582
0
0
585
0
0
0
0
0
0
0
0
0
0
596
0
0
0
0
0
0
0
0
605
0
0
0
0
0
611
612
0
0
0
0
0
0
0
0
0
0
0
0
0
626
0
0
0
0
0
0
0
0
0
0
637
0
0
0
641
642
0
644
0
0
647
0
0
650
651
0
0
0
0
0
0
0
0
0
0
0
0
0
0
666
0
0
0
0
0
0
0
0
0
0
0
678
0
0
681
0
0
0
0
0
0
0
0
0
0
0
0
0
0
0
0
698
0
0
0
0
0
0
0
0
0
0
0
0
0
0
0
0
0
0
717
0
0
720
0
0
0
0
0
726
0
0
0
0
0
0
0
0
0
0
0
0
0
0
741
0
0
0
0
0
0
0
0
0
0
0
0
754
0
0
0
0
0
0
761
762
0
0
0
0
0
0
0
0
0
0
0
0
0
0
0
0
0
0
781
0
0
0
0
0
0
0
0
0
0
0
0
0
0
0
15
0
0
0
0
0
0
0
0
0
25
0
0
0
0
0
0
0
0
0
0
0
0
0
0
0
41
0
0
0
0
46
47
0
0
0
0
0
0
0
0
0
57
0
0
0
0
0
0
0
65
0
0
0
0
70
0
0
0
0
0
0
0
0
0
80
0
0
0
0
0
0
0
88
0
0
0
0
0
94
0
0
0
0
0
100
0
0
0
0
0
0
107
0
0
0
0
0
0
0
115
0
0
0
0
0
0
0
123
0
125
0
127
0
0
0
0
0
0
0
0
136
0
0
0
0
0
0
0
0
0
0
0
0
0
0
0
0
0
0
155
0
0
0
0
0
0
162
0
0
0
0
0
0
0
0
0
172
0
0
0
0
0
0
0
0
0
0
0
0
0
186
0
0
0
0
0
0
0
0
0
196
0
0
0
0
0
0
0
0
0
0
0
0
0
0
0
0
0
0
215
0
0
0
0
0
0
0
0
0
0
0
0
0
0
0
231
0
0
0
235
0
0
0
0
0
0
242
0
0
0
0
0
0
0
0
0
0
0
0
255
0
0
0
0
0
0
0
0
0
0
0
0
0
0
270
0
0
273
274
0
276
0
278
0
0
0
0
0
0
0
0
0
0
289
0
0
0
0
0
0
0
0
0
0
0
0
0
0
0
0
0
0
0
0
0
0
0
0
0
0
0
317
0
319
0
0
0
0
0
0
0
0
0
0
0
0
0
0
0
335
0
0
0
0
0
0
0
0
0
0
346
0
0
0
0
0
352
0
0
0
0
0
358
0
0
0
0
0
0
0
366
0
0
0
0
371
0
0
0
0
0
0
0
0
0
0
0
0
384
0
0
0
0
0
0
0
0
0
0
395
0
0
0
0
0
0
0
0
0
0
0
0
0
0
0
0
0
0
0
0
0
0
0
0
0
0
0
0
0
0
0
0
0
0
0
0
0
0
0
0
436
0
0
0
0
0
0
0
0
0
0
0
0
0
0
0
452
453
0
0
0
0
0
0
0
0
0
0
0
0
0
0
0
0
0
0
0
0
0
0
0
0
0
0
0
0
0
0
0
0
0
0
0
0
0
0
0
0
0
0
0
0
498
0
500
0
0
0
0
0
0
0
0
0
0
0
0
0
0
0
0
0
0
0
520
0
0
0
0
525
0
0
0
0
0
0
0
0
0
0
0
0
0
0
0
0
0
0
0
0
0
0
0
0
0
0
0
0
0
0
0
0
0
0
560
0
0
0
0
0
0
0
0
0
0
0
0
0
0
0
576
0
0
0
0
0
0
0
0
0
0
0
0
0
0
0
0
593
0
0
0
597
598
0
0
0
0
0
0
0
0
0
0
0
0
0
0
0
0
615
616
0
0
0
0
0
0
0
0
0
0
0
0
0
0
0
0
0
0
0
0
637
0
0
640
641
642
0
0
645
0
647
0
0
0
0
0
0
0
0
0
0
0
0
0
661
662
0
664
0
0
0
0
0
0
0
0
673
0
0
0
0
0
679
0
0
0
0
0
0
686
687
0
0
0
0
0
0
694
0
0
0
698
0
0
0
0
0
0
0
0
707
0
0
0
711
0
0
0
0
0
0
0
0
0
0
0
0
0
725
0
0
0
729
0
0
0
0
0
0
0
0
0
0
740
0
0
0
0
0
0
0
0
0
0
0
0
0
754
0
0
0
758
0
0
0
0
0
0
0
0
0
0
0
0
771
772
0
0
0
0
0
0
0
0
0
0
783
0
0
0
0
0
0
0
0
0
0
0
0
0
15
0
0
0
0
0
0
0
0
0
25
0
0
0
0
0
0
0
0
0
0
0
0
0
0
0
0
0
0
0
45
0
0
0
49
0
0
0
53
0
0
56
0
58
0
0
0
0
0
0
0
0
0
0
0
70
0
0
0
0
0
0
0
0
0
80
0
0
0
0
0
0
0
0
0
0
0
0
0
94
0
0
97
0
0
100
0
0
0
0
0
0
0
0
0
0
111
0
0
0
0
0
0
0
0
0
0
0
123
0
0
0
0
0
0
0
0
0
0
0
0
0
0
0
0
0
0
0
0
0
0
146
0
0
0
0
0
0
0
0
0
0
0
0
0
160
0
0
0
0
0
0
0
0
0
0
0
0
0
0
175
0
0
0
0
0
0
0
0
184
0
186
0
0
0
0
0
0
0
0
195
0
0
0
0
0
0
0
0
0
205
0
0
0
0
0
0
0
0
0
0
0
0
0
0
0
0
0
0
0
0
0
0
0
0
0
0
0
0
0
0
236
0
0
0
0
0
242
0
0
0
0
0
248
0
0
0
0
0
0
0
0
0
0
0
0
0
0
0
0
0
0
0
0
0
270
0
0
273
0
0
0
0
0
0
0
0
0
0
0
0
0
0
0
0
0
0
0
0
0
0
0
0
0
0
0
0
0
0
0
0
0
0
0
0
0
0
0
0
0
0
0
0
0
0
0
0
0
0
0
0
0
327
0
0
0
0
0
0
0
335
0
0
0
0
0
0
0
0
344
0
0
0
0
0
0
0
0
0
0
0
0
0
0
0
0
0
0
363
0
0
0
0
0
0
0
0
0
0
0
0
0
0
0
0
0
0
0
0
0
0
0
0
0
0
0
0
0
0
0
395
0
0
0
0
0
0
0
0
0
0
0
0
0
0
0
0
0
0
0
0
0
0
0
0
0
0
0
0
0
0
0
0
0
0
0
0
0
0
0
0
0
0
0
0
0
0
0
0
0
0
0
0
0
0
0
0
0
0
0
0
0
0
458
0
0
0
0
0
0
0
466
0
0
0
0
0
0
0
0
0
0
0
0
0
0
0
0
0
484
0
0
0
0
0
0
0
0
0
0
0
0
0
0
0
0
0
0
0
0
0
0
0
0
0
0
0
0
0
0
0
0
0
0
0
0
0
0
523
0
0
0
0
0
0
0
0
0
0
0
0
0
0
0
0
0
0
0
0
0
0
0
0
0
0
0
0
0
0
0
0
0
0
0
0
560
0
562
0
0
0
0
0
0
0
0
0
0
0
0
0
0
0
0
0
580
0
0
0
0
0
0
0
0
0
0
0
0
0
594
0
596
0
0
0
0
0
0
0
0
0
0
0
0
0
0
0
612
0
0
0
0
0
0
0
0
0
0
0
0
0
0
0
628
0
0
0
0
0
0
0
0
0
638
0
0
0
0
0
0
0
646
0
0
0
0
0
0
0
0
0
0
657
0
0
0
0
0
0
0
0
0
0
0
0
0
0
0
0
674
0
0
677
0
0
0
0
0
0
0
0
686
0
688
0
0
691
692
0
0
0
0
697
0
0
0
0
0
0
0
0
0
0
0
0
0
0
712
0
0
0
0
0
0
719
0
721
0
0
0
0
0
0
0
0
0
0
0
733
734
0
0
0
0
739
0
0
0
0
0
0
0
0
0
0
0
0
0
0
0
0
0
0
0
0
0
0
0
0
0
0
766
0
0
0
0
0
0
0
0
0
0
0
0
0
0
0
0
0
0
0
0
0
0
0
0
0
0
0
0
0
0
15
0
0
0
0
0
0
0
0
0
25
0
0
0
0
0
0
0
0
0
0
0
37
0
0
0
0
0
0
0
45
46
47
0
0
0
0
52
53
0
0
56
57
58
0
0
0
0
0
0
0
0
67
0
0
0
0
0
0
0
0
0
0
0
0
80
0
0
83
0
0
0
0
88
0
0
0
0
0
94
0
0
97
0
0
0
0
0
0
0
0
0
107
0
0
110
111
0
0
0
0
0
0
0
0
0
0
0
0
0
125
0
127
0
0
0
0
0
0
0
0
136
0
0
0
0
0
0
0
0
0
0
147
0
0
0
0
0
0
0
155
0
0
0
0
160
0
162
0
0
0
0
0
0
0
0
0
0
0
0
0
0
0
0
0
0
0
0
0
0
0
0
0
0
0
0
0
0
0
0
195
0
0
0
0
0
0
0
0
0
0
0
0
0
0
0
0
0
0
0
215
0
0
0
0
0
0
0
0
0
0
0
0
0
0
0
0
0
0
0
0
0
0
0
239
0
0
0
0
0
0
0
0
0
0
0
0
0
0
0
255
0
0
0
0
0
0
0
0
0
0
266
0
0
0
0
0
0
273
274
0
276
277
0
0
0
0
0
0
0
0
0
0
0
0
0
0
0
0
294
0
0
0
0
0
0
0
0
0
0
0
0
0
0
0
0
0
0
313
0
0
0
0
0
0
0
0
0
0
0
325
0
0
0
0
0
0
0
0
0
0
0
0
0
0
0
0
0
343
0
0
0
0
0
0
0
0
0
353
0
0
0
0
0
0
0
0
0
363
0
0
0
0
0
0
0
0
0
0
0
0
0
0
0
0
0
0
0
0
384
0
0
0
0
0
0
0
0
0
0
395
0
0
0
0
0
0
0
0
0
0
0
0
0
0
0
0
0
0
0
0
0
0
0
0
0
0
0
0
0
0
0
0
0
0
0
0
0
0
0
0
0
0
0
0
0
0
0
0
0
445
0
0
0
0
0
0
0
0
0
0
0
0
0
0
0
0
0
0
0
0
0
0
0
0
0
0
0
0
0
0
0
0
0
0
0
0
0
0
484
0
0
0
0
0
0
0
0
0
0
0
0
0
0
0
0
0
0
0
0
0
0
0
0
0
0
0
0
0
0
0
516
0
0
0
0
0
0
0
0
0
526
0
0
0
0
0
0
0
0
0
0
0
538
0
0
0
0
0
544
0
0
0
0
0
550
0
0
0
0
0
0
0
0
0
0
0
0
0
0
0
0
0
568
0
0
0
572
0
0
0
0
0
0
0
0
0
0
0
0
0
0
0
0
0
0
591
592
0
0
0
0
0
0
599
0
0
602
0
0
0
0
0
0
0
0
0
612
0
614
0
0
0
0
0
0
0
0
0
0
0
0
0
0
0
0
0
0
0
0
0
0
0
0
0
0
0
642
0
644
645
646
0
0
0
650
0
0
0
0
0
0
0
0
659
0
0
0
0
0
0
666
667
0
669
0
0
672
0
0
0
0
0
0
0
0
0
0
0
0
0
0
0
0
0
0
0
692
0
0
0
0
0
0
0
700
0
0
0
0
0
0
707
0
0
0
0
712
0
0
0
0
0
0
0
0
721
0
723
724
0
0
0
728
0
0
0
0
0
0
0
0
0
0
0
0
0
0
0
0
0
0
747
0
0
0
0
0
0
0
0
0
0
758
0
0
0
0
0
764
0
0
0
0
0
0
0
0
0
0
0
0
0
0
0
0
0
0
0
0
0
0
0
0
0
0
0
0
0
0
0
0
15
0
0
0
0
0
0
0
0
0
0
0
0
0
0
0
0
0
0
0
0
0
37
0
0
0
41
0
0
0
45
0
47
0
49
0
0
0
0
0
0
0
0
58
0
0
0
0
0
0
0
0
0
0
0
0
0
0
0
0
0
0
0
0
0
80
0
0
83
0
0
0
0
88
0
0
0
0
0
94
0
0
97
0
0
100
0
0
0
0
0
0
0
0
0
0
0
0
0
0
115
0
0
0
0
0
0
0
123
0
0
0
0
0
0
0
0
0
0
0
0
136
0
0
0
0
0
0
0
0
0
0
0
0
0
0
0
0
0
0
155
0
0
0
0
0
0
162
0
0
0
0
0
0
0
0
0
172
0
0
175
0
0
0
0
0
0
0
0
0
0
0
0
0
0
0
0
0
0
0
0
196
0
0
0
0
0
0
0
0
0
0
0
0
0
0
0
0
0
0
0
0
0
0
0
0
0
0
0
0
0
0
0
0
0
0
0
0
0
0
0
0
0
0
0
0
0
0
0
0
0
0
0
0
249
0
0
0
0
0
255
0
0
0
0
0
0
0
0
0
0
266
0
0
0
270
0
0
273
274
0
276
277
278
0
0
0
0
0
0
0
0
0
0
289
0
0
0
0
294
0
0
0
0
0
0
0
0
0
0
305
0
0
0
0
0
0
0
0
0
0
0
0
0
0
0
0
0
0
0
0
0
327
0
0
0
0
0
0
0
0
0
0
0
0
0
0
0
0
0
0
0
0
0
0
0
0
0
353
0
0
0
0
0
0
0
0
0
0
0
0
0
0
0
0
0
0
0
0
0
0
0
0
0
0
0
0
0
0
384
0
0
0
0
0
0
0
0
0
0
0
0
0
0
0
0
0
0
0
0
0
0
0
0
0
0
0
0
0
0
0
0
0
0
0
0
0
0
0
0
0
0
427
0
0
0
0
0
0
0
0
436
0
0
0
0
0
0
0
0
0
0
0
0
0
0
0
0
453
0
0
0
0
0
0
0
0
0
463
0
0
0
0
0
0
0
0
0
0
0
0
0
0
0
0
0
0
0
0
0
0
0
0
0
0
0
0
0
0
0
0
0
0
0
0
0
0
0
0
0
0
0
0
0
0
0
0
0
0
0
0
0
0
0
0
0
0
0
523
0
0
0
0
0
0
0
0
0
533
0
0
0
0
0
0
0
0
0
0
0
0
0
0
0
0
0
0
0
0
0
0
0
0
0
559
560
0
0
0
0
0
0
0
0
0
0
0
572
0
0
0
0
0
0
0
0
0
582
0
0
0
0
0
0
0
590
0
0
0
0
0
0
597
0
0
0
0
0
0
0
0
0
607
608
0
0
0
0
0
0
0
0
0
0
0
0
0
0
0
0
0
0
627
0
0
0
0
632
0
634
0
0
0
638
0
0
0
0
0
0
0
646
647
0
0
0
0
0
0
0
0
0
0
0
0
660
0
0
0
664
0
666
0
0
0
670
0
0
0
0
0
0
0
0
0
0
0
0
0
684
0
0
0
688
689
690
0
692
0
0
0
0
0
0
699
0
0
0
0
704
0
0
0
0
0
710
0
0
0
714
0
0
0
0
719
0
721
0
0
0
725
0
0
0
0
0
0
0
0
0
0
0
0
0
0
740
0
742
0
0
0
0
0
0
0
0
0
0
0
0
0
0
0
0
0
760
0
0
0
0
0
0
0
0
0
0
0
0
0
0
0
0
0
0
0
0
0
782
783
0
0
0
0
0
0
0
0
0
0
0
0
0
15
0
0
0
0
0
0
0
0
0
25
0
0
0
0
0
0
0
0
0
0
0
37
0
0
0
0
0
0
0
45
0
0
0
0
0
0
52
53
0
0
0
57
58
0
0
0
0
0
0
0
0
67
0
0
0
0
0
0
0
0
0
0
0
0
80
81
0
0
0
0
0
0
88
0
0
0
0
0
0
0
0
97
0
0
100
0
0
0
0
0
0
107
0
0
110
111
0
0
0
115
0
0
0
0
0
0
0
0
0
0
0
127
0
0
0
0
0
0
0
0
136
0
0
0
0
0
0
0
0
0
0
147
0
0
0
151
0
0
0
0
156
0
0
0
0
0
0
0
0
0
0
0
0
0
0
0
0
0
0
175
0
0
0
0
0
0
0
0
0
185
186
0
0
0
0
0
0
0
0
0
196
0
0
0
0
0
0
0
0
205
0
0
0
0
0
0
0
0
0
0
0
0
0
0
0
0
0
0
0
0
0
0
0
0
230
0
0
0
0
235
0
0
0
239
0
0
0
0
0
0
0
0
248
0
0
0
0
0
0
255
0
0
0
0
0
0
0
0
0
0
266
0
0
0
0
0
0
273
274
0
0
0
0
0
0
0
0
0
0
0
0
0
0
0
0
0
0
0
0
0
0
0
0
0
0
0
302
0
0
305
0
0
0
0
0
0
0
0
0
0
0
0
0
319
0
0
0
0
0
0
0
327
0
0
0
0
0
0
0
335
0
0
0
0
0
0
0
0
344
0
0
0
0
0
0
0
0
353
0
0
0
0
0
0
0
0
0
0
0
0
0
0
0
0
0
0
0
0
0
0
0
0
0
0
0
0
0
0
384
0
0
0
0
0
0
0
0
0
0
0
0
0
0
0
0
0
0
0
0
0
0
0
0
0
0
0
0
0
0
0
0
0
0
0
0
0
0
0
0
0
0
0
0
0
0
0
0
0
0
0
0
0
0
0
0
0
0
0
0
445
0
0
0
0
0
0
0
0
0
0
0
0
0
0
0
0
0
0
0
0
0
0
0
0
0
0
0
0
0
0
0
0
478
0
0
0
0
483
484
0
0
0
0
0
0
0
0
0
0
0
0
0
0
0
0
501
0
0
0
0
0
0
0
0
0
0
0
0
0
0
0
0
0
0
0
0
0
0
0
0
0
0
0
0
0
0
0
533
0
0
0
0
0
0
0
0
0
0
0
0
0
0
0
0
0
0
0
0
0
0
0
0
0
0
0
0
0
0
0
0
0
0
0
0
0
0
0
0
0
0
0
0
0
0
0
0
0
0
0
0
0
0
588
0
0
0
0
0
0
0
0
0
0
0
0
0
602
0
0
0
0
0
0
0
0
0
0
0
0
0
0
0
0
0
0
0
0
0
0
0
0
627
0
0
0
0
632
0
0
0
0
0
0
639
0
0
642
0
644
0
646
0
0
0
0
0
0
653
0
0
0
657
0
0
0
661
662
0
0
0
666
667
668
0
670
0
0
0
0
0
0
0
0
0
680
0
0
0
0
0
0
687
0
689
690
0
0
0
0
0
0
697
0
0
0
0
0
0
0
705
706
0
0
709
0
0
0
0
0
0
716
0
0
0
0
721
722
0
0
0
726
0
0
729
0
731
732
0
734
735
0
0
0
0
0
0
0
0
0
0
0
0
0
0
750
0
0
0
0
0
0
0
0
0
0
0
0
0
0
0
0
0
0
0
0
0
0
0
0
0
0
0
0
779
0
0
0
0
0
0
0
0
0
0
0
0
0
0
0
0
0
15
0
0
0
0
0
0
0
0
0
25
0
0
0
0
0
0
0
0
0
0
0
37
0
0
0
41
0
0
0
0
0
47
0
49
0
0
52
53
0
0
56
0
0
0
0
0
0
0
0
0
0
67
0
0
0
0
0
0
0
0
0
0
0
0
0
81
0
83
0
0
0
0
88
0
0
0
0
0
0
0
0
0
0
0
0
0
0
0
0
0
0
107
0
0
0
111
0
0
0
0
0
0
0
0
120
0
0
0
0
0
0
127
0
0
0
0
0
0
0
0
0
0
0
0
0
0
0
0
0
0
0
147
0
0
0
0
0
0
0
0
0
0
0
0
160
0
0
0
0
0
0
0
0
0
0
0
0
0
0
0
0
0
0
0
0
0
0
0
184
185
186
0
0
0
0
0
0
0
0
0
0
0
0
0
0
0
0
0
0
205
0
0
0
0
0
0
0
0
0
0
216
0
0
0
0
0
222
0
0
0
0
0
0
0
230
231
0
0
0
0
0
0
0
0
0
0
0
0
0
0
0
0
0
249
0
0
0
0
0
0
0
0
0
0
0
0
0
0
0
0
0
0
0
0
0
0
0
0
0
0
0
0
278
0
0
0
0
0
0
0
0
0
0
289
0
0
0
0
0
0
0
0
0
0
0
0
302
0
0
305
0
0
0
0
0
0
0
0
0
0
0
0
0
0
0
0
0
0
0
0
0
0
0
0
0
0
0
0
0
335
0
0
0
0
0
0
0
0
0
0
0
0
0
0
0
0
0
0
0
0
0
0
0
0
0
0
0
0
0
365
366
0
0
0
0
0
0
0
0
0
0
0
0
0
0
0
0
0
0
0
0
0
0
0
0
0
0
0
0
0
0
0
0
0
0
0
0
0
0
0
0
0
0
0
0
0
0
0
0
0
0
0
0
0
0
0
0
0
0
0
0
0
0
0
0
0
0
0
0
0
436
0
0
0
0
0
0
0
0
0
0
447
0
0
0
0
0
453
454
0
0
0
0
0
0
0
0
0
0
0
0
0
0
0
0
0
0
0
0
0
0
0
0
0
0
0
0
0
0
0
0
0
0
0
0
0
0
0
0
0
0
0
0
0
0
0
0
0
0
0
0
0
0
0
0
0
0
0
0
0
0
0
0
0
0
0
0
0
0
0
526
0
0
0
0
0
0
0
0
0
0
0
0
0
0
0
0
0
0
0
0
0
0
0
0
0
0
0
0
0
0
0
0
0
0
0
0
0
0
0
0
0
0
0
0
0
0
0
0
0
0
0
0
0
0
0
0
0
0
0
0
0
0
0
0
0
0
0
0
595
596
0
598
0
0
0
0
0
604
0
0
0
0
0
0
611
0
0
0
0
0
0
0
0
620
0
0
0
0
0
0
627
0
629
0
0
0
0
634
0
0
0
638
0
0
0
642
0
644
0
0
647
0
0
0
0
652
0
0
0
0
0
0
0
660
0
0
0
664
0
0
667
668
0
0
0
0
0
0
675
0
0
0
0
0
0
0
0
0
685
0
0
0
0
0
0
0
0
0
0
0
0
0
0
0
0
0
0
0
0
0
0
0
0
0
0
0
0
0
0
0
0
0
0
0
0
0
0
0
725
0
0
0
0
0
0
0
0
0
0
0
0
0
0
0
0
0
0
0
0
0
0
0
0
0
0
0
0
0
0
0
0
758
0
0
0
0
0
0
765
0
0
0
0
0
0
0
0
0
0
0
0
0
0
0
0
0
0
EOF
