DIMENSION : 783
NUMBER OF ITEMS : 782

TOUR_SECTION
1
15
25
37
45
57
52
49
56
88
97
100
80
70
81
67
41
46
47
53
58
65
83
94
107
111
120
133
137
143
152
161
162
156
151
136
153
127
115
110
123
117
125
146
139
147
155
160
175
184
196
195
205
186
180
172
185
215
216
236
242
235
266
270
289
305
313
302
294
317
335
327
319
323
325
339
353
346
332
350
347
345
333
321
322
330
336
326
318
312
301
310
308
288
283
282
287
295
311
303
292
281
290
300
307
293
316
306
291
299
286
274
273
278
276
277
255
246
239
230
231
248
249
227
222
204
187
202
208
224
243
256
267
268
258
259
240
232
233
250
269
253
251
262
275
257
237
226
221
213
210
201
183
188
197
191
189
203
220
228
229
244
260
263
271
272
241
252
245
261
279
284
296
297
304
309
298
320
324
334
331
342
362
361
349
337
338
340
348
351
354
360
375
380
386
381
364
383
373
368
385
388
403
415
414
400
402
416
432
446
459
437
434
448
441
435
431
439
457
456
449
460
473
495
518
519
513
515
529
552
557
547
540
531
539
561
569
579
562
554
551
534
530
506
517
512
508
492
486
463
455
438
443
425
407
401
390
387
382
397
389
392
405
422
433
426
430
424
420
408
409
410
419
417
418
411
391
372
370
377
393
376
365
371
366
358
344
328
343
356
359
352
363
384
395
423
429
436
445
452
453
458
466
485
484
482
472
499
511
526
533
548
560
576
568
580
596
624
640
638
626
611
594
586
597
598
590
599
588
578
566
563
564
556
535
536
541
542
521
505
507
501
500
491
483
477
467
469
470
464
476
494
496
497
487
474
480
489
493
488
475
465
450
440
447
454
451
468
478
498
502
509
525
528
544
537
520
514
524
522
527
543
553
559
573
572
571
575
558
565
570
577
584
591
600
601
614
605
589
610
618
639
631
633
630
636
622
609
603
587
607
621
628
617
619
613
612
627
634
641
644
649
657
661
684
669
666
651
646
653
654
662
650
642
632
629
615
604
581
593
606
616
637
647
670
676
674
668
667
664
673
693
689
701
700
710
686
695
699
720
721
726
740
748
755
754
737
733
719
707
713
698
691
692
681
675
660
655
645
648
652
659
665
672
683
697
704
725
738
734
747
769
778
761
772
765
760
745
736
735
718
705
709
688
678
671
679
685
680
690
706
722
732
739
743
758
776
759
757
768
779
777
773
774
766
762
749
750
727
731
730
723
741
746
763
770
780
781
782
783
775
771
767
753
744
729
712
711
714
717
715
728
751
764
756
752
742
724
716
708
702
694
703
696
687
682
677
658
656
663
643
635
625
623
620
602
585
583
608
595
592
582
567
574
555
550
538
546
549
545
532
510
503
523
516
504
490
479
481
471
461
462
444
442
428
421
427
412
398
378
379
369
374
396
399
413
404
406
394
367
357
355
341
329
314
315
285
280
265
264
247
238
254
234
218
214
223
207
192
178
174
166
158
131
132
141
130
129
154
167
159
150
144
124
121
126
118
138
164
165
173
182
209
211
212
219
225
217
206
190
200
198
179
176
163
169
157
140
128
116
112
108
105
102
77
74
89
95
98
76
63
39
48
64
71
85
99
86
82
68
59
61
50
62
54
42
51
72
92
103
93
90
78
69
44
55
60
73
96
91
104
113
119
145
148
168
170
177
181
194
199
193
171
135
134
149
142
122
114
109
106
101
79
84
87
75
66
43
38
40
6
13
11
4
34
28
24
27
26
21
16
32
14
22
35
31
36
20
8
30
19
5
3
10
29
33
9
12
18
7
2
23
17

PP_SECTION
0
3
4
5
6
7
0
9
10
11
12
13
14
0
0
17
18
0
20
0
22
23
0
0
26
27
28
29
0
31
32
33
34
35
36
0
38
39
40
0
42
0
44
0
0
0
48
0
50
51
0
0
0
0
56
0
0
59
60
61
62
63
0
65
66
67
68
69
0
71
72
73
74
0
0
77
0
0
0
0
82
0
84
85
86
87
0
0
90
91
92
93
0
95
96
0
0
99
0
0
102
0
104
0
0
0
108
109
0
0
0
113
114
0
116
0
0
119
0
121
122
0
124
0
0
0
128
129
130
131
132
0
134
135
0
0
0
0
140
0
142
0
0
145
0
0
148
149
150
0
0
0
0
155
0
157
158
159
160
0
0
163
164
0
166
0
168
0
170
171
0
173
0
0
0
0
178
179
0
181
0
0
0
185
0
0
188
189
190
0
192
0
194
0
0
197
198
0
0
0
0
0
204
0
0
0
208
0
0
0
212
213
214
0
0
217
218
0
0
0
0
223
0
0
226
227
0
0
230
231
232
0
234
0
236
0
238
0
0
0
0
243
244
0
0
0
0
0
0
0
252
0
0
0
0
257
0
0
0
0
0
0
264
265
266
0
0
269
0
0
0
0
0
0
0
0
0
279
0
0
282
0
284
0
0
0
0
0
0
0
292
293
0
0
0
0
0
0
0
0
302
0
0
0
0
0
0
0
0
311
0
313
314
315
0
0
318
0
0
0
0
0
0
0
0
0
0
329
0
0
0
0
0
0
0
0
0
0
340
0
0
0
344
0
0
0
0
0
0
0
0
0
0
355
0
0
0
0
360
361
362
0
0
365
0
367
0
0
370
0
0
0
0
0
0
0
378
379
0
0
0
0
0
385
0
0
0
0
0
391
392
393
394
395
0
0
0
0
0
0
0
403
0
0
0
407
0
0
0
0
0
413
0
0
416
0
0
419
0
421
0
0
0
0
426
427
0
429
430
0
0
433
0
0
436
0
0
0
0
0
0
0
444
0
446
447
448
449
0
0
0
0
454
455
456
457
0
0
0
0
0
0
0
0
466
0
0
0
0
471
0
0
0
0
0
477
0
0
0
481
482
0
484
485
0
0
0
0
0
491
0
0
494
0
0
497
0
0
0
0
0
0
0
0
506
0
508
0
0
0
0
513
0
515
0
0
0
519
0
0
0
0
0
0
526
0
0
529
530
531
532
533
0
535
536
0
0
0
540
0
0
543
0
0
0
547
0
0
550
551
0
0
0
0
0
0
0
0
0
0
562
0
0
565
0
0
568
0
570
0
0
573
0
575
0
0
0
0
0
581
582
0
0
585
586
0
0
0
0
0
0
0
0
0
0
0
0
0
600
0
0
603
0
0
0
0
608
0
610
611
612
0
0
0
0
0
0
619
0
621
622
623
0
625
626
627
0
0
630
0
0
0
0
635
636
637
0
0
0
641
0
0
644
0
646
0
0
649
650
651
0
0
654
655
656
0
658
0
660
0
662
663
664
0
0
667
0
0
0
0
0
0
0
0
0
0
678
679
680
681
682
0
0
685
686
687
0
0
690
0
0
693
694
0
0
697
698
0
0
0
0
0
0
705
0
707
0
0
0
0
712
0
0
715
0
0
0
0
720
721
0
0
724
725
726
0
0
729
730
731
732
733
0
735
736
0
0
0
740
0
0
0
744
0
0
0
748
749
0
751
752
0
0
0
0
0
758
759
760
0
0
0
764
765
766
0
768
769
770
771
0
0
774
0
0
0
0
0
780
781
0
783
EOF
