DIMENSION : 783
NUMBER OF ITEMS : 782

TOUR_SECTION
1
17
23
2
7
18
12
9
33
29
10
3
5
19
30
8
20
36
31
35
22
14
32
26
16
21
27
24
28
34
4
11
13
6
40
38
43
66
75
87
84
79
101
106
109
114
96
91
73
60
55
44
51
42
54
62
50
61
59
68
86
82
72
92
103
93
69
78
90
104
113
119
122
135
134
149
142
148
145
168
170
194
181
177
171
193
199
218
214
223
207
192
178
174
166
158
131
132
141
130
129
154
167
159
150
144
124
121
126
118
138
128
140
116
112
108
105
102
99
85
71
64
48
39
63
74
77
89
95
98
76
94
83
65
58
53
47
46
41
67
81
70
80
100
107
111
120
133
137
143
152
161
187
204
202
208
224
240
232
233
225
217
206
190
200
198
179
176
163
169
157
164
165
173
182
209
211
212
219
253
251
262
275
257
237
226
221
213
210
201
183
188
197
191
189
203
220
228
229
244
260
263
271
272
241
252
245
261
247
238
234
254
285
280
265
264
279
284
298
309
296
297
304
314
315
329
341
355
357
367
394
406
404
413
399
396
374
369
379
378
398
412
427
421
428
442
444
462
461
471
481
479
490
504
516
523
503
510
532
545
549
546
538
550
555
574
567
582
592
595
608
583
585
602
620
623
625
635
643
663
656
658
677
682
687
696
703
694
702
708
716
724
742
752
756
764
751
728
715
717
714
711
712
729
744
753
767
771
775
783
782
781
780
770
763
746
741
723
730
731
727
750
749
762
766
774
773
777
779
768
757
759
776
758
743
739
732
722
706
690
680
685
679
671
678
688
709
705
718
735
736
745
760
765
772
761
778
769
747
738
734
725
704
697
683
672
665
659
652
648
645
655
660
675
681
691
692
698
713
707
719
733
737
754
755
748
740
726
721
720
699
695
686
710
689
700
701
693
673
664
667
668
674
676
670
647
637
616
606
593
581
604
615
629
632
642
650
662
654
653
646
651
666
669
684
661
649
657
644
641
634
627
612
613
619
617
628
621
607
587
603
609
622
636
630
633
631
639
618
610
589
605
614
601
600
591
584
577
570
565
558
575
571
572
573
559
553
543
527
522
524
514
520
537
544
528
525
509
502
498
478
468
451
454
447
440
450
465
475
488
493
489
480
474
487
497
496
494
476
464
470
469
467
477
483
491
500
501
507
505
521
542
541
536
535
556
564
563
566
578
588
599
590
598
597
586
580
594
611
626
638
640
624
596
576
568
560
548
533
526
511
499
472
482
484
485
466
458
453
452
445
436
429
423
395
384
363
352
359
356
343
328
344
358
366
371
365
376
393
377
370
372
391
411
418
417
419
410
409
408
420
424
430
426
433
422
405
392
389
397
382
387
390
401
407
425
443
438
455
463
486
492
508
512
517
506
530
534
551
554
562
579
569
561
539
531
540
547
557
552
529
515
513
519
518
495
473
460
449
456
457
439
431
435
441
448
434
437
459
446
432
416
402
400
414
415
403
388
385
368
373
383
364
381
386
380
375
360
354
351
348
340
338
337
349
361
362
342
331
334
324
320
308
310
288
283
282
287
301
312
318
326
336
330
311
295
292
303
322
321
333
345
347
350
332
346
353
339
325
323
319
327
335
317
294
302
313
305
289
266
270
277
276
278
273
274
286
299
291
306
293
316
307
300
290
281
269
250
259
258
268
267
256
243
249
248
227
222
231
230
255
246
239
236
242
235
216
215
185
172
180
186
205
195
196
184
162
156
151
136
127
153
175
160
155
147
139
146
125
117
123
115
110
97
88
56
49
52
57
45
37
25
15

PP_SECTION
2
3
4
5
0
0
0
0
0
0
0
0
0
15
0
0
0
19
20
21
22
0
0
25
0
0
0
0
0
0
0
0
0
0
0
37
0
0
0
0
0
0
44
45
0
0
0
49
50
51
52
0
0
0
56
57
58
0
0
0
62
63
64
65
66
67
68
69
0
0
0
0
0
0
0
0
0
0
0
0
0
0
0
85
86
87
88
0
0
0
0
0
0
0
0
97
0
0
100
0
102
0
0
0
0
107
108
109
110
0
0
0
0
115
0
117
0
0
0
0
0
123
0
125
126
127
128
129
0
0
0
0
0
0
136
0
0
139
0
0
0
0
0
0
146
147
0
0
150
151
152
153
0
155
156
0
158
159
160
161
162
0
0
0
0
167
168
0
0
0
172
0
0
175
0
0
0
0
180
0
182
183
184
185
186
0
0
0
0
0
0
0
0
195
196
0
0
0
0
0
0
0
0
205
0
0
0
0
0
211
212
213
214
215
216
217
0
0
0
221
222
223
224
225
226
227
0
0
230
231
0
0
0
235
236
0
0
239
0
0
242
243
0
0
246
0
248
249
250
0
0
0
0
255
256
257
258
259
0
0
0
0
0
0
266
267
268
269
270
0
0
273
274
0
276
277
278
0
0
281
282
283
0
0
286
287
288
289
290
291
292
293
294
295
296
297
0
299
300
301
302
303
304
305
306
307
308
0
310
311
312
313
314
315
316
317
318
319
320
321
322
323
324
325
326
327
328
0
330
331
332
333
334
335
336
337
338
339
340
341
342
343
344
345
346
347
348
349
350
351
352
353
354
0
356
0
358
359
360
361
362
363
364
365
366
0
368
369
370
371
372
373
0
375
376
377
0
0
380
381
382
383
384
385
386
387
388
389
390
391
392
393
0
395
0
397
0
0
400
401
402
403
404
405
0
407
408
409
410
411
412
413
414
415
416
417
418
419
420
0
422
423
424
425
426
427
428
429
430
431
432
433
434
435
436
437
438
439
440
441
0
443
0
445
446
0
448
449
450
451
452
453
454
455
456
457
458
459
460
461
462
463
464
465
466
467
0
469
470
0
472
473
474
475
476
477
478
0
480
0
482
0
484
485
486
487
0
0
0
491
492
0
0
495
496
497
498
499
500
501
0
503
504
505
506
507
508
509
510
511
512
513
514
515
0
517
518
519
0
521
0
0
524
525
526
527
528
529
530
531
0
533
534
0
0
0
538
539
540
541
0
0
0
0
0
547
0
0
0
551
552
0
554
0
556
557
0
0
560
561
562
563
564
0
566
0
568
569
570
571
572
0
0
0
576
0
578
579
580
581
582
0
0
0
586
0
588
0
590
0
0
0
0
0
596
597
598
599
600
601
602
603
604
0
0
607
608
609
610
611
612
613
0
0
0
0
0
0
0
0
0
0
624
0
626
627
628
0
0
0
0
0
0
635
636
637
638
639
640
641
642
0
644
0
646
0
0
0
0
0
652
653
654
655
0
0
0
0
0
0
662
663
664
0
666
667
0
0
0
0
0
0
0
0
676
677
678
0
680
681
0
0
0
0
686
0
0
0
0
0
0
0
0
0
0
0
0
699
700
701
0
0
0
0
0
0
0
0
0
711
712
713
0
0
0
0
0
0
0
0
0
0
724
725
726
0
728
729
730
0
0
0
734
735
736
737
738
739
740
0
742
743
744
745
0
0
748
749
750
0
0
753
754
755
756
757
0
0
0
0
0
0
0
0
0
0
0
0
0
0
0
0
0
0
0
0
0
0
780
781
782
783
EOF
