DIMENSION : 783
NUMBER OF ITEMS : 3910

TOUR_SECTION
1
17
23
2
7
18
12
9
33
29
10
3
5
19
30
8
20
36
31
35
22
14
32
16
21
26
27
24
28
34
4
11
13
6
40
38
43
66
75
87
84
79
101
106
109
114
122
142
149
134
135
171
193
199
194
181
177
170
168
148
145
119
113
104
91
96
73
60
55
44
69
78
90
93
103
92
72
51
42
54
62
50
59
61
68
82
86
99
85
71
64
48
39
63
76
98
95
89
74
77
102
105
108
112
116
128
140
157
169
163
176
179
198
200
190
206
217
225
219
212
211
209
182
173
165
164
138
118
126
121
124
144
150
159
167
154
129
130
141
132
131
158
166
174
178
192
207
223
214
218
234
254
238
247
264
265
280
285
315
314
329
341
355
357
367
394
404
406
413
399
396
374
369
379
378
398
412
427
421
428
442
451
454
447
440
450
465
475
488
493
489
480
474
487
497
496
494
476
464
470
469
467
477
483
491
500
501
507
505
521
542
541
536
535
556
577
570
565
558
575
571
572
573
559
553
543
527
522
524
514
520
537
544
528
525
509
502
498
478
468
471
481
479
461
444
462
490
504
516
523
503
510
532
545
549
546
538
550
555
574
567
582
592
595
608
583
585
602
620
623
625
635
643
663
656
658
677
682
687
696
703
694
702
708
716
724
742
752
756
764
751
728
715
717
714
711
712
729
744
753
767
771
775
783
782
781
780
770
763
746
741
723
730
731
727
750
749
762
766
774
773
777
779
768
757
759
776
758
760
765
772
761
778
769
747
734
738
725
704
697
683
672
665
659
652
648
645
655
660
675
680
690
706
685
679
671
678
688
709
705
718
735
745
736
732
743
739
722
733
737
754
755
748
740
726
721
720
719
707
713
698
692
691
681
657
649
661
666
669
684
699
695
686
710
700
701
689
693
673
664
667
668
674
676
670
647
637
616
606
593
581
604
615
629
632
642
650
662
654
653
646
651
636
630
633
631
639
618
610
589
605
614
601
600
584
591
609
622
621
628
617
607
603
587
564
563
566
578
588
599
613
619
641
644
634
627
612
590
598
597
586
594
611
626
638
640
624
596
580
568
576
560
548
533
526
511
499
472
482
484
485
466
458
453
452
445
436
429
423
395
384
363
352
359
356
343
328
344
358
366
371
365
376
393
377
370
372
391
411
418
417
419
410
409
408
420
424
430
426
433
422
405
392
389
397
382
387
390
401
407
425
443
438
455
463
486
492
508
512
517
506
530
534
551
554
562
579
569
561
539
531
540
547
557
552
529
515
513
519
518
495
473
460
449
456
457
439
431
435
441
448
434
437
459
446
432
416
402
400
414
415
403
388
385
368
373
383
364
381
386
380
375
360
354
351
348
340
338
337
349
361
362
342
331
334
324
320
298
309
304
297
296
284
279
261
245
252
241
272
271
263
260
244
229
228
220
203
189
191
197
188
183
201
210
213
221
226
237
251
253
262
257
275
287
282
283
288
308
310
301
312
318
326
336
330
311
295
292
303
322
321
333
345
347
350
332
346
353
339
325
323
319
327
335
317
294
302
313
305
289
266
270
277
276
255
246
239
236
242
235
215
216
185
172
180
186
205
230
231
227
222
249
248
273
278
274
286
299
291
306
316
293
307
300
290
281
269
250
233
232
240
259
258
268
267
256
243
224
208
202
204
187
184
196
195
175
160
155
147
139
146
125
117
123
110
115
127
153
136
151
156
162
161
152
143
137
133
120
111
107
94
83
65
58
53
47
46
41
67
81
70
80
100
97
88
56
49
52
57
45
37
25
15

PP_SECTION
2
3
4
5
0
0
0
0
0
0
0
0
0
15
0
0
0
19
20
21
22
0
0
25
0
0
0
0
0
0
0
0
34
35
36
37
0
0
0
41
0
0
44
45
46
47
48
49
50
51
52
53
0
0
56
57
58
59
60
61
62
63
64
65
66
67
68
69
70
0
0
0
0
0
0
0
0
0
80
81
0
83
0
85
86
87
88
89
90
91
92
0
94
0
0
97
0
0
100
101
102
103
104
105
0
107
108
109
110
111
0
0
0
115
0
117
118
119
120
0
0
123
124
125
126
127
128
129
0
131
0
133
0
0
136
137
0
139
140
141
0
143
144
145
146
147
0
0
150
151
152
153
0
155
156
0
158
159
160
161
162
0
0
0
0
167
168
0
0
0
172
173
0
175
0
0
0
0
180
0
182
183
184
185
186
187
188
189
0
191
0
0
0
195
196
197
0
0
0
201
202
203
204
205
0
207
208
209
210
211
212
213
214
215
216
217
0
0
220
221
222
223
224
225
226
227
228
229
230
231
232
233
0
235
236
237
0
239
240
241
242
243
244
245
246
0
248
249
250
251
252
253
0
255
256
257
258
259
260
261
262
263
0
0
266
267
268
269
270
271
272
273
274
275
276
277
278
279
280
281
282
283
284
0
286
287
288
289
290
291
292
293
294
295
296
297
298
299
300
301
302
303
304
305
306
307
308
309
310
311
312
313
314
315
316
317
318
319
320
321
322
323
324
325
326
327
328
0
330
331
332
333
334
335
336
337
338
339
340
341
342
343
344
345
346
347
348
349
350
351
352
353
354
0
356
0
358
359
360
361
362
363
364
365
366
367
368
369
370
371
372
373
0
375
376
377
0
0
380
381
382
383
384
385
386
387
388
389
390
391
392
393
0
395
396
397
398
399
400
401
402
403
404
405
0
407
408
409
410
411
412
413
414
415
416
417
418
419
420
0
422
423
424
425
426
427
428
429
430
431
432
433
434
435
436
437
438
439
440
441
0
443
0
445
446
0
448
449
450
451
452
453
454
455
456
457
458
459
460
461
462
463
464
465
466
467
468
0
0
0
472
473
474
475
476
477
478
479
480
0
482
0
484
485
486
487
0
0
0
0
492
0
0
495
496
497
498
499
0
0
0
503
504
505
506
507
508
509
510
511
512
513
514
515
516
517
518
519
0
0
0
523
524
525
526
527
528
529
530
531
532
533
534
0
0
0
538
539
540
541
0
0
0
0
0
547
548
0
0
551
552
0
554
555
0
557
558
559
560
561
562
563
564
565
566
567
568
569
570
571
572
0
0
0
576
0
578
579
580
581
582
0
584
0
586
587
588
589
590
591
0
593
594
0
596
597
598
599
600
601
602
603
604
605
606
607
608
609
610
611
612
613
614
615
616
617
618
619
620
621
622
623
624
625
626
627
628
629
630
631
632
633
634
635
636
637
638
639
640
641
642
643
644
645
646
647
648
649
650
651
652
653
654
655
0
657
0
659
660
661
662
663
664
665
666
667
668
669
670
671
672
673
674
675
676
677
678
679
680
681
0
683
684
685
686
687
688
689
690
691
692
693
694
695
696
697
698
699
700
701
702
0
704
705
706
707
708
709
710
711
712
713
714
715
716
717
718
719
720
721
722
723
724
725
726
727
728
729
730
731
732
733
734
735
736
737
738
739
740
741
742
743
744
745
746
747
748
749
750
751
752
753
754
755
756
757
758
759
760
761
762
763
0
765
766
767
768
769
770
771
772
773
774
0
776
777
778
779
780
781
782
783
0
0
0
0
6
7
8
9
0
11
12
13
14
15
0
0
0
19
0
0
0
0
0
25
0
27
28
29
0
0
0
0
34
35
36
37
0
0
0
41
0
43
44
45
46
47
0
49
0
0
52
53
0
0
56
57
58
0
0
0
0
0
0
65
0
67
0
0
70
0
72
73
74
0
0
77
78
79
80
81
82
83
84
85
86
87
88
89
0
0
0
0
94
0
0
97
0
0
100
0
0
0
0
0
0
107
0
0
110
111
0
0
0
115
116
117
0
0
120
121
122
123
0
125
0
127
0
0
0
0
0
133
0
135
136
137
0
139
0
0
0
143
0
145
146
147
148
149
150
151
152
153
154
155
156
0
0
0
160
161
162
163
164
0
0
0
0
0
170
171
172
173
174
175
176
177
0
0
180
0
182
183
184
185
186
187
188
189
0
191
192
0
0
195
196
197
0
0
0
201
202
203
204
205
206
207
208
0
210
0
0
213
0
215
216
0
0
0
220
221
222
223
224
0
226
227
228
229
230
231
232
233
234
235
236
237
238
239
240
241
242
243
244
245
246
247
248
249
250
251
252
253
0
255
256
257
258
259
260
261
262
263
0
0
266
267
268
269
270
271
272
273
274
275
276
277
278
279
280
281
282
283
284
0
286
287
288
289
290
291
292
293
294
295
296
297
298
299
300
301
302
303
304
305
306
307
308
309
310
311
312
313
0
0
316
317
318
319
320
321
322
323
324
325
326
327
328
329
330
331
332
333
334
335
336
337
338
339
340
0
342
343
344
345
346
347
348
349
350
351
352
353
354
0
356
0
358
359
360
361
362
363
364
365
366
367
368
369
370
371
372
373
374
375
376
377
0
0
380
381
382
383
384
385
386
387
388
389
390
391
392
393
394
395
396
397
398
399
400
401
402
403
404
405
406
407
408
409
410
411
412
413
414
415
416
417
418
419
420
0
422
423
424
425
426
0
0
429
430
431
432
433
434
435
436
437
438
439
440
441
442
443
0
445
446
0
448
449
0
0
452
453
454
455
456
457
458
459
460
461
462
463
464
465
466
0
0
0
470
471
472
473
474
475
476
477
0
0
480
481
482
483
484
485
486
487
0
0
490
0
492
0
0
495
496
497
498
499
500
0
502
503
504
505
506
0
508
0
0
511
512
513
0
515
0
517
518
519
520
521
522
523
524
525
526
527
528
529
530
531
0
533
534
0
0
0
0
539
540
0
542
543
544
545
546
547
548
549
550
551
552
553
554
555
556
557
558
559
560
561
562
563
564
565
566
0
568
569
570
571
572
573
574
0
576
0
578
579
580
581
582
583
584
585
586
587
588
589
590
591
592
593
594
595
596
597
598
599
600
601
602
603
604
605
606
607
608
609
610
611
612
613
614
615
616
617
618
619
620
621
622
0
624
0
626
627
628
629
630
631
632
633
634
635
636
637
638
639
640
641
642
0
644
645
646
647
648
649
650
651
652
653
654
655
656
657
658
659
660
661
662
0
664
665
666
667
668
669
670
671
672
673
674
675
676
677
678
679
680
681
682
683
684
685
686
687
688
689
690
691
692
693
694
695
696
697
698
699
700
701
702
703
704
705
706
707
708
709
710
711
712
713
714
715
716
0
718
719
720
721
722
723
724
725
726
727
728
729
730
731
732
733
734
735
736
737
738
739
740
741
0
743
0
745
746
747
748
749
750
751
0
753
754
755
0
757
758
759
760
761
762
763
0
765
766
767
768
769
770
771
772
773
774
0
776
777
778
779
780
781
782
783
0
0
0
0
0
0
0
0
10
11
12
13
0
15
16
17
18
19
20
21
22
0
0
25
26
27
28
0
0
0
0
0
0
0
0
37
0
39
40
41
0
0
0
45
46
47
48
49
0
0
52
53
54
55
56
57
58
0
0
61
62
63
64
65
0
67
0
0
70
0
72
0
0
0
0
0
0
0
80
81
82
83
84
85
86
0
88
0
0
91
92
0
94
0
96
97
98
99
100
101
102
103
104
105
106
107
108
109
110
111
0
0
0
115
0
117
118
119
120
0
0
123
0
125
0
127
0
129
130
131
132
133
134
135
136
137
138
139
140
141
142
143
144
145
146
147
148
149
150
151
152
153
154
155
156
157
0
0
160
161
162
0
0
0
166
167
168
169
170
171
172
0
0
175
0
0
0
0
180
0
0
183
184
185
186
187
188
189
190
191
0
0
0
195
196
197
198
199
0
201
202
203
204
205
0
0
208
0
210
211
212
213
214
215
216
217
218
219
220
221
222
223
224
225
226
227
228
229
230
231
232
233
234
235
236
237
0
239
240
241
242
243
244
245
246
247
248
249
250
251
252
253
0
255
256
257
258
259
260
261
262
263
264
265
266
267
268
269
270
271
272
273
274
275
276
277
278
279
0
281
282
283
284
0
286
287
288
289
290
291
292
293
294
295
296
297
298
299
300
301
302
303
304
305
306
307
308
309
310
311
312
313
314
315
316
317
318
319
320
321
322
323
324
325
326
327
328
329
330
331
332
333
334
335
336
337
338
339
340
341
342
343
344
345
346
347
348
349
350
351
352
353
354
0
356
0
358
359
360
361
362
363
364
365
366
367
368
0
370
371
372
373
374
375
376
377
378
379
380
381
382
383
384
385
386
387
388
389
390
391
392
393
394
395
396
397
398
0
400
401
402
403
0
405
0
407
408
409
410
411
0
0
414
415
416
417
418
419
420
0
422
423
424
425
426
0
0
429
430
431
432
433
434
435
436
437
438
439
440
441
442
443
0
445
446
0
448
449
0
451
452
453
454
455
456
457
458
459
460
0
0
463
464
465
466
467
468
469
470
471
472
473
474
475
476
477
478
479
0
0
482
0
484
485
486
0
0
489
490
491
492
493
494
495
496
497
498
499
0
0
0
503
504
505
506
507
508
509
510
511
512
513
514
515
516
517
518
519
520
521
522
523
524
525
526
527
528
529
530
531
0
533
534
535
536
537
538
539
540
0
0
0
0
545
546
547
548
549
550
551
552
0
554
555
0
557
0
0
560
561
562
563
564
0
566
0
568
569
570
571
572
573
574
0
576
0
578
579
580
581
582
583
584
585
586
587
588
589
590
591
592
593
594
595
596
597
598
599
600
601
602
603
604
605
606
607
608
609
610
611
612
613
614
615
616
617
618
619
620
621
622
623
624
625
626
627
628
629
630
631
632
633
634
635
636
637
638
639
640
641
642
643
644
645
646
647
648
649
650
651
652
653
654
655
656
657
0
659
660
661
662
0
664
665
666
667
668
669
670
671
672
673
674
675
676
677
678
679
680
681
682
683
684
685
686
687
688
689
690
691
692
693
0
695
0
697
698
699
700
701
702
703
704
705
706
707
708
709
710
711
712
713
0
0
716
717
718
719
720
721
722
723
0
725
726
727
728
729
730
731
732
733
734
735
736
737
738
739
740
741
742
743
744
745
0
747
748
749
750
0
752
753
754
755
756
757
758
759
760
761
762
0
0
765
766
767
768
769
770
771
772
773
774
775
776
777
778
779
780
0
0
0
0
0
0
0
0
0
0
0
0
0
0
0
0
15
0
0
0
0
0
21
22
0
0
25
0
0
0
0
0
0
0
0
0
0
0
37
0
0
0
41
0
0
0
45
46
47
48
49
0
0
52
53
0
0
56
57
58
59
60
61
62
63
64
65
0
67
68
69
70
71
72
73
0
0
0
0
0
0
80
81
0
83
84
85
86
87
88
89
0
91
92
93
94
0
96
97
0
0
100
101
102
103
104
105
106
107
0
0
110
111
0
113
114
115
116
117
118
119
120
121
122
123
124
125
0
127
0
0
0
131
132
133
134
135
136
137
0
139
0
0
0
143
0
0
146
147
0
149
150
151
152
153
0
155
156
157
0
0
160
161
162
0
0
0
0
0
0
0
170
171
172
0
0
175
0
0
0
179
180
181
0
183
184
185
186
187
188
189
190
191
192
193
0
195
196
197
198
199
0
201
202
203
204
205
206
207
208
209
210
0
0
213
214
215
216
0
0
0
220
221
222
0
224
0
226
227
228
229
230
231
232
233
234
235
236
237
0
239
240
241
242
243
244
245
246
0
248
249
250
251
252
253
254
255
256
257
258
259
260
261
262
263
264
265
266
267
268
269
270
271
272
273
274
275
276
277
278
279
0
281
282
283
284
0
286
287
288
289
290
291
292
293
294
295
296
297
298
299
300
301
302
303
304
305
306
307
308
309
310
311
312
313
0
0
316
317
318
319
320
321
322
323
324
325
326
327
328
0
330
331
332
333
334
335
336
337
338
339
340
0
342
343
344
345
346
347
348
349
350
351
352
353
354
355
356
0
358
359
360
361
362
363
364
365
366
0
368
369
370
371
372
373
0
375
376
377
378
379
380
381
382
383
384
385
386
387
388
389
390
391
392
393
0
395
396
397
398
0
400
401
402
403
0
405
0
407
408
409
410
411
412
0
414
415
416
417
418
419
420
0
422
423
424
425
426
427
428
429
430
431
432
433
434
435
436
437
438
439
440
441
442
443
444
445
446
0
448
449
450
451
452
453
0
455
456
457
458
459
460
0
0
463
0
465
466
467
0
0
0
0
472
473
474
475
476
477
478
479
480
481
482
0
484
485
486
0
0
0
0
491
492
0
494
495
496
497
498
499
500
501
502
503
504
505
506
507
508
509
510
511
512
513
0
515
516
517
518
519
520
521
0
0
0
525
526
0
0
529
530
531
532
533
534
535
536
537
538
539
540
541
542
543
544
545
546
547
548
549
550
551
552
553
554
555
556
557
558
559
560
561
562
563
564
565
566
567
568
569
0
0
572
573
574
575
576
577
578
579
580
581
582
0
584
0
586
587
588
589
590
591
592
593
594
0
596
597
598
599
600
601
602
603
604
605
606
607
608
609
610
611
612
613
614
615
616
617
618
619
620
621
622
0
624
625
626
627
628
629
630
631
632
633
634
635
636
637
638
639
640
641
642
0
644
645
646
647
648
649
650
651
652
653
654
655
656
657
658
659
660
661
662
663
664
665
666
667
668
669
670
671
672
673
674
675
676
677
678
679
680
681
0
683
684
685
686
687
688
689
690
691
692
693
694
695
696
697
698
699
700
701
702
0
704
705
706
707
708
709
710
711
712
713
714
715
716
717
718
719
720
721
722
723
724
725
726
727
728
729
730
731
732
733
734
735
736
737
738
739
740
741
742
743
744
745
746
747
748
749
750
0
752
753
754
755
756
757
758
759
760
761
762
763
0
765
766
767
768
769
770
771
772
773
774
775
776
777
778
779
780
781
782
783
0
0
0
0
0
7
0
0
0
0
0
0
0
15
0
0
0
0
0
0
22
23
24
25
0
0
0
0
0
0
0
33
34
35
36
37
0
0
40
41
42
0
0
45
46
47
48
49
50
51
52
53
54
55
56
57
58
59
60
61
62
0
0
65
66
67
68
69
70
71
72
73
74
0
0
0
0
0
80
81
82
83
84
85
0
0
88
89
90
91
92
0
94
0
0
97
0
0
100
0
0
0
0
105
106
107
108
109
110
111
112
113
114
115
116
117
118
119
120
0
0
123
124
125
126
127
128
129
0
0
0
133
134
135
136
137
0
139
140
141
0
143
0
0
146
147
0
0
150
151
152
153
0
155
156
0
0
0
160
161
162
163
164
165
166
0
0
0
0
0
172
0
0
175
0
0
178
179
180
0
0
183
184
185
186
187
188
189
190
191
192
0
0
195
196
197
198
199
200
201
202
203
204
205
0
0
208
0
210
0
0
213
0
215
216
217
218
0
220
221
222
223
224
225
226
227
228
229
230
231
232
233
0
235
236
237
238
239
240
241
242
243
244
245
246
247
248
249
250
251
252
253
0
255
256
257
258
259
260
261
262
263
0
0
266
267
268
269
270
271
272
273
274
275
276
277
278
279
280
281
282
283
284
285
286
287
288
289
290
291
292
293
294
295
296
297
298
299
300
301
302
303
304
305
306
307
308
309
310
311
312
313
0
0
316
317
318
319
320
321
322
323
324
325
326
327
328
329
330
331
332
333
334
335
336
337
338
339
340
341
342
343
344
345
346
347
348
349
350
351
352
353
354
0
356
357
358
359
360
361
362
363
364
365
366
0
368
369
370
371
372
373
374
375
376
377
0
0
380
381
382
383
384
385
386
387
388
389
390
391
392
393
394
395
396
397
0
0
400
401
402
403
0
405
406
407
408
409
410
411
0
0
414
415
416
417
418
419
420
0
422
423
424
425
426
427
428
429
430
431
432
433
434
435
436
437
438
439
440
441
0
443
0
445
446
447
448
449
450
451
452
453
454
455
456
457
458
459
460
0
0
463
464
465
466
467
468
469
0
0
472
473
474
475
0
0
478
479
0
0
482
0
484
485
486
0
0
0
490
491
492
493
494
495
496
497
498
499
500
501
502
503
504
505
506
0
508
0
0
511
512
513
0
515
516
517
518
519
0
0
0
0
0
0
526
0
528
529
530
531
532
533
534
0
0
0
538
539
540
541
542
543
544
545
546
547
548
549
550
551
552
0
554
555
0
557
558
559
560
561
562
563
564
0
566
0
568
569
570
571
572
573
574
0
576
0
578
579
580
581
582
0
584
585
586
587
588
589
590
591
0
593
594
595
596
597
598
599
600
601
602
603
604
605
606
607
608
609
610
611
612
613
614
615
616
617
618
619
620
621
622
623
624
625
626
627
628
629
630
631
632
633
634
635
636
637
638
639
640
641
642
0
644
645
646
647
648
649
650
651
652
653
654
655
656
657
0
659
660
661
662
663
664
665
666
667
668
669
670
671
672
673
674
675
676
677
678
679
680
681
682
683
684
685
686
687
688
689
690
691
692
693
694
695
696
697
698
699
700
701
702
703
704
705
706
707
0
709
710
0
0
713
714
715
716
717
718
719
720
721
722
723
724
725
726
727
0
0
730
731
732
733
734
735
736
737
738
739
740
741
742
743
744
745
746
747
748
749
750
751
752
753
754
755
756
757
758
759
760
761
762
763
764
765
766
767
768
769
770
771
772
773
774
775
776
777
778
779
780
781
782
783
EOF
