DIMENSION : 783
NUMBER OF ITEMS : 7820

TOUR_SECTION
1
17
23
2
7
18
12
9
33
29
10
3
5
19
30
8
20
31
36
59
61
68
86
82
72
92
103
93
69
78
90
104
113
119
96
91
73
60
55
44
51
42
54
62
50
35
22
14
32
26
16
21
27
24
28
34
4
11
13
6
40
38
43
66
75
87
84
79
101
106
109
114
122
134
135
149
142
148
145
168
170
194
181
177
171
193
199
218
214
223
207
192
178
174
166
158
131
132
141
130
129
154
167
159
150
144
124
121
126
118
138
128
140
116
112
108
105
102
99
85
71
64
48
39
63
74
77
89
95
98
76
94
83
65
58
53
47
46
41
67
81
70
80
100
107
111
120
133
137
143
152
161
187
204
202
208
224
240
232
233
225
217
206
190
200
198
179
176
163
169
157
164
165
173
182
209
211
212
219
253
251
262
275
257
237
226
221
213
210
201
183
188
197
191
189
203
220
228
229
244
260
263
271
272
241
252
245
261
247
238
234
254
285
280
265
264
279
284
298
309
296
297
304
314
315
329
341
355
357
367
394
406
404
413
399
396
374
369
379
378
398
412
427
421
428
442
444
462
461
471
481
479
490
504
516
523
503
510
546
538
550
555
583
585
602
620
623
625
608
595
592
582
567
574
549
545
532
544
537
528
525
509
502
498
478
468
454
451
447
440
450
465
475
488
493
514
520
524
522
527
543
553
559
573
572
571
575
558
565
570
577
584
591
600
601
614
605
589
610
618
639
631
633
630
636
622
609
603
587
607
617
621
628
649
657
661
684
669
666
651
646
653
654
662
650
642
632
629
615
604
581
593
606
616
637
647
635
643
663
656
658
677
682
687
717
714
711
712
729
744
753
767
771
775
783
782
781
780
770
763
762
749
750
727
730
731
746
741
723
716
708
702
724
742
752
756
764
751
728
715
696
703
694
670
676
674
668
667
664
673
693
701
700
689
710
686
695
699
707
713
698
691
692
681
675
680
690
706
685
679
671
678
688
709
705
718
735
745
736
732
743
739
722
733
737
719
720
721
726
740
748
766
774
773
755
754
777
779
768
757
759
776
758
760
765
772
761
778
769
747
734
738
725
704
697
683
672
665
659
652
648
645
655
660
644
641
619
613
634
627
612
597
598
590
599
588
578
566
563
564
556
535
536
541
542
521
505
507
501
500
491
483
477
467
469
470
464
476
494
496
497
487
489
480
474
459
446
432
416
402
400
414
415
403
388
385
368
373
383
364
381
386
380
375
391
372
370
377
376
393
408
409
410
419
417
411
418
434
437
448
441
435
431
439
457
456
449
460
473
495
518
519
513
515
529
552
557
547
540
531
539
561
569
579
562
554
534
530
551
580
586
594
611
626
638
640
624
596
576
568
560
548
533
526
511
499
482
472
436
429
423
445
452
453
458
466
484
485
506
517
512
508
492
486
463
455
438
443
425
422
433
426
430
424
420
405
392
389
397
407
401
387
382
390
395
384
363
352
359
356
343
328
344
358
366
371
365
353
346
339
325
323
319
327
335
317
294
302
313
305
289
266
270
277
276
278
273
274
286
299
291
306
293
290
300
307
316
332
350
347
345
333
321
322
330
336
360
354
351
348
340
338
337
349
361
362
342
331
334
324
320
308
310
288
283
282
287
301
312
318
326
311
295
303
292
281
269
250
259
258
268
267
256
243
249
248
227
222
231
230
255
246
239
236
242
235
216
215
185
172
180
186
205
195
196
184
162
156
151
136
127
153
175
160
155
147
139
146
125
117
123
115
110
97
88
56
49
52
57
45
37
25
15

PP_SECTION
2
0
4
0
0
0
8
0
0
0
0
13
0
15
16
0
18
19
0
0
22
0
24
25
0
0
28
0
0
31
0
0
34
0
0
37
0
0
0
0
42
43
0
45
0
0
0
49
0
0
52
0
54
55
56
57
0
0
60
0
0
0
64
0
66
0
0
0
0
0
0
0
0
75
76
0
78
0
0
0
0
0
84
0
0
0
88
89
0
0
0
0
0
0
0
97
98
0
0
0
0
103
0
0
0
107
0
109
110
111
0
0
114
115
0
117
118
0
0
0
0
123
0
125
126
127
0
0
0
0
0
133
0
0
136
137
0
139
0
141
0
0
0
0
146
147
0
0
0
151
0
153
154
155
0
157
0
0
160
161
162
0
0
165
0
167
0
169
0
0
172
0
174
175
0
177
0
0
180
181
182
183
0
0
186
187
0
0
0
0
0
193
0
195
196
0
0
199
200
0
0
0
0
205
206
207
0
209
210
211
0
0
0
215
0
0
0
219
220
0
222
0
0
225
0
227
228
0
230
231
0
233
0
0
0
0
0
0
0
0
242
0
0
0
246
247
0
249
250
251
0
253
0
255
256
0
258
259
0
0
262
263
0
0
0
267
268
269
0
0
0
0
274
0
276
277
278
0
280
281
282
283
0
285
286
0
0
289
0
291
292
0
294
295
296
0
298
299
0
301
302
303
0
0
306
307
308
0
310
0
312
0
0
0
316
317
318
319
320
0
0
323
0
325
326
0
328
0
330
331
332
0
0
335
336
0
0
339
340
0
0
343
344
345
346
347
348
349
350
351
0
0
354
0
356
0
358
359
360
361
362
363
0
0
366
0
368
369
370
371
372
0
374
375
376
377
378
379
0
381
382
383
384
0
0
387
388
389
390
391
0
0
0
0
396
397
398
0
400
401
0
0
404
0
0
407
408
409
410
411
412
413
414
415
0
417
418
0
420
0
422
0
424
0
0
0
428
429
430
431
432
433
434
435
0
0
438
439
0
441
442
443
0
445
0
0
448
449
450
451
452
453
0
0
0
457
458
459
460
0
462
463
464
465
466
467
0
0
470
0
0
473
0
475
476
0
0
479
480
0
0
483
484
485
486
487
0
489
490
491
492
493
0
495
496
0
498
499
0
501
502
0
504
505
506
507
0
0
510
511
512
513
514
0
516
0
518
0
520
0
522
523
0
525
526
527
0
529
0
531
0
0
534
0
0
537
538
539
540
541
542
0
544
545
0
547
548
0
0
0
552
0
0
0
0
557
558
559
560
0
562
563
564
0
566
0
0
569
0
571
572
0
0
0
576
577
0
579
580
0
582
0
584
0
586
587
588
589
0
0
592
593
594
595
0
0
598
0
0
0
0
0
0
605
0
0
0
609
0
0
0
0
0
615
616
0
0
0
620
0
0
0
624
0
0
0
628
629
0
0
0
633
634
0
0
0
0
0
640
0
0
0
644
645
0
647
648
0
0
0
0
653
0
0
0
657
0
659
660
0
0
0
664
665
0
0
0
669
0
671
0
0
674
675
676
677
0
0
0
681
682
0
0
685
0
0
0
0
0
0
692
0
0
695
696
0
0
699
700
701
702
0
704
0
706
0
708
709
710
711
0
713
714
0
716
717
718
719
0
0
722
723
0
0
0
0
0
0
0
0
0
0
734
0
0
737
738
0
0
741
742
743
0
0
0
747
0
0
750
0
0
753
754
755
0
757
758
0
0
761
762
763
764
765
0
767
0
769
0
0
772
773
0
775
776
0
778
779
0
0
782
0
2
3
0
5
0
7
0
0
0
11
0
0
14
15
0
0
0
19
0
0
22
23
0
25
26
0
0
0
0
0
32
0
34
0
0
37
0
0
0
0
0
0
0
0
46
47
48
49
0
51
52
0
0
55
56
0
0
0
60
0
62
63
0
0
0
67
68
69
0
0
72
73
0
75
0
0
0
0
80
0
82
0
0
0
0
0
88
0
0
91
0
93
94
95
0
97
0
99
100
0
102
0
104
0
106
0
0
109
0
111
0
113
0
0
116
117
118
0
120
121
0
123
0
125
126
127
0
0
0
0
0
0
0
0
136
0
0
139
140
0
0
143
144
0
146
147
0
149
0
151
0
153
154
155
156
157
0
0
160
0
162
163
0
0
0
0
0
0
170
0
0
0
174
175
176
0
0
179
180
0
0
183
184
0
186
187
0
0
0
0
0
0
0
195
196
0
0
199
0
0
202
0
0
205
0
207
0
209
210
211
212
0
0
215
216
217
218
0
220
221
222
0
224
225
0
227
0
229
230
231
0
0
234
235
0
0
238
0
0
0
242
0
244
245
246
247
248
249
250
0
252
253
254
255
256
0
258
259
0
0
0
263
0
265
0
267
268
269
0
0
272
273
274
0
0
277
278
0
0
0
282
283
0
285
0
287
0
289
290
0
292
0
294
295
296
0
0
0
300
301
0
0
0
305
306
307
308
0
0
311
312
0
0
0
316
317
318
319
320
321
322
323
324
0
326
327
328
0
330
331
0
0
334
335
0
337
338
339
340
0
342
343
0
345
346
347
348
349
0
351
0
353
354
0
356
0
358
0
360
361
362
0
364
365
366
0
0
0
370
0
372
0
374
375
376
377
0
379
0
0
0
383
0
0
0
0
388
389
390
391
392
393
394
395
396
397
0
0
400
401
402
0
404
405
406
407
408
409
0
0
0
413
0
0
0
417
0
419
420
421
0
0
424
0
426
0
428
429
430
0
432
0
0
0
436
437
0
0
440
0
442
0
0
0
0
0
448
449
0
0
0
453
454
455
0
457
458
0
460
0
0
0
464
465
0
467
0
0
0
0
472
0
474
475
476
0
478
0
480
481
482
483
484
0
486
0
0
489
490
491
0
493
0
0
496
0
0
499
0
501
502
503
0
0
0
0
508
0
510
511
512
0
514
515
0
517
518
0
520
0
0
523
524
525
526
0
0
529
0
531
0
0
0
535
0
0
538
539
540
0
0
0
544
545
546
547
548
0
0
551
552
553
0
0
556
0
0
0
560
561
562
563
0
0
566
0
568
0
0
0
0
573
0
0
576
0
578
579
580
581
0
0
584
0
586
587
0
589
590
591
0
593
594
0
596
597
598
0
0
601
0
603
0
0
0
0
608
0
0
611
0
613
0
0
616
617
618
619
0
0
622
623
624
0
626
627
0
0
0
631
632
0
0
0
0
637
638
639
640
0
0
643
644
0
646
647
0
649
0
0
0
0
654
655
656
657
658
659
0
0
662
0
664
0
0
667
668
0
0
0
0
673
674
675
0
0
678
679
680
681
682
683
684
685
0
0
0
0
0
691
0
0
0
695
696
0
0
0
0
0
702
0
704
0
706
0
708
709
0
0
0
0
714
0
0
0
0
719
0
721
0
723
0
0
726
0
728
0
0
731
732
733
734
735
0
737
0
0
740
741
742
0
0
0
746
0
748
749
750
751
752
753
0
755
0
0
0
0
760
0
762
763
0
765
0
0
0
0
770
771
772
773
774
775
776
0
0
779
0
0
0
783
0
0
0
5
6
0
0
0
0
0
0
0
14
15
16
0
0
0
20
0
0
23
0
25
0
27
28
0
0
31
32
33
0
0
0
37
0
0
40
0
0
43
0
45
0
47
48
49
0
51
52
0
0
0
56
57
58
0
0
0
0
0
0
65
0
67
0
0
0
0
0
0
0
0
0
0
0
79
80
0
0
0
84
0
86
0
88
89
90
0
92
0
0
95
0
97
98
0
100
101
0
103
0
0
0
0
0
0
110
0
112
0
0
0
0
117
0
0
120
0
0
123
124
125
126
127
128
0
0
131
0
0
0
135
136
0
138
139
0
141
0
0
0
0
146
147
0
0
0
151
0
153
0
155
156
0
158
0
160
0
162
163
164
165
0
0
0
0
0
0
0
173
0
175
176
177
178
0
180
181
0
0
0
185
0
187
0
189
0
0
0
0
0
195
196
0
198
199
0
201
202
0
204
205
206
207
208
209
0
0
212
0
214
215
216
217
218
219
220
221
222
0
0
225
226
227
0
0
230
231
0
233
0
235
236
0
238
239
240
0
242
243
244
245
0
0
248
249
250
0
252
253
0
255
256
257
258
259
0
261
0
0
0
0
266
267
0
269
270
271
0
0
274
0
0
277
278
0
280
281
282
283
0
0
0
0
288
289
290
291
292
293
294
295
296
0
298
299
0
301
302
303
0
0
306
0
308
309
310
311
312
313
314
0
316
0
318
319
320
0
322
323
0
325
326
0
328
0
0
0
332
333
334
335
0
337
0
339
0
0
342
343
344
345
0
347
348
349
350
0
352
353
354
355
0
0
358
359
360
361
0
0
364
365
366
367
368
369
0
371
0
373
0
0
376
377
0
0
380
0
382
383
0
0
0
0
388
389
390
391
0
0
394
0
0
0
0
0
0
401
402
403
404
405
406
0
0
409
0
411
412
0
0
0
416
417
418
419
0
0
422
0
424
0
0
0
0
429
0
431
0
433
434
435
436
0
0
0
0
0
0
0
0
0
446
0
0
0
0
0
452
453
454
0
456
457
458
459
0
0
0
463
464
465
466
467
0
0
0
0
0
473
474
0
476
0
478
479
0
481
482
483
484
485
486
0
488
489
0
491
0
0
494
495
496
0
498
0
500
0
0
503
504
505
0
0
0
0
510
511
512
0
514
515
0
517
0
0
520
0
522
0
0
525
526
527
0
529
530
531
0
0
0
0
536
537
0
539
540
541
542
0
0
0
0
547
548
549
550
551
552
0
554
0
0
0
558
559
0
561
0
563
564
565
0
0
568
569
0
571
0
573
574
575
576
577
0
579
0
0
0
583
0
0
586
587
0
589
0
0
592
0
594
595
596
0
598
599
0
0
602
0
604
0
606
607
0
609
610
611
612
0
0
0
0
0
0
619
0
0
0
0
624
625
626
627
0
629
0
0
632
0
0
635
636
637
638
639
0
641
642
643
0
0
0
647
648
0
650
0
0
0
0
655
656
657
658
659
660
661
662
0
0
665
0
0
668
0
670
671
672
673
674
0
0
0
0
679
680
0
0
0
684
0
686
687
0
689
0
691
0
693
0
695
0
0
0
0
700
701
0
0
0
705
0
0
708
709
710
711
712
0
0
715
0
717
718
719
0
0
0
723
724
725
0
727
728
729
730
0
0
733
734
0
0
0
738
739
740
0
0
0
0
745
746
0
748
749
0
0
0
753
754
755
756
0
758
0
760
0
762
763
0
0
0
0
768
769
770
0
772
0
0
775
0
0
0
779
0
0
782
0
0
0
0
0
0
0
0
9
0
11
0
13
14
15
0
0
0
19
20
21
0
0
0
25
0
27
0
0
0
31
0
0
34
35
0
37
38
0
40
41
0
43
0
45
46
0
48
49
50
0
52
0
0
0
0
57
0
59
0
0
62
0
0
65
0
67
68
69
70
0
0
0
74
0
0
77
0
0
0
0
0
83
0
85
86
0
88
0
0
91
0
93
0
0
0
97
98
0
0
0
0
0
0
0
0
0
0
0
110
0
0
0
114
0
0
117
0
119
0
0
0
123
124
125
0
127
128
129
0
131
0
0
134
0
136
137
138
139
140
141
142
0
144
0
146
0
0
0
0
151
0
153
154
155
156
157
0
159
160
0
162
0
0
165
166
0
168
0
170
0
172
173
0
175
176
0
178
179
180
0
0
0
0
0
0
187
188
0
190
0
0
193
194
195
196
0
198
0
0
201
0
0
0
205
0
0
0
0
210
0
212
0
214
0
216
217
0
0
0
0
222
223
224
0
226
227
228
0
0
231
0
233
234
235
236
237
238
239
0
241
242
0
0
0
246
0
248
249
250
0
0
253
254
0
256
257
258
0
0
261
0
263
0
0
266
267
268
269
270
0
0
273
0
275
276
277
278
279
0
281
282
283
284
285
286
287
288
0
290
291
292
293
294
295
0
0
298
299
300
301
302
303
0
305
306
0
308
309
310
0
0
313
0
0
316
317
318
319
320
321
0
0
324
325
0
327
328
329
0
331
0
0
0
335
0
337
338
339
340
0
342
0
344
345
346
0
348
349
0
351
0
353
354
0
356
0
358
359
360
361
362
363
364
365
366
0
368
0
370
371
372
0
0
375
376
377
0
0
380
381
0
0
384
385
0
387
388
389
0
0
392
393
0
395
0
0
398
399
400
401
402
0
0
405
0
407
0
0
0
411
0
0
414
415
416
417
418
419
0
421
422
423
424
0
0
427
0
429
430
0
432
0
434
0
0
437
438
439
440
0
0
443
0
0
446
0
0
0
0
451
0
453
0
455
456
0
0
0
460
461
0
463
464
0
0
0
0
469
470
0
0
473
474
0
476
477
0
479
480
481
482
483
0
485
486
0
0
489
490
491
492
0
0
0
0
0
0
499
500
501
0
503
0
0
0
507
508
0
510
511
0
0
514
0
0
0
0
519
0
521
522
0
0
525
526
0
0
0
530
531
0
533
534
535
536
537
0
539
540
541
542
543
0
0
0
547
548
549
550
0
0
0
554
0
0
0
0
0
560
561
562
563
0
565
566
0
0
569
0
0
572
573
0
0
576
577
578
579
580
0
0
583
584
0
586
587
588
0
590
591
0
593
594
0
0
597
598
599
0
0
602
0
604
0
606
607
0
609
0
611
0
613
0
0
0
617
618
619
0
0
0
0
624
0
626
0
628
629
630
631
632
0
0
635
636
0
0
0
0
0
0
0
0
0
646
0
648
649
0
0
0
653
654
655
0
657
0
0
660
0
0
0
664
0
0
667
0
669
0
0
0
673
0
675
0
677
0
679
0
0
682
683
0
685
0
0
688
689
0
691
0
693
0
0
0
697
0
699
700
701
702
703
704
0
706
0
0
0
0
0
712
713
714
715
716
0
0
0
0
721
0
0
0
725
0
0
728
729
730
0
732
733
734
0
736
737
738
739
0
0
742
743
0
0
0
0
748
749
0
0
752
0
0
0
756
757
0
0
0
0
0
763
764
765
0
0
768
769
0
771
0
773
0
0
776
0
778
779
0
0
0
0
0
0
4
0
0
7
8
9
0
0
12
0
14
15
16
0
0
0
0
0
22
23
0
25
0
27
0
0
30
31
0
33
34
0
0
37
38
39
40
0
0
0
0
45
0
0
0
49
0
0
52
0
0
0
56
57
58
59
0
61
62
0
64
0
0
67
68
69
0
71
0
0
0
75
0
77
78
79
0
0
0
0
0
0
0
0
88
89
0
0
0
0
0
0
96
0
0
99
0
0
102
103
0
0
0
0
108
0
110
0
112
0
0
115
0
117
0
0
120
121
122
123
0
125
126
127
128
129
0
131
0
133
0
0
136
0
138
139
0
141
0
0
0
0
146
147
0
0
0
151
0
153
154
0
156
0
0
0
160
161
162
0
0
0
166
0
0
0
170
0
172
0
0
175
0
177
178
0
180
0
0
0
184
185
186
0
0
0
190
0
0
193
0
195
196
197
0
199
0
201
0
203
204
0
206
0
0
209
0
211
0
213
0
215
216
217
0
0
220
0
222
0
224
225
0
227
0
0
230
231
0
0
234
235
236
0
0
0
0
0
0
243
0
0
246
0
248
249
250
251
252
253
0
0
256
0
258
259
260
261
262
0
264
265
266
267
268
269
270
0
272
273
274
0
0
0
0
0
280
0
282
283
284
285
286
287
288
289
0
291
0
0
294
295
0
0
298
0
0
0
302
303
304
305
306
0
308
309
310
0
312
0
0
0
316
317
318
319
320
321
322
323
0
325
0
0
328
329
330
0
0
333
0
335
0
337
338
0
0
0
342
343
344
345
0
347
348
349
350
351
0
353
354
0
0
0
358
359
360
0
362
363
364
365
0
367
0
369
0
371
372
0
374
0
0
0
378
379
0
381
0
383
0
0
386
387
388
389
390
391
0
393
0
395
396
397
398
399
400
401
402
403
404
0
0
407
0
409
0
411
0
413
414
415
0
417
0
419
0
421
422
423
424
425
426
0
0
429
0
0
0
433
434
435
0
0
0
439
0
0
0
443
444
445
0
0
0
0
450
0
0
0
0
0
0
0
0
0
460
0
462
463
0
465
466
467
468
469
470
0
472
473
0
475
0
0
0
0
0
481
0
0
484
0
486
487
488
0
0
491
492
0
494
495
0
0
0
499
0
501
0
503
0
0
506
0
508
509
0
511
0
513
0
515
0
517
518
0
0
521
522
523
524
0
526
0
0
529
530
531
0
0
534
0
536
537
0
539
0
541
542
0
0
0
0
0
548
549
550
551
0
553
0
0
0
557
558
0
560
561
562
0
0
565
566
0
568
569
570
0
0
0
0
0
576
577
578
579
0
0
0
583
0
0
0
587
0
589
590
0
592
0
0
0
596
0
0
0
0
0
0
603
0
0
606
607
0
0
610
611
612
613
0
0
0
0
0
619
0
0
622
0
624
0
0
0
0
629
0
0
632
633
0
635
636
0
638
0
640
0
0
643
644
0
646
0
648
0
0
0
652
653
654
655
656
0
0
659
660
0
0
663
0
0
666
0
668
0
670
0
672
0
674
675
0
677
678
0
680
681
682
0
0
0
0
0
0
0
690
691
692
693
0
0
0
0
0
0
700
701
0
703
0
0
0
0
0
709
0
0
0
713
714
715
716
717
718
719
720
721
722
0
0
0
0
727
728
0
730
0
732
733
734
735
736
0
0
0
0
741
742
0
744
745
0
747
0
0
750
751
0
0
0
0
756
0
0
759
0
761
0
0
764
0
766
767
768
0
0
0
0
773
774
0
776
0
778
0
0
781
782
0
2
0
0
0
0
0
0
9
0
0
0
0
14
15
16
17
18
0
20
21
0
0
24
25
0
0
0
0
30
0
32
0
34
35
0
37
0
0
0
41
0
43
44
45
0
47
0
49
0
0
52
0
54
55
56
57
0
0
0
61
0
0
0
65
0
0
68
69
0
0
72
0
74
75
76
77
0
0
0
0
0
83
0
0
0
87
88
89
90
0
0
0
0
95
0
97
98
0
0
0
0
103
0
105
106
107
108
0
110
0
112
0
0
115
0
117
0
0
0
121
122
123
124
125
0
127
0
129
0
0
0
133
0
0
136
137
138
139
0
141
142
0
144
0
146
147
148
149
0
151
0
153
0
155
156
0
158
0
0
0
162
163
164
0
0
167
0
0
0
171
172
173
174
175
0
0
0
179
180
0
0
183
184
185
0
187
188
0
190
0
192
0
0
195
196
0
0
0
0
201
202
203
204
205
0
0
208
209
210
211
0
213
0
215
0
217
0
219
0
0
222
0
0
225
0
227
0
0
230
231
0
0
234
235
0
0
0
239
240
0
242
0
244
245
246
247
248
249
250
251
0
0
254
255
256
257
258
259
0
261
0
0
0
265
266
267
0
269
270
0
272
0
0
0
276
277
278
279
0
0
282
0
284
285
286
287
0
289
290
0
292
293
294
0
0
297
0
299
0
301
302
303
0
0
0
307
308
309
310
0
312
313
314
0
316
317
318
319
320
321
322
323
324
325
326
0
328
0
0
0
332
333
334
335
336
337
0
339
340
0
342
343
0
345
346
347
348
0
350
351
0
353
354
0
356
0
358
0
360
361
0
0
0
365
366
0
368
369
0
371
372
0
0
0
376
0
0
0
380
0
382
0
0
385
386
0
388
389
390
391
0
393
394
395
0
0
0
0
0
401
402
0
0
405
406
407
408
409
410
411
0
0
414
415
0
417
0
0
0
0
0
423
424
425
0
427
428
429
430
0
0
433
434
0
436
0
0
439
440
441
442
0
444
0
446
0
448
449
0
0
452
0
0
0
0
0
0
0
460
461
462
463
464
465
0
0
468
0
470
0
472
473
0
475
476
477
478
0
0
0
482
0
484
485
486
487
0
0
490
0
492
0
0
495
0
0
498
0
500
501
502
503
504
505
0
0
508
0
0
511
512
0
514
515
0
517
518
519
0
521
0
0
0
525
526
0
0
529
530
531
0
533
534
535
0
0
538
539
540
0
0
543
544
545
0
547
548
549
0
551
552
553
0
0
556
0
0
559
0
0
0
0
0
0
0
0
568
569
0
0
572
0
0
575
576
0
578
0
580
581
582
583
0
0
586
587
0
589
0
0
592
593
0
0
0
597
598
599
0
0
0
0
604
605
606
607
608
0
610
0
0
613
0
615
616
617
0
619
620
0
0
0
624
625
626
0
0
629
630
0
0
0
634
0
0
0
0
0
640
641
0
0
644
0
0
647
0
649
650
0
652
0
0
655
0
0
0
659
0
0
662
0
0
0
666
667
0
669
0
0
672
0
0
0
0
0
0
679
680
0
682
683
0
0
0
0
0
689
690
0
0
693
694
0
0
0
698
699
700
701
702
703
704
0
0
0
0
0
0
0
0
713
714
0
716
717
718
0
720
0
722
723
724
0
0
727
728
729
0
0
0
0
0
735
736
737
738
0
740
741
742
743
744
745
0
0
748
0
750
751
0
753
754
0
756
0
0
759
760
0
0
0
0
765
0
0
768
769
0
771
772
0
774
0
776
0
778
779
0
0
782
0
0
0
4
5
0
0
0
0
0
11
0
13
14
15
16
0
18
19
0
0
0
0
0
25
0
27
0
0
30
31
32
0
34
0
36
37
0
39
40
0
0
0
0
45
0
47
0
49
0
0
52
0
54
0
56
57
0
59
0
0
62
0
0
0
0
0
68
69
70
0
0
0
74
75
0
0
0
79
0
0
82
0
0
0
86
0
88
89
0
0
0
93
0
0
0
97
98
0
0
101
102
0
0
0
0
0
108
0
110
0
0
0
114
115
0
117
0
0
120
0
0
123
124
125
0
0
128
129
0
131
132
0
0
135
136
0
0
139
0
0
142
143
0
0
146
147
0
149
0
151
0
153
0
155
156
157
158
0
160
161
162
0
0
0
0
0
0
169
170
0
172
173
174
175
0
0
0
0
180
0
0
0
184
185
186
187
0
189
0
0
0
0
0
195
0
0
0
0
200
0
0
0
204
205
206
0
208
0
0
0
0
0
0
215
216
0
218
0
0
221
222
0
0
0
226
0
0
0
230
0
0
0
0
235
236
0
0
239
0
0
242
243
244
245
246
0
248
249
250
0
252
253
0
255
0
257
258
259
260
261
0
0
264
265
0
267
268
0
270
0
0
273
274
0
0
277
278
0
0
281
282
283
0
0
286
0
0
0
290
291
292
0
294
0
0
297
0
299
300
301
302
303
0
0
306
307
308
0
310
311
0
0
0
315
316
317
0
319
320
0
322
0
324
0
326
327
328
0
330
0
0
0
334
335
0
337
338
339
340
341
342
0
344
345
346
347
348
349
350
0
352
0
354
0
356
357
358
0
360
361
0
0
0
0
366
367
368
0
370
371
372
373
0
375
376
0
378
0
0
381
382
383
384
385
386
387
388
389
390
0
392
0
0
0
0
397
398
399
0
401
402
403
0
0
0
0
0
409
410
0
0
413
414
415
416
417
418
419
420
421
422
423
424
425
426
427
0
0
430
0
432
0
434
435
0
0
0
0
0
441
442
443
0
0
446
0
448
0
0
451
452
0
454
455
0
457
458
0
0
0
462
0
0
465
0
467
0
469
470
0
472
473
0
0
476
477
478
0
0
0
0
0
0
0
486
0
488
489
0
0
492
493
494
495
0
0
498
499
500
501
502
0
504
505
0
507
508
509
0
0
512
513
514
515
0
0
518
519
0
521
0
0
0
0
0
0
528
529
530
531
0
0
0
535
536
537
0
539
540
0
542
0
0
545
546
547
548
549
0
551
552
0
554
555
556
557
0
559
560
561
562
0
564
0
566
0
568
569
570
0
0
573
0
0
576
0
578
0
580
0
0
0
0
0
586
0
0
589
0
0
0
0
594
0
596
597
598
0
0
601
0
603
0
605
0
0
608
609
0
0
0
613
0
615
616
0
618
619
0
0
622
623
624
625
0
0
628
629
630
0
632
0
634
0
0
0
638
639
640
641
0
0
0
0
0
0
0
0
0
0
652
653
0
0
656
0
0
659
0
0
662
663
0
665
0
0
668
0
670
0
0
0
0
0
0
0
678
0
0
0
682
0
684
685
0
687
688
689
690
691
0
0
694
695
0
0
0
0
0
701
0
703
0
705
0
0
0
0
0
0
0
713
714
715
0
717
0
719
720
0
722
0
0
725
726
0
0
729
0
0
732
0
0
735
736
737
738
0
0
741
742
0
0
745
746
0
0
749
0
0
0
0
0
755
756
0
0
759
760
761
762
0
0
0
766
767
768
0
0
771
0
0
774
0
0
0
778
779
0
0
0
783
2
0
0
0
0
7
0
0
10
11
12
0
0
15
16
0
0
0
20
0
22
0
0
25
0
27
28
0
0
0
0
0
34
0
0
37
38
0
0
0
0
0
44
45
46
0
48
49
50
0
52
0
0
0
56
57
0
59
60
0
0
0
64
0
0
67
0
69
70
71
0
0
74
0
0
0
0
0
0
0
82
0
84
85
0
0
88
89
90
0
0
93
0
0
0
97
0
0
0
0
0
103
0
0
106
107
0
0
110
0
0
0
0
115
0
117
0
119
0
0
0
123
0
125
0
127
0
129
0
0
0
133
0
135
0
137
0
139
140
0
0
0
0
145
146
147
0
0
150
151
0
153
0
0
156
0
158
0
160
161
162
163
0
0
166
167
0
0
170
0
172
173
0
175
0
0
0
179
180
181
182
0
184
185
186
187
188
0
0
0
0
0
0
195
196
0
198
0
200
201
202
203
204
205
0
207
208
209
0
0
212
213
0
215
216
0
0
0
0
0
0
0
224
0
226
227
228
229
230
231
232
0
234
235
236
237
0
0
0
0
242
243
0
0
246
0
248
0
0
251
0
0
254
255
0
0
258
0
260
0
262
263
264
0
266
267
0
269
270
0
0
273
0
275
0
0
278
0
0
281
282
283
0
0
286
287
0
289
290
0
0
293
294
295
296
0
0
299
0
301
302
0
0
0
306
307
0
0
310
311
312
0
314
0
316
317
318
319
320
321
0
323
324
0
326
327
0
0
330
331
0
333
0
0
336
0
338
339
340
341
342
343
344
345
346
347
348
349
0
351
352
0
354
0
356
0
358
359
360
361
0
363
364
365
366
0
368
0
370
371
372
0
0
0
0
377
378
0
380
0
382
0
384
0
0
387
388
389
390
0
392
393
0
395
0
397
0
0
0
401
402
0
404
405
0
407
0
0
0
411
412
0
414
0
416
417
418
0
420
0
422
0
424
425
426
0
0
0
430
431
432
433
434
0
0
0
438
439
0
0
442
0
0
0
446
0
0
449
0
451
452
453
0
455
0
457
458
0
0
0
462
0
0
0
466
467
0
469
0
0
0
473
0
0
0
477
0
0
480
0
482
0
484
485
486
0
488
0
490
0
0
0
0
495
0
0
0
499
500
0
502
0
504
0
506
507
508
509
510
0
0
513
0
0
0
0
518
519
520
0
522
0
524
525
0
0
0
529
530
531
532
533
534
535
0
0
0
0
0
541
0
543
544
545
546
547
548
549
0
551
552
0
0
0
0
0
0
0
0
0
562
0
564
0
0
567
0
0
0
571
0
573
0
575
576
0
578
579
580
581
0
0
0
585
586
587
0
0
0
591
0
593
594
0
596
597
598
599
0
0
0
0
604
0
606
0
0
609
610
611
0
613
0
0
616
0
0
619
0
621
622
623
0
625
626
0
0
0
0
631
0
0
0
0
636
637
638
0
0
0
0
643
644
645
0
0
0
649
650
651
652
0
654
0
0
657
0
659
0
0
662
663
0
665
0
667
668
669
0
671
0
673
674
0
0
677
0
679
0
0
0
0
0
0
0
0
0
0
0
691
0
693
0
0
696
697
698
0
700
0
702
0
0
0
706
0
0
709
0
0
712
0
0
0
716
0
0
0
0
721
722
723
724
0
726
727
0
729
730
0
0
0
734
0
0
737
738
739
0
741
0
743
0
0
746
0
0
0
0
0
0
753
754
755
756
757
758
759
760
761
0
0
764
0
0
0
0
769
0
0
772
773
774
0
776
0
778
0
0
0
0
0
0
3
4
0
6
0
0
0
0
0
12
0
0
15
16
17
18
0
20
21
22
23
0
25
0
0
0
29
0
0
32
33
34
0
0
37
0
0
0
0
0
0
0
45
46
0
0
49
50
0
52
0
54
0
56
57
0
0
60
61
0
0
0
0
0
0
68
0
0
0
72
73
0
0
0
0
0
0
0
81
0
83
0
0
0
0
88
0
0
0
0
0
94
95
96
97
0
99
0
101
0
0
0
0
106
0
108
0
110
0
112
0
0
115
116
117
0
0
120
121
122
123
0
0
0
127
0
0
130
131
132
0
0
0
136
137
138
139
140
141
0
143
144
145
146
0
0
149
0
0
152
0
154
155
156
0
158
159
160
0
0
0
0
165
0
167
0
169
170
0
172
173
0
175
0
177
0
179
0
0
0
0
184
0
186
0
0
189
0
0
192
0
194
195
0
0
0
0
0
0
0
0
0
205
206
0
0
209
210
0
212
0
214
215
216
0
0
0
0
0
222
0
0
225
0
227
0
229
230
231
232
0
0
0
236
0
238
239
0
241
242
243
244
0
246
247
0
249
250
251
252
253
254
255
256
257
258
259
0
0
0
0
0
265
266
267
268
269
270
271
0
273
0
275
276
277
278
0
0
281
282
283
284
285
286
287
288
289
290
291
0
293
294
295
0
297
0
0
0
301
302
303
304
305
306
0
308
0
0
311
312
313
314
0
316
317
0
319
320
0
322
323
324
0
326
0
328
0
0
331
332
333
334
0
336
337
338
339
340
0
342
0
344
0
346
0
348
0
350
351
352
0
0
0
0
357
358
0
360
361
362
363
364
365
366
0
368
369
370
0
0
373
374
375
376
377
0
379
0
381
382
383
384
0
386
387
388
389
0
0
392
0
394
395
396
397
398
0
400
0
402
403
404
0
0
0
408
0
0
0
412
0
0
0
416
0
418
419
0
0
0
423
0
0
426
427
428
429
430
431
432
433
0
0
0
0
438
0
0
0
442
0
444
0
0
0
448
449
0
0
0
453
0
455
0
457
458
459
460
461
462
463
464
0
0
0
468
0
470
471
472
0
0
475
0
477
0
479
480
0
482
0
0
0
486
487
488
0
0
491
492
0
0
0
496
497
498
499
500
0
502
0
504
0
0
507
0
0
0
511
0
513
0
0
516
517
518
0
0
521
522
0
524
0
0
527
528
529
530
0
0
533
534
0
0
0
538
0
0
0
542
0
0
0
0
0
0
0
0
0
552
0
0
0
556
557
0
0
560
561
562
563
564
0
566
0
568
569
0
0
0
0
0
575
0
0
578
579
0
581
0
0
0
0
586
0
0
589
590
0
0
0
0
0
0
0
598
599
600
0
0
603
0
0
606
0
0
0
0
611
0
613
0
615
616
0
618
619
0
621
622
0
624
0
0
0
0
629
630
631
0
633
0
0
0
0
638
0
640
0
0
0
0
0
0
647
0
0
650
0
0
0
654
655
656
0
0
0
0
0
0
663
664
665
0
0
0
0
0
0
0
673
0
675
676
0
678
0
0
0
0
0
684
0
0
0
0
0
0
691
0
0
694
0
696
0
0
699
700
701
0
0
704
0
0
707
0
0
0
0
0
713
0
0
0
0
718
719
720
0
722
723
724
0
0
727
0
0
730
0
0
0
0
0
0
737
0
0
0
741
742
743
0
0
0
747
748
0
0
0
0
753
0
755
0
757
758
759
0
761
762
763
0
765
766
767
0
0
0
0
0
0
0
0
776
0
778
0
0
0
0
0
0
3
0
0
0
7
0
0
0
0
0
13
0
15
16
0
18
19
0
0
0
23
0
25
26
0
0
0
0
31
0
0
0
0
36
37
0
39
0
0
0
43
0
0
46
0
48
49
50
0
52
0
54
55
56
57
58
0
60
0
0
63
64
65
66
0
0
69
0
0
72
73
74
75
0
0
78
0
80
0
0
0
0
0
86
0
0
0
90
0
92
93
94
0
96
97
98
0
0
0
0
103
0
0
0
0
108
0
110
0
0
113
0
115
0
117
0
0
0
0
0
123
124
125
126
127
128
129
0
131
132
133
0
135
136
137
138
139
0
141
0
0
0
0
146
147
148
149
0
151
0
0
154
155
156
0
0
0
160
0
162
163
164
0
166
167
0
0
170
171
172
0
0
175
176
0
0
179
180
0
182
0
184
185
0
187
0
0
190
0
192
193
0
195
196
0
0
0
0
201
0
0
0
0
0
0
0
0
210
211
0
213
0
215
216
0
0
0
220
0
222
0
0
225
226
227
228
229
230
231
232
233
0
235
236
0
238
239
240
0
242
0
0
0
246
0
0
249
0
0
0
0
254
255
0
0
258
259
0
0
0
0
0
265
266
0
268
0
270
271
0
0
274
275
276
277
278
279
0
281
282
283
0
0
0
287
288
289
290
0
292
0
0
0
0
0
0
299
300
301
0
0
0
0
306
307
0
309
310
0
312
313
314
0
316
317
318
319
0
321
0
0
324
325
326
0
0
0
330
331
0
0
0
335
0
337
338
339
340
341
0
343
0
345
346
0
348
0
0
351
0
353
354
0
356
0
358
359
0
361
362
363
0
365
366
367
0
369
370
371
372
0
0
0
0
377
0
379
380
0
0
383
0
385
0
387
388
389
0
391
392
0
394
395
0
397
398
0
400
401
0
403
404
405
0
407
408
0
410
411
412
0
0
415
416
417
418
419
0
421
422
423
424
0
0
427
0
429
430
431
432
433
434
435
0
437
0
439
440
441
0
443
444
0
0
0
0
449
0
0
452
0
0
455
456
0
458
459
460
461
0
0
0
0
466
467
468
469
470
471
472
473
474
0
476
0
0
479
480
481
482
483
0
485
486
0
488
489
490
0
492
0
494
495
496
0
498
499
500
0
0
0
504
0
506
507
508
0
510
511
0
0
0
0
0
517
518
519
520
521
0
0
0
0
0
527
0
0
530
0
0
0
534
0
0
0
538
0
540
0
0
543
544
545
546
0
548
0
0
551
552
0
0
555
0
0
0
0
560
561
562
563
0
565
566
0
568
569
0
0
572
0
0
0
576
0
578
579
580
581
582
0
0
585
586
587
588
589
0
0
592
593
594
0
0
597
0
0
0
601
602
603
0
605
606
0
0
0
610
0
0
613
614
615
0
0
618
619
0
621
0
0
624
625
626
0
0
0
0
631
632
0
0
635
0
637
0
639
640
641
0
0
0
645
0
0
648
649
0
0
0
653
654
655
656
0
658
0
0
0
662
663
0
665
0
0
0
669
670
671
0
0
674
0
0
677
678
0
680
681
682
0
684
0
686
0
688
0
690
0
692
0
694
695
696
697
698
699
0
701
702
703
0
0
0
0
0
709
0
711
712
0
714
715
0
717
0
719
0
0
0
0
0
0
726
727
728
729
730
731
732
0
0
0
736
0
0
0
0
0
742
0
744
0
0
747
748
749
750
0
752
0
754
755
756
0
0
759
760
761
0
763
764
0
766
767
0
769
0
771
0
0
0
775
776
777
0
0
0
781
0
783
EOF
