DIMENSION : 783
NUMBER OF ITEMS : 782

TOUR_SECTION
1
15
25
37
45
57
52
49
56
88
97
110
115
123
117
125
146
139
147
155
160
175
153
127
136
151
156
162
184
196
195
205
186
180
172
185
215
216
235
242
236
239
246
255
230
231
222
227
248
249
243
256
267
268
258
259
250
269
281
292
303
295
311
326
318
312
301
287
282
283
288
310
308
320
324
334
331
342
362
361
349
337
338
340
348
351
354
360
336
330
322
321
333
345
347
350
332
316
307
300
290
293
306
291
299
286
274
273
278
276
277
270
266
289
305
313
302
294
317
335
327
319
323
325
339
346
353
365
371
366
358
344
328
343
356
359
352
363
384
395
423
429
436
445
452
453
458
466
485
484
482
472
499
511
526
533
548
560
576
568
580
596
624
640
638
626
611
594
586
597
598
590
612
627
634
644
641
619
613
599
588
578
566
563
564
587
603
607
617
628
621
622
609
591
584
600
601
614
605
589
610
618
639
631
633
630
636
651
646
653
654
662
650
642
632
629
615
604
581
593
606
616
637
647
670
676
674
668
667
664
673
693
701
700
689
710
686
695
699
684
669
666
661
649
657
681
691
692
698
713
707
719
720
721
726
740
748
755
754
737
733
722
739
743
732
736
745
735
718
705
709
688
678
671
679
685
706
690
680
675
660
655
645
648
652
659
665
672
683
697
704
725
738
734
747
769
778
761
772
765
760
758
776
759
757
768
779
777
773
774
766
762
749
750
727
731
730
723
741
746
763
770
780
781
782
783
775
771
767
753
744
729
712
711
714
717
715
728
751
764
756
752
742
724
716
708
702
694
703
696
687
682
677
658
656
663
643
635
625
623
620
602
585
583
608
595
592
582
567
574
555
550
538
546
549
545
532
544
537
528
525
509
502
498
510
503
523
516
504
490
462
444
461
479
481
471
478
468
454
451
442
428
421
427
447
440
450
465
475
488
493
514
520
524
522
527
543
553
559
573
572
571
575
558
565
570
577
556
535
536
541
542
521
505
507
501
500
491
483
477
473
495
518
519
513
515
529
552
557
547
540
531
539
561
569
579
562
554
551
534
530
506
517
512
508
492
486
463
455
460
449
456
457
467
469
470
464
476
494
496
497
487
489
480
474
459
446
432
415
414
400
402
416
434
437
448
441
435
439
431
419
417
418
411
391
410
409
408
420
424
430
426
433
422
438
443
425
407
401
390
387
382
397
389
392
405
376
393
377
370
372
375
380
386
381
364
383
373
368
385
388
403
412
398
378
379
369
374
396
399
413
406
404
394
367
357
355
341
329
315
314
304
297
296
309
298
284
279
264
265
280
285
254
234
238
247
261
245
252
241
272
271
263
260
244
229
228
220
203
189
191
197
188
183
201
210
213
221
226
237
257
275
262
251
253
219
212
211
209
182
173
165
164
157
169
163
176
179
198
200
190
206
217
225
233
232
240
224
208
202
204
187
161
152
143
137
133
120
111
107
100
80
70
81
67
41
46
47
53
58
65
83
94
76
98
95
89
77
74
63
39
48
64
71
85
99
102
105
108
112
116
140
128
138
118
126
121
124
144
150
159
167
154
129
130
141
132
131
158
166
174
178
192
207
223
214
218
199
193
171
177
181
194
170
168
145
148
142
149
135
134
122
119
113
104
90
78
69
93
103
92
72
82
86
68
59
61
50
62
54
42
51
44
55
60
73
91
96
114
109
106
101
79
84
87
75
66
43
38
40
6
13
11
4
34
28
24
27
21
16
26
32
14
22
35
31
36
20
8
30
19
5
3
10
29
33
9
12
18
7
2
23
17

PP_SECTION
0
3
4
5
6
7
8
9
10
11
12
13
14
15
16
17
18
0
20
21
22
23
24
25
26
27
28
29
30
31
32
33
34
35
36
0
38
39
40
41
42
43
44
0
46
47
48
0
50
51
0
53
54
55
56
57
0
59
60
61
62
63
0
65
66
67
68
69
70
71
72
73
74
75
0
77
0
79
80
81
82
83
84
85
86
87
0
0
90
91
92
93
94
95
96
0
98
99
100
101
102
0
104
0
106
0
108
109
0
0
0
113
114
0
116
117
0
119
120
121
122
123
124
0
0
0
128
129
130
131
132
133
134
135
136
137
138
0
140
0
142
143
144
145
0
147
148
149
150
0
152
0
154
155
156
157
158
159
160
0
0
163
164
0
166
167
168
169
170
171
0
173
0
175
0
177
178
179
180
181
0
183
184
185
0
187
188
189
190
191
192
0
194
195
0
197
198
199
0
201
202
203
204
205
206
0
208
0
0
211
212
213
214
0
0
217
218
0
220
221
222
223
224
0
226
227
0
229
230
231
232
0
234
0
236
237
238
239
240
241
0
243
244
245
246
0
0
249
250
0
252
0
254
0
0
257
0
259
260
261
0
0
264
265
266
267
268
269
270
0
0
273
0
275
0
0
0
279
0
0
282
0
284
0
0
287
288
0
290
0
292
293
294
295
296
297
0
0
300
0
302
0
304
0
0
0
308
309
310
311
312
313
314
315
0
0
318
0
320
321
322
0
0
325
0
0
0
329
330
0
332
333
334
0
0
337
0
0
340
341
342
343
344
0
0
347
348
349
350
0
352
353
0
355
0
357
0
0
360
361
362
363
0
365
0
367
0
0
370
0
0
373
374
0
376
377
378
379
380
0
382
383
0
385
386
0
388
389
390
391
392
393
394
395
0
0
0
0
400
0
0
403
0
405
406
407
408
0
0
0
0
413
0
0
416
417
418
419
420
421
422
0
0
425
426
427
0
429
430
431
0
433
434
435
436
437
0
439
440
441
0
443
444
0
446
447
448
449
0
0
452
0
454
455
456
457
0
459
0
461
0
463
0
0
466
467
468
469
0
471
472
0
474
475
476
477
0
0
0
481
482
483
484
485
486
0
488
489
0
491
0
0
494
0
0
497
0
499
500
0
0
0
0
0
506
507
508
0
510
511
0
513
0
515
0
0
0
519
0
521
522
0
0
0
526
0
528
529
530
531
532
533
534
535
536
537
0
539
540
541
0
543
0
0
0
547
0
549
550
551
552
0
554
555
0
557
0
559
0
561
562
0
0
565
566
0
568
569
570
571
0
573
0
575
0
0
0
579
0
581
582
583
0
585
586
0
0
0
0
0
0
0
0
0
596
597
0
0
600
601
602
603
604
605
0
607
608
0
610
611
612
0
0
0
0
0
0
619
0
621
622
623
0
625
626
627
0
629
630
631
0
0
634
635
636
637
638
639
0
641
0
643
644
0
646
0
0
649
650
651
652
0
654
655
656
0
658
659
660
661
662
663
664
665
0
667
0
0
0
0
672
0
674
0
0
0
678
679
680
681
682
0
0
685
686
687
688
689
690
0
0
693
694
695
0
697
698
0
0
0
0
0
704
705
0
707
0
0
0
711
712
0
0
715
0
0
0
0
720
721
0
723
724
725
726
727
0
729
730
731
732
733
734
735
736
0
0
0
740
0
0
0
744
0
0
0
748
749
0
751
752
0
0
0
756
0
758
759
760
0
0
0
764
765
766
0
768
769
770
771
772
773
774
0
776
0
0
0
780
781
782
783
EOF
