DIMENSION : 783
NUMBER OF ITEMS : 7820

TOUR_SECTION
1
15
25
37
45
57
52
49
56
88
97
110
115
123
117
125
146
139
147
155
160
175
153
127
136
151
156
162
184
196
195
205
186
180
172
185
215
216
235
242
236
239
246
255
230
231
222
227
248
249
243
256
267
268
258
259
250
269
281
292
303
295
311
326
318
312
301
287
282
283
288
310
308
320
324
334
331
342
362
361
349
337
338
340
348
351
354
360
336
330
322
321
333
345
347
350
332
316
307
300
290
293
306
291
299
286
274
273
278
276
277
270
266
289
305
313
302
294
317
335
327
319
323
325
339
346
353
365
371
366
358
344
328
343
356
359
352
363
384
395
423
429
436
445
452
453
458
466
485
484
482
472
499
511
526
533
548
560
576
568
580
596
624
640
638
626
611
594
586
597
598
590
599
588
607
621
628
617
619
613
612
627
634
641
644
649
657
681
691
692
698
713
707
719
720
721
726
740
748
755
754
737
733
722
739
743
732
736
745
735
718
705
709
688
678
671
679
685
706
690
680
675
660
655
645
648
652
659
665
672
683
697
704
725
734
738
747
769
778
761
772
765
760
758
776
759
757
768
779
777
773
774
766
762
749
750
727
731
730
723
741
746
763
770
780
781
782
783
775
771
767
753
744
729
712
711
714
717
715
728
751
764
756
752
742
724
716
708
702
694
703
696
687
682
677
658
656
663
643
635
625
623
620
602
585
583
555
550
546
538
523
516
504
503
510
498
502
509
525
528
537
544
532
545
549
574
567
582
592
595
608
616
637
647
670
676
674
668
667
664
673
693
701
700
689
710
686
695
699
684
661
669
666
651
646
653
654
662
650
642
632
629
615
604
606
593
581
573
559
553
572
571
575
558
565
570
577
584
591
600
601
614
605
589
610
618
639
631
633
630
636
622
609
603
587
564
563
566
578
557
552
529
515
513
495
519
518
531
547
540
539
561
569
579
562
554
551
534
530
506
517
512
508
492
486
463
455
438
443
425
407
401
390
387
382
397
389
392
405
422
433
426
430
424
420
439
431
435
441
448
437
434
418
411
417
419
410
409
408
393
376
377
370
372
391
375
380
386
381
364
383
373
368
385
388
403
415
414
400
402
416
432
446
459
474
480
489
487
497
496
494
476
464
470
469
467
457
456
449
460
473
477
483
491
500
501
507
505
521
536
535
556
541
542
527
543
522
524
520
514
493
488
475
465
450
440
447
451
454
468
478
471
481
479
490
462
461
444
442
428
421
427
412
398
378
379
369
374
396
399
413
406
404
394
367
357
355
341
329
315
314
304
297
296
309
298
284
279
264
265
280
285
254
234
238
247
261
245
252
241
272
271
263
260
244
229
228
220
203
189
191
197
188
183
201
210
213
221
226
237
257
275
262
251
253
219
212
211
209
182
173
165
164
157
169
163
176
179
198
200
190
206
217
225
233
232
240
224
208
202
204
187
161
152
143
137
133
120
111
107
100
80
70
81
67
41
46
47
53
58
65
83
94
76
98
95
89
77
74
63
39
48
64
71
85
99
102
105
108
112
116
140
128
138
118
126
121
124
144
150
159
167
154
129
130
141
132
131
158
166
174
178
192
207
223
214
218
199
193
171
177
181
194
170
168
145
148
142
149
134
135
122
114
109
106
101
79
84
87
75
66
43
38
40
6
13
11
4
34
28
24
27
21
16
26
32
14
22
35
50
62
54
42
51
44
55
60
73
91
96
119
113
104
90
78
69
93
103
92
72
82
86
68
61
59
36
31
20
8
30
19
5
3
10
29
33
9
12
18
7
2
23
17

PP_SECTION
0
3
4
5
6
7
8
9
10
11
12
13
14
15
16
17
18
0
20
21
22
23
0
25
26
27
28
29
30
31
32
33
34
35
36
0
38
39
40
41
42
43
44
0
46
47
48
0
50
51
0
53
54
55
56
57
0
59
60
61
62
63
0
65
66
67
68
69
70
71
72
73
74
75
0
77
0
79
80
81
82
83
84
85
86
87
0
0
90
91
92
93
94
95
96
0
98
99
100
101
102
0
104
0
106
0
108
109
0
0
0
113
114
0
116
117
0
119
120
121
122
123
124
0
0
0
128
129
130
131
132
133
134
135
136
137
138
0
140
0
142
143
144
145
0
147
148
149
150
0
152
0
154
155
156
157
158
159
160
0
0
163
164
0
166
167
168
169
170
171
0
173
0
175
0
177
178
179
180
181
0
183
184
185
0
187
188
189
190
191
192
0
194
195
0
197
198
199
0
201
202
203
204
0
206
0
208
0
0
211
212
213
214
0
0
217
218
0
220
221
222
223
224
0
226
227
0
229
230
231
232
0
234
0
236
237
238
239
240
241
0
243
244
245
246
0
0
249
0
0
252
0
254
0
0
257
0
259
260
261
0
0
264
265
266
267
268
269
270
0
0
273
0
275
0
0
0
279
0
0
282
0
284
0
0
287
288
0
290
0
292
293
294
295
296
297
0
0
300
0
302
0
304
0
0
0
308
309
310
311
312
313
314
315
0
0
318
0
0
321
322
0
0
325
0
0
0
329
330
0
332
333
334
0
0
337
0
0
340
341
342
343
344
0
0
347
348
349
350
0
352
353
0
355
0
357
0
0
360
361
362
363
0
365
0
367
0
0
370
0
0
373
374
0
376
377
378
379
380
0
382
383
0
385
386
0
388
389
390
391
392
393
394
395
0
0
0
0
0
0
0
403
0
405
406
407
408
0
0
0
0
413
0
0
416
417
0
419
420
421
422
0
0
425
426
427
0
429
430
431
0
433
434
435
436
437
0
439
440
441
0
443
444
0
446
447
448
449
0
0
452
0
454
455
456
457
0
459
0
461
462
463
0
0
466
467
468
469
0
471
472
0
474
475
476
477
0
0
0
481
482
483
484
485
486
0
488
489
0
491
0
0
494
0
0
497
0
499
500
0
0
0
0
0
506
507
508
0
0
511
0
513
0
515
0
0
0
519
0
521
522
0
0
0
526
0
528
529
530
531
532
533
534
535
536
537
0
539
540
541
0
543
0
0
0
547
0
549
550
551
552
0
554
555
0
557
0
559
0
561
562
0
0
565
566
0
568
569
570
0
0
573
0
575
0
0
0
0
0
581
582
583
0
585
586
0
0
0
0
0
0
593
0
0
596
597
0
0
600
601
602
603
604
605
0
607
608
0
610
611
612
0
0
0
0
0
618
619
0
621
622
623
0
625
626
627
0
629
630
631
632
0
634
635
636
637
0
639
0
641
0
0
644
0
646
0
0
649
650
651
652
0
654
655
656
0
658
659
660
661
662
663
664
0
0
667
0
0
0
0
672
0
674
0
0
0
678
679
680
681
682
0
0
685
686
687
0
689
690
0
0
693
694
695
0
697
698
0
0
0
0
0
704
705
0
707
0
0
0
711
712
0
0
715
0
0
0
0
720
721
0
723
724
725
726
727
0
729
730
731
732
733
0
735
736
0
0
0
740
0
0
0
744
0
0
0
748
749
0
751
752
0
0
0
756
0
758
759
760
0
0
0
764
765
766
0
768
769
770
771
772
0
774
0
0
0
0
0
780
781
782
783
2
3
4
0
6
7
8
9
10
11
12
13
14
15
16
17
18
19
20
21
22
23
24
0
26
27
28
29
30
31
32
33
34
35
36
37
38
39
40
41
42
43
44
45
0
0
0
49
50
51
0
53
54
55
0
57
58
59
60
61
62
63
64
65
66
0
68
69
70
71
72
73
74
75
76
77
78
0
80
81
82
83
84
85
86
87
0
89
90
91
92
0
0
95
96
97
98
0
100
101
0
103
104
105
0
107
108
109
110
111
112
113
114
115
116
117
118
119
0
121
122
123
124
125
0
127
128
129
130
131
132
133
134
135
136
137
138
0
140
141
142
143
144
145
0
147
148
149
150
151
152
153
154
155
0
157
158
159
0
161
162
163
164
165
166
167
168
169
0
171
172
0
174
0
176
177
178
0
0
181
182
183
0
185
186
0
188
189
190
0
192
193
194
195
0
197
198
199
200
201
202
203
204
0
206
0
208
0
0
211
0
213
214
0
0
217
218
219
220
221
0
223
0
225
226
0
228
229
0
0
232
233
234
0
0
237
0
239
240
241
0
0
244
0
246
247
248
249
0
251
0
0
254
0
0
257
258
0
260
0
262
0
264
0
266
0
0
269
270
271
0
0
274
275
0
0
0
279
280
281
0
283
284
0
286
0
288
289
290
291
292
293
0
0
296
297
298
299
300
0
302
303
304
305
306
0
0
309
310
0
0
313
0
315
0
0
0
319
0
321
0
0
0
0
326
0
0
329
0
0
332
333
0
335
0
0
0
0
0
341
0
0
344
0
346
0
348
349
0
351
352
353
0
355
356
357
0
359
360
0
0
363
364
0
0
367
368
369
0
371
0
373
0
0
376
0
378
379
380
381
382
0
384
385
386
387
388
0
390
0
392
0
0
0
396
0
398
399
400
0
0
403
0
405
0
0
0
409
410
411
0
0
414
415
416
417
418
0
420
0
422
0
424
425
0
427
0
0
0
431
0
433
0
435
436
0
438
0
0
441
442
443
444
445
446
447
0
0
450
451
452
0
454
0
456
457
458
459
460
461
0
463
0
0
0
467
468
469
0
471
472
473
474
0
476
477
478
0
0
481
0
483
0
485
0
487
488
489
490
0
492
0
494
495
496
497
498
0
500
501
0
0
504
505
506
507
508
509
510
0
512
513
0
515
516
0
0
519
520
521
522
0
0
0
526
527
528
0
530
0
532
0
534
535
536
537
0
0
0
541
542
543
0
0
0
547
0
549
550
0
0
553
554
555
556
557
558
559
560
0
562
563
564
565
566
567
0
0
570
571
572
0
0
575
0
577
578
579
0
0
582
583
0
585
0
0
588
0
0
0
592
0
0
595
596
597
598
599
600
0
602
603
604
605
0
0
0
609
610
611
612
613
614
615
616
0
0
619
620
0
0
0
624
625
0
0
628
629
630
0
632
633
634
635
636
0
638
639
640
641
642
0
0
645
0
0
648
0
0
651
652
653
0
655
656
0
0
659
660
661
0
663
664
665
666
667
668
669
670
671
672
0
0
0
676
677
678
0
680
0
0
0
0
685
686
687
688
689
0
0
692
693
0
695
0
0
698
699
700
701
0
703
704
705
0
707
0
709
710
711
712
0
0
715
716
717
718
0
0
721
722
723
724
725
726
727
728
729
730
0
0
733
734
0
736
0
0
739
0
0
742
743
744
0
0
747
748
0
750
751
0
753
754
0
0
757
758
759
0
0
762
763
764
0
766
767
768
769
0
771
0
773
774
0
0
777
0
0
780
781
0
0
2
3
4
5
6
7
8
9
10
11
12
13
14
0
16
17
18
19
0
21
22
23
24
25
26
27
28
29
30
31
32
33
34
35
36
37
38
39
40
41
42
43
44
0
46
47
0
0
50
51
0
53
54
55
0
0
0
59
60
61
62
63
64
65
66
0
68
69
70
71
72
73
74
75
76
77
78
79
80
81
82
83
0
85
86
87
0
89
90
91
92
93
94
0
96
97
98
99
100
0
102
0
104
105
106
107
108
109
110
0
0
113
114
115
116
0
118
119
120
121
122
0
0
125
126
127
128
129
130
0
132
133
134
135
0
137
0
0
140
0
142
143
144
145
146
147
148
149
150
0
152
0
154
155
156
157
0
159
160
161
0
163
164
0
166
167
168
169
170
171
172
173
174
175
0
0
0
0
0
0
182
183
0
0
0
187
188
0
190
191
192
193
194
0
196
197
0
0
200
201
202
203
204
0
0
207
0
209
210
211
0
213
214
0
216
0
0
0
0
0
0
223
224
225
0
0
228
229
0
0
232
233
0
235
0
237
0
0
240
241
242
0
0
245
246
247
248
0
250
251
0
0
254
255
256
257
258
259
260
261
262
263
264
265
266
0
268
0
270
0
272
273
0
275
276
277
0
279
280
281
0
0
284
285
0
287
0
289
0
291
0
0
0
295
0
297
0
0
300
0
302
303
304
305
0
307
308
0
0
311
312
0
314
315
316
317
0
0
320
321
322
323
324
325
0
0
328
329
330
331
332
333
334
0
336
337
338
0
340
341
342
343
344
0
346
0
0
349
350
351
0
353
354
355
0
357
0
0
360
0
0
363
0
0
0
0
0
369
0
0
372
0
374
375
0
0
378
379
0
381
0
383
0
385
386
387
388
389
390
391
392
393
0
395
396
397
398
399
400
0
402
0
0
405
0
407
0
0
410
411
0
413
414
415
416
417
418
0
420
421
0
423
424
425
426
427
428
0
430
0
0
0
0
0
436
437
438
439
440
441
442
443
444
445
446
447
448
449
0
451
452
453
454
455
456
0
458
459
460
461
462
463
464
0
0
0
468
469
470
471
0
473
474
475
476
477
478
0
0
481
0
483
484
0
486
487
0
0
490
491
492
493
494
495
0
497
0
499
0
501
502
0
0
505
506
507
508
509
0
0
0
513
0
0
0
517
518
519
520
521
522
523
0
0
526
527
528
529
530
0
532
533
0
535
536
537
0
539
0
0
0
543
544
545
0
547
548
549
550
0
0
553
554
555
556
557
0
0
560
0
562
563
0
0
566
0
0
569
570
0
572
0
574
0
0
0
578
0
580
0
582
583
584
585
586
0
588
589
0
591
0
593
0
0
0
597
0
599
600
601
0
603
0
605
606
0
608
0
610
0
0
613
614
615
616
617
618
0
0
621
622
623
624
0
0
0
628
0
630
0
0
0
634
635
0
0
638
0
640
0
0
643
644
645
646
0
0
649
0
0
652
653
0
0
656
0
0
0
660
0
0
663
664
0
666
667
668
0
0
0
0
673
674
675
676
0
0
679
0
681
682
683
0
685
686
0
688
0
690
0
0
0
694
695
696
697
698
699
0
0
702
703
704
0
706
0
0
709
0
0
0
0
714
0
716
0
0
0
0
721
722
0
724
725
726
0
0
0
0
731
0
0
0
0
736
737
0
0
0
0
0
743
0
745
746
747
748
0
750
751
752
0
754
755
756
757
0
759
0
761
0
0
764
765
766
767
0
0
770
771
772
773
774
775
776
777
778
779
780
781
0
783
2
3
4
5
6
7
8
9
10
0
12
13
0
0
16
17
18
19
20
21
22
23
24
0
26
27
28
29
30
31
32
33
34
35
36
0
38
39
40
0
42
43
44
0
46
47
0
49
50
51
0
0
54
55
56
0
58
59
60
61
62
63
64
0
66
67
68
0
70
71
72
73
0
75
76
0
78
79
80
81
82
83
84
85
86
87
0
89
90
91
92
93
94
95
96
0
98
99
100
101
102
103
104
105
106
107
108
109
0
111
112
113
114
115
116
0
118
119
120
121
122
123
0
125
126
0
128
129
130
131
132
133
0
0
136
137
138
0
140
141
142
143
0
145
0
147
148
149
150
0
152
0
154
0
156
0
158
0
160
161
0
163
164
165
166
167
168
169
170
171
172
173
174
175
0
177
0
0
0
181
182
183
0
185
186
0
188
189
0
191
192
0
0
0
0
197
198
199
200
201
202
203
204
205
206
207
208
209
210
211
0
213
214
0
0
217
218
219
220
221
222
223
224
225
226
227
0
229
230
0
232
0
234
0
0
0
238
0
240
241
242
243
244
245
246
247
0
0
0
0
252
0
254
255
0
257
258
259
260
0
262
263
264
265
0
267
0
0
0
271
272
0
0
0
0
0
278
0
280
281
282
0
284
0
0
287
288
289
0
0
0
293
0
0
296
0
0
0
0
301
302
303
304
0
306
0
0
0
310
0
312
0
314
315
316
0
318
319
320
0
0
323
0
0
326
327
0
0
330
331
0
333
0
0
336
0
0
339
0
341
0
343
344
0
346
347
0
349
350
0
352
0
0
355
356
357
0
0
360
361
0
363
0
0
0
367
368
369
0
371
0
0
374
375
0
0
378
379
380
0
382
383
0
0
386
0
388
0
390
391
0
0
394
395
396
397
0
0
0
0
402
403
404
0
0
0
408
409
410
0
412
413
414
415
416
417
0
419
420
421
422
423
0
425
0
0
0
0
0
431
0
0
434
435
436
437
0
0
0
441
442
0
444
445
446
447
448
449
450
0
452
0
454
455
0
457
458
459
0
0
462
463
0
465
466
467
468
0
0
471
472
473
0
475
0
477
478
0
0
481
482
483
484
485
0
487
488
489
490
491
492
493
494
495
496
497
498
0
0
501
502
0
504
505
506
507
508
509
0
0
512
513
0
515
516
517
518
0
520
521
522
523
524
0
0
527
528
0
0
0
532
0
0
535
536
0
538
539
540
0
0
0
544
545
546
547
0
549
550
551
552
553
554
555
556
557
558
559
0
0
0
563
564
0
566
0
0
569
570
571
0
573
574
575
576
0
0
579
580
581
582
0
584
585
586
587
0
589
0
591
592
0
0
595
596
597
0
0
0
601
0
0
0
605
0
0
608
609
610
611
612
0
614
615
616
0
0
0
0
621
0
623
0
625
626
627
0
0
630
631
0
633
634
0
636
637
0
639
640
641
642
643
644
645
0
647
0
0
650
651
0
0
654
0
656
0
658
659
0
661
662
663
664
665
666
667
0
0
670
671
672
0
0
675
676
677
678
679
680
681
0
683
0
0
686
0
0
689
0
0
692
0
0
695
696
0
698
699
700
701
702
0
0
705
706
707
708
0
710
711
0
0
0
0
0
717
718
719
720
0
0
723
724
0
726
727
0
0
0
731
732
0
734
0
0
0
738
0
740
741
0
0
0
0
746
747
748
0
750
751
752
753
754
755
756
0
0
0
760
761
762
0
0
0
766
767
768
0
770
0
772
0
774
775
0
777
0
0
780
781
782
783
2
3
0
5
6
7
8
9
10
11
12
13
14
0
16
17
18
19
20
21
0
23
24
25
26
0
28
29
30
31
32
33
0
35
36
0
0
39
40
41
42
43
44
0
46
47
48
0
50
51
0
53
54
55
0
57
0
0
60
61
62
63
64
65
66
0
68
69
70
0
72
73
74
75
76
77
0
0
80
81
82
83
84
85
86
87
88
89
90
91
92
93
94
95
96
0
98
0
100
101
102
0
104
105
106
107
0
109
0
111
112
113
114
115
116
0
118
119
120
0
122
123
124
125
126
127
0
0
130
0
132
133
134
135
136
137
138
0
140
141
142
143
144
145
0
0
148
149
150
0
152
0
154
155
156
157
158
159
160
0
162
163
164
165
166
167
168
169
0
171
172
173
174
0
176
177
0
179
0
181
182
183
0
0
186
187
188
189
190
191
192
193
194
195
196
0
198
0
200
0
202
203
204
0
0
207
208
0
210
211
212
0
214
215
0
0
218
219
220
221
0
223
0
225
226
0
228
229
0
231
232
233
0
235
0
237
238
0
240
241
242
0
244
245
0
247
0
0
0
251
0
253
254
255
0
257
0
259
0
0
0
0
0
265
0
267
0
0
270
271
272
273
274
275
276
0
278
279
280
0
0
283
284
0
286
287
288
289
290
0
292
293
294
295
296
297
0
299
300
301
0
0
304
0
306
307
0
0
0
311
0
0
314
315
0
317
0
319
0
0
0
0
0
0
326
0
0
329
330
331
332
333
334
335
336
337
0
0
340
341
342
0
0
0
346
0
0
349
350
0
352
0
354
355
356
357
358
359
0
361
362
0
0
0
366
0
0
0
370
371
372
373
374
375
0
377
378
0
380
0
382
0
384
0
0
387
0
389
0
391
392
393
0
395
0
397
398
0
0
0
0
0
404
405
406
407
408
409
410
411
412
413
414
0
416
417
418
0
420
421
0
0
424
425
0
427
428
0
0
431
432
433
434
0
436
437
438
0
440
441
442
443
0
0
0
447
448
449
0
451
452
453
454
455
456
457
0
459
460
461
0
0
464
0
0
467
0
0
470
471
0
0
474
475
476
477
478
479
480
0
0
483
0
0
0
487
488
489
0
491
0
493
494
0
496
497
498
499
500
0
0
0
504
505
506
507
508
509
510
0
512
0
514
0
516
0
0
519
520
0
0
523
524
525
526
527
528
0
0
0
532
533
0
535
536
0
538
539
540
541
542
543
544
545
546
0
548
0
0
551
0
0
554
555
0
557
0
559
560
561
0
563
564
0
566
567
0
569
0
571
572
573
574
575
576
0
0
579
0
0
582
583
584
585
0
0
588
589
0
591
0
593
594
595
0
597
598
599
0
601
0
603
604
605
0
607
0
609
610
0
0
613
614
615
616
617
618
0
620
621
0
623
0
625
626
0
628
0
630
631
632
0
0
635
0
637
0
639
640
641
642
643
0
645
0
647
0
0
650
651
0
0
0
0
0
0
658
659
660
661
662
0
664
665
0
667
0
669
0
671
0
673
0
675
0
0
678
679
680
681
0
683
684
685
686
687
0
689
0
691
0
693
694
0
696
0
698
0
700
0
702
703
0
705
706
707
708
709
0
711
0
713
0
0
0
0
0
719
0
0
0
723
0
725
726
727
728
729
0
731
0
0
0
0
0
0
738
739
740
741
742
743
744
0
746
0
748
0
0
751
752
753
754
0
756
757
758
0
760
761
762
763
764
0
766
767
768
769
770
771
772
0
0
775
776
777
0
779
780
0
0
783
2
3
4
5
6
7
8
9
10
11
12
13
0
15
16
17
18
19
20
21
22
23
0
25
26
27
28
29
30
31
32
33
34
35
36
0
38
39
40
0
42
43
0
45
46
0
48
49
50
51
0
53
54
55
56
0
58
59
60
61
62
63
64
0
66
67
68
69
70
71
72
73
0
75
0
77
78
79
80
81
82
83
84
0
86
0
0
0
90
91
92
93
94
95
96
97
98
99
100
101
102
103
104
105
0
107
108
109
0
111
112
113
114
0
116
0
118
119
120
121
122
123
0
0
126
0
128
129
130
131
132
0
134
135
0
0
0
0
140
141
142
143
144
145
146
0
148
149
150
0
152
0
154
0
0
157
0
159
160
161
0
0
0
165
166
167
168
169
170
0
0
173
174
175
176
177
178
0
0
181
182
0
184
185
186
0
0
0
0
191
192
193
194
195
196
197
198
199
200
0
0
203
0
205
206
207
208
0
0
211
212
0
214
0
0
217
218
219
220
221
0
223
224
0
226
0
228
229
0
0
232
233
0
0
236
237
238
0
240
241
242
243
0
245
246
247
248
249
0
251
252
253
254
255
0
257
0
0
0
261
262
263
264
265
0
0
268
269
270
271
0
273
0
275
276
0
0
279
280
281
282
283
284
0
286
0
0
0
0
291
292
0
0
0
0
0
298
299
300
301
0
0
304
305
306
307
308
0
310
311
0
0
314
0
0
317
318
0
320
321
0
0
0
325
0
327
328
329
0
331
0
0
334
335
0
0
0
0
340
341
342
0
344
345
0
347
348
349
0
351
0
0
0
355
0
357
0
359
0
0
362
363
364
365
0
367
368
0
370
0
372
373
374
375
0
377
378
379
0
381
0
383
0
0
386
387
388
389
390
391
392
0
0
395
396
397
398
399
400
0
402
403
404
405
406
0
0
0
0
411
412
413
0
415
416
417
418
419
420
421
422
423
424
0
0
427
0
0
0
431
432
433
434
435
436
437
438
439
0
0
0
443
0
445
0
447
448
449
450
451
452
453
454
455
456
457
458
459
0
461
462
463
0
0
466
467
468
469
470
471
0
0
474
475
0
477
0
479
480
481
482
483
484
0
486
487
488
489
0
491
492
493
0
495
496
497
0
499
500
0
0
0
0
0
506
507
508
509
510
0
0
513
0
0
516
517
0
519
520
521
522
523
524
0
0
527
0
0
530
0
532
0
534
535
536
537
0
539
0
541
542
0
544
545
546
0
0
0
550
0
552
0
554
555
556
0
558
559
560
561
562
0
564
565
566
567
568
0
570
571
0
0
0
575
0
577
578
579
580
0
582
0
584
585
0
0
588
0
590
591
0
593
594
595
596
597
0
0
0
601
0
603
604
0
0
0
608
609
610
611
612
613
614
0
0
617
0
0
0
621
622
623
0
0
0
627
628
0
0
631
0
633
634
635
636
637
638
639
640
0
0
643
0
645
646
0
648
0
0
651
0
653
654
0
0
657
0
0
660
661
0
663
664
665
0
0
668
669
670
671
0
0
674
675
676
677
678
0
0
681
0
683
684
0
686
0
688
0
0
691
692
0
0
0
0
697
0
699
0
701
0
0
0
705
706
707
708
709
710
711
712
0
0
715
0
0
0
719
0
721
0
723
0
0
726
0
0
0
730
731
732
733
734
0
0
0
0
739
0
741
742
743
0
0
746
747
0
0
0
0
0
0
0
755
0
757
758
759
760
761
762
0
764
0
766
767
0
0
770
771
772
0
774
775
0
777
0
779
780
781
0
783
2
3
0
5
6
7
8
9
10
11
12
13
0
0
0
17
18
19
20
21
22
23
24
25
26
0
28
29
30
31
0
33
34
35
36
0
38
0
0
41
42
0
44
0
46
47
48
0
50
51
52
53
0
55
56
57
58
59
60
61
62
0
64
0
66
67
68
69
70
71
72
73
74
75
76
77
78
0
80
81
82
83
84
85
86
87
88
0
90
91
92
0
94
95
96
97
98
99
100
101
102
103
104
105
106
107
108
109
110
111
112
113
114
0
116
0
118
119
0
121
122
0
0
125
126
127
128
0
130
131
132
133
134
135
136
137
138
0
140
141
142
0
144
145
0
147
148
0
150
0
152
153
154
155
0
157
158
159
160
0
162
163
164
165
166
167
168
169
0
171
172
173
0
0
176
177
178
0
0
181
182
183
0
0
0
0
188
189
190
191
192
193
194
195
0
197
198
199
200
201
202
203
204
0
0
207
0
209
210
211
212
213
214
215
0
217
0
219
220
0
222
223
224
225
226
0
228
229
230
0
232
233
234
0
0
237
238
239
240
241
242
243
0
0
246
247
0
0
250
251
252
0
254
255
0
0
258
259
0
0
262
263
264
0
266
0
268
269
270
271
272
273
274
275
276
277
0
279
280
281
0
0
284
285
0
287
288
289
0
0
0
293
294
0
296
297
298
299
0
0
0
0
304
305
306
0
0
309
0
0
0
313
314
315
316
0
0
319
320
0
0
323
324
325
0
0
0
329
0
0
332
0
0
0
336
0
0
339
0
0
342
343
0
0
0
0
0
0
350
351
0
353
0
355
0
357
0
359
0
361
362
363
364
0
0
0
0
369
0
0
372
373
374
375
376
0
0
0
380
0
0
0
384
385
386
387
0
389
0
391
0
393
394
395
396
0
0
399
400
401
0
403
404
405
406
407
408
0
410
411
412
413
0
415
416
417
418
419
420
421
422
423
424
425
426
0
428
429
0
431
432
433
0
435
436
437
438
439
440
441
0
0
444
445
446
447
448
449
450
451
452
0
454
455
456
457
0
459
460
0
0
463
464
0
466
0
0
469
470
471
0
473
474
475
476
477
478
479
480
481
482
0
484
0
0
487
0
489
490
491
0
493
494
495
496
497
498
499
500
0
0
503
0
505
506
0
508
0
510
511
512
0
0
0
516
517
518
519
0
521
522
523
524
525
526
527
0
0
530
531
0
0
534
535
536
0
538
539
0
541
542
543
544
545
0
0
548
0
550
0
552
553
0
0
0
0
558
0
560
561
562
563
0
565
0
567
568
0
570
571
572
0
574
575
0
577
0
579
580
581
0
583
584
585
0
587
588
0
590
591
592
593
594
595
0
0
0
599
600
0
602
0
604
0
606
0
0
0
610
611
612
613
614
0
0
0
0
0
620
0
0
623
0
0
626
627
628
629
0
631
632
633
0
0
636
0
0
639
0
0
642
0
644
645
646
647
0
649
650
0
0
653
654
655
0
0
658
659
660
661
0
663
664
0
666
667
668
669
670
671
672
673
674
675
676
677
0
679
0
681
682
0
0
685
686
0
0
689
0
691
692
0
0
0
696
697
698
699
700
701
0
0
704
705
706
707
0
709
0
711
712
713
0
0
716
0
718
0
720
721
0
723
724
725
0
0
728
0
0
731
732
0
734
0
0
737
738
739
740
741
742
0
744
0
0
747
748
0
750
0
752
753
0
0
756
757
758
0
0
0
762
763
764
765
766
0
768
769
770
771
772
0
0
775
776
777
0
0
0
781
782
0
2
3
4
5
6
7
8
9
0
11
12
0
14
0
16
17
18
19
20
21
0
23
24
0
26
0
28
29
30
31
32
33
0
35
36
37
0
39
40
41
42
43
0
45
0
47
48
49
50
51
0
53
54
55
0
0
58
59
60
61
62
63
64
65
66
0
68
69
70
71
72
73
74
75
76
77
78
79
80
81
82
83
0
85
86
87
88
0
90
91
92
93
94
0
96
97
98
99
100
101
102
0
104
105
106
0
108
109
0
0
112
113
114
115
116
0
118
0
120
121
122
123
124
0
126
0
128
0
130
131
132
133
134
135
136
0
138
0
0
141
142
143
144
0
146
147
148
149
0
0
152
0
154
155
0
157
0
159
0
161
162
0
164
165
166
167
168
169
0
171
172
0
174
175
176
177
178
0
0
181
182
183
0
0
186
0
188
189
190
191
192
193
194
0
196
197
198
199
200
0
0
203
0
0
206
207
208
209
210
211
0
213
214
215
0
217
218
219
220
221
0
223
224
225
0
227
0
0
0
0
232
233
234
0
0
237
238
0
240
241
0
0
244
245
0
247
0
249
250
0
252
253
254
255
0
257
258
0
0
261
262
263
264
265
266
0
0
269
270
271
272
273
274
0
276
277
278
279
280
0
282
0
284
285
0
0
0
289
0
291
292
0
294
0
296
0
298
0
0
0
0
303
304
305
0
0
308
309
310
0
0
313
0
315
316
0
318
319
320
0
322
323
324
325
326
327
328
329
0
331
0
0
334
335
336
337
0
0
340
341
342
0
0
0
0
347
0
0
0
0
0
353
354
355
356
357
0
359
360
361
362
363
364
365
366
367
0
369
0
371
372
373
374
375
376
0
378
379
380
381
0
0
384
385
386
387
388
389
0
391
392
393
394
395
0
397
398
399
400
0
0
403
0
405
0
407
0
409
410
0
412
413
414
415
416
417
0
419
0
0
0
423
0
425
426
427
0
429
430
0
0
0
0
435
436
437
0
0
440
441
0
443
444
0
446
447
448
0
450
451
0
453
454
455
0
0
0
459
460
461
0
463
464
465
466
0
468
469
470
471
472
473
474
475
476
0
478
479
480
0
0
483
0
0
486
487
0
489
0
491
492
493
0
495
0
497
498
0
500
501
0
0
504
505
506
507
0
0
0
511
512
513
514
515
516
517
518
0
520
0
0
523
524
0
0
527
528
0
530
0
0
533
0
0
536
537
538
539
540
541
542
543
0
0
546
0
548
0
550
0
0
553
554
555
0
557
0
559
560
561
0
563
0
0
566
567
0
569
570
0
572
0
574
0
0
577
578
579
0
581
582
583
584
0
0
0
588
0
590
0
0
593
0
595
0
597
0
0
600
601
602
603
0
0
0
607
608
609
0
0
0
0
614
615
616
617
0
0
620
621
622
0
624
625
0
627
0
629
630
0
632
633
634
0
0
637
638
639
640
641
0
0
0
0
646
647
0
0
0
0
652
653
654
655
656
657
658
0
660
661
0
0
664
0
666
0
668
0
670
0
672
673
0
675
676
677
678
0
680
0
0
683
684
685
686
687
688
689
690
0
692
0
694
0
696
697
0
699
700
701
0
703
704
705
0
707
708
0
710
0
0
713
714
715
0
717
718
719
0
721
0
0
0
725
0
0
728
0
0
731
732
733
734
735
736
737
0
739
740
0
742
0
744
745
0
0
748
749
750
751
752
0
0
0
0
757
0
759
760
0
762
763
764
765
766
767
768
0
770
771
0
0
0
0
776
777
0
0
780
0
782
783
2
3
0
5
6
7
8
9
10
11
0
13
14
0
16
17
18
19
20
21
22
23
24
25
26
27
28
29
30
31
32
33
0
35
36
37
38
39
40
41
42
43
44
45
46
47
48
0
50
51
52
53
54
55
0
57
58
59
60
0
62
63
64
65
66
67
0
69
70
71
0
73
74
75
76
77
78
79
80
81
82
0
84
85
86
87
88
89
90
91
92
93
0
0
0
97
98
99
100
101
102
103
104
105
106
107
0
109
110
111
0
113
114
115
116
0
118
119
120
0
122
0
0
0
126
127
128
129
130
131
0
133
134
135
136
0
138
0
140
0
142
0
144
0
0
147
148
0
150
151
152
153
0
155
156
157
0
0
0
161
0
163
164
0
166
0
168
169
170
171
172
173
0
175
176
177
178
0
0
181
182
183
184
185
186
187
188
189
190
0
0
193
0
0
196
197
198
199
200
201
202
203
204
205
0
207
208
0
0
211
212
213
214
0
0
217
218
219
220
221
0
223
224
0
226
227
228
0
230
0
232
233
234
235
0
0
238
239
240
0
242
0
244
245
0
247
248
0
250
251
252
0
254
255
256
0
258
259
260
261
262
263
264
0
266
0
0
0
270
271
272
273
274
0
0
277
0
279
280
0
282
0
0
0
0
287
0
0
290
291
0
293
294
0
296
297
298
299
300
0
302
303
304
305
0
307
0
309
310
0
0
0
0
315
316
317
318
319
320
321
0
0
0
0
0
327
0
329
330
331
332
333
334
335
336
0
0
0
340
341
342
0
344
0
0
347
0
349
0
0
0
353
354
355
0
0
0
359
360
361
0
0
364
365
366
367
0
0
370
0
372
0
374
375
0
377
378
379
380
0
0
0
384
385
386
0
388
389
390
391
0
393
394
0
0
397
0
399
0
401
402
0
404
405
406
0
408
409
410
411
0
413
414
415
0
0
418
419
420
0
422
423
424
0
0
0
0
0
430
0
432
0
434
435
436
437
438
439
440
441
442
443
0
445
446
447
448
0
450
451
0
0
454
455
456
457
0
0
460
0
0
0
464
465
466
0
0
469
470
471
0
473
0
0
476
477
478
0
0
481
0
483
484
485
0
0
0
489
490
491
492
493
494
495
0
0
0
0
500
501
0
0
504
505
506
507
508
509
510
0
512
0
514
515
0
517
518
519
520
521
522
523
524
525
0
0
0
529
530
531
532
533
534
535
536
537
0
0
540
541
0
543
544
0
546
0
548
549
550
551
552
553
554
555
0
557
558
559
0
0
562
563
564
565
0
567
0
569
570
571
572
573
574
575
0
577
578
579
580
0
582
583
0
0
0
587
588
0
590
591
0
0
594
595
0
597
0
0
0
601
602
603
604
605
0
607
608
609
610
0
612
0
614
0
0
0
0
619
620
0
622
0
0
625
626
627
0
0
0
0
632
0
0
635
636
637
638
639
640
641
642
643
644
645
646
647
648
0
0
651
0
653
0
0
656
657
658
659
0
661
662
0
664
0
666
667
668
669
670
0
672
673
674
0
0
677
0
0
680
681
0
683
684
685
686
687
0
689
690
0
692
0
694
695
0
697
698
0
0
0
702
703
0
705
706
707
708
709
0
711
712
0
714
0
716
717
0
719
720
721
722
0
0
725
726
727
728
729
0
731
732
0
734
735
736
0
738
739
740
741
742
0
0
745
746
0
0
749
750
751
752
0
754
0
756
0
0
0
760
761
0
0
764
0
0
767
768
769
770
0
0
773
0
775
0
0
0
779
780
781
782
783
2
0
4
5
6
7
8
9
10
11
12
13
14
0
16
17
0
19
20
21
22
23
24
25
26
27
28
29
30
31
32
33
34
35
36
37
38
39
40
41
42
43
44
0
0
47
48
49
50
0
52
53
54
55
56
0
58
59
0
61
62
63
64
0
66
67
68
0
70
71
72
73
0
75
76
77
78
79
80
81
82
83
84
85
86
87
88
89
90
91
0
0
94
95
96
0
98
99
100
101
102
0
104
105
106
107
108
109
0
111
112
113
114
0
116
117
118
119
120
121
122
0
0
0
0
127
0
129
130
131
132
0
134
135
136
0
138
0
140
141
142
143
144
145
0
147
148
0
150
0
152
0
0
0
0
157
158
159
160
161
0
163
0
165
0
167
168
169
170
0
0
173
174
0
0
177
178
0
180
181
0
183
184
185
186
0
188
0
0
191
192
0
194
195
0
197
198
199
200
201
202
203
204
205
206
207
208
209
0
211
212
213
214
0
216
217
218
219
0
221
222
223
224
0
226
0
0
0
230
231
232
233
234
0
236
237
0
0
0
241
242
0
244
245
0
247
0
249
250
251
252
253
254
0
256
257
0
259
260
261
262
263
264
0
0
267
0
269
0
271
272
0
0
275
276
0
278
279
280
0
282
0
284
285
286
287
288
289
290
291
0
0
294
295
296
297
298
299
0
0
302
303
304
305
306
0
308
0
0
311
0
0
0
315
0
0
318
0
320
321
322
323
0
0
0
327
328
329
330
0
332
0
334
335
336
337
0
0
0
341
342
0
0
345
346
347
348
349
350
351
352
0
0
355
0
357
0
0
360
361
362
0
364
365
366
0
368
369
0
0
372
373
374
375
376
0
378
379
0
381
382
383
384
385
386
0
0
389
0
0
392
393
0
0
396
397
0
399
0
401
402
403
404
405
406
0
408
0
0
0
0
413
414
0
0
0
0
419
420
0
422
0
424
425
426
0
428
429
0
431
432
433
434
0
436
0
438
0
440
441
442
443
444
445
446
447
448
0
450
451
0
453
454
455
456
457
0
459
460
0
462
463
464
465
0
467
0
0
470
471
472
0
0
475
0
477
478
479
0
0
0
0
484
0
0
487
0
489
490
0
0
493
0
0
496
497
0
0
500
501
502
503
0
505
506
0
0
509
0
0
512
513
514
0
516
517
518
0
0
0
522
523
524
525
526
0
0
529
530
531
0
533
0
535
536
537
0
539
0
0
542
0
0
545
546
0
548
549
550
551
0
553
0
0
556
557
558
559
560
561
562
0
564
0
566
567
0
569
570
571
0
0
574
575
576
577
0
579
0
581
0
583
584
585
0
587
0
589
0
591
0
593
594
595
596
0
598
0
600
601
0
603
604
0
0
0
608
609
0
611
612
0
614
615
616
0
0
0
620
0
622
623
624
625
0
627
628
629
0
0
0
633
634
635
0
0
638
639
0
641
642
0
644
0
0
647
0
0
650
651
652
0
0
655
656
0
0
659
660
661
0
0
664
0
666
667
668
0
670
0
672
673
674
675
676
0
0
679
680
0
0
683
0
685
686
687
0
0
0
691
0
693
694
0
696
697
0
0
0
0
0
0
704
0
706
0
708
0
710
0
0
713
0
0
716
0
718
0
0
0
722
0
724
725
0
727
0
0
0
0
0
0
734
735
736
0
0
739
740
741
0
0
0
0
746
0
0
0
0
0
0
0
754
0
0
0
758
0
760
0
0
0
764
765
0
767
768
0
0
0
772
773
774
0
0
777
778
779
780
0
0
0
EOF
