DIMENSION : 783
NUMBER OF ITEMS : 3910

TOUR_SECTION
1
17
23
2
7
18
12
9
33
29
10
3
5
19
30
8
20
36
31
35
22
14
32
26
16
21
27
24
28
34
4
11
13
6
40
38
43
66
75
87
84
79
101
106
109
114
122
142
149
134
135
171
193
199
194
181
177
170
168
148
145
119
113
104
91
96
73
60
55
44
69
78
90
93
103
92
72
51
42
54
62
50
61
59
68
82
86
99
85
71
64
48
39
63
76
98
95
89
74
77
102
105
108
112
128
140
116
133
137
143
152
161
187
204
202
208
224
240
232
233
225
217
206
190
200
198
179
176
163
169
157
138
118
126
121
124
144
150
164
165
173
182
209
211
212
219
210
201
213
221
226
237
251
253
262
257
275
287
282
283
288
308
310
301
312
318
326
311
295
303
292
281
269
250
259
258
268
267
256
243
249
248
227
222
231
230
239
246
255
277
276
278
273
274
286
299
291
306
293
290
300
307
316
332
350
347
345
333
321
322
330
336
360
354
351
348
340
338
337
349
361
362
342
331
334
324
320
298
309
304
297
296
284
279
261
245
252
241
272
271
263
260
244
229
228
220
203
189
191
197
188
183
159
167
154
129
130
141
132
131
158
166
174
178
192
207
223
214
218
234
254
238
247
264
265
280
285
315
314
329
341
355
357
367
394
406
404
413
399
396
374
369
379
378
398
412
427
421
428
442
444
461
462
490
479
481
471
478
468
454
451
447
440
450
465
475
488
502
509
498
510
503
504
516
523
555
550
538
546
549
545
532
544
528
525
537
559
553
543
527
522
524
520
514
493
489
480
474
487
497
496
494
476
464
470
469
467
457
456
449
460
455
463
486
492
508
512
517
506
530
534
551
554
562
579
569
561
539
531
540
547
557
552
529
515
513
519
518
495
473
477
483
491
500
501
507
505
521
542
541
536
535
556
564
563
566
578
588
599
613
619
617
628
621
607
587
603
609
622
636
630
633
631
639
618
610
589
605
614
601
600
591
584
577
570
565
558
575
571
572
573
581
593
606
604
615
629
632
642
650
662
654
653
646
651
666
669
661
684
699
695
686
710
700
701
689
693
673
664
667
668
674
676
670
647
637
616
608
595
592
582
567
574
583
585
602
620
623
625
635
643
663
656
658
677
682
687
717
714
711
712
729
744
753
767
771
775
783
782
751
728
715
703
696
694
702
708
716
724
742
752
756
764
781
780
770
763
746
741
723
730
731
727
750
749
762
766
774
773
777
779
768
757
759
776
758
760
765
772
761
778
769
747
738
734
725
704
697
683
672
665
659
652
648
645
655
660
675
680
690
706
685
679
671
678
688
709
705
718
735
745
736
732
743
739
722
733
737
754
755
748
740
726
721
720
719
707
713
698
691
692
681
657
649
644
641
634
627
612
590
598
597
586
594
611
626
638
640
624
596
580
568
576
560
548
533
526
511
499
472
482
484
485
466
458
453
452
445
436
429
423
395
384
363
352
359
356
343
328
344
358
366
371
392
405
389
397
382
387
390
401
407
425
443
438
422
433
426
430
424
420
408
409
410
391
411
418
417
419
431
439
435
441
448
434
437
459
446
432
416
402
400
414
415
403
388
385
368
373
383
364
381
386
380
375
372
370
377
393
376
365
353
346
339
325
323
319
327
335
317
294
302
313
305
289
270
266
242
236
235
216
215
185
172
180
186
205
195
196
184
175
160
155
147
139
146
125
117
123
110
115
127
153
162
156
151
136
120
111
107
94
83
65
58
53
47
46
41
67
81
70
80
100
97
88
56
49
52
57
45
37
25
15

PP_SECTION
2
0
0
0
0
0
8
0
0
0
0
0
0
15
0
0
0
19
0
0
0
0
24
25
0
0
0
0
0
0
0
0
34
0
0
37
0
0
0
41
0
0
0
45
46
0
0
49
0
0
52
0
0
0
0
57
0
0
0
0
0
0
64
0
0
67
0
0
70
0
0
0
0
75
76
0
78
0
0
81
0
0
0
0
0
0
88
89
0
0
0
0
0
0
0
97
0
0
100
0
0
103
0
0
0
107
0
0
0
111
0
0
0
115
0
0
118
0
0
0
0
123
0
125
126
127
0
0
0
0
0
0
0
0
136
0
0
139
0
0
0
0
0
0
146
0
0
0
0
0
0
153
0
0
0
0
0
0
0
161
162
0
0
0
0
0
0
0
0
0
172
0
174
175
0
0
0
0
0
0
0
0
0
0
0
0
0
0
0
0
0
193
0
0
0
0
0
0
200
0
0
0
0
0
0
207
0
0
210
0
0
0
0
0
0
0
0
219
0
0
0
0
0
225
0
0
228
0
0
0
0
233
0
0
0
0
0
0
0
0
242
0
0
0
0
0
0
0
0
251
0
0
0
0
256
0
0
0
0
0
262
263
0
0
0
0
0
0
0
0
0
0
0
0
276
277
0
0
280
0
0
0
0
0
0
0
0
289
0
291
0
0
294
0
0
0
298
0
0
0
0
0
0
0
306
0
0
0
0
0
0
0
0
0
316
317
0
319
0
0
0
323
0
0
0
0
0
0
0
0
0
0
0
335
336
0
0
339
0
0
0
0
0
0
346
0
0
0
0
351
0
0
354
0
0
0
358
0
0
0
0
363
0
0
0
0
368
369
0
0
372
0
0
375
0
377
0
0
0
381
382
383
384
0
0
387
388
0
390
0
0
0
0
0
0
397
398
0
0
401
0
0
404
0
0
0
0
0
410
411
412
0
414
0
0
0
0
0
0
0
422
0
424
0
0
0
428
0
0
0
432
0
0
0
0
0
438
439
0
0
0
0
0
445
0
0
0
0
450
0
0
453
0
0
0
0
458
0
0
0
462
0
464
465
0
0
0
0
0
0
0
473
0
0
0
0
0
0
480
0
0
0
0
0
0
487
0
0
490
0
492
493
0
0
0
0
498
0
0
501
502
0
0
505
0
0
0
0
0
0
512
0
514
0
516
0
518
0
0
0
0
523
0
525
0
0
0
0
0
0
0
0
0
0
0
0
538
0
0
0
542
0
0
0
0
0
548
0
0
0
0
0
0
0
0
0
0
0
0
0
0
563
564
0
0
0
0
0
0
571
0
0
0
0
576
577
0
579
580
0
0
0
584
0
0
587
0
589
0
0
0
0
0
595
0
0
598
0
0
0
0
0
0
0
0
0
0
0
0
0
0
0
0
0
616
0
0
0
620
0
0
0
0
0
0
0
628
0
0
0
0
633
0
0
0
0
0
0
0
0
0
0
0
645
0
647
648
0
0
0
0
653
0
0
0
657
0
0
0
0
0
0
0
0
0
0
0
669
0
671
0
0
0
675
0
677
0
0
0
0
0
0
0
0
0
0
0
0
0
0
0
0
0
0
0
0
0
699
700
701
0
0
0
0
0
0
0
709
0
0
0
713
714
0
716
717
718
0
0
0
722
0
0
0
0
0
0
0
0
0
0
0
734
0
0
0
738
0
0
741
0
743
0
0
0
0
0
0
0
0
0
0
754
0
0
757
0
0
0
0
762
763
0
0
0
767
0
0
0
0
0
0
0
0
0
0
778
779
0
0
0
0
0
3
0
0
0
0
0
0
0
0
0
0
0
15
0
0
0
19
0
0
0
23
0
25
0
0
0
0
0
0
0
0
0
0
0
0
0
0
0
0
0
0
0
0
46
47
48
49
0
0
52
0
0
0
56
0
58
0
60
0
0
0
0
65
0
67
0
69
70
0
72
73
0
0
0
0
0
0
80
0
0
0
0
0
0
0
0
0
0
0
0
93
94
0
0
0
0
99
100
0
0
0
0
0
106
0
0
0
0
111
0
113
0
0
0
0
0
0
120
0
0
0
0
0
126
0
0
0
0
0
0
0
0
0
0
0
0
139
0
0
0
0
0
0
146
147
0
0
0
0
0
153
154
0
156
0
0
0
0
0
162
0
0
0
0
0
0
0
170
0
0
0
0
175
0
0
0
179
180
0
0
0
184
0
0
0
0
0
0
0
0
0
0
0
0
0
0
199
0
0
0
0
0
205
0
207
0
209
210
0
212
0
0
215
216
0
218
0
0
0
222
0
0
0
0
0
0
0
0
0
0
0
0
235
0
0
0
0
0
0
242
0
0
245
0
0
0
0
0
0
252
253
0
255
0
0
0
0
0
0
0
0
0
265
0
267
268
0
0
0
272
0
0
0
0
0
0
0
0
0
0
0
0
285
0
0
0
289
0
0
0
0
294
0
0
0
0
0
0
301
0
0
0
0
0
0
0
0
0
311
0
0
0
0
0
317
0
319
320
0
0
323
324
0
0
327
328
0
0
331
0
0
0
0
0
337
0
339
340
0
0
343
0
345
0
0
0
0
0
0
0
0
354
0
0
0
358
0
0
0
0
0
0
365
0
0
0
0
370
0
372
0
374
375
376
377
0
0
0
0
0
383
0
0
0
0
0
389
0
0
0
393
394
395
0
397
0
0
0
401
402
0
0
0
406
407
408
409
0
0
0
0
0
0
0
0
0
419
0
421
0
0
0
0
0
0
0
429
430
0
432
0
0
0
0
437
0
0
440
0
0
0
0
0
0
0
448
449
0
0
0
453
0
0
0
0
0
0
0
0
0
0
0
465
0
0
0
0
0
0
0
0
0
475
0
0
478
0
0
0
482
0
484
0
0
0
0
0
0
491
0
0
0
0
0
0
0
499
0
0
502
0
0
0
0
0
0
0
0
511
0
0
514
0
0
517
518
0
0
0
0
0
0
525
0
0
0
529
0
531
0
0
0
0
0
0
0
0
0
0
0
0
0
545
546
0
548
0
0
551
552
0
0
0
0
0
0
0
0
0
0
563
0
0
0
0
568
0
0
0
0
573
0
0
576
0
0
0
580
0
0
0
584
0
586
587
0
589
590
591
0
593
594
0
0
0
0
0
0
0
0
0
0
0
0
0
0
0
0
0
0
0
0
0
0
0
0
0
0
0
622
623
0
0
0
627
0
0
0
631
0
0
0
0
0
637
0
0
0
0
0
643
644
0
646
0
0
0
0
0
0
0
654
0
0
657
658
0
0
0
662
0
0
0
0
0
0
0
0
0
0
0
674
675
0
0
0
679
0
681
0
683
0
0
0
0
0
0
0
691
0
0
0
0
696
0
0
0
0
0
0
0
0
0
706
0
0
0
0
0
0
0
0
0
0
0
0
719
0
0
0
0
0
0
0
0
0
0
0
731
732
0
0
735
0
737
0
0
0
0
0
0
0
0
746
0
0
749
0
0
752
0
0
755
0
0
0
0
0
0
0
0
0
765
0
0
0
0
0
0
772
0
0
775
0
0
0
779
0
0
0
783
0
0
0
0
0
0
0
0
0
0
0
0
0
15
0
0
0
0
20
0
0
0
0
25
0
0
28
0
0
0
0
0
0
0
0
37
0
0
0
41
0
0
0
45
0
47
0
49
0
0
52
0
0
0
56
57
58
0
0
0
0
0
0
65
0
67
0
0
0
0
0
0
0
0
0
0
0
79
80
0
0
0
84
0
0
0
88
0
0
0
0
0
0
95
0
97
0
0
100
0
0
103
0
0
0
0
0
0
110
0
0
0
0
0
0
117
0
0
120
0
0
123
124
0
0
0
0
0
0
131
0
0
0
0
136
0
0
0
0
141
0
0
0
0
0
0
0
0
0
151
0
153
0
155
0
0
158
0
0
0
162
0
0
165
0
0
0
0
0
0
0
0
0
0
176
177
178
0
0
181
0
0
0
185
0
0
0
189
0
0
0
0
0
195
0
0
198
199
0
0
0
0
204
0
206
0
208
0
0
0
212
0
0
0
0
217
218
0
220
0
0
0
0
225
226
0
0
0
0
231
0
0
0
0
236
0
0
0
240
0
0
0
244
0
0
0
0
249
0
0
252
0
0
0
0
0
0
0
0
0
0
0
0
0
0
0
0
0
0
271
0
0
0
0
0
0
0
0
0
0
0
0
0
0
0
0
0
0
0
0
0
293
294
0
296
0
0
0
0
0
0
0
0
0
0
0
0
309
310
0
0
313
0
0
0
0
0
0
0
0
0
0
0
325
0
0
0
0
0
0
0
0
0
335
0
0
0
339
0
0
0
0
0
345
0
0
348
0
0
0
352
353
0
0
0
0
358
359
0
0
0
0
364
0
0
367
368
0
0
0
0
373
0
0
376
377
0
0
0
0
382
383
0
0
0
0
0
0
390
0
0
0
394
0
0
0
0
0
0
401
0
403
404
0
406
0
0
409
0
0
412
0
0
0
0
0
418
419
0
0
422
0
0
0
0
0
0
429
0
431
0
433
434
435
0
0
0
0
0
0
0
0
0
0
446
0
0
0
0
0
0
0
0
0
0
457
0
0
0
0
0
0
464
0
466
467
0
0
0
0
0
473
0
0
0
0
0
0
0
0
0
0
0
485
0
0
0
489
0
0
0
0
0
0
0
0
498
0
500
0
0
503
504
0
0
0
0
0
510
0
512
0
0
515
0
0
0
0
0
0
0
0
0
525
526
0
0
0
0
0
0
0
0
0
0
0
0
0
540
541
542
0
0
0
0
0
0
0
0
551
552
0
0
0
0
0
558
559
0
561
0
0
564
565
0
0
568
0
0
571
0
573
0
575
576
577
0
579
0
0
0
0
0
0
0
0
0
0
0
0
0
0
594
595
0
0
598
0
0
0
602
0
0
0
0
0
0
609
0
611
612
0
0
0
0
0
0
0
0
0
0
0
0
625
626
627
0
629
0
0
632
0
0
0
636
0
0
639
0
0
0
0
0
0
0
647
0
0
650
0
0
0
0
655
0
657
658
659
0
661
0
0
0
665
0
0
0
0
670
671
0
0
0
0
0
0
0
0
680
0
0
0
684
0
0
0
0
0
0
691
0
693
0
0
0
0
0
0
0
701
0
0
0
705
0
0
0
0
0
711
0
0
0
715
0
717
718
0
0
0
0
723
0
0
0
0
728
0
730
0
0
733
0
0
0
0
738
0
0
0
0
0
0
0
0
0
0
0
0
0
0
753
0
0
0
0
0
0
0
0
762
0
0
0
0
0
0
769
0
0
0
0
0
0
0
0
0
0
0
0
0
0
0
0
0
0
0
0
0
9
0
11
0
13
0
15
0
0
0
0
20
0
0
0
0
25
0
0
0
0
0
0
0
0
0
0
0
37
38
0
0
41
0
0
0
45
46
0
48
0
0
0
52
53
0
0
0
57
58
0
0
0
0
0
0
65
0
67
0
69
70
0
0
0
74
0
0
77
0
0
80
0
0
83
0
0
0
0
88
0
0
0
0
0
94
0
0
97
0
0
100
0
0
0
0
0
0
0
0
0
110
0
0
0
0
0
0
117
0
0
0
0
0
0
0
0
0
127
0
0
0
0
0
0
134
0
136
0
0
0
0
0
0
0
0
0
146
0
0
0
0
151
0
0
0
155
0
157
0
159
0
0
0
0
0
0
166
0
0
0
0
0
0
0
0
0
176
0
178
179
180
0
0
0
0
0
0
187
0
0
190
0
0
0
194
195
196
0
0
0
0
0
0
0
0
205
0
0
0
0
0
0
212
0
214
0
216
0
0
0
0
0
0
0
0
0
0
0
228
0
0
0
0
233
234
235
236
0
0
239
0
0
0
0
0
0
0
0
0
0
0
0
0
253
0
0
256
0
0
0
0
261
0
263
0
0
266
0
0
269
270
0
0
0
0
275
276
277
0
279
0
0
0
283
0
285
0
0
0
0
290
291
0
0
0
0
0
0
298
299
0
0
0
0
0
0
0
0
0
309
0
0
0
313
0
0
0
317
0
0
0
321
0
0
0
325
0
0
328
329
0
0
0
0
0
335
0
0
0
0
0
0
0
0
0
0
0
0
0
0
0
351
0
0
354
0
0
0
358
0
0
0
0
0
364
365
0
0
0
0
370
0
372
0
0
0
376
377
0
0
0
381
0
0
384
385
0
387
388
389
0
0
392
393
0
0
0
0
398
399
0
401
0
0
0
405
0
407
0
0
0
411
0
0
414
0
416
0
418
0
0
0
0
0
424
0
0
0
0
429
430
0
432
0
434
0
0
0
438
439
0
0
0
443
0
0
0
0
0
0
0
451
0
0
0
0
456
0
0
0
0
461
0
0
464
0
0
0
0
469
470
0
0
0
474
0
476
0
0
0
480
0
0
0
0
0
486
0
0
0
0
0
0
0
0
0
0
0
0
0
500
0
0
503
0
0
0
0
0
0
0
0
0
0
514
0
0
0
0
519
0
0
0
0
0
0
526
0
0
0
530
531
0
533
534
0
0
0
0
0
0
0
542
543
0
0
0
0
548
0
0
0
0
0
0
0
0
0
0
0
560
561
0
0
0
565
0
0
0
0
0
0
572
0
0
0
0
577
578
0
0
0
0
0
0
0
0
0
0
0
590
0
0
0
594
0
0
0
598
0
0
0
602
0
604
0
606
0
0
0
0
0
0
0
0
0
0
617
618
619
0
0
0
0
624
0
0
0
628
0
0
0
632
0
0
635
0
0
0
0
0
0
0
0
0
0
646
0
648
649
0
0
0
653
0
655
0
657
0
0
660
0
0
0
0
0
0
0
0
669
0
0
0
0
0
0
0
0
0
0
0
0
682
0
0
685
0
0
0
0
0
691
0
0
0
0
0
697
0
0
0
0
0
703
704
0
0
0
0
0
0
0
712
713
0
715
716
0
0
0
0
721
0
0
0
725
0
0
728
729
730
0
0
733
0
0
736
737
0
739
0
0
0
743
0
0
0
0
0
749
0
0
0
0
0
0
0
757
0
0
0
0
0
0
764
0
0
0
0
0
0
0
0
773
0
0
776
0
0
779
0
0
0
0
0
0
4
0
0
7
0
0
0
0
0
0
0
15
0
0
0
0
0
0
22
0
0
25
0
27
0
0
30
31
0
0
34
0
0
37
38
0
40
0
0
0
0
0
46
47
0
49
0
0
52
0
0
0
56
57
58
59
0
0
0
0
0
0
0
67
0
0
0
71
0
0
0
0
0
0
78
0
0
0
0
0
0
0
0
0
88
0
0
0
0
0
94
0
0
0
0
99
0
0
0
103
0
0
0
0
0
0
110
111
0
0
0
0
0
0
0
0
120
121
0
0
0
0
0
127
128
129
0
131
0
0
0
0
0
0
0
139
0
0
0
0
0
0
146
147
0
0
0
151
0
153
154
0
156
0
0
0
160
0
0
0
0
0
0
0
0
0
170
0
0
0
0
175
0
0
178
0
180
0
0
0
184
185
0
0
0
0
0
0
0
0
0
0
0
0
0
199
0
201
0
0
0
0
206
0
0
0
0
0
0
213
0
0
216
0
0
0
0
0
222
0
0
0
0
0
0
0
230
0
0
0
234
0
236
0
0
0
0
0
0
0
0
0
0
0
248
249
0
0
252
0
0
0
0
0
0
0
260
0
0
0
264
0
266
0
0
0
0
0
0
0
0
0
0
0
0
0
0
0
0
0
0
285
0
0
0
0
0
0
0
0
294
0
0
0
0
0
0
0
302
0
0
305
0
0
0
309
0
0
312
0
0
0
316
0
318
0
320
321
0
323
0
325
0
0
328
0
0
0
0
0
0
0
0
0
338
0
0
0
0
343
0
345
0
0
348
0
0
0
0
353
0
0
0
0
0
0
360
0
0
363
364
365
0
367
0
369
0
0
0
0
0
0
0
0
0
379
0
381
0
383
0
0
386
0
0
0
390
0
0
0
0
0
0
0
0
399
400
401
402
403
0
0
0
0
0
0
0
0
0
0
414
415
0
0
0
419
0
0
422
0
0
0
426
0
0
429
0
0
0
0
434
435
0
0
0
439
0
0
0
0
444
0
0
0
0
0
450
0
0
0
0
0
0
0
0
0
0
0
462
463
0
0
466
0
468
469
0
0
472
0
0
0
0
0
0
0
0
481
0
0
484
0
486
0
0
0
0
0
492
0
0
0
0
0
0
0
0
501
0
503
0
0
0
0
0
0
0
511
0
0
0
515
0
517
518
0
0
521
522
0
0
0
0
0
0
529
530
0
0
0
0
0
0
537
0
0
0
0
0
0
0
0
0
0
0
549
550
0
0
0
0
0
0
0
0
0
0
0
562
0
0
565
0
0
568
0
0
0
0
0
0
0
0
577
578
0
0
0
0
0
0
0
0
587
0
0
590
0
592
0
0
0
596
0
0
0
0
0
0
0
0
0
606
0
0
0
0
611
0
0
0
0
0
0
0
619
0
0
622
0
0
0
0
0
0
629
0
0
0
633
0
0
636
0
638
0
0
0
0
0
644
0
0
0
648
0
0
0
0
653
654
655
656
0
0
0
0
0
0
663
0
0
666
0
668
0
670
0
0
0
674
0
0
0
0
0
0
0
0
0
0
0
0
0
0
0
0
0
692
0
0
0
0
0
0
0
0
701
0
0
0
0
0
0
0
0
0
0
0
0
714
715
0
0
718
0
720
721
722
0
0
0
0
0
0
0
0
0
0
733
734
735
736
0
0
0
0
0
0
0
0
745
0
747
0
0
0
0
0
0
0
0
0
0
0
0
0
0
0
0
0
0
0
0
0
0
0
0
0
0
774
0
0
0
778
0
0
781
782
0
EOF
