DIMENSION : 783
NUMBER OF ITEMS : 782

TOUR_SECTION
1
17
23
2
7
18
12
9
33
29
10
3
5
19
30
8
20
31
36
59
61
68
86
82
72
92
103
93
69
78
90
104
113
96
91
73
60
55
44
51
42
54
62
50
35
22
14
32
16
21
26
27
24
28
34
4
11
13
6
40
38
43
66
75
87
84
79
101
106
109
114
135
134
149
142
122
119
145
148
168
170
194
181
177
171
193
199
218
214
223
207
192
178
174
166
158
131
132
141
130
129
154
167
159
150
144
124
121
126
118
138
128
140
116
112
108
105
102
99
85
71
64
48
39
63
74
77
89
95
98
76
94
83
65
58
53
47
46
41
67
81
70
80
100
107
111
120
133
137
143
152
161
187
204
202
208
224
240
232
233
225
217
206
190
200
198
179
176
163
169
157
164
165
173
182
209
211
212
219
253
251
262
275
257
237
226
221
213
210
201
183
188
197
191
189
203
220
228
229
244
260
263
271
272
241
252
245
261
247
238
234
254
285
280
265
264
279
284
298
309
296
297
304
314
315
329
341
355
357
367
394
406
404
413
399
396
374
369
379
378
398
412
427
421
428
442
444
462
461
471
481
479
490
504
503
510
523
516
555
550
538
546
549
545
532
544
537
528
525
509
502
498
478
468
454
451
447
440
450
465
475
488
493
514
520
524
522
527
543
542
541
556
535
536
521
505
507
501
500
491
483
477
473
460
449
456
457
467
469
470
464
476
494
496
497
487
489
480
474
459
446
432
416
402
400
414
415
403
388
385
368
373
383
364
381
386
380
375
391
372
370
377
376
393
408
409
410
419
417
411
418
434
437
448
441
435
431
439
420
424
430
426
433
422
405
392
389
397
382
387
390
401
407
425
443
438
455
463
486
492
508
512
517
506
530
534
551
554
562
579
569
561
539
540
547
531
518
519
495
513
515
529
552
557
578
566
563
564
587
603
609
607
617
628
621
622
636
630
633
631
639
618
610
589
605
614
601
600
591
584
577
570
565
558
575
571
572
553
559
573
581
593
606
604
615
629
632
642
650
662
654
653
646
651
666
669
661
684
699
695
686
710
689
700
701
693
673
664
667
668
674
676
670
647
637
616
608
595
592
582
567
574
583
585
602
620
623
625
635
643
663
656
658
677
682
687
696
703
694
702
708
716
724
742
752
756
764
751
728
715
717
714
711
712
729
744
753
767
771
775
783
782
781
780
770
763
746
741
723
730
731
727
750
749
762
766
774
773
777
779
768
757
759
776
758
760
765
772
761
778
769
747
738
734
725
704
697
683
672
665
659
652
648
645
655
660
675
680
690
706
685
679
671
678
688
709
705
718
735
745
736
732
743
739
722
733
737
754
755
748
740
726
721
720
719
707
713
698
691
692
681
657
649
644
641
634
627
612
613
619
588
599
590
598
597
586
580
594
611
626
638
640
624
596
576
568
560
548
533
526
511
499
472
482
484
485
466
458
453
452
445
436
429
423
395
384
363
352
359
356
343
328
344
358
366
371
365
353
346
339
325
323
319
327
335
317
294
302
313
305
289
266
270
277
276
278
273
274
286
299
291
306
293
290
300
307
316
332
350
347
345
333
321
322
330
336
360
354
351
348
340
338
337
349
361
362
342
331
334
324
320
308
310
288
283
282
287
301
312
318
326
311
295
303
292
281
269
250
259
258
268
267
256
243
249
248
227
222
231
230
255
246
239
236
242
235
215
216
185
172
180
186
205
195
196
184
162
156
151
136
127
153
175
160
155
147
139
146
125
117
123
115
110
97
88
56
49
52
57
45
37
25
15

PP_SECTION
0
3
0
5
6
7
0
0
10
0
12
0
14
15
0
0
0
0
20
0
0
0
0
25
26
27
0
29
0
0
32
33
0
0
36
37
38
39
0
41
0
0
44
45
46
47
48
49
0
51
52
53
0
0
56
57
0
59
0
61
62
63
0
65
0
67
68
69
70
71
72
0
0
0
0
77
0
0
80
81
82
83
0
85
0
87
88
0
90
91
92
93
94
95
96
97
0
99
100
0
102
0
0
0
0
0
108
0
110
0
0
113
114
115
0
117
0
119
120
121
122
123
124
125
0
0
0
129
130
131
132
0
134
135
136
0
0
139
140
0
142
143
0
0
146
147
148
0
0
151
0
153
0
155
156
157
158
159
160
0
0
163
164
0
166
0
168
0
170
171
0
173
0
175
0
0
178
0
180
0
0
0
184
185
0
0
188
189
190
191
192
0
194
195
0
197
198
0
0
201
202
203
204
205
0
0
208
0
0
0
212
213
214
215
216
217
218
0
0
0
222
223
0
0
226
227
0
0
230
231
232
0
234
235
236
0
238
239
240
0
242
243
244
245
246
0
248
249
250
0
252
0
254
255
256
257
258
259
0
261
0
0
264
265
266
267
268
269
270
0
0
273
0
275
276
0
278
279
0
281
282
283
284
0
286
287
288
289
290
0
292
293
294
295
296
297
0
299
300
301
302
303
304
305
0
307
308
309
310
311
312
313
314
315
316
0
318
0
320
321
322
323
324
325
0
0
0
329
330
331
332
333
334
335
336
337
338
0
340
341
342
343
344
0
346
347
348
349
350
0
352
353
0
355
356
0
0
359
360
361
362
363
0
365
366
367
0
0
370
371
0
373
0
0
376
0
378
379
380
0
0
383
0
385
0
0
388
389
390
391
392
393
394
395
0
0
0
0
0
0
0
403
0
405
0
407
408
0
0
0
0
413
0
0
416
417
0
419
420
421
422
423
0
425
426
427
0
429
430
431
0
433
434
435
436
437
0
439
440
441
0
443
444
0
446
447
448
449
0
0
452
453
454
455
456
457
458
459
0
0
0
463
0
0
466
467
468
0
0
471
472
0
474
0
476
477
0
0
0
481
482
483
484
485
486
0
488
489
0
491
0
0
494
0
0
497
0
499
500
0
0
0
0
0
506
507
508
0
0
511
0
513
0
515
0
0
0
519
0
521
522
0
0
0
526
0
528
529
530
531
532
533
534
535
536
537
0
539
540
541
0
543
0
0
0
547
0
549
550
551
552
0
554
555
0
557
0
559
560
561
562
0
0
565
566
0
568
569
570
571
0
573
0
575
0
0
0
0
580
581
582
583
0
585
586
0
0
589
0
0
0
593
594
0
596
597
598
0
600
601
602
603
604
605
606
607
608
609
610
611
612
613
0
0
0
0
618
619
0
621
622
623
624
625
626
627
0
629
630
631
632
0
634
635
636
637
638
639
640
641
0
643
644
0
646
0
0
649
650
651
652
0
654
655
656
0
658
659
660
661
662
663
664
665
0
667
0
0
0
0
672
673
674
0
0
677
678
679
680
681
682
0
684
685
686
687
688
689
690
691
0
693
694
695
0
697
698
0
0
0
0
0
704
705
706
707
0
0
0
711
712
0
0
715
0
0
718
719
720
721
0
723
724
725
726
727
0
729
730
731
732
733
734
735
736
0
0
739
740
0
742
0
744
745
746
747
748
749
0
751
752
753
0
755
756
0
758
759
760
761
0
0
764
765
766
0
768
769
770
771
772
773
774
775
776
0
0
779
780
781
782
783
EOF
