DIMENSION : 783
NUMBER OF ITEMS : 7820

TOUR_SECTION
1
17
23
2
7
18
12
9
33
29
10
3
5
19
30
8
20
36
31
35
22
14
32
26
16
21
27
24
28
34
4
11
13
6
40
38
43
66
75
87
84
79
101
106
109
114
122
142
149
134
135
171
193
199
194
181
177
170
168
148
145
119
113
104
91
96
73
60
55
44
69
78
90
93
103
92
72
51
42
54
62
50
59
61
68
82
86
99
85
71
64
48
39
63
76
98
95
89
74
77
102
105
108
112
116
140
128
138
118
126
121
124
144
150
159
167
154
129
130
141
132
131
158
166
174
178
192
207
223
214
218
234
254
285
280
265
264
238
247
245
241
252
261
279
284
298
309
296
297
304
314
315
329
341
355
357
367
394
404
406
413
399
396
374
369
379
378
398
412
427
421
428
442
451
454
447
440
450
465
475
488
493
489
480
474
487
497
496
494
476
464
470
469
467
477
483
491
500
501
507
505
521
542
541
536
535
556
577
570
565
558
575
571
572
573
559
553
543
527
522
524
514
520
537
544
528
525
509
502
498
478
468
471
481
479
461
444
462
490
504
516
523
503
510
532
545
549
546
538
550
555
574
567
582
592
595
608
583
585
602
620
623
625
635
643
663
656
658
677
682
687
711
714
712
729
744
753
767
771
775
783
782
751
728
717
715
703
696
694
702
708
716
724
742
752
756
764
781
780
770
763
746
741
723
730
731
727
750
749
762
766
774
773
777
779
768
757
759
776
758
760
765
772
761
778
769
747
738
734
725
704
697
683
672
665
659
652
648
645
655
660
675
680
690
706
685
679
671
678
688
709
705
718
735
745
736
732
743
739
722
733
737
754
755
748
740
726
721
720
719
707
713
698
692
691
681
657
649
661
666
669
684
699
695
686
710
700
701
689
693
673
664
667
668
674
676
670
647
637
616
606
593
581
604
615
629
632
642
650
662
654
653
646
651
636
630
633
631
639
618
610
589
605
614
601
600
584
591
609
622
621
628
617
607
603
587
564
563
566
578
588
599
613
619
641
644
634
627
612
590
598
597
586
594
611
626
638
640
624
596
580
568
576
560
548
533
526
511
499
472
482
484
485
466
458
453
452
445
436
429
423
395
384
363
352
343
359
356
344
328
317
319
327
335
358
366
371
365
376
393
377
370
372
391
411
418
417
419
410
409
408
420
424
430
426
433
422
405
392
389
397
382
387
390
401
407
425
443
438
455
463
486
492
508
512
517
506
530
534
551
554
562
579
569
561
539
531
540
547
557
552
529
515
513
519
518
495
473
460
449
456
457
439
431
435
441
448
434
437
459
446
432
416
402
400
414
415
403
388
385
368
373
383
364
381
386
380
375
360
354
351
348
340
338
337
349
361
362
342
331
334
324
320
308
310
301
287
282
283
288
272
271
263
260
244
229
228
220
203
189
191
197
188
183
201
210
213
221
226
237
257
275
262
251
253
219
212
211
209
182
173
165
164
157
169
163
176
179
198
200
190
206
217
225
233
232
240
224
208
202
187
204
222
227
231
230
248
249
243
256
267
268
258
259
250
269
281
292
303
311
295
312
318
326
336
330
322
321
333
345
347
350
346
353
339
323
325
332
316
307
300
290
293
306
291
299
286
274
273
278
294
302
313
305
289
266
270
277
276
255
246
239
236
242
235
215
216
185
172
180
186
205
195
196
184
175
160
155
147
139
146
125
117
123
110
115
127
153
136
151
156
162
161
152
143
137
133
120
111
107
94
83
65
58
53
47
46
41
67
81
70
80
100
97
88
56
49
52
57
45
37
25
15

PP_SECTION
0
3
0
0
0
7
0
0
0
0
0
0
14
15
0
0
0
0
0
0
0
0
0
25
0
0
0
29
0
0
0
0
0
0
0
0
0
39
0
41
0
0
0
45
46
47
0
49
0
51
52
53
0
0
56
57
0
59
0
0
62
63
0
65
0
67
68
69
70
71
0
0
0
0
0
0
0
0
80
81
0
83
0
0
0
0
88
0
90
0
0
93
94
0
0
97
0
0
100
0
0
0
0
0
0
0
108
0
110
0
0
113
0
0
0
117
0
0
120
0
0
123
0
125
0
0
0
0
0
131
0
133
0
0
136
137
0
0
0
0
0
143
0
0
146
147
148
0
0
151
152
0
0
155
156
157
0
0
160
0
0
163
164
0
0
0
0
0
0
0
0
173
0
175
0
0
0
0
180
0
0
0
184
185
0
0
188
189
190
191
0
0
0
195
0
197
198
0
0
201
202
203
204
205
0
0
208
0
0
0
212
213
0
215
216
217
0
0
0
0
222
223
0
0
226
227
0
0
230
231
232
0
0
235
236
0
0
239
240
0
242
243
244
0
246
0
0
249
250
0
252
0
0
0
0
257
0
259
0
0
0
0
0
265
266
267
268
269
270
0
0
273
0
275
0
0
278
279
0
0
282
0
284
0
286
287
288
289
290
0
292
293
294
295
0
0
0
299
300
0
302
0
0
0
0
0
308
0
310
311
312
313
314
0
0
0
318
0
320
321
322
0
0
325
0
0
0
329
330
0
332
333
334
0
0
337
0
0
340
0
342
0
344
0
346
347
348
349
350
0
352
353
0
0
0
0
0
0
360
361
362
0
0
365
0
0
0
0
370
0
0
373
0
0
376
0
0
0
380
0
0
383
0
385
0
0
388
0
0
391
392
393
394
395
0
0
0
0
0
0
0
403
0
405
0
407
0
0
0
0
0
0
0
0
416
417
0
419
420
0
0
0
0
425
426
0
0
429
430
431
0
433
0
0
436
0
0
439
0
441
0
0
0
0
446
447
448
449
0
0
0
0
0
455
456
457
0
459
0
0
0
0
0
0
466
0
0
0
0
0
0
0
0
0
0
0
0
0
0
0
482
0
484
485
486
0
0
0
0
0
0
0
0
0
0
497
0
499
0
0
0
0
0
0
506
0
508
0
0
0
0
513
0
515
0
0
0
519
0
0
0
0
0
0
526
0
0
529
530
531
532
533
534
535
536
0
0
0
540
0
0
543
0
0
0
547
0
0
550
551
0
0
0
0
0
0
0
0
0
0
562
0
0
565
0
0
568
0
570
0
0
573
0
575
0
0
0
0
0
581
0
0
0
585
586
0
0
0
0
0
0
0
0
0
596
597
0
0
600
601
0
603
0
0
0
0
0
0
610
611
612
0
0
0
0
0
0
619
0
621
622
0
0
0
626
627
0
0
630
0
0
0
0
635
636
637
0
0
0
641
0
0
644
0
646
0
0
649
650
651
0
0
654
655
656
0
0
0
660
0
662
663
664
0
0
667
0
0
0
0
0
0
0
0
0
0
678
679
680
681
0
0
0
0
686
687
0
0
0
0
0
693
694
0
0
697
698
0
0
0
0
0
0
705
0
707
0
0
0
0
712
0
0
0
0
0
0
0
0
721
0
0
0
725
726
0
0
0
730
0
732
733
0
735
736
0
0
0
740
0
0
0
744
0
0
0
748
0
0
0
752
0
0
0
0
0
758
759
760
0
0
0
0
765
766
0
768
769
770
771
0
0
774
0
0
0
0
0
780
0
0
0
0
0
4
0
0
0
8
0
0
0
12
0
0
15
0
17
0
0
0
21
0
0
0
0
0
27
0
0
30
0
0
0
0
0
36
37
0
0
40
41
42
0
0
45
0
0
0
49
0
0
52
53
0
0
0
57
58
0
0
0
0
0
0
65
0
0
0
0
70
71
0
0
0
0
0
77
0
0
80
81
0
83
0
0
86
0
88
0
90
0
0
0
0
0
0
97
0
0
100
0
0
103
0
105
0
107
0
0
110
111
112
0
0
115
0
117
0
0
0
0
0
123
124
125
0
127
0
129
130
0
0
133
134
0
136
137
0
139
0
0
142
143
0
0
0
147
0
0
0
151
152
153
0
155
156
0
158
0
160
161
162
0
164
165
0
0
0
169
0
0
172
0
0
175
0
0
178
0
0
0
182
183
0
185
186
0
188
189
190
0
0
0
0
195
196
197
0
0
200
201
0
203
0
205
206
0
208
0
0
0
0
213
0
215
0
217
0
219
220
0
0
0
0
225
226
0
228
0
0
0
232
233
0
0
236
237
0
239
240
241
0
0
0
0
246
0
248
249
250
251
0
0
0
0
0
257
258
259
0
0
262
0
0
0
266
0
0
269
270
271
0
273
274
275
276
277
0
0
0
281
0
283
0
0
286
287
288
289
290
291
292
293
294
0
0
0
0
299
300
0
302
303
304
305
306
0
0
0
310
0
0
313
0
315
0
0
0
319
0
321
0
0
0
325
326
0
0
0
330
0
332
333
334
335
0
0
0
0
0
341
0
0
344
0
346
0
348
349
350
351
352
353
0
355
356
0
0
359
360
361
0
363
0
0
0
0
368
0
0
0
0
373
0
0
376
0
378
0
0
381
382
0
384
385
386
387
0
0
390
0
392
0
0
0
0
0
0
0
400
0
0
403
0
405
0
0
0
0
410
411
0
0
414
415
0
417
418
0
420
0
422
0
0
425
0
0
0
0
0
431
0
433
0
0
436
0
438
0
0
441
0
443
0
0
446
447
0
0
0
451
452
0
0
0
456
0
0
459
460
461
0
0
0
0
0
0
468
0
0
0
0
473
0
0
0
0
0
0
0
0
0
483
0
485
0
0
0
0
0
0
492
0
0
495
0
497
0
0
500
0
0
0
0
0
506
0
0
0
0
0
0
513
0
515
0
0
0
519
0
521
0
0
0
0
0
0
528
0
0
0
532
0
534
535
536
0
0
0
0
0
542
543
0
0
0
547
0
549
0
0
0
0
0
555
556
557
0
0
0
0
0
0
564
565
0
0
0
0
0
571
0
0
0
0
0
0
0
579
0
0
582
0
0
0
0
0
588
0
0
0
592
0
0
0
596
597
598
599
600
0
602
0
0
605
0
0
0
0
610
611
0
0
614
615
0
0
0
0
0
0
0
0
0
625
0
0
628
629
630
0
632
0
634
0
636
0
638
0
640
641
0
0
0
645
0
0
648
0
0
651
652
653
0
0
656
0
0
0
660
661
0
663
664
0
0
0
0
669
670
671
672
0
0
0
676
0
0
0
0
0
0
0
0
685
686
0
688
689
0
0
692
0
0
0
0
0
698
699
0
701
0
703
0
705
0
0
0
0
710
0
712
0
0
715
716
717
0
0
0
721
722
0
0
725
726
727
728
729
0
0
0
0
0
0
0
0
0
739
0
0
0
0
744
0
0
747
748
0
0
751
0
0
0
0
0
757
758
0
0
0
762
0
764
0
766
767
768
769
0
0
0
0
0
0
0
777
0
0
0
781
0
0
0
0
0
0
0
0
0
0
0
0
0
0
0
15
0
0
0
19
0
0
0
0
24
25
0
0
0
0
0
0
0
0
0
35
0
37
0
39
0
41
42
0
0
45
46
47
0
49
0
0
52
53
0
55
0
57
0
0
0
0
0
63
0
65
0
0
0
0
70
0
0
0
74
0
0
0
0
0
80
81
0
83
0
0
0
87
0
0
0
0
0
0
94
0
96
97
0
0
100
0
0
0
0
0
106
107
0
0
110
0
0
0
0
115
0
117
0
0
120
0
122
0
0
125
0
127
0
0
130
0
132
133
0
0
136
137
0
0
140
0
0
143
144
0
146
147
148
0
150
151
152
0
0
155
156
157
0
0
160
161
162
0
0
0
0
0
0
169
170
0
172
173
174
175
0
0
0
0
180
0
182
183
184
185
186
0
188
0
190
191
0
0
0
195
196
197
0
0
0
201
202
203
0
205
0
0
0
0
210
211
0
213
0
215
216
0
0
0
0
0
0
0
224
0
0
227
0
0
0
0
0
0
0
235
236
0
0
0
0
0
242
0
0
0
246
0
248
0
250
251
0
0
0
255
256
0
258
259
260
0
262
263
0
265
266
0
268
0
270
0
272
273
0
275
276
277
278
0
0
281
0
283
0
285
0
287
0
289
0
291
0
0
0
295
0
0
0
0
300
301
302
303
304
305
0
307
308
0
0
311
312
313
0
0
316
317
0
0
320
321
322
323
324
325
326
0
328
0
330
331
332
333
334
0
336
337
338
0
340
341
342
343
344
0
346
0
0
349
350
351
0
353
354
0
0
357
0
0
360
361
0
0
0
0
0
0
0
0
0
0
372
0
0
375
0
0
378
0
0
381
0
383
0
385
386
387
388
389
0
391
392
393
0
395
0
397
0
0
400
0
402
0
0
0
0
407
0
0
0
411
0
413
414
0
0
0
0
0
420
0
0
423
0
425
0
427
0
0
430
0
0
0
0
0
436
437
438
439
0
441
0
0
0
445
0
0
448
449
0
0
452
453
0
455
0
0
458
459
460
0
0
463
0
0
0
0
468
469
470
0
0
0
0
0
0
0
0
0
0
0
0
0
484
0
486
487
0
0
490
0
0
0
0
495
0
0
0
499
0
0
0
0
0
0
506
507
508
0
0
0
0
513
0
0
0
0
518
519
0
521
0
523
0
0
0
0
0
529
530
0
532
533
0
535
0
0
0
0
0
0
0
0
544
0
0
547
0
0
0
0
0
553
0
0
0
557
0
0
560
0
562
0
0
0
566
0
0
0
570
0
0
0
0
0
0
0
0
0
580
0
0
0
584
0
0
0
588
0
0
0
0
593
0
0
0
597
0
0
600
601
0
603
0
605
0
0
608
0
610
0
0
613
614
0
616
617
618
0
0
621
622
0
624
0
0
0
628
0
630
0
0
0
634
0
0
0
638
0
640
0
0
0
644
645
0
0
0
0
0
0
652
653
0
0
0
0
0
0
0
0
0
0
664
0
0
667
668
0
0
0
0
0
674
675
676
0
0
0
0
681
682
683
0
0
686
0
688
0
690
0
0
0
0
0
0
697
698
699
0
0
0
703
704
0
0
0
0
0
0
0
0
0
0
0
0
0
0
0
0
721
722
0
0
725
726
0
0
0
0
0
0
0
0
0
736
737
0
0
0
0
0
743
0
0
0
747
748
0
750
0
0
0
754
0
0
757
0
759
0
0
0
0
764
0
766
767
0
0
0
771
0
773
774
0
776
777
0
0
780
0
0
0
0
0
0
0
0
0
8
0
0
0
12
0
0
15
16
17
18
0
0
0
0
23
0
25
0
0
0
0
0
0
0
0
0
0
0
37
0
39
0
0
0
0
44
45
46
47
0
49
0
0
0
0
54
0
56
0
58
0
60
0
0
0
64
0
0
67
0
0
70
71
72
0
0
75
0
0
0
0
80
81
0
83
0
0
0
0
0
0
0
0
0
0
94
0
0
97
0
99
100
0
102
0
104
0
106
107
0
0
110
111
0
0
0
115
0
0
0
0
120
121
0
123
0
125
0
127
0
0
130
0
0
133
0
0
136
137
0
139
0
0
0
143
0
0
0
147
0
149
150
151
152
153
0
155
156
0
0
0
160
161
162
163
0
0
0
0
0
169
0
0
172
0
174
175
0
0
0
0
0
0
182
183
184
185
186
0
0
0
0
191
192
0
0
195
0
197
198
0
200
0
0
203
0
205
206
0
208
209
0
211
0
213
0
215
0
217
0
219
220
221
222
0
0
225
226
227
0
229
230
231
232
0
0
0
0
0
0
0
240
0
242
243
244
245
246
0
0
249
0
0
0
0
0
255
0
257
258
259
260
0
0
0
0
0
266
267
268
0
0
271
272
0
274
0
0
0
278
0
0
281
282
0
0
0
0
287
288
289
0
0
0
293
294
295
0
0
0
0
0
301
302
303
304
305
306
0
0
0
310
0
312
0
0
0
316
0
318
319
320
0
0
323
0
0
326
0
0
0
330
331
0
333
0
0
336
0
0
339
0
341
0
343
0
0
346
347
0
349
350
0
352
353
0
0
0
0
0
0
360
361
0
363
0
0
0
0
368
0
0
371
0
0
0
375
0
0
0
379
380
0
382
383
0
0
386
0
0
0
390
391
0
0
394
395
0
0
0
0
0
0
402
403
0
0
0
0
408
0
0
0
412
0
0
415
0
417
0
419
420
0
422
423
0
425
0
0
0
0
0
431
0
0
434
435
436
437
0
0
0
441
0
0
0
445
446
447
448
0
450
0
452
0
0
455
0
457
458
459
0
0
462
463
0
0
0
467
468
0
0
471
472
473
0
0
0
0
0
0
0
0
482
0
0
485
0
487
0
0
0
0
0
493
494
495
0
497
0
0
0
0
502
0
0
505
506
0
0
509
0
0
512
513
0
515
516
0
518
0
520
0
0
523
0
0
0
0
528
0
0
0
532
0
0
0
0
0
0
539
540
0
0
0
544
0
0
547
0
0
0
551
552
0
554
555
556
557
558
559
0
0
0
0
564
0
0
0
0
0
570
571
0
0
574
0
576
0
0
0
580
581
582
0
0
585
586
0
0
0
0
0
0
0
0
0
596
0
0
0
0
601
0
0
0
605
0
0
0
0
610
611
612
0
0
615
0
0
0
0
0
621
0
0
0
625
626
627
0
0
630
0
0
0
0
0
0
637
0
639
0
641
642
0
644
645
0
647
0
0
650
651
0
0
0
0
0
0
0
0
0
0
662
663
0
0
666
0
0
0
0
0
672
0
0
0
0
0
678
0
680
681
0
683
0
0
686
0
0
689
0
0
0
0
0
0
0
0
698
0
0
0
0
0
0
705
706
0
708
0
0
0
0
0
0
0
0
717
718
719
720
0
0
0
0
0
726
727
0
0
0
0
0
0
734
0
0
0
0
0
740
741
0
0
0
0
746
747
0
0
750
0
0
753
754
0
0
0
0
0
760
761
762
0
0
0
766
767
0
0
770
0
772
0
0
0
0
777
0
0
0
781
0
783
0
0
0
0
0
0
0
0
0
0
0
0
0
15
0
0
0
0
20
0
0
0
24
25
0
0
0
0
0
0
0
0
0
35
36
37
0
0
0
41
42
0
44
45
46
47
0
49
0
51
52
53
0
0
56
57
0
0
0
0
0
63
0
65
0
0
0
0
70
0
0
0
0
0
76
0
0
0
80
81
0
83
0
85
0
87
88
0
0
0
92
0
94
0
0
97
0
0
100
101
0
0
0
0
106
107
0
109
0
111
0
0
0
115
0
117
0
0
120
0
0
123
0
125
0
127
0
0
0
0
132
133
0
0
136
137
0
0
140
0
0
143
144
145
146
0
0
149
150
151
152
0
0
155
156
157
0
0
160
0
162
163
164
165
0
0
168
169
0
171
172
173
0
175
176
0
0
179
0
0
0
183
184
0
186
0
188
189
190
191
0
0
0
195
196
0
198
0
200
0
0
0
204
205
0
0
0
0
210
211
212
0
0
215
0
0
218
219
0
221
0
223
0
0
0
0
228
229
0
231
0
233
0
235
0
0
238
239
240
0
242
0
244
0
246
0
0
0
0
0
0
253
0
255
256
257
0
259
0
0
0
0
0
0
0
267
0
0
270
271
0
273
274
0
276
277
278
0
0
281
0
283
0
0
286
287
288
289
290
291
292
293
294
295
296
0
0
299
300
301
0
0
0
0
306
307
0
0
0
311
0
313
0
315
0
317
0
319
0
0
0
0
0
0
326
0
0
0
330
331
332
333
334
335
336
337
0
0
340
341
342
0
0
0
346
347
0
349
350
0
352
0
354
355
356
0
358
0
0
361
362
0
0
0
366
0
0
0
370
371
372
373
0
375
0
377
0
0
380
0
382
0
384
0
0
387
0
0
0
0
392
393
0
395
0
397
0
0
0
0
0
0
0
0
0
0
408
409
0
0
412
0
414
0
416
417
418
0
420
0
0
0
0
425
0
0
0
0
0
431
0
0
0
0
436
437
438
0
440
441
0
443
0
0
0
447
0
449
0
0
452
453
454
455
0
457
0
459
460
0
0
0
0
0
0
0
0
0
0
0
0
0
474
0
476
477
0
0
0
0
0
0
0
0
0
0
0
489
0
0
0
0
0
0
0
0
498
499
500
0
0
0
504
0
0
507
0
0
0
0
512
0
0
0
516
0
0
519
520
0
0
0
0
525
526
527
528
0
0
0
532
533
0
0
0
0
538
539
0
0
0
543
0
0
0
0
0
0
0
551
0
0
0
0
0
557
0
0
560
561
0
563
564
0
0
567
0
569
0
571
572
573
574
0
576
0
0
0
0
0
0
0
0
0
0
0
588
0
0
591
0
593
594
0
0
597
598
599
0
601
0
603
0
605
0
0
0
609
0
0
0
0
614
615
616
0
618
0
0
621
0
623
0
625
626
0
0
0
630
631
0
0
0
635
0
637
0
0
640
641
642
0
0
645
0
647
0
0
650
0
0
0
0
0
0
0
658
659
660
661
662
0
664
0
0
0
0
0
0
671
0
673
0
0
0
0
0
679
0
681
0
683
0
0
686
687
0
689
0
0
0
693
694
0
696
0
698
0
0
0
0
0
0
705
706
707
708
0
0
711
0
0
0
0
0
0
0
0
0
0
0
0
0
725
0
0
0
729
0
0
0
0
0
0
0
0
738
739
740
0
742
743
0
0
0
0
748
0
0
751
0
753
754
0
0
0
758
0
760
0
762
0
0
0
0
767
0
769
770
771
772
0
0
775
0
0
0
0
780
0
0
783
0
0
0
0
0
0
8
0
10
0
0
13
0
15
0
0
0
0
0
0
0
0
0
25
0
0
0
0
0
0
0
0
0
0
0
37
0
39
0
0
0
0
0
45
46
0
0
49
0
51
52
53
0
0
56
57
58
59
0
0
62
0
64
0
0
67
0
0
70
71
0
0
0
0
0
0
0
79
80
81
0
83
0
0
0
0
88
0
0
91
0
0
94
0
0
97
0
0
100
0
0
0
104
0
0
107
0
109
110
111
0
0
114
115
0
0
118
119
120
0
0
123
0
125
126
0
0
0
0
131
0
0
0
0
136
0
0
139
0
0
0
143
0
0
146
0
0
0
0
0
152
153
154
155
156
157
0
0
160
161
0
0
0
165
0
0
0
169
170
0
172
173
0
175
176
0
0
0
0
0
182
0
184
185
186
0
0
0
0
191
0
193
0
195
196
197
198
0
0
0
0
0
0
205
206
0
0
0
0
211
212
0
0
0
216
0
0
0
220
221
0
0
224
0
226
0
0
229
230
231
232
233
0
235
236
237
238
0
0
241
242
243
0
0
246
0
248
249
0
0
0
253
0
255
0
257
0
259
0
0
262
263
0
0
266
0
268
269
270
271
0
273
274
275
276
277
0
0
280
281
282
283
0
0
286
0
288
0
0
291
292
0
294
295
0
0
0
299
300
301
0
0
0
305
306
307
308
0
310
311
0
0
0
0
0
317
318
0
320
321
0
323
0
325
326
327
328
0
0
331
0
333
334
335
0
0
0
0
340
0
342
0
344
345
0
347
348
349
350
351
0
0
0
0
0
357
0
359
0
0
362
363
364
365
0
367
368
0
0
0
0
373
0
375
0
377
0
0
0
381
0
0
0
0
0
387
0
389
390
0
392
0
0
395
396
397
0
399
400
0
402
403
0
0
0
0
0
0
0
0
412
0
0
0
416
0
418
419
420
421
422
423
0
0
0
0
0
0
0
431
432
433
0
435
436
437
438
0
0
0
0
443
0
445
0
447
448
449
0
0
0
453
454
455
456
457
458
459
0
0
0
0
0
0
466
467
0
0
0
0
0
0
0
0
0
0
0
0
480
481
482
0
484
0
486
0
0
0
0
0
492
493
0
0
0
0
0
499
0
0
0
0
0
0
0
0
0
509
510
0
0
513
0
0
0
0
0
519
520
0
0
523
0
0
0
0
0
0
0
0
532
0
534
0
536
0
0
0
0
0
0
0
0
0
0
0
0
0
0
0
552
0
0
555
0
0
0
0
560
561
562
0
564
0
0
0
568
0
0
0
0
0
0
0
0
577
578
579
580
0
0
0
584
585
0
0
588
0
590
591
0
0
594
0
596
0
0
0
0
0
0
603
0
0
0
0
0
0
0
611
612
613
614
0
0
0
0
0
0
621
622
0
0
0
0
627
628
0
0
0
0
633
634
0
636
0
638
639
0
0
0
0
0
645
646
0
648
0
0
0
0
653
0
0
0
657
0
0
660
0
0
0
0
0
0
0
668
669
670
671
0
0
674
675
676
677
678
0
0
681
0
0
684
0
686
0
688
0
0
691
692
0
0
0
0
697
0
699
0
0
0
0
0
705
0
707
708
709
710
711
712
0
0
715
0
0
0
719
0
721
0
0
0
0
726
0
0
0
0
0
732
733
734
0
0
0
0
739
0
0
0
0
0
0
746
747
0
0
0
0
0
0
0
755
0
0
0
0
0
0
762
0
764
0
766
767
0
0
770
0
0
0
0
775
0
0
0
0
780
781
0
783
0
0
0
0
0
0
8
0
0
0
0
0
0
15
0
0
0
0
0
0
0
23
24
25
0
0
0
0
0
0
0
0
0
0
0
37
0
0
0
41
0
0
0
45
46
47
48
49
50
51
52
53
0
0
56
57
58
0
0
61
0
0
64
0
0
67
0
0
70
71
72
0
0
0
0
77
0
0
80
81
0
83
0
0
0
0
88
0
0
91
0
0
94
0
0
97
0
0
100
0
0
0
104
0
106
107
0
0
110
111
0
0
0
115
116
0
0
0
0
0
0
123
0
125
0
127
0
0
0
0
0
133
0
0
136
137
0
139
0
0
0
0
0
0
0
147
0
0
0
0
152
153
0
155
0
0
0
0
160
0
162
163
0
165
166
0
0
0
0
0
172
0
0
175
176
0
178
0
180
181
182
0
0
185
186
0
188
0
190
191
192
0
0
195
0
197
198
199
0
0
202
203
204
205
0
0
0
0
210
211
212
213
0
215
0
217
0
219
220
0
222
0
224
0
226
227
228
229
230
231
0
0
0
0
0
237
0
239
0
0
242
243
0
0
246
0
0
249
250
251
0
0
254
255
0
0
258
259
0
0
262
263
0
0
266
267
268
269
270
271
272
273
274
275
276
277
0
279
0
281
0
0
0
0
286
287
288
289
0
291
292
293
294
295
0
0
298
299
0
0
302
0
304
305
306
0
0
0
0
0
0
313
314
0
316
0
318
319
320
0
0
323
324
325
0
0
0
0
330
0
332
0
0
0
336
0
0
339
0
0
342
343
0
0
0
347
0
0
350
351
0
353
0
0
0
0
0
359
0
361
362
363
364
0
0
0
0
0
0
0
0
373
374
375
376
0
0
0
380
0
0
0
384
0
386
387
0
389
0
391
0
393
0
395
0
0
0
0
400
0
0
403
0
405
0
407
0
0
410
411
412
0
0
0
416
0
0
0
420
0
0
423
0
425
0
0
428
429
0
431
0
433
0
0
0
437
438
439
0
0
0
0
0
445
0
447
0
449
0
0
452
0
0
455
456
457
0
459
0
0
0
463
464
0
0
0
0
0
0
471
0
0
0
475
0
0
478
479
480
0
0
0
484
0
0
487
0
0
0
491
0
0
0
0
0
497
0
499
0
0
0
0
0
0
0
0
508
0
0
0
0
0
0
0
516
517
0
0
0
0
522
523
0
0
526
0
0
0
530
531
0
0
534
0
0
0
538
539
0
541
0
0
544
0
0
0
0
0
550
0
552
553
0
0
0
0
558
0
560
561
0
563
0
565
0
567
568
0
0
571
572
0
574
0
0
0
0
579
0
0
0
583
0
0
0
0
0
0
590
591
592
0
0
595
0
0
0
599
600
0
602
0
604
0
606
0
0
0
0
611
612
613
614
0
0
0
0
0
0
0
0
0
0
0
0
0
0
0
0
631
0
633
0
0
636
0
0
0
0
0
642
0
644
645
646
647
0
0
650
0
0
0
0
655
0
0
0
659
0
0
0
663
664
0
666
667
0
669
0
0
672
0
674
675
0
0
0
0
0
0
0
0
0
0
0
0
0
689
0
691
692
0
0
0
0
0
698
699
700
0
0
0
0
0
706
707
0
0
0
0
712
0
0
0
716
0
718
0
0
721
0
723
724
0
0
0
728
0
0
731
0
0
734
0
0
0
0
0
740
0
0
0
0
0
0
747
0
0
0
0
752
0
0
0
0
0
758
0
0
0
0
763
764
765
0
0
0
769
770
0
0
0
0
0
776
0
0
0
0
781
0
0
0
0
0
5
0
0
0
0
0
0
0
0
0
15
0
17
0
0
0
0
0
23
0
25
0
0
0
0
0
0
0
0
0
0
0
37
0
39
0
41
0
0
0
45
0
47
0
49
0
51
0
53
0
0
56
57
58
0
0
0
62
0
0
65
0
67
68
0
70
0
0
0
0
0
0
0
0
0
80
81
0
83
0
0
0
0
88
0
0
91
0
0
94
0
0
97
0
0
100
0
0
0
0
0
0
0
0
0
110
0
0
0
0
115
0
117
0
0
120
0
0
123
124
125
0
0
0
0
0
0
0
133
0
0
136
0
138
0
0
141
142
143
0
0
146
147
148
149
0
151
152
0
154
155
156
157
0
0
160
161
162
0
164
165
0
0
0
0
0
171
172
0
174
175
176
0
0
0
180
0
182
183
0
0
186
0
0
189
190
191
0
0
0
195
196
197
198
0
0
0
0
203
0
0
206
0
208
0
210
211
0
0
0
215
0
0
0
219
220
221
0
0
0
225
0
227
0
0
0
0
0
233
0
0
0
0
0
239
0
241
242
0
244
0
0
0
0
249
250
0
0
0
0
255
0
257
258
259
0
0
262
263
0
0
266
0
268
269
270
271
272
273
274
0
276
277
278
0
0
0
282
0
284
285
286
0
0
289
0
291
292
293
294
0
0
0
0
299
300
0
0
303
304
305
0
0
308
0
310
0
0
313
0
0
316
0
318
0
320
0
322
323
324
325
326
327
328
329
0
331
332
333
334
335
336
337
0
0
340
0
342
0
0
345
0
347
0
0
0
0
0
353
354
355
356
357
0
359
360
361
362
363
0
365
366
367
0
0
0
371
372
373
0
375
376
0
0
0
380
0
0
0
384
385
386
387
388
389
0
391
392
393
394
395
0
397
0
399
400
0
0
403
0
405
0
407
0
0
410
0
0
413
0
0
0
417
0
419
0
0
0
423
0
425
426
427
0
429
0
0
0
0
0
435
436
437
0
0
0
441
0
443
0
0
446
0
448
0
0
0
0
453
0
455
0
0
0
459
460
461
0
463
0
0
466
0
468
0
470
0
472
0
474
0
476
0
0
479
0
0
0
0
0
0
486
487
0
489
0
0
492
0
0
0
0
497
0
0
500
0
0
0
0
505
506
0
0
0
0
511
512
513
514
515
516
0
518
0
0
0
0
523
0
0
0
0
528
0
530
0
0
533
0
0
0
0
0
539
540
0
542
0
0
0
0
0
548
0
0
0
0
553
554
555
0
0
0
559
560
561
0
0
0
0
0
0
0
569
570
0
572
0
0
0
0
0
578
579
0
0
582
583
584
0
0
0
0
0
590
0
0
593
0
0
0
597
0
0
0
601
602
0
0
0
0
607
608
0
0
0
0
0
0
615
616
617
0
0
0
0
0
0
624
0
0
627
0
629
630
0
632
633
634
0
0
0
638
639
0
641
0
0
0
0
646
647
0
0
0
0
0
0
0
655
656
0
0
0
660
661
0
0
664
0
666
0
0
0
670
0
672
0
0
675
0
677
0
0
0
0
0
683
684
0
686
0
688
689
690
0
692
0
694
0
696
0
0
699
700
0
0
0
704
705
0
0
708
0
710
0
0
713
714
715
0
0
0
719
0
721
0
0
0
725
0
0
0
0
0
731
0
0
0
0
736
737
0
0
740
0
742
0
744
745
0
0
0
0
750
0
752
0
0
0
0
0
0
0
760
0
0
0
0
765
0
0
768
0
770
0
0
0
0
0
0
0
0
0
780
0
782
783
0
0
0
5
0
0
0
0
0
0
0
0
0
15
0
0
0
0
0
0
0
0
0
25
26
0
0
0
0
0
0
0
0
35
0
37
0
0
0
41
0
0
0
45
46
47
0
0
0
51
52
53
0
55
56
57
58
59
0
0
0
63
0
65
0
67
0
0
70
0
0
0
0
0
76
0
0
0
80
81
0
0
0
0
86
0
88
0
0
0
0
93
0
0
0
97
0
0
100
0
102
103
0
0
0
107
0
0
110
111
0
0
0
115
0
0
0
0
120
0
0
0
0
125
0
127
128
129
0
0
0
133
134
135
136
0
0
139
0
0
0
0
0
0
146
147
0
0
0
151
152
153
0
155
156
157
0
0
0
161
162
163
164
0
166
0
0
0
0
0
172
0
0
175
176
0
0
0
180
181
182
0
184
185
186
187
188
0
190
0
0
0
0
195
196
197
198
0
200
201
202
203
204
205
0
0
208
0
0
211
0
213
0
215
216
217
0
219
220
221
0
0
224
0
226
227
228
0
230
0
0
0
0
235
236
0
0
239
240
0
242
0
0
245
0
0
248
0
250
251
0
0
0
255
256
0
258
259
0
0
0
263
0
0
266
0
0
0
270
0
272
273
274
0
276
277
0
279
0
0
282
0
0
0
0
287
0
289
290
291
0
293
294
0
0
0
298
299
300
0
302
303
0
305
0
307
0
309
310
0
0
0
0
315
316
0
318
319
320
321
0
0
0
325
0
327
0
329
330
331
332
333
334
335
336
0
0
339
340
0
342
0
344
0
0
347
0
349
0
0
0
353
354
0
0
0
0
359
360
361
0
0
0
0
366
0
0
0
370
0
372
0
0
0
0
0
378
0
380
0
0
0
384
385
386
0
388
0
390
391
0
393
0
0
0
397
0
0
0
0
402
0
0
405
0
0
0
409
0
411
0
0
414
415
0
0
418
0
420
0
422
0
424
0
0
0
0
0
430
0
432
0
434
435
436
437
438
439
440
441
0
0
0
445
446
0
448
0
0
0
0
0
0
455
456
0
0
0
460
0
0
0
0
465
466
0
0
469
0
0
0
0
0
0
0
0
478
0
0
0
0
483
484
485
0
0
0
489
0
0
492
0
0
495
0
0
0
0
0
501
0
0
0
505
506
0
508
0
0
0
512
0
0
515
0
0
518
519
0
0
0
523
0
0
0
0
0
0
530
0
532
533
534
535
0
537
0
0
540
541
0
543
0
0
546
0
548
0
0
551
552
0
554
0
0
0
0
0
0
0
562
0
564
0
0
567
0
569
570
0
0
573
0
0
0
577
578
0
0
0
582
0
0
0
0
0
588
0
0
591
0
0
0
0
0
0
0
0
0
601
602
603
0
0
0
0
608
609
0
0
0
0
614
0
0
0
0
619
0
0
0
0
0
625
626
627
0
0
0
0
632
0
0
635
636
637
638
639
0
641
642
643
644
0
646
0
0
0
0
0
0
653
0
0
0
657
0
0
0
661
662
0
664
0
666
667
668
0
670
0
672
0
0
0
0
677
0
0
680
0
0
0
0
0
0
687
0
689
690
0
692
0
0
695
0
697
698
0
0
0
0
0
0
705
706
0
708
709
0
711
0
0
714
0
716
0
0
719
0
721
722
0
0
0
726
727
0
729
0
731
732
0
734
735
0
0
738
0
0
741
0
0
0
745
746
0
0
0
750
0
752
0
0
0
756
0
0
0
0
0
0
0
0
0
0
0
768
769
770
0
0
0
0
0
0
0
0
779
780
781
782
0
0
0
0
0
0
0
0
0
10
0
12
0
0
15
0
0
0
0
0
0
22
0
0
25
0
27
0
29
0
0
0
0
34
35
0
37
38
0
0
41
0
0
0
45
0
47
0
49
0
0
52
53
0
0
56
57
58
59
0
0
0
0
0
0
0
67
0
0
70
0
0
0
0
0
0
77
0
0
80
81
82
83
0
0
0
0
88
0
0
0
0
0
94
0
0
97
0
0
100
101
0
0
0
0
0
107
0
0
110
111
112
0
114
115
116
117
118
0
120
0
0
0
0
125
0
127
0
0
130
0
0
0
0
0
136
0
0
0
0
0
0
143
0
0
0
147
0
0
150
151
152
0
0
155
0
157
0
0
160
161
0
0
0
0
0
0
168
169
0
0
0
173
174
0
0
177
178
0
180
0
0
183
184
185
186
0
188
0
0
191
0
0
0
195
196
197
198
199
200
201
202
203
204
205
0
0
208
209
0
0
212
0
0
215
216
217
0
219
0
221
222
0
224
0
0
227
0
0
230
231
0
233
0
0
236
237
0
239
0
0
242
0
0
0
0
0
0
249
250
251
0
253
0
255
256
257
258
259
0
0
262
263
0
0
0
267
0
269
270
0
0
273
274
0
276
0
278
0
0
0
282
283
0
285
286
287
288
289
290
291
0
293
294
295
0
297
0
299
0
0
302
303
0
305
306
0
308
0
0
311
0
0
0
315
0
0
318
0
320
321
322
323
0
0
0
327
328
0
330
0
332
0
334
335
336
337
0
0
0
0
342
0
0
345
346
347
348
349
350
351
0
0
0
355
0
0
0
0
360
361
362
0
364
365
366
0
368
0
0
0
372
373
0
375
376
0
378
0
0
381
382
383
384
0
386
0
0
389
0
0
392
0
0
0
396
0
0
0
0
0
402
403
0
405
0
0
408
0
0
0
0
0
414
0
0
0
0
419
420
0
422
0
0
0
426
0
428
429
0
431
0
433
0
0
436
0
438
0
0
441
0
443
0
445
446
447
448
0
0
451
0
453
454
455
0
457
0
459
460
0
0
463
464
465
0
0
0
0
0
0
0
0
0
475
0
477
478
0
0
0
0
0
484
0
0
0
0
0
0
0
0
493
0
0
0
497
0
0
0
0
0
503
0
505
0
0
0
509
0
0
512
513
514
0
516
0
518
0
0
0
0
0
524
0
526
0
0
529
530
531
0
533
0
535
536
537
0
539
0
0
0
0
0
0
0
0
548
549
550
551
0
0
0
0
0
557
0
559
560
0
562
0
0
0
0
567
0
0
0
0
0
0
0
575
0
0
0
0
0
0
0
583
584
0
0
0
0
589
0
591
0
0
0
595
596
0
598
0
600
0
0
0
604
0
0
0
0
609
0
611
612
0
0
0
616
0
0
0
620
0
622
623
0
0
0
627
628
629
0
0
0
633
634
0
0
0
638
0
0
641
642
0
644
0
0
647
0
0
650
0
652
0
0
0
656
0
0
659
660
0
0
0
664
0
0
667
668
0
0
0
0
0
0
675
676
0
0
679
0
0
0
0
0
685
0
0
0
0
0
691
0
0
0
0
0
0
0
0
0
0
0
0
0
0
706
0
708
0
0
0
0
713
0
0
0
0
0
0
0
0
722
0
0
725
0
0
0
0
0
0
0
0
734
735
0
0
0
0
740
741
0
0
0
0
0
0
0
0
0
0
0
0
0
0
0
0
758
0
0
0
0
0
0
765
0
0
0
0
0
0
772
773
0
0
0
777
778
0
0
0
0
0
EOF
