DIMENSION : 159
NUMBER OF ITEMS : 158

TOUR_SECTION
1
3
2
4
5
6
153
152
7
8
9
10
11
12
13
14
15
16
17
18
19
20
21
22
23
24
25
26
27
28
29
30
31
32
33
34
35
37
36
38
39
40
41
42
43
44
45
46
47
48
49
50
51
52
53
54
55
56
57
58
59
60
61
62
63
64
65
66
67
68
69
70
71
72
73
74
75
76
77
78
79
80
81
82
83
84
85
86
97
98
99
100
101
102
103
104
105
106
107
95
96
87
88
94
89
90
91
92
93
108
109
110
111
112
113
114
115
116
117
118
119
120
121
122
123
130
124
129
125
126
127
128
131
132
134
133
135
136
137
138
140
139
141
142
143
144
145
146
149
147
148
150
151
154
155
156
157
158
159

PP_SECTION
2
0
4
0
0
0
8
9
0
0
0
13
0
0
16
0
18
19
0
0
22
0
24
0
0
0
28
0
0
31
0
0
34
0
0
37
0
0
0
0
42
43
0
0
46
0
0
49
0
0
52
0
54
55
0
0
0
0
60
0
0
63
64
0
66
0
0
0
0
0
72
73
74
75
76
0
78
0
0
81
0
0
84
0
0
87
88
89
0
0
0
0
0
95
0
0
98
0
0
101
0
103
104
105
106
107
0
109
0
111
0
0
114
115
116
117
118
119
0
121
0
123
0
125
126
127
0
129
130
0
132
133
0
135
136
137
138
139
0
141
142
143
144
145
146
147
148
149
150
151
0
153
154
155
0
157
158
159
EOF
