DIMENSION : 159
NUMBER OF ITEMS : 790

TOUR_SECTION
1
159
158
157
156
155
154
151
150
148
147
149
146
145
144
143
142
141
139
140
138
137
136
135
133
134
132
131
128
127
126
125
129
124
130
123
122
121
120
119
118
117
116
115
114
113
112
111
110
109
108
93
92
91
90
89
94
88
87
96
95
107
106
105
104
103
102
101
100
99
98
97
86
85
84
83
82
81
80
79
78
77
76
75
74
73
72
71
70
69
68
67
66
65
64
63
62
61
60
59
58
57
56
55
54
53
52
51
50
49
48
47
46
45
44
43
42
41
40
39
38
36
37
35
34
33
32
31
30
29
28
27
26
25
24
23
22
21
20
19
18
17
16
15
14
13
12
11
10
9
8
7
152
153
6
5
4
2
3

PP_SECTION
0
3
4
5
6
7
0
9
10
11
12
13
14
15
0
17
0
0
20
0
0
0
0
25
26
27
28
29
0
0
32
33
0
0
36
0
38
39
0
41
0
0
44
0
0
47
48
0
0
51
0
53
0
0
56
0
0
59
0
61
62
63
0
65
0
67
68
69
70
71
0
0
0
0
0
0
0
0
80
81
0
83
0
0
0
87
0
0
90
0
0
93
94
0
0
0
0
99
100
0
0
0
0
0
0
0
108
0
0
0
0
113
0
0
0
0
0
119
0
0
0
123
0
0
0
0
0
0
0
131
0
0
0
0
0
0
0
0
0
0
0
0
0
0
0
0
148
0
0
0
152
0
0
155
0
0
0
0
2
3
0
5
6
0
8
9
10
11
12
13
0
15
0
17
0
0
20
21
22
23
0
0
26
27
0
0
30
31
32
33
34
0
36
37
0
39
40
0
0
43
44
45
46
0
0
0
50
0
0
0
54
55
56
0
0
59
0
0
0
0
64
65
0
0
68
69
0
0
72
73
74
0
76
0
78
0
0
0
82
0
0
85
86
0
88
0
0
91
0
0
94
0
0
0
0
99
0
101
0
103
0
0
106
107
108
0
0
111
0
0
0
0
0
0
0
0
0
121
0
0
124
0
126
0
0
0
0
0
0
0
134
135
0
0
0
0
0
0
0
0
0
0
0
0
0
0
0
0
152
153
0
155
156
0
0
0
2
3
4
5
6
7
8
9
0
0
0
13
14
15
16
17
18
0
0
21
22
0
24
25
26
27
28
0
0
31
32
33
34
0
36
37
0
39
0
0
0
0
44
45
46
0
0
49
0
51
0
0
54
0
0
57
0
0
60
0
0
0
64
0
0
0
0
69
0
0
0
0
0
75
76
77
78
79
0
0
0
0
0
0
0
87
0
0
0
91
0
0
0
0
0
0
0
0
100
0
0
103
104
105
0
0
0
0
110
0
0
113
114
0
0
117
0
0
120
0
0
0
0
0
0
0
0
0
130
131
132
133
0
0
0
0
0
139
140
141
0
0
0
0
0
0
0
0
150
0
152
153
0
0
0
0
0
0
2
3
4
0
0
7
8
9
10
11
12
0
14
15
0
17
0
0
20
0
0
23
0
25
26
0
0
0
0
0
32
33
34
0
0
37
0
39
0
41
0
0
0
45
0
47
0
0
0
0
52
0
54
55
56
57
58
59
60
61
62
0
0
0
66
0
0
69
0
0
0
73
0
0
76
77
0
0
0
0
0
0
0
0
0
0
88
0
0
91
0
0
94
0
96
0
0
99
0
101
0
0
0
0
0
107
0
0
0
111
112
0
0
0
0
0
0
0
0
0
0
0
0
0
126
0
0
129
0
0
0
0
0
0
0
137
0
0
0
0
0
0
0
145
0
147
0
0
0
0
152
153
0
0
156
0
0
0
2
3
4
5
6
7
8
9
0
11
12
0
14
0
0
17
18
19
20
0
22
23
24
0
26
27
28
29
30
31
32
0
0
35
0
0
0
0
40
0
42
0
0
0
46
47
48
49
50
0
0
53
54
55
0
57
58
0
0
61
62
0
0
65
66
0
0
0
0
0
0
73
0
75
0
0
0
0
80
0
0
0
0
0
0
0
0
89
0
0
0
93
94
0
0
0
98
99
100
0
0
103
104
0
0
0
108
0
0
0
112
0
0
0
0
0
0
0
120
0
0
0
0
0
126
0
128
0
0
0
0
133
0
0
136
0
0
139
0
0
0
0
0
0
0
0
148
0
0
0
0
0
154
0
0
0
158
0
EOF
