DIMENSION : 159
NUMBER OF ITEMS : 790

TOUR_SECTION
1
3
2
4
5
6
153
152
7
8
9
10
11
12
13
14
15
16
17
18
19
20
21
22
23
24
25
26
27
28
29
30
31
32
33
34
35
37
36
38
39
40
41
42
43
44
45
46
47
48
49
50
51
52
53
54
55
56
57
58
59
60
61
62
63
64
65
66
67
68
69
70
71
72
73
74
75
76
77
78
79
80
81
82
83
84
85
86
97
98
99
100
101
102
103
104
105
106
107
95
96
87
88
94
89
90
91
92
93
108
109
110
111
112
113
114
115
116
117
118
119
120
121
122
123
130
124
129
125
126
127
128
131
132
134
133
135
136
137
138
140
139
141
142
143
144
145
146
147
148
149
150
151
154
155
156
157
158
159

PP_SECTION
2
0
4
0
0
0
8
9
0
11
12
13
0
0
16
17
18
19
0
0
22
0
24
25
26
0
28
0
30
31
32
0
34
35
0
37
0
0
0
41
42
43
0
0
46
0
48
49
0
0
52
0
54
55
0
0
58
0
60
61
62
63
64
0
66
67
0
0
70
71
72
73
74
75
76
77
78
0
0
81
0
83
84
0
0
87
88
89
90
0
92
0
94
95
0
97
98
0
100
101
0
103
104
105
106
107
0
109
110
111
112
0
114
115
116
117
118
119
0
121
122
123
0
125
126
127
128
129
130
131
132
133
134
135
136
137
138
139
140
141
142
143
144
145
146
147
148
149
150
151
0
153
154
155
156
157
158
159
0
3
4
0
6
7
8
9
10
11
0
0
14
15
16
17
0
19
0
0
0
23
24
25
0
0
0
29
30
0
32
33
0
35
36
37
38
39
0
41
42
0
0
45
0
0
48
49
0
51
52
53
0
0
0
57
0
0
0
61
62
63
64
0
0
67
68
0
70
0
0
73
0
75
76
0
0
79
0
0
0
0
84
0
0
0
88
89
0
0
92
93
0
95
96
0
98
99
100
101
102
103
104
105
106
107
0
109
110
111
0
0
114
0
116
117
118
119
120
121
122
123
124
125
0
127
128
0
0
131
0
133
134
0
136
137
138
139
140
141
0
143
144
145
0
0
148
149
150
151
152
0
154
155
156
157
158
159
2
3
0
0
0
7
0
9
0
0
12
0
14
15
0
0
0
19
20
0
0
23
24
0
0
27
28
29
30
31
0
33
34
35
0
0
38
0
40
0
42
43
0
45
46
47
48
0
50
0
52
53
54
55
56
57
58
59
60
61
62
63
64
65
66
67
68
0
0
71
72
73
74
75
0
0
78
0
80
81
82
0
84
85
0
0
88
0
0
91
92
93
94
95
96
97
98
99
0
101
102
103
104
0
106
0
108
0
0
111
112
113
114
115
116
117
118
119
120
0
122
123
0
125
126
127
128
129
0
131
132
133
134
135
136
137
138
139
140
141
142
143
144
145
146
147
148
149
150
151
0
0
154
155
156
157
0
159
2
0
0
5
6
7
0
9
10
11
0
13
0
15
16
17
18
19
0
21
22
0
24
25
0
27
28
0
30
31
0
33
0
0
36
37
38
39
40
0
42
0
44
0
46
0
48
49
50
51
52
53
0
55
0
57
58
0
60
0
0
63
64
65
66
67
68
69
70
71
0
73
74
75
76
0
78
0
80
81
0
83
84
85
86
0
88
89
90
0
92
93
0
95
96
97
98
99
0
101
102
103
0
105
106
107
108
109
110
111
112
113
114
115
0
0
118
119
120
121
0
123
124
125
126
127
128
129
130
131
132
133
134
135
136
137
0
139
140
141
142
0
144
0
146
147
148
149
150
151
0
0
154
155
156
157
158
159
2
3
0
0
0
0
8
0
10
0
12
13
0
15
16
0
0
0
0
21
0
0
0
25
26
27
28
0
0
0
32
33
34
0
36
37
38
39
40
0
42
43
44
45
0
0
48
49
50
51
0
53
0
0
0
57
0
0
60
0
62
63
64
0
66
67
68
69
70
71
72
73
74
75
76
77
78
79
0
81
82
83
84
85
86
87
88
0
90
91
92
0
0
0
96
97
0
99
100
0
102
103
0
105
106
0
108
109
110
111
112
113
0
115
116
117
118
0
0
121
122
123
0
125
126
127
128
129
130
131
132
133
134
135
136
137
0
139
140
141
142
143
144
0
146
147
148
149
150
151
152
153
0
155
156
157
158
159
EOF
