DIMENSION : 159
NUMBER OF ITEMS : 1580

TOUR_SECTION
1
3
2
4
5
6
153
152
7
8
9
10
11
12
13
14
15
16
17
18
19
20
21
22
23
24
25
26
27
28
29
30
31
32
33
34
35
37
36
38
39
40
41
42
43
44
45
46
47
48
49
50
51
52
53
54
55
56
57
58
59
60
61
62
63
64
65
66
67
68
69
70
71
72
73
74
75
76
77
78
79
80
81
82
83
84
85
86
97
98
99
100
101
102
103
104
105
106
107
95
96
87
88
94
89
90
91
92
93
108
109
110
111
112
113
114
115
116
117
118
119
120
121
122
123
130
124
129
125
126
127
128
131
132
134
133
135
136
137
138
140
139
141
142
143
144
145
146
149
147
148
150
151
154
155
156
157
158
159

PP_SECTION
2
3
4
5
0
0
0
0
0
0
0
0
0
0
0
0
0
19
20
21
22
0
0
0
0
0
0
0
0
0
0
0
0
0
0
0
0
0
0
0
0
0
44
0
0
0
0
0
50
51
52
0
0
0
0
57
0
0
0
0
0
0
0
0
66
67
68
69
0
0
0
0
0
0
0
0
0
0
0
0
0
0
0
85
86
87
88
0
0
0
0
0
0
0
0
0
0
0
0
0
0
0
0
0
0
107
108
109
0
0
0
0
0
0
0
0
0
0
0
0
0
0
0
0
126
127
128
129
0
131
0
0
0
0
0
0
0
0
140
141
142
143
144
145
0
0
0
0
150
151
0
0
154
155
156
157
158
159
0
0
0
0
0
0
0
9
10
0
0
0
0
0
0
0
0
0
0
0
0
0
24
25
0
0
0
0
0
0
0
0
0
0
0
0
0
0
0
0
0
0
0
0
0
0
0
0
0
0
0
53
54
55
56
57
58
59
0
0
0
63
64
0
0
0
0
0
0
0
0
0
0
0
0
0
0
0
0
0
0
0
0
0
0
0
0
0
0
0
0
0
0
0
0
0
0
0
100
0
0
0
0
0
0
0
0
0
0
0
0
0
0
0
0
0
0
0
0
0
0
0
0
0
0
0
0
0
0
131
132
133
134
0
0
0
138
139
0
141
142
143
144
145
146
147
148
149
0
151
0
0
154
155
156
157
158
159
0
0
0
0
0
0
0
0
0
0
0
0
14
15
16
17
0
0
0
0
0
0
0
0
0
0
0
0
0
0
0
0
0
0
0
0
0
0
0
0
0
0
0
0
0
0
0
0
0
0
52
53
54
0
0
0
0
0
0
0
0
0
0
0
0
0
0
0
0
0
0
0
0
0
0
0
0
0
0
0
0
0
0
0
0
87
88
0
0
91
92
0
0
0
0
0
0
0
0
0
0
0
0
0
0
0
0
0
0
0
0
0
0
0
0
0
0
119
120
121
122
0
0
0
0
0
0
0
0
0
0
0
0
0
0
0
0
0
0
0
0
0
0
145
146
147
148
149
150
151
0
0
154
155
156
157
158
159
2
0
0
0
0
0
0
0
0
0
0
0
0
0
0
0
0
0
0
21
22
23
24
0
0
0
0
29
30
31
0
33
34
35
36
0
0
0
0
0
0
0
0
0
0
0
0
0
0
0
0
53
54
55
0
0
0
0
0
0
0
0
64
65
0
0
0
0
0
0
0
0
0
0
0
0
0
0
0
0
0
0
0
0
0
0
88
89
90
0
0
0
0
0
96
97
98
0
0
0
0
0
0
0
106
107
108
0
0
0
0
0
0
0
0
0
0
0
0
0
0
0
0
0
0
127
128
129
130
0
0
133
134
135
136
137
138
139
0
0
0
0
0
0
146
147
148
149
150
151
0
0
154
155
156
157
158
159
0
3
4
5
6
0
0
0
0
0
0
0
0
0
0
0
0
0
0
21
22
23
0
0
0
0
0
0
30
31
0
0
0
0
0
0
0
0
0
0
0
0
0
0
0
0
0
0
0
0
0
0
0
0
0
0
0
0
0
0
0
0
0
0
0
0
0
0
0
0
0
0
0
0
0
0
0
79
80
0
0
0
0
0
0
0
0
0
0
0
92
93
94
0
96
0
0
0
0
0
102
103
104
105
106
107
108
0
0
0
0
0
0
0
0
0
0
0
0
121
122
123
124
125
0
0
0
0
0
0
0
0
0
0
0
0
0
0
0
0
0
0
0
0
0
0
148
149
150
151
0
0
154
155
156
157
158
159
0
0
4
5
6
0
0
0
0
0
0
0
0
0
0
0
0
0
0
0
0
0
0
0
0
0
0
0
0
0
0
0
0
0
0
0
0
39
0
0
0
0
0
0
0
0
0
0
0
0
0
0
0
0
0
0
0
0
0
0
0
0
0
0
0
0
0
0
0
0
0
0
0
0
0
77
0
0
0
0
0
0
0
0
0
0
0
0
0
0
0
0
0
0
0
0
0
0
0
0
0
0
0
0
0
0
108
109
0
0
112
113
114
115
0
0
0
0
0
0
0
0
0
0
0
0
0
0
0
0
0
0
0
0
0
137
138
139
140
141
142
143
144
145
146
0
0
0
150
151
0
0
154
155
156
157
158
159
0
0
0
0
0
0
0
0
0
0
0
0
0
0
0
0
0
0
0
0
0
0
0
0
0
0
0
0
0
0
0
0
0
0
0
37
38
0
0
0
0
0
0
0
0
0
0
0
0
0
0
0
54
55
56
57
0
0
0
0
0
0
0
65
66
67
68
0
0
0
0
0
0
0
0
0
78
0
0
0
0
0
0
0
0
0
0
0
0
91
92
93
0
0
0
0
0
0
0
0
102
103
104
105
106
107
108
109
0
0
0
0
0
115
116
117
118
0
0
0
0
0
124
125
126
127
0
0
0
0
0
0
0
0
0
0
0
0
0
0
0
0
144
145
146
147
148
149
150
151
0
0
154
155
156
157
158
159
0
0
0
0
0
0
0
0
0
0
0
0
0
0
0
0
0
0
0
0
0
0
0
0
0
0
0
0
0
0
0
0
34
35
36
37
38
39
40
41
0
0
0
0
0
0
0
0
0
0
52
53
0
0
0
57
58
0
0
0
0
0
0
0
0
0
0
0
70
71
72
73
74
75
76
77
78
79
80
81
82
83
84
0
0
0
0
0
0
0
0
0
0
0
0
0
0
0
0
0
0
0
0
0
0
0
0
0
0
0
0
0
0
0
0
0
0
0
0
0
0
0
0
0
0
0
128
129
130
0
0
0
0
0
0
0
0
139
140
141
0
0
0
0
146
147
148
149
150
151
0
0
154
155
156
157
158
159
2
0
0
0
0
0
0
0
0
0
0
13
14
15
16
0
0
0
0
21
22
23
24
0
0
0
0
0
0
0
0
0
0
0
0
0
38
39
40
0
0
0
0
0
0
0
0
0
0
0
0
0
0
0
0
0
0
0
0
0
0
0
0
0
0
0
0
0
0
0
0
0
0
0
0
0
78
79
80
81
82
83
84
0
0
0
0
0
0
0
0
0
0
0
0
0
0
0
0
0
0
0
0
0
0
0
0
109
110
111
0
0
0
0
0
0
0
0
0
0
0
0
0
0
126
127
128
0
0
0
0
0
0
0
0
0
0
0
0
0
0
0
0
0
146
147
148
0
150
151
0
0
154
155
156
157
158
159
0
0
0
0
6
7
8
9
0
0
0
0
0
0
0
0
0
0
0
0
0
0
0
25
26
27
0
0
0
0
0
0
0
0
0
0
38
39
40
0
0
0
0
0
0
0
0
0
0
0
0
0
0
0
0
0
0
0
0
0
0
0
0
0
0
0
0
0
70
0
0
0
0
75
76
0
78
79
0
0
0
0
0
0
0
0
0
0
0
0
0
0
94
95
0
0
0
99
100
0
0
0
0
0
0
0
0
0
0
0
0
0
0
0
0
0
0
0
0
0
0
0
0
0
0
0
0
0
0
0
0
0
0
0
0
0
0
0
0
0
142
143
144
145
146
147
0
0
150
151
0
0
154
155
156
157
158
159
EOF
