DIMENSION : 159
NUMBER OF ITEMS : 790

TOUR_SECTION
1
159
158
157
156
155
154
151
150
149
148
147
146
145
144
143
142
141
139
140
138
137
136
135
133
134
132
131
128
127
126
125
129
124
130
123
122
121
120
119
118
117
116
115
114
113
112
111
110
109
108
93
92
91
90
89
94
88
87
96
95
107
106
105
104
103
102
101
100
99
98
97
86
85
84
83
82
81
80
79
78
77
76
75
74
73
72
71
70
69
68
67
66
65
64
63
62
61
60
59
58
57
56
55
54
53
52
51
50
49
48
47
46
45
44
43
42
41
40
39
38
36
37
35
34
33
32
31
30
29
28
27
26
25
24
23
22
21
20
19
18
17
16
15
14
13
11
12
10
9
8
7
152
153
6
5
4
2
3

PP_SECTION
2
3
4
0
0
0
8
9
0
0
0
13
0
0
16
0
18
19
0
0
22
0
24
0
0
0
28
0
0
31
0
0
34
0
0
37
0
0
0
0
42
0
0
0
0
0
0
49
0
0
52
0
54
0
0
0
0
0
0
0
0
0
64
0
0
0
0
0
0
0
0
0
0
75
76
0
78
0
0
0
0
0
0
0
0
0
88
89
0
0
0
0
0
0
0
0
0
0
0
0
0
103
0
0
0
0
0
109
0
111
0
0
0
0
0
0
118
0
0
0
0
0
0
0
126
127
0
0
0
0
0
0
0
0
0
0
0
0
0
0
0
0
0
0
0
0
0
0
0
0
0
153
0
0
0
0
0
0
2
3
4
0
6
7
0
9
0
11
0
0
14
0
16
0
0
0
0
0
0
23
24
25
0
0
0
29
0
0
0
0
0
35
0
0
0
0
0
0
42
0
0
0
0
0
48
49
0
51
52
0
0
0
0
0
0
0
0
61
0
0
0
0
0
67
0
0
70
0
0
0
0
75
0
0
0
0
0
0
0
0
0
0
0
0
0
0
0
0
0
93
0
95
0
0
98
0
0
0
0
0
104
105
0
0
0
0
0
0
0
0
0
0
0
0
118
119
0
0
122
0
0
0
0
0
0
0
0
0
0
133
0
0
0
0
0
0
140
0
0
0
0
0
0
0
148
0
0
0
152
0
0
0
0
0
0
159
2
3
0
0
0
7
0
0
0
0
12
0
0
15
0
0
0
19
20
0
0
23
0
0
0
27
0
29
30
0
0
0
0
35
0
0
38
0
0
0
0
0
0
0
0
0
0
0
0
0
52
53
0
0
0
0
58
59
0
0
0
0
0
65
0
0
68
0
0
71
0
0
0
0
0
0
0
0
0
0
82
0
0
85
0
0
88
0
0
0
0
0
0
95
96
0
0
0
0
0
0
0
0
0
0
0
0
0
0
0
112
0
0
0
116
0
0
0
0
0
122
0
0
0
0
0
0
129
0
0
0
0
134
0
0
0
0
0
0
0
0
0
0
0
0
0
148
149
0
0
0
0
0
0
0
157
0
0
2
3
0
5
6
7
0
0
0
0
0
13
0
15
16
0
18
19
0
0
22
0
24
0
0
27
28
0
30
31
0
0
0
0
0
0
38
0
40
0
42
0
44
0
46
0
48
49
0
51
0
0
0
0
0
0
0
0
0
0
0
0
64
0
0
0
68
0
0
0
0
0
74
0
0
0
78
0
0
0
0
0
0
0
0
0
0
89
90
0
0
0
0
0
0
97
0
0
0
0
102
103
0
105
0
0
0
0
0
0
0
0
0
0
0
0
0
0
0
121
0
0
0
0
0
0
0
0
0
0
0
0
0
0
0
0
0
0
0
0
142
0
0
0
146
0
0
0
0
0
0
0
154
0
0
0
0
159
2
3
0
0
0
0
8
0
0
0
0
13
0
15
16
0
0
0
0
21
0
0
0
25
0
27
0
0
0
0
0
0
0
0
0
37
0
39
0
0
0
43
0
45
0
0
0
0
0
0
0
0
0
0
0
0
0
0
0
0
0
0
0
0
0
67
68
69
0
0
0
0
0
0
0
0
0
0
0
81
82
0
84
85
0
0
0
0
90
0
0
0
0
0
0
0
0
0
0
0
0
0
0
0
106
0
0
109
0
0
0
0
0
0
0
0
0
0
0
0
122
0
0
0
0
0
0
0
0
131
0
0
0
135
0
0
0
0
0
0
0
0
0
0
146
0
0
0
0
0
152
153
0
0
0
0
0
0
EOF
