DIMENSION : 159
NUMBER OF ITEMS : 790

TOUR_SECTION
1
159
158
157
156
155
154
151
150
148
147
149
146
145
144
143
142
141
139
140
138
137
136
135
133
134
132
131
128
127
126
125
129
124
130
123
122
121
120
119
118
117
116
115
114
113
112
111
110
109
108
93
92
91
90
89
94
88
87
96
95
107
106
105
104
103
102
101
100
99
98
97
86
85
84
83
82
81
80
79
78
77
76
75
74
73
72
71
70
69
68
67
66
65
64
63
62
61
60
59
58
57
56
55
54
53
52
51
50
49
48
47
46
45
44
43
42
41
40
39
38
36
37
35
34
33
32
31
30
29
28
27
26
25
24
23
22
21
20
19
18
17
16
15
14
13
11
12
10
9
8
7
152
153
6
5
4
2
3

PP_SECTION
2
3
4
5
6
7
8
9
10
11
12
13
14
15
16
17
18
19
20
21
22
23
24
25
26
27
28
29
30
31
32
33
34
35
36
37
38
39
40
41
42
43
44
45
46
47
48
49
50
51
52
0
0
0
0
57
58
59
60
61
62
63
64
65
66
67
68
69
0
0
0
0
0
0
0
0
0
0
0
0
0
0
0
85
86
87
88
89
90
91
92
0
0
0
0
0
0
0
100
101
102
103
104
105
0
107
108
109
0
0
0
0
0
0
0
0
0
0
0
0
0
0
0
0
126
127
128
129
0
0
0
0
0
0
0
0
0
0
0
0
0
0
0
0
0
0
0
0
150
151
152
153
0
0
0
0
0
0
2
3
4
5
6
7
8
9
10
11
12
13
14
15
16
17
18
19
20
21
22
23
24
25
26
27
28
29
30
31
32
33
34
35
36
37
38
39
40
41
42
43
44
45
46
47
48
49
50
51
52
53
54
55
56
57
58
59
0
0
0
63
64
65
66
67
68
0
0
0
0
0
0
0
0
0
0
0
0
0
0
0
0
0
0
0
0
0
0
0
0
0
0
0
0
0
98
99
100
0
0
0
0
0
0
0
0
0
0
0
0
0
0
0
0
0
0
0
0
0
0
0
0
0
0
0
0
0
0
131
132
133
134
0
0
0
138
139
0
0
142
143
144
145
146
147
148
149
0
0
152
153
0
0
0
0
0
0
2
3
4
5
6
7
8
9
10
11
12
13
14
15
16
17
18
19
20
21
22
23
24
25
26
27
28
29
30
31
32
33
34
35
36
37
38
39
40
41
42
43
44
45
46
47
48
49
50
51
52
53
54
55
56
57
0
0
0
0
0
0
0
0
0
0
0
69
70
71
0
0
0
0
0
0
0
0
80
81
82
83
84
85
86
87
88
0
0
91
92
0
0
0
96
97
98
99
100
101
102
103
0
0
0
0
0
0
0
0
0
0
0
0
0
0
0
119
120
121
122
0
0
0
0
0
0
0
0
0
0
0
0
0
0
0
0
0
0
0
0
0
0
145
146
147
148
149
150
151
152
153
0
0
0
0
158
159
2
3
4
5
6
7
8
9
10
11
12
13
14
15
16
17
18
19
20
21
22
23
24
25
26
27
28
29
30
31
32
33
34
35
36
37
38
39
40
41
42
43
44
45
46
47
48
49
50
51
52
53
54
55
56
57
0
0
0
0
0
0
64
65
66
67
0
0
0
0
0
0
0
0
0
0
0
0
0
0
0
0
0
0
0
0
88
89
90
0
0
0
0
0
96
97
98
0
0
0
0
0
0
105
106
107
108
0
0
0
0
0
0
0
0
0
0
0
0
0
0
0
0
0
0
127
128
129
130
0
0
133
134
135
136
137
0
0
0
0
0
0
0
0
0
0
0
0
0
0
152
153
0
0
0
0
0
0
2
3
4
5
6
7
8
9
10
11
12
13
14
15
16
17
18
19
20
21
22
23
24
25
26
27
28
29
30
31
32
33
34
35
36
37
38
39
40
41
42
0
44
45
46
47
48
49
0
0
0
53
54
55
56
57
58
0
0
0
0
0
0
0
0
67
68
69
70
0
0
0
0
0
0
0
0
79
80
0
0
0
0
0
0
0
0
0
0
0
92
93
94
0
96
97
98
0
0
0
102
103
104
105
106
107
108
0
110
111
112
113
0
0
0
0
0
0
0
121
122
123
124
125
0
0
0
0
0
0
0
0
0
0
0
0
0
0
0
0
0
0
0
0
0
0
0
0
150
151
152
153
0
0
156
157
158
159
EOF
