DIMENSION : 159
NUMBER OF ITEMS : 790

TOUR_SECTION
1
159
158
157
156
155
154
151
150
148
149
147
146
145
144
143
142
141
139
140
138
137
136
135
133
134
132
131
128
127
126
125
129
124
130
123
122
121
120
119
118
117
116
115
114
113
112
111
110
109
108
93
92
91
90
89
94
88
87
96
95
107
106
105
104
103
102
101
100
99
98
97
86
85
84
83
82
81
80
79
78
77
76
75
74
73
72
71
70
69
68
67
66
65
64
63
62
61
60
59
58
57
56
55
54
53
52
51
50
49
48
47
46
45
44
43
42
41
40
39
38
36
37
35
34
33
32
31
30
29
28
27
26
25
24
23
22
21
20
19
18
17
16
15
14
13
12
11
10
9
8
7
152
153
6
5
4
2
3

PP_SECTION
2
3
4
0
6
7
8
9
10
11
12
13
14
15
16
17
18
19
20
21
22
0
24
25
26
0
28
29
30
31
32
0
34
35
0
37
38
39
40
41
42
43
44
0
46
0
48
49
0
51
52
0
54
55
0
0
58
0
60
61
62
63
64
0
66
67
0
0
70
71
72
73
74
75
76
77
78
0
0
81
0
83
84
0
0
87
88
89
90
0
0
0
0
95
0
97
98
0
100
101
0
103
104
105
106
107
0
109
0
111
0
0
114
115
116
117
118
119
0
121
0
123
0
125
126
127
0
129
130
0
132
133
0
135
136
137
138
139
0
141
142
143
0
0
146
0
0
0
0
0
152
153
154
0
0
157
158
159
2
3
4
0
6
7
8
9
10
11
12
0
14
15
16
17
0
19
0
21
22
23
24
25
0
0
28
29
30
0
32
33
0
35
36
37
38
39
0
41
42
0
0
45
0
0
48
49
0
51
52
53
0
0
56
57
0
0
0
61
62
63
64
0
0
67
68
0
70
0
0
73
0
75
76
0
0
79
0
0
0
0
84
0
0
0
88
89
0
0
92
93
0
95
96
0
98
99
100
101
102
103
104
105
106
107
0
0
0
111
0
0
114
0
116
117
118
119
120
0
122
123
0
125
0
127
128
0
0
131
0
133
134
0
136
0
138
139
140
0
0
143
144
145
0
0
148
149
150
151
152
153
154
0
156
0
158
159
2
3
4
5
6
7
8
9
10
11
12
13
14
15
16
0
18
19
20
0
0
23
24
25
0
27
28
29
30
31
32
33
34
35
36
0
38
39
40
41
42
43
44
45
46
47
48
0
50
51
52
53
54
55
56
57
58
59
60
61
62
63
64
65
66
67
68
0
0
71
72
73
74
75
0
0
78
0
80
81
82
0
84
85
0
0
88
0
0
91
92
93
94
95
96
97
98
99
0
101
102
103
104
0
106
0
108
0
0
0
112
113
114
115
116
117
118
119
0
0
122
123
0
125
126
127
0
129
0
0
132
133
134
135
136
137
138
0
0
141
142
143
144
0
146
147
148
149
150
151
152
153
154
0
0
157
0
159
2
3
4
5
6
7
8
9
10
11
12
13
14
15
16
17
18
19
20
21
22
23
24
25
0
27
28
29
30
31
32
33
34
35
36
37
38
39
40
41
42
0
44
0
46
0
48
49
50
51
52
53
0
55
0
57
58
0
60
0
0
63
64
65
66
67
68
69
70
71
0
73
74
75
76
0
78
0
0
81
0
83
84
85
86
0
88
89
90
0
92
93
0
95
0
97
98
99
0
101
102
103
0
105
106
107
108
109
110
0
112
113
114
115
0
0
118
119
120
121
0
0
124
0
0
0
128
129
130
131
0
0
0
135
136
0
0
0
0
141
142
0
144
0
146
147
148
0
150
0
152
153
154
155
0
0
0
159
2
3
0
5
6
0
8
0
10
11
12
13
14
15
16
0
0
0
20
21
0
23
24
25
26
27
28
29
0
31
32
33
34
35
36
37
38
39
40
41
42
43
44
45
46
0
48
49
50
51
52
53
0
0
0
57
0
0
60
0
62
63
64
0
66
67
68
69
70
71
72
73
74
75
76
77
78
79
0
81
82
83
84
85
86
87
0
0
90
91
0
0
0
0
0
97
0
99
0
0
102
103
0
105
106
0
108
109
110
111
112
113
0
115
116
117
118
0
0
121
122
123
0
125
126
0
0
129
130
131
132
133
134
135
0
137
0
139
140
141
0
143
144
0
146
147
148
0
150
0
152
153
0
155
156
157
0
0
EOF
